OBJECT Codeunit 5706 TransferOrder-Post (Yes/No)
{
  OBJECT-PROPERTIES
  {
    Date=07/09/12;
    Time=12:00:00;
    Version List=NAVW17.00;
  }
  PROPERTIES
  {
    TableNo=5740;
    OnRun=BEGIN
            TransHeader.COPY(Rec);
            Code;
            Rec := TransHeader;
          END;

  }
  CODE
  {
    VAR
      Text000@1000 : TextConst 'ENU=&Ship,&Receive;PTB=&Enviar,&Receber';
      TransHeader@1001 : Record 5740;

    LOCAL PROCEDURE Code@1();
    VAR
      TransLine@1000 : Record 5741;
      DefaultNumber@1001 : Integer;
      TransferPostShipment@1002 : Codeunit 5704;
      TransferPostReceipt@1003 : Codeunit 5705;
      Selection@1004 : ' ,Shipment,Receipt';
    BEGIN
      WITH TransHeader DO BEGIN
        TransLine.SETRANGE("Document No.","No.");
        IF TransLine.FIND('-') THEN
          REPEAT
            IF (TransLine."Quantity Shipped" < TransLine.Quantity) AND
               (DefaultNumber = 0)
            THEN
              DefaultNumber := 1;
            IF (TransLine."Quantity Received" < TransLine.Quantity) AND
               (DefaultNumber = 0)
            THEN
              DefaultNumber := 2;
          UNTIL (TransLine.NEXT = 0) OR (DefaultNumber > 0);

        IF DefaultNumber = 0 THEN
          DefaultNumber := 1;
        Selection := STRMENU(Text000,DefaultNumber);
        CASE Selection OF
          0:
            EXIT;
          1:
            TransferPostShipment.RUN(TransHeader);
          2:
            TransferPostReceipt.RUN(TransHeader);
        END;
      END;
    END;

    BEGIN
    END.
  }
}

