OBJECT Codeunit 52113150 FA Insert Ledger Entry C-Hook
{
  OBJECT-PROPERTIES
  {
    Date=19/03/14;
    Time=14:16:46;
    Version List=NAVBR7;
  }
  PROPERTIES
  {
    OnRun=BEGIN
          END;

  }
  CODE
  {

    PROCEDURE OnBeforeInsert@52006502(VAR faLedgEntry@52006501 : Record 5601);
    BEGIN
    END;

    BEGIN
    END.
  }
}

