OBJECT Page 1341 Mini Customer Template Card
{
  OBJECT-PROPERTIES
  {
    Date=09/09/14;
    Time=12:00:00;
    Version List=NAVW18.00;
  }
  PROPERTIES
  {
    CaptionML=ENU=Customer Template;
    SourceTable=Table1300;
    DataCaptionExpr="Template Name";
    PageType=Card;
    SourceTableTemporary=Yes;
    CardPageID=Mini Customer Template Card;
    RefreshOnActivate=Yes;
    PromotedActionCategoriesML=ENU=New,Process,Reports,Master Data;
    OnOpenPage=BEGIN
                 IF Customer."No." <> '' THEN
                   CreateConfigTemplateFromExistingCustomer(Customer,Rec);
               END;

    OnDeleteRecord=BEGIN
                     CheckTemplateNameProvided
                   END;

    OnQueryClosePage=BEGIN
                       CASE CloseAction OF
                         ACTION::LookupOK:
                           IF Code <> '' THEN
                             CheckTemplateNameProvided;
                         ACTION::LookupCancel:
                           IF DELETE(TRUE) THEN;
                       END;
                     END;

    OnAfterGetCurrRecord=BEGIN
                           SetDimensionsEnabled;
                         END;

    ActionList=ACTIONS
    {
      { 27      ;    ;ActionContainer;
                      ActionContainerType=ActionItems }
      { 30      ;1   ;ActionGroup;
                      CaptionML=ENU=Master Data;
                      ActionContainerType=NewDocumentItems }
      { 31      ;2   ;Action    ;
                      Name=Default Dimensions;
                      ShortCutKey=Shift+Ctrl+D;
                      CaptionML=ENU=Dimensions;
                      ToolTipML=ENU=View or edit any dimensions that are set up for the customer that you want to reuse for the template.;
                      RunObject=Page 1343;
                      RunPageLink=Table Id=CONST(18),
                                  Master Record Template Code=FIELD(Code);
                      Promoted=Yes;
                      Enabled=DimensionsEnabled;
                      PromotedIsBig=Yes;
                      Image=Dimensions;
                      PromotedCategory=Category4 }
    }
  }
  CONTROLS
  {
    { 29  ;0   ;Container ;
                ContainerType=ContentArea }

    { 28  ;1   ;Group     ;
                CaptionML=ENU=General }

    { 26  ;2   ;Field     ;
                ToolTipML=ENU=Specifies the name of the template.;
                SourceExpr="Template Name";
                OnValidate=BEGIN
                             SetDimensionsEnabled;
                           END;
                            }

    { 25  ;1   ;Group     ;
                Name=AddressDetails;
                CaptionML=ENU=Address Details;
                GroupType=Group }

    { 24  ;2   ;Field     ;
                ToolTipML=ENU=Specifies the customer's post code.;
                SourceExpr="Post Code";
                Importance=Promoted }

    { 23  ;2   ;Field     ;
                ToolTipML=ENU=Specifies the customer's city.;
                SourceExpr=City }

    { 22  ;2   ;Field     ;
                ToolTipML=ENU=Specifies a country/region code for the customer. To see the country/region codes and address formats in the Countries/Regions window, choose the field.;
                SourceExpr="Country/Region Code" }

    { 21  ;1   ;Group     ;
                Name=Invoicing;
                CaptionML=ENU=Invoicing;
                GroupType=Group }

    { 20  ;2   ;Group     ;
                Name=PostingDetails;
                CaptionML=ENU=Posting Details;
                GroupType=Group }

    { 19  ;3   ;Field     ;
                ToolTipML=ENU=Specifies the customer's trade type to link transactions made for this customer with the appropriate general ledger account according to the general posting setup.;
                SourceExpr="Gen. Bus. Posting Group";
                Importance=Promoted }

    { 18  ;3   ;Field     ;
                ToolTipML=ENU=Specifies the customer's VAT specification to link transactions made for this customer with the appropriate general ledger account according to the VAT posting setup.;
                SourceExpr="VAT Bus. Posting Group" }

    { 17  ;3   ;Field     ;
                ToolTipML=ENU=Specifies the customer's market type to link business transactions made for the customer with the appropriate account in the general ledger.;
                SourceExpr="Customer Posting Group";
                Importance=Promoted }

    { 16  ;2   ;Group     ;
                Name=PricesandDiscounts;
                CaptionML=ENU=Prices and Discounts;
                GroupType=Group }

    { 15  ;3   ;Field     ;
                ToolTipML=ENU=Specifies the customer price group code, which you can use as a criterion to set up special sales prices in the Sales Prices window.;
                SourceExpr="Customer Price Group";
                Importance=Promoted }

    { 14  ;3   ;Field     ;
                ToolTipML=ENU=Specifies the customer discount group code, which you can use as a criterion to set up special discounts in the Sales Line Discounts window.;
                SourceExpr="Customer Disc. Group";
                Importance=Promoted }

    { 13  ;3   ;Field     ;
                ToolTipML=ENU=Specifies if a sales line discount is calculated when a special sales price is offered according to setup in the Sales Prices window.;
                SourceExpr="Allow Line Disc." }

    { 12  ;3   ;Field     ;
                ToolTipML=ENU=Specifies if the Unit Price and Line Amount fields on sales lines for this customer should be shown with or without VAT.;
                SourceExpr="Prices Including VAT" }

    { 11  ;2   ;Group     ;
                Name=ForeignTrade;
                CaptionML=ENU=Foreign Trade;
                GroupType=Group }

    { 10  ;3   ;Field     ;
                ToolTipML=ENU=Specifies a default currency code for the customer.;
                SourceExpr="Currency Code";
                Importance=Promoted }

    { 9   ;3   ;Field     ;
                ToolTipML=ENU=Specifies the language to be used on printouts for this customer.;
                SourceExpr="Language Code" }

    { 8   ;1   ;Group     ;
                Name=Payments;
                CaptionML=ENU=Payments;
                GroupType=Group }

    { 7   ;2   ;Field     ;
                ToolTipML=ENU=Specifies how to apply payments to entries for this customer. Select Manual to manually specify the document that a payment applies to. This is the default method. Select Apply to Oldest to automatically apply payments to the oldest open customer ledger entry.;
                SourceExpr="Application Method" }

    { 6   ;2   ;Field     ;
                ToolTipML=ENU=Specifies at which terms you require the customer to pay for products. The payment terms code that you define in this field is inserted on sales invoices for the customer.;
                SourceExpr="Payment Terms Code";
                Importance=Promoted }

    { 5   ;2   ;Field     ;
                ToolTipML=ENU=Specifies how payment for the sales document must be submitted, such as bank transfer or check. By default, the payment method from the customer card is entered.;
                SourceExpr="Payment Method Code";
                Importance=Promoted }

    { 4   ;2   ;Field     ;
                ToolTipML=ENU=Specifies how reminders about late payments are handled for this customer.;
                SourceExpr="Reminder Terms Code";
                Importance=Promoted }

    { 3   ;2   ;Field     ;
                ToolTipML=ENU=Specifies the finance charges that are calculated for the customer. A finance charge term contains information about the interest calculation method, interest rate, and so on.;
                SourceExpr="Fin. Charge Terms Code";
                Importance=Promoted }

    { 2   ;2   ;Field     ;
                ToolTipML=ENU=Specifies whether to include this customer when you print the Statement report.;
                SourceExpr="Print Statements" }

    { 1   ;2   ;Field     ;
                ToolTipML=ENU=Specifies that the customer is not allowed payment tolerance.;
                SourceExpr="Block Payment Tolerance" }

  }
  CODE
  {
    VAR
      Customer@1002 : Record 18;
      DimensionsEnabled@1000 : Boolean INDATASET;
      ProvideTemplateNameErr@1001 : TextConst '@@@=%1 Template Name;ENU=You must enter a %1.';

    LOCAL PROCEDURE SetDimensionsEnabled@4();
    BEGIN
      DimensionsEnabled := "Template Name" <> '';
    END;

    LOCAL PROCEDURE CheckTemplateNameProvided@2();
    BEGIN
      IF "Template Name" = '' THEN
        ERROR(STRSUBSTNO(ProvideTemplateNameErr,FIELDCAPTION("Template Name")));
    END;

    PROCEDURE CreateFromCust@1(FromCustomer@1000 : Record 18);
    BEGIN
      Customer := FromCustomer;
    END;

    BEGIN
    END.
  }
}

