OBJECT Page 1111 Cost Center Card
{
  OBJECT-PROPERTIES
  {
    Date=07/09/12;
    Time=12:00:00;
    Version List=NAVW17.00;
  }
  PROPERTIES
  {
    CaptionML=ENU=Cost Center Card;
    SourceTable=Table1112;
    PageType=Card;
    RefreshOnActivate=Yes;
    ActionList=ACTIONS
    {
      { 1       ;0   ;ActionContainer;
                      ActionContainerType=RelatedInformation }
      { 2       ;1   ;ActionGroup;
                      CaptionML=ENU=&Cost Center;
                      Image=CostCenter }
      { 3       ;2   ;Action    ;
                      ShortCutKey=Ctrl+F7;
                      CaptionML=ENU=E&ntries;
                      RunObject=Page 1103;
                      RunPageView=SORTING(Cost Center Code,Cost Type No.,Allocated,Posting Date);
                      RunPageLink=Cost Center Code=FIELD(Code);
                      Image=Entries }
      { 4       ;2   ;Separator  }
      { 5       ;2   ;Action    ;
                      ShortCutKey=F7;
                      CaptionML=ENU=&Balance;
                      Image=Balance;
                      OnAction=VAR
                                 CostType@1000 : Record 1103;
                               BEGIN
                                 IF Totaling = '' THEN
                                   CostType.SETFILTER("Cost Center Filter",Code)
                                 ELSE
                                   CostType.SETFILTER("Cost Center Filter",Totaling);

                                 PAGE.RUN(PAGE::"Cost Type Balance",CostType);
                               END;
                                }
      { 6       ;0   ;ActionContainer;
                      ActionContainerType=ActionItems }
      { 7       ;1   ;Action    ;
                      CaptionML=ENU=Dimension Values;
                      RunObject=Page 537;
                      Promoted=Yes;
                      Image=Dimensions;
                      PromotedCategory=Process }
    }
  }
  CONTROLS
  {
    { 8   ;0   ;Container ;
                ContainerType=ContentArea }

    { 9   ;1   ;Group     ;
                CaptionML=ENU=General }

    { 10  ;2   ;Field     ;
                SourceExpr=Code }

    { 11  ;2   ;Field     ;
                SourceExpr=Name;
                Importance=Promoted }

    { 12  ;2   ;Field     ;
                SourceExpr="Cost Subtype" }

    { 13  ;2   ;Field     ;
                SourceExpr="Line Type" }

    { 14  ;2   ;Field     ;
                SourceExpr=Totaling }

    { 15  ;2   ;Field     ;
                SourceExpr=Comment }

    { 16  ;2   ;Field     ;
                SourceExpr="Responsible Person" }

    { 17  ;2   ;Field     ;
                SourceExpr="Balance at Date";
                Importance=Promoted }

    { 18  ;2   ;Field     ;
                SourceExpr="Balance to Allocate" }

    { 23  ;2   ;Field     ;
                SourceExpr="Sorting Order" }

    { 19  ;2   ;Field     ;
                SourceExpr="Blank Line" }

    { 20  ;2   ;Field     ;
                SourceExpr="New Page" }

    { 21  ;2   ;Field     ;
                SourceExpr=Blocked }

  }
  CODE
  {

    BEGIN
    END.
  }
}

