OBJECT Page 1396 Mini Video Player Page Tablet
{
  OBJECT-PROPERTIES
  {
    Date=09/09/14;
    Time=12:00:00;
    Version List=NAVW18.00;
  }
  PROPERTIES
  {
    Editable=No;
    CaptionML=ENU=Video Player;
    InsertAllowed=No;
    DeleteAllowed=No;
    ModifyAllowed=No;
    LinksAllowed=No;
    DelayedInsert=No;
    PageType=Document;
    ShowFilter=No;
    OnOpenPage=BEGIN
                 CurrPage.CAPTION(NewCaption);
                 SetSourceVideoVisible;
               END;

  }
  CONTROLS
  {
    { 1   ;    ;Container ;
                ContainerType=ContentArea }

    { 2   ;1   ;Field     ;
                Name=VideoPlayer;
                ControlAddIn=[Microsoft.Dynamics.Nav.Client.VideoPlayer;PublicKeyToken=31bf3856ad364e35] }

    { 3   ;1   ;Group     ;
                Visible=VideoLinkVisible;
                GroupType=Group }

    { 4   ;2   ;Field     ;
                SourceExpr=OpenSourceVideoInNewWindowLbl;
                Editable=FALSE;
                OnDrillDown=BEGIN
                              HYPERLINK(LinkSrc);
                              CurrPage.CLOSE;
                            END;

                ShowCaption=No }

  }
  CODE
  {
    VAR
      Height@1000 : Integer INDATASET;
      Width@1001 : Integer INDATASET;
      Src@1002 : Text INDATASET;
      LinkSrc@1006 : Text;
      NewCaption@1003 : Text INDATASET;
      OpenSourceVideoInNewWindowLbl@1004 : TextConst 'ENU=Watch the video in a new window.';
      VideoLinkVisible@1005 : Boolean;

    PROCEDURE SetParameters@3(VideoHeight@1000 : Integer;VideoWidth@1001 : Integer;VideoSrc@1002 : Text;VideoLinkSrc@1004 : Text;PageCaption@1003 : Text);
    BEGIN
      Height := VideoHeight;
      Width := VideoWidth;
      Src := VideoSrc;
      LinkSrc := VideoLinkSrc;
      NewCaption := PageCaption;
    END;

    LOCAL PROCEDURE SetSourceVideoVisible@6();
    BEGIN
      VideoLinkVisible := FALSE;

      IF LinkSrc <> '' THEN
        VideoLinkVisible := TRUE;
    END;

    EVENT VideoPlayer@-2::AddInReady@4();
    BEGIN
      CurrPage.VideoPlayer.SetHeight(Height);
      CurrPage.VideoPlayer.SetWidth(Width);
      CurrPage.VideoPlayer.SetFrameAttribute('src',Src);
    END;

    BEGIN
    END.
  }
}

