OBJECT Page 1135 Cost Journal Batches
{
  OBJECT-PROPERTIES
  {
    Date=07/09/12;
    Time=12:00:00;
    Version List=NAVW17.00;
  }
  PROPERTIES
  {
    CaptionML=ENU=Cost Journal Batches;
    SourceTable=Table1102;
    PageType=List;
    OnInit=BEGIN
             SETRANGE("Journal Template Name");
           END;

    OnOpenPage=BEGIN
                 CostJnlMgt.OpenJnlBatch(Rec);
               END;

    ActionList=ACTIONS
    {
      { 14      ;    ;ActionContainer;
                      Name=<Action1>;
                      ActionContainerType=ActionItems }
      { 3       ;1   ;Action    ;
                      Name=Edit Journal;
                      ShortCutKey=Return;
                      CaptionML=ENU=Edit Journal;
                      Promoted=Yes;
                      PromotedIsBig=Yes;
                      Image=OpenJournal;
                      PromotedCategory=Process;
                      OnAction=BEGIN
                                 CostJnlMgt.TemplateSelectionFromBatch(Rec);
                               END;
                                }
      { 15      ;1   ;Action    ;
                      ShortCutKey=F9;
                      CaptionML=ENU=P&ost;
                      RunObject=Codeunit 1107;
                      Image=PostOrder }
    }
  }
  CONTROLS
  {
    { 1   ;0   ;Container ;
                ContainerType=ContentArea }

    { 2   ;1   ;Group     ;
                Name=Group;
                GroupType=Repeater }

    { 4   ;2   ;Field     ;
                SourceExpr=Name }

    { 5   ;2   ;Field     ;
                SourceExpr=Description }

    { 6   ;2   ;Field     ;
                SourceExpr="Reason Code" }

    { 11  ;2   ;Field     ;
                SourceExpr="Bal. Cost Type No." }

    { 12  ;2   ;Field     ;
                SourceExpr="Bal. Cost Center Code" }

    { 13  ;2   ;Field     ;
                SourceExpr="Bal. Cost Object Code" }

    { 16  ;2   ;Field     ;
                SourceExpr="Delete after Posting" }

  }
  CODE
  {
    VAR
      CostJnlMgt@1000 : Codeunit 1106;

    BEGIN
    END.
  }
}

