OBJECT Page 1373 Mini Pst.Purch.Cr.Memo Subform
{
  OBJECT-PROPERTIES
  {
    Date=09/09/14;
    Time=12:00:00;
    Version List=NAVW18.00;
  }
  PROPERTIES
  {
    Editable=No;
    CaptionML=ENU=Lines;
    LinksAllowed=No;
    SourceTable=Table125;
    PageType=ListPart;
    AutoSplitKey=Yes;
    OnAfterGetCurrRecord=BEGIN
                           MiniDocumentTotals.CalculatePostedPurchCreditMemoTotals(PurchCrMemoHdr,VATAmount,Rec);
                         END;

    ActionList=ACTIONS
    {
      { 1900000004;0 ;ActionContainer;
                      ActionContainerType=ActionItems }
    }
  }
  CONTROLS
  {
    { 1900000001;0;Container;
                ContainerType=ContentArea }

    { 1   ;1   ;Group     ;
                GroupType=Repeater }

    { 4   ;2   ;Field     ;
                CaptionML=ENU=Item No.;
                ToolTipML=ENU=Specifies an item number that identifies the item or a general ledger account number that identifies the general ledger account used when posting the line.;
                SourceExpr="No.";
                LookupPageID=Mini Item List;
                DrillDownPageID=Mini Item List }

    { 26  ;2   ;Field     ;
                ToolTipML=ENU=Specifies the cross-reference number related to this item.;
                SourceExpr="Cross-Reference No.";
                Visible=FALSE }

    { 6   ;2   ;Field     ;
                CaptionML=ENU=Description/Comment;
                ToolTipML=ENU=Specifies either the name of or a description of the item or general ledger account.;
                SourceExpr=Description }

    { 8   ;2   ;Field     ;
                ToolTipML=ENU=Specifies the number of units of the item specified on the credit memo line.;
                BlankZero=Yes;
                SourceExpr=Quantity }

    { 24  ;2   ;Field     ;
                ToolTipML=ENU=Specifies the unit of measure code for the item.;
                SourceExpr="Unit of Measure Code" }

    { 12  ;2   ;Field     ;
                ToolTipML=ENU=Specifies the direct cost of one unit of the item.;
                BlankZero=Yes;
                SourceExpr="Direct Unit Cost" }

    { 16  ;2   ;Field     ;
                ToolTipML=ENU=Specifies the line discount % granted on items on each individual line.;
                BlankZero=Yes;
                SourceExpr="Line Discount %" }

    { 30  ;2   ;Field     ;
                ToolTipML=ENU=Specifies the net amount (before subtracting the invoice discount amount) represented by the credit memo. If you have placed a check mark in the Prices Including VAT field, the amount displayed will include VAT.;
                BlankZero=Yes;
                SourceExpr="Line Amount" }

    { 22  ;1   ;Group     ;
                GroupType=Group }

    { 18  ;2   ;Group     ;
                GroupType=Group }

    { 17  ;3   ;Field     ;
                Name=Invoice Discount Amount;
                CaptionML=ENU=Invoice Discount Amount;
                ToolTipML=ENU=Specifies a discount amount that is deducted from the value in the Total Incl. VAT field. You can enter or change the amount manually. If you have set up invoice discounts, the specified percentage is shown in the Invoice Discount % field if the criteria are met. The calculated discount amount is then inserted in the Invoice Discount Amount field.;
                SourceExpr=PurchCrMemoHdr."Invoice Discount Amount";
                AutoFormatType=1;
                AutoFormatExpr=PurchCrMemoHdr."Currency Code";
                Editable=FALSE }

    { 7   ;2   ;Group     ;
                GroupType=Group }

    { 5   ;3   ;Field     ;
                Name=Total Amount Excl. VAT;
                DrillDown=No;
                CaptionML=ENU=Total Amount Excl. VAT;
                ToolTipML=ENU=Specifies the sum of the value in the Line Amount Excl. VAT field on all lines in the document minus any discount amount in the Invoice Discount Amount field. Note that amounts on document lines are shown with or without VAT depending on what you selected in the Prices Including VAT field on the customer or vendor card.;
                SourceExpr=PurchCrMemoHdr.Amount;
                AutoFormatType=1;
                AutoFormatExpr=PurchCrMemoHdr."Currency Code";
                CaptionClass=MiniDocumentTotals.GetTotalExclVATCaption(PurchCrMemoHdr."Currency Code");
                Editable=FALSE }

    { 3   ;3   ;Field     ;
                Name=Total VAT Amount;
                CaptionML=ENU=Total VAT;
                ToolTipML=ENU=Specifies the sum of VAT amounts on all lines in the document. Note that amounts on document lines are shown with or without VAT depending on what you selected in the Prices Including VAT field on the customer or vendor card.;
                SourceExpr=VATAmount;
                AutoFormatType=1;
                AutoFormatExpr=PurchCrMemoHdr."Currency Code";
                CaptionClass=MiniDocumentTotals.GetTotalVATCaption(PurchCrMemoHdr."Currency Code");
                Editable=FALSE }

    { 2   ;3   ;Field     ;
                Name=Total Amount Incl. VAT;
                CaptionML=ENU=Total Amount Incl. VAT;
                ToolTipML=ENU=Specifies the sum of the value in the Line Amount Incl. VAT field on all lines in the document minus any discount amount in the Invoice Discount Amount field. Note that amounts on document lines are shown with or without VAT depending on what you selected in the Prices Including VAT field on the customer or vendor card.;
                SourceExpr=PurchCrMemoHdr."Amount Including VAT";
                AutoFormatType=1;
                AutoFormatExpr=PurchCrMemoHdr."Currency Code";
                CaptionClass=MiniDocumentTotals.GetTotalInclVATCaption(PurchCrMemoHdr."Currency Code");
                Editable=FALSE;
                Style=Strong;
                StyleExpr=TRUE }

  }
  CODE
  {
    VAR
      PurchCrMemoHdr@1001 : Record 124;
      MiniDocumentTotals@1000 : Codeunit 1301;
      VATAmount@1003 : Decimal;

    BEGIN
    END.
  }
}

