OBJECT Page 1395 Mini Video Player Page
{
  OBJECT-PROPERTIES
  {
    Date=23/09/13;
    Time=12:00:00;
    Version List=NAVW17.10;
  }
  PROPERTIES
  {
    Editable=No;
    CaptionML=ENU=Mini Video Player Page;
    InsertAllowed=No;
    DeleteAllowed=No;
    ModifyAllowed=No;
    LinksAllowed=No;
    DelayedInsert=No;
    PageType=CardPart;
    ShowFilter=No;
    OnOpenPage=BEGIN
                 CurrPage.CAPTION(NewCaption);
               END;

  }
  CONTROLS
  {
    { 1   ;    ;Container ;
                ContainerType=ContentArea }

    { 2   ;1   ;Field     ;
                Name=VideoPlayer;
                ControlAddIn=[Microsoft.Dynamics.Nav.Client.VideoPlayer;PublicKeyToken=31bf3856ad364e35] }

  }
  CODE
  {
    VAR
      Height@1000 : Integer INDATASET;
      Width@1001 : Integer INDATASET;
      Src@1002 : Text INDATASET;
      NewCaption@1003 : Text INDATASET;

    PROCEDURE SetParameters@3(VideoHeight@1000 : Integer;VideoWidth@1001 : Integer;VideoSrc@1002 : Text;PageCaption@1003 : Text);
    BEGIN
      Height := VideoHeight;
      Width := VideoWidth;
      Src := VideoSrc;
      NewCaption := PageCaption;
    END;

    EVENT VideoPlayer@-2::AddInReady@4();
    BEGIN
      CurrPage.VideoPlayer.SetHeight(Height);
      CurrPage.VideoPlayer.SetWidth(Width);
      CurrPage.VideoPlayer.SetFrameAttribute('src',Src);
    END;

    BEGIN
    END.
  }
}

