OBJECT Page 1390 Mini Generic Chart
{
  OBJECT-PROPERTIES
  {
    Date=09/09/14;
    Time=12:00:00;
    Version List=NAVW18.00;
  }
  PROPERTIES
  {
    CaptionML=ENU=Key Performance Indicators;
    SourceTable=Table485;
    PageType=CardPart;
    ActionList=ACTIONS
    {
      { 6000    ;    ;ActionContainer;
                      Name=Actions;
                      ActionContainerType=ActionItems }
      { 6001    ;1   ;Action    ;
                      Name=Select Chart;
                      CaptionML=ENU=Select Chart;
                      OnAction=BEGIN
                                 MiniChartManagement.SelectChart(Rec,SelectedMiniChartDefinition);
                                 InitializeSelectedChart;
                               END;
                                }
      { 7002    ;1   ;Action    ;
                      Name=Previous Chart;
                      CaptionML=ENU=Previous Chart;
                      OnAction=BEGIN
                                 SelectedMiniChartDefinition.SETRANGE(Enabled,TRUE);
                                 IF SelectedMiniChartDefinition.NEXT(-1) = 0 THEN
                                   SelectedMiniChartDefinition.FINDLAST;
                                 InitializeSelectedChart;
                               END;
                                }
      { 7000    ;1   ;Action    ;
                      Name=Next Chart;
                      CaptionML=ENU=Next Chart;
                      OnAction=BEGIN
                                 SelectedMiniChartDefinition.SETRANGE(Enabled,TRUE);
                                 IF SelectedMiniChartDefinition.NEXT = 0 THEN
                                   SelectedMiniChartDefinition.FINDFIRST;
                                 InitializeSelectedChart;
                               END;
                                }
      { 7007    ;1   ;ActionGroup;
                      Name=PeriodLength;
                      CaptionML=ENU=Period Length;
                      Image=Period }
      { 7006    ;2   ;Action    ;
                      Name=Day;
                      CaptionML=ENU=Day;
                      OnAction=BEGIN
                                 SetPeriodAndUpdateChart("Period Length"::Day);
                               END;
                                }
      { 7005    ;2   ;Action    ;
                      Name=Week;
                      CaptionML=ENU=Week;
                      OnAction=BEGIN
                                 SetPeriodAndUpdateChart("Period Length"::Week);
                               END;
                                }
      { 7004    ;2   ;Action    ;
                      Name=Month;
                      CaptionML=ENU=Month;
                      OnAction=BEGIN
                                 SetPeriodAndUpdateChart("Period Length"::Month);
                               END;
                                }
      { 7003    ;2   ;Action    ;
                      Name=Quarter;
                      CaptionML=ENU=Quarter;
                      OnAction=BEGIN
                                 SetPeriodAndUpdateChart("Period Length"::Quarter);
                               END;
                                }
      { 7001    ;2   ;Action    ;
                      Name=Year;
                      CaptionML=ENU=Year;
                      OnAction=BEGIN
                                 SetPeriodAndUpdateChart("Period Length"::Year);
                               END;
                                }
      { 6003    ;1   ;Action    ;
                      Name=PreviousPeriod;
                      CaptionML=ENU=Previous Period;
                      Enabled=PreviousNextActionEnabled;
                      Image=PreviousRecord;
                      OnAction=BEGIN
                                 MiniChartManagement.UpdateChart(SelectedMiniChartDefinition,Rec,Period::Previous);
                                 Update(CurrPage.BusinessChart);
                               END;
                                }
      { 6002    ;1   ;Action    ;
                      Name=NextPeriod;
                      CaptionML=ENU=Next Period;
                      Enabled=PreviousNextActionEnabled;
                      Image=NextRecord;
                      OnAction=BEGIN
                                 MiniChartManagement.UpdateChart(SelectedMiniChartDefinition,Rec,Period::Next);
                                 Update(CurrPage.BusinessChart);
                               END;
                                }
      { 4       ;1   ;Action    ;
                      Name=ChartInformation;
                      CaptionML=ENU=Chart Information;
                      Image=AboutNav;
                      OnAction=VAR
                                 Description@1000 : Text;
                               BEGIN
                                 IF StatusText = '' THEN
                                   EXIT;
                                 Description := MiniChartManagement.ChartDescription(SelectedMiniChartDefinition);
                                 IF Description = '' THEN
                                   MESSAGE(NoDescriptionMsg)
                                 ELSE
                                   MESSAGE(Description);
                               END;
                                }
    }
  }
  CONTROLS
  {
    { 1   ;    ;Container ;
                ContainerType=ContentArea }

    { 2   ;1   ;Field     ;
                Name=Status Text;
                CaptionML=ENU=Status Text;
                SourceExpr=StatusText;
                Editable=FALSE;
                Style=StrongAccent;
                StyleExpr=TRUE;
                ShowCaption=No }

    { 3   ;1   ;Field     ;
                Name=BusinessChart;
                ControlAddIn=[Microsoft.Dynamics.Nav.Client.BusinessChart;PublicKeyToken=31bf3856ad364e35] }

  }
  CODE
  {
    VAR
      SelectedMiniChartDefinition@1004 : Record 1310;
      MiniChartManagement@1002 : Codeunit 1315;
      StatusText@1001 : Text;
      Period@1005 : ' ,Next,Previous';
      PreviousNextActionEnabled@6000 : Boolean INDATASET;
      NoDescriptionMsg@1006 : TextConst 'ENU=A description was not specified for this chart.';
      IsChartAddInReady@1000 : Boolean;

    LOCAL PROCEDURE InitializeSelectedChart@7000();
    BEGIN
      MiniChartManagement.SetDefaultPeriodLength(SelectedMiniChartDefinition,Rec);
      MiniChartManagement.UpdateChart(SelectedMiniChartDefinition,Rec,Period::" ");
      PreviousNextActionEnabled := MiniChartManagement.UpdateNextPrevious(SelectedMiniChartDefinition);
      MiniChartManagement.UpdateStatusText(SelectedMiniChartDefinition,Rec,StatusText);
      UpdateChart;
    END;

    LOCAL PROCEDURE SetPeriodAndUpdateChart@1(PeriodLength@1000 : Option);
    BEGIN
      MiniChartManagement.SetPeriodLength(SelectedMiniChartDefinition,Rec,PeriodLength,FALSE);
      MiniChartManagement.UpdateChart(SelectedMiniChartDefinition,Rec,Period::" ");
      MiniChartManagement.UpdateStatusText(SelectedMiniChartDefinition,Rec,StatusText);
      UpdateChart;
    END;

    LOCAL PROCEDURE UpdateChart@2();
    BEGIN
      IF NOT IsChartAddInReady THEN
        EXIT;
      Update(CurrPage.BusinessChart);
    END;

    EVENT BusinessChart@-5::DataPointClicked@12(point@1000 : DotNet "'Microsoft.Dynamics.Nav.Client.BusinessChart.Model, Version=8.0.0.0, Culture=neutral, PublicKeyToken=31bf3856ad364e35'.Microsoft.Dynamics.Nav.Client.BusinessChart.BusinessChartDataPoint");
    BEGIN
      SetDrillDownIndexes(point);
      MiniChartManagement.DataPointClicked(Rec,SelectedMiniChartDefinition);
      UpdateChart;
    END;

    EVENT BusinessChart@-5::DataPointDoubleClicked@13(point@1000 : DotNet "'Microsoft.Dynamics.Nav.Client.BusinessChart.Model, Version=8.0.0.0, Culture=neutral, PublicKeyToken=31bf3856ad364e35'.Microsoft.Dynamics.Nav.Client.BusinessChart.BusinessChartDataPoint");
    BEGIN
    END;

    EVENT BusinessChart@-3::AddInReady@14();
    BEGIN
      IsChartAddInReady := TRUE;
      MiniChartManagement.AddinReady(SelectedMiniChartDefinition,Rec);
      InitializeSelectedChart;
    END;

    BEGIN
    END.
  }
}

