OBJECT Page 1230 SEPA Direct Debit Mandates
{
  OBJECT-PROPERTIES
  {
    Date=09/09/14;
    Time=12:00:00;
    Version List=NAVW18.00;
  }
  PROPERTIES
  {
    CaptionML=ENU=SEPA Direct Debit Mandates;
    SourceTable=Table1230;
    DataCaptionFields=ID,Customer No.,Customer Bank Account Code;
    PageType=List;
    OnNewRecord=BEGIN
                  IF "Customer No." = '' THEN
                    IF GETFILTER("Customer No.") <> '' THEN
                      VALIDATE("Customer No.",GETRANGEMIN("Customer No."));
                  IF "Customer Bank Account Code" = '' THEN
                    IF GETFILTER("Customer Bank Account Code") <> '' THEN
                      VALIDATE("Customer Bank Account Code",GETRANGEMIN("Customer Bank Account Code"));
                END;

  }
  CONTROLS
  {
    { 1   ;0   ;Container ;
                ContainerType=ContentArea }

    { 2   ;1   ;Group     ;
                Name=Group;
                GroupType=Repeater }

    { 3   ;2   ;Field     ;
                SourceExpr=ID }

    { 4   ;2   ;Field     ;
                SourceExpr="Customer No.";
                Visible=FALSE }

    { 5   ;2   ;Field     ;
                SourceExpr="Customer Bank Account Code" }

    { 6   ;2   ;Field     ;
                SourceExpr="Valid From" }

    { 7   ;2   ;Field     ;
                SourceExpr="Valid To" }

    { 8   ;2   ;Field     ;
                SourceExpr="Date of Signature" }

    { 9   ;2   ;Field     ;
                SourceExpr="Type of Payment" }

    { 11  ;2   ;Field     ;
                SourceExpr="Expected Number of Debits" }

    { 12  ;2   ;Field     ;
                SourceExpr="Debit Counter";
                Editable=FALSE }

    { 10  ;2   ;Field     ;
                SourceExpr=Blocked }

    { 16  ;2   ;Field     ;
                SourceExpr=Closed }

    { 13  ;0   ;Container ;
                ContainerType=FactBoxArea }

    { 14  ;1   ;Part      ;
                PartType=System;
                SystemPartID=RecordLinks }

    { 15  ;1   ;Part      ;
                PartType=System;
                SystemPartID=Notes }

  }
  CODE
  {

    BEGIN
    END.
  }
}

