OBJECT Page 1296 Pstd. Pmt. Recon. Subform
{
  OBJECT-PROPERTIES
  {
    Date=09/09/14;
    Time=12:00:00;
    Version List=NAVW18.00;
  }
  PROPERTIES
  {
    Editable=No;
    CaptionML=ENU=Posted Payment Reconciliation Lines;
    LinksAllowed=No;
    SourceTable=Table1296;
    DelayedInsert=Yes;
    PageType=ListPart;
    AutoSplitKey=Yes;
  }
  CONTROLS
  {
    { 1900000001;0;Container;
                ContainerType=ContentArea }

    { 1   ;1   ;Group     ;
                GroupType=Repeater;
                FreezeColumnID=Difference }

    { 2   ;2   ;Field     ;
                SourceExpr="Transaction Date" }

    { 6   ;2   ;Field     ;
                SourceExpr=Description }

    { 8   ;2   ;Field     ;
                SourceExpr="Statement Amount" }

    { 10  ;2   ;Field     ;
                SourceExpr="Applied Amount" }

    { 12  ;2   ;Field     ;
                SourceExpr=Difference }

    { 4   ;2   ;Field     ;
                SourceExpr="Account Type" }

    { 13  ;2   ;Field     ;
                SourceExpr="Account No." }

    { 14  ;2   ;Field     ;
                SourceExpr="Applied Entries";
                Visible=FALSE }

    { 3   ;2   ;Field     ;
                SourceExpr="Related-Party Name";
                Visible=FALSE }

    { 5   ;2   ;Field     ;
                SourceExpr="Additional Transaction Info";
                Visible=FALSE }

    { 7   ;2   ;Field     ;
                SourceExpr="Applied Document No.";
                Editable=FALSE;
                OnDrillDown=VAR
                              CustLedgerEntry@1001 : Record 21;
                              VendorLedgerEntry@1000 : Record 25;
                              FilterValue@1002 : Text;
                            BEGIN
                              IF "Applied Document No." <> '' THEN BEGIN
                                FilterValue := CONVERTSTR("Applied Document No.",',','|');
                                CASE "Account Type" OF
                                  "Account Type"::Customer:
                                    BEGIN
                                      CustLedgerEntry.SETFILTER("Document No.",FilterValue);
                                      PAGE.RUNMODAL(PAGE::"Customer Ledger Entries",CustLedgerEntry);
                                    END;
                                  "Account Type"::Vendor:
                                    BEGIN
                                      VendorLedgerEntry.SETFILTER("Document No.",FilterValue);
                                      PAGE.RUNMODAL(PAGE::"Vendor Ledger Entries",VendorLedgerEntry);
                                    END;
                                END;
                              END;
                            END;
                             }

  }
  CODE
  {

    BEGIN
    END.
  }
}

