OBJECT Page 1401 Sales No. Series Setup
{
  OBJECT-PROPERTIES
  {
    Date=09/09/14;
    Time=12:00:00;
    Version List=NAVW18.00;
  }
  PROPERTIES
  {
    CaptionML=ENU=Sales No. Series Setup;
    InsertAllowed=No;
    DeleteAllowed=No;
    SourceTable=Table311;
    PageType=ListPlus;
    ActionList=ACTIONS
    {
      { 2       ;    ;ActionContainer;
                      ActionContainerType=ActionItems }
      { 3       ;1   ;Action    ;
                      Name=Setup;
                      CaptionML=ENU=Sales & Receivables Setup;
                      RunObject=Page 459;
                      Promoted=Yes;
                      PromotedIsBig=Yes;
                      Image=Setup;
                      PromotedCategory=Process }
    }
  }
  CONTROLS
  {
    { 1   ;0   ;Container ;
                ContainerType=ContentArea }

    { 21  ;1   ;Group     ;
                CaptionML=ENU=Numbering;
                InstructionalTextML=ENU=To fill the Document No. field automatically, you must set up a number series. }

    { 19  ;2   ;Field     ;
                SourceExpr="Quote Nos.";
                Visible=QuoteNosVisible }

    { 18  ;2   ;Field     ;
                SourceExpr="Blanket Order Nos.";
                Visible=BlanketOrderNosVisible }

    { 17  ;2   ;Field     ;
                SourceExpr="Order Nos.";
                Visible=OrderNosVisible }

    { 16  ;2   ;Field     ;
                SourceExpr="Return Order Nos.";
                Visible=ReturnOrderNosVisible }

    { 15  ;2   ;Field     ;
                SourceExpr="Invoice Nos.";
                Visible=InvoiceNosVisible }

    { 13  ;2   ;Field     ;
                SourceExpr="Credit Memo Nos.";
                Visible=CrMemoNosVisible }

    { 9   ;2   ;Field     ;
                SourceExpr="Reminder Nos.";
                Visible=ReminderNosVisible }

    { 7   ;2   ;Field     ;
                SourceExpr="Fin. Chrg. Memo Nos.";
                Visible=FinChMemoNosVisible }

  }
  CODE
  {
    VAR
      QuoteNosVisible@1000 : Boolean;
      BlanketOrderNosVisible@1002 : Boolean;
      OrderNosVisible@1001 : Boolean;
      ReturnOrderNosVisible@1003 : Boolean;
      InvoiceNosVisible@1004 : Boolean;
      CrMemoNosVisible@1005 : Boolean;
      ReminderNosVisible@1006 : Boolean;
      FinChMemoNosVisible@1007 : Boolean;

    PROCEDURE SetFieldsVisibility@1(DocType@1000 : 'Quote,Order,Invoice,Credit Memo,Blanket Order,Return Order,Reminder,FinChMemo');
    BEGIN
      QuoteNosVisible := (DocType = DocType::Quote);
      BlanketOrderNosVisible := (DocType = DocType::"Blanket Order");
      OrderNosVisible := (DocType = DocType::Order);
      ReturnOrderNosVisible := (DocType = DocType::"Return Order");
      InvoiceNosVisible := (DocType = DocType::Invoice);
      CrMemoNosVisible := (DocType = DocType::"Credit Memo");
      ReminderNosVisible := (DocType = DocType::Reminder);
      FinChMemoNosVisible := (DocType = DocType::FinChMemo);
    END;

    BEGIN
    END.
  }
}

