OBJECT Page 1108 Cost Journal
{
  OBJECT-PROPERTIES
  {
    Date=07/09/12;
    Time=12:00:00;
    Version List=NAVW17.00;
  }
  PROPERTIES
  {
    CaptionML=ENU=Cost Journal;
    SaveValues=Yes;
    SourceTable=Table1101;
    DelayedInsert=Yes;
    DataCaptionFields=Journal Template Name;
    PageType=Worksheet;
    AutoSplitKey=Yes;
    OnInit=BEGIN
             BalanceVisible := TRUE;
             TotalBalanceVisible := TRUE;
             TotalBalance := 0;
           END;

    OnOpenPage=VAR
                 JnlSelected@1000 : Boolean;
               BEGIN
                 OpenedFromBatch := ("Journal Batch Name" <> '') AND ("Journal Template Name" = '');
                 IF OpenedFromBatch THEN BEGIN
                   CostJnlBatchName := "Journal Batch Name";
                   CostJnlMgt.OpenJnl(CostJnlBatchName,Rec);
                   EXIT;
                 END;
                 CostJnlMgt.TemplateSelection(Rec,JnlSelected);
                 IF NOT JnlSelected THEN
                   ERROR('');
                 CostJnlMgt.OpenJnl(CostJnlBatchName,Rec);
               END;

    OnAfterGetRecord=BEGIN
                       xRec := Rec;
                     END;

    OnNewRecord=BEGIN
                  SetUpNewLine(xRec);
                  xRec := Rec;
                  UpdateLineBalance;
                END;

    OnAfterGetCurrRecord=BEGIN
                           UpdateLineBalance;
                         END;

    ActionList=ACTIONS
    {
      { 1       ;    ;ActionContainer;
                      ActionContainerType=ActionItems }
      { 2       ;1   ;ActionGroup;
                      CaptionML=ENU=P&ost;
                      Image=PostOrder }
      { 3       ;2   ;Action    ;
                      Name=Post;
                      ShortCutKey=F9;
                      CaptionML=ENU=P&ost;
                      Promoted=Yes;
                      PromotedIsBig=Yes;
                      Image=PostOrder;
                      PromotedCategory=Process;
                      OnAction=BEGIN
                                 CODEUNIT.RUN(CODEUNIT::"CA Jnl.-Post",Rec);
                                 CostJnlBatchName := GETRANGEMAX("Journal Batch Name");
                                 CurrPage.UPDATE(FALSE);
                               END;
                                }
      { 4       ;2   ;Action    ;
                      Name=TestReport;
                      CaptionML=ENU=Test Report;
                      Image=TestReport;
                      OnAction=BEGIN
                                 SETRANGE("Journal Template Name","Journal Template Name");
                                 SETRANGE("Journal Batch Name","Journal Batch Name");
                                 REPORT.RUN(REPORT::"Cost Acctg. Journal",TRUE,FALSE,Rec);
                               END;
                                }
      { 33      ;2   ;Action    ;
                      Name=PostandPrint;
                      ShortCutKey=Shift+F9;
                      CaptionML=ENU=Post and &Print;
                      Promoted=Yes;
                      PromotedIsBig=Yes;
                      Image=PostPrint;
                      PromotedCategory=Process;
                      OnAction=BEGIN
                                 CODEUNIT.RUN(CODEUNIT::"CA Jnl.-Post+Print",Rec);
                                 CostJnlBatchName := GETRANGEMAX("Journal Batch Name");
                                 CurrPage.UPDATE(FALSE);
                               END;
                                }
    }
  }
  CONTROLS
  {
    { 5   ;0   ;Container ;
                ContainerType=ContentArea }

    { 6   ;1   ;Field     ;
                Lookup=Yes;
                CaptionML=ENU=Batch Name;
                SourceExpr=CostJnlBatchName;
                OnValidate=BEGIN
                             CostJnlMgt.CheckName(CostJnlBatchName,Rec);

                             CurrPage.SAVERECORD;
                             CostJnlMgt.SetName(CostJnlBatchName,Rec);
                             CurrPage.UPDATE(FALSE);
                           END;

                OnLookup=BEGIN
                           CostJnlMgt.LookupName(CostJnlBatchName,Rec);
                           CurrPage.UPDATE(FALSE);
                         END;
                          }

    { 7   ;1   ;Group     ;
                GroupType=Repeater }

    { 8   ;2   ;Field     ;
                SourceExpr="Posting Date" }

    { 9   ;2   ;Field     ;
                SourceExpr="Document No." }

    { 10  ;2   ;Field     ;
                SourceExpr="Cost Type No." }

    { 11  ;2   ;Field     ;
                SourceExpr="Cost Center Code" }

    { 12  ;2   ;Field     ;
                SourceExpr="Cost Object Code" }

    { 13  ;2   ;Field     ;
                SourceExpr=Description }

    { 14  ;2   ;Field     ;
                SourceExpr=Amount }

    { 31  ;2   ;Field     ;
                SourceExpr="Debit Amount";
                Visible=FALSE }

    { 32  ;2   ;Field     ;
                SourceExpr="Credit Amount";
                Visible=FALSE }

    { 15  ;2   ;Field     ;
                SourceExpr="Bal. Cost Type No." }

    { 16  ;2   ;Field     ;
                SourceExpr="Bal. Cost Center Code" }

    { 17  ;2   ;Field     ;
                SourceExpr="Bal. Cost Object Code" }

    { 18  ;2   ;Field     ;
                Name=LineBalance;
                SourceExpr=Balance;
                Visible=FALSE }

    { 19  ;2   ;Field     ;
                SourceExpr="G/L Entry No.";
                Visible=FALSE }

    { 20  ;2   ;Field     ;
                SourceExpr="Source Code";
                Visible=FALSE }

    { 21  ;1   ;Group      }

    { 22  ;2   ;Group     ;
                GroupType=FixedLayout }

    { 23  ;3   ;Group     ;
                CaptionML=ENU=Cost Type Name }

    { 24  ;4   ;Field     ;
                SourceExpr=CostTypeName;
                Editable=FALSE }

    { 25  ;3   ;Group     ;
                CaptionML=ENU=Bal. Cost Type Name }

    { 26  ;4   ;Field     ;
                CaptionML=ENU=Bal. Cost Type Name;
                SourceExpr=BalCostTypeName;
                Editable=FALSE }

    { 27  ;3   ;Group     ;
                CaptionML=ENU=Balance }

    { 28  ;4   ;Field     ;
                Name=Balance;
                CaptionML=ENU=Balance;
                SourceExpr=LineBalance + Balance - xRec.Balance;
                Visible=BalanceVisible;
                Editable=FALSE }

    { 29  ;3   ;Group     ;
                CaptionML=ENU=Total Balance }

    { 30  ;4   ;Field     ;
                Name=TotalBalance;
                CaptionML=ENU=Total Balance;
                SourceExpr=TotalBalance + Balance - xRec.Balance;
                Visible=TotalBalanceVisible;
                Editable=FALSE }

  }
  CODE
  {
    VAR
      CostType@1001 : Record 1103;
      CostJnlMgt@1010 : Codeunit 1106;
      CostJnlBatchName@1005 : Code[10];
      CostTypeName@1006 : Text[50];
      BalCostTypeName@1007 : Text[50];
      LineBalance@1012 : Decimal;
      TotalBalance@1008 : Decimal;
      OpenedFromBatch@1009 : Boolean;
      ShowBalance@1000 : Boolean;
      ShowTotalBalance@1002 : Boolean;
      BalanceVisible@1011 : Boolean INDATASET;
      TotalBalanceVisible@1004 : Boolean INDATASET;

    PROCEDURE UpdateLineBalance@2();
    BEGIN
      // Update Balance
      CostJnlMgt.CalcBalance(Rec,xRec,LineBalance,TotalBalance,ShowBalance,ShowTotalBalance);
      BalanceVisible := ShowBalance;
      TotalBalanceVisible := ShowTotalBalance;

      // Cost type and bal. Cost Type
      IF CostType.GET("Cost Type No.") THEN
        CostTypeName := CostType.Name
      ELSE
        CostTypeName := '';

      IF CostType.GET("Bal. Cost Type No.") THEN
        BalCostTypeName := CostType.Name
      ELSE
        BalCostTypeName := '';
    END;

    BEGIN
    END.
  }
}

