OBJECT Page 101 General Journal Templates
{
  OBJECT-PROPERTIES
  {
    Date=23/09/13;
    Time=12:00:00;
    Version List=NAVW17.10;
  }
  PROPERTIES
  {
    CaptionML=[ENU=General Journal Templates;
               PTB=Livros Di rio Geral];
    SourceTable=Table80;
    PageType=List;
    ActionList=ACTIONS
    {
      { 1900000003;0 ;ActionContainer;
                      ActionContainerType=RelatedInformation }
      { 37      ;1   ;ActionGroup;
                      CaptionML=[ENU=Te&mplate;
                                 PTB=Modelos];
                      Image=Template }
      { 39      ;2   ;Action    ;
                      CaptionML=[ENU=Batches;
                                 PTB=Lotes];
                      RunObject=Page 251;
                      RunPageLink=Journal Template Name=FIELD(Name);
                      Image=Description }
    }
  }
  CONTROLS
  {
    { 1900000001;0;Container;
                ContainerType=ContentArea }

    { 1   ;1   ;Group     ;
                GroupType=Repeater }

    { 2   ;2   ;Field     ;
                SourceExpr=Name }

    { 4   ;2   ;Field     ;
                SourceExpr=Description }

    { 11  ;2   ;Field     ;
                SourceExpr=Type }

    { 29  ;2   ;Field     ;
                SourceExpr=Recurring }

    { 33  ;2   ;Field     ;
                SourceExpr="Bal. Account Type" }

    { 35  ;2   ;Field     ;
                SourceExpr="Bal. Account No." }

    { 38  ;2   ;Field     ;
                SourceExpr="No. Series" }

    { 41  ;2   ;Field     ;
                SourceExpr="Posting No. Series" }

    { 27  ;2   ;Field     ;
                SourceExpr="Source Code" }

    { 6   ;2   ;Field     ;
                SourceExpr="Reason Code" }

    { 31  ;2   ;Field     ;
                SourceExpr="Force Doc. Balance" }

    { 43  ;2   ;Field     ;
                SourceExpr="Copy VAT Setup to Jnl. Lines";
                OnValidate=BEGIN
                             IF "Copy VAT Setup to Jnl. Lines" <> xRec."Copy VAT Setup to Jnl. Lines" THEN
                               IF NOT CONFIRM(Text001,TRUE,FIELDCAPTION("Copy VAT Setup to Jnl. Lines")) THEN
                                 ERROR(Text002);
                           END;
                            }

    { 45  ;2   ;Field     ;
                SourceExpr="Allow VAT Difference";
                OnValidate=BEGIN
                             IF "Allow VAT Difference" <> xRec."Allow VAT Difference" THEN
                               IF NOT CONFIRM(Text001,TRUE,FIELDCAPTION("Allow VAT Difference")) THEN
                                 ERROR(Text002);
                           END;
                            }

    { 25  ;2   ;Field     ;
                SourceExpr="Page ID";
                Visible=FALSE;
                LookupPageID=Objects }

    { 15  ;2   ;Field     ;
                DrillDown=No;
                SourceExpr="Page Caption";
                Visible=FALSE }

    { 21  ;2   ;Field     ;
                SourceExpr="Test Report ID";
                Visible=FALSE;
                LookupPageID=Objects }

    { 19  ;2   ;Field     ;
                DrillDown=No;
                SourceExpr="Test Report Caption";
                Visible=FALSE }

    { 17  ;2   ;Field     ;
                SourceExpr="Posting Report ID";
                Visible=FALSE;
                LookupPageID=Objects }

    { 23  ;2   ;Field     ;
                DrillDown=No;
                SourceExpr="Posting Report Caption";
                Visible=FALSE }

    { 13  ;2   ;Field     ;
                SourceExpr="Force Posting Report";
                Visible=FALSE }

    { 47  ;2   ;Field     ;
                SourceExpr="Cust. Receipt Report ID";
                Visible=FALSE;
                LookupPageID=Objects }

    { 49  ;2   ;Field     ;
                DrillDown=No;
                SourceExpr="Cust. Receipt Report Caption";
                Visible=FALSE }

    { 51  ;2   ;Field     ;
                SourceExpr="Vendor Receipt Report ID";
                Visible=FALSE;
                LookupPageID=Objects }

    { 53  ;2   ;Field     ;
                DrillDown=No;
                SourceExpr="Vendor Receipt Report Caption";
                Visible=FALSE }

    { 1900000007;0;Container;
                ContainerType=FactBoxArea }

    { 1900383207;1;Part   ;
                Visible=FALSE;
                PartType=System;
                SystemPartID=RecordLinks }

    { 1905767507;1;Part   ;
                Visible=FALSE;
                PartType=System;
                SystemPartID=Notes }

  }
  CODE
  {
    VAR
      Text001@1000 : TextConst 'ENU=Do you want to update the %1 field on all general journal batches?';
      Text002@1001 : TextConst 'ENU=Canceled.';

    BEGIN
    END.
  }
}

