OBJECT Page 1303 Mini Item List
{
  OBJECT-PROPERTIES
  {
    Date=09/09/14;
    Time=12:00:00;
    Version List=NAVW18.00;
  }
  PROPERTIES
  {
    Editable=No;
    CaptionML=ENU=Item List;
    SourceTable=Table27;
    PageType=List;
    CardPageID=Mini Item Card;
    PromotedActionCategoriesML=ENU=New,Process,Report,Master Data,History,Prices and Discounts;
    OnAfterGetRecord=BEGIN
                       EnableControls
                     END;

    ActionList=ACTIONS
    {
      { 7       ;0   ;ActionContainer;
                      ActionContainerType=ActionItems }
      { 64      ;1   ;ActionGroup;
                      CaptionML=ENU=Item;
                      Image=DataEntry }
      { 16      ;2   ;Action    ;
                      CaptionML=ENU=&Units of Measure;
                      ToolTipML=ENU=Set up the different units that the selected item can be traded in, such as piece, box, or hour.;
                      RunObject=Page 5404;
                      RunPageLink=Item No.=FIELD(No.);
                      Promoted=Yes;
                      Visible=FALSE;
                      PromotedIsBig=Yes;
                      Image=UnitOfMeasure;
                      PromotedCategory=Category4;
                      Scope=Repeater }
      { 15      ;2   ;Action    ;
                      CaptionML=ENU=Cross Re&ferences;
                      ToolTipML=ENU=Set up a customer's own identification of the selected item. Cross-references to the customer's item number means that that item number is automatically shown on sales documents instead of the number that you use.;
                      RunObject=Page 5721;
                      RunPageLink=Item No.=FIELD(No.);
                      Visible=FALSE;
                      PromotedIsBig=Yes;
                      Image=Change;
                      PromotedCategory=Category4;
                      Scope=Repeater }
      { 13      ;2   ;Action    ;
                      CaptionML=ENU=E&xtended Texts;
                      ToolTipML=ENU=Set up additional text for the description of the selected item. Extended text can be inserted under the Description field on document lines for the item.;
                      RunObject=Page 1316;
                      RunPageView=SORTING(Table Name,No.,Language Code,All Language Codes,Starting Date,Ending Date);
                      RunPageLink=Table Name=CONST(Item),
                                  No.=FIELD(No.);
                      Visible=FALSE;
                      PromotedIsBig=Yes;
                      Image=Text;
                      PromotedCategory=Category4;
                      Scope=Repeater }
      { 12      ;2   ;Action    ;
                      CaptionML=ENU=Translations;
                      ToolTipML=ENU=Set up translated item descriptions for the selected item. Translated item descriptions are automatically inserted on documents according to the language code.;
                      RunObject=Page 35;
                      RunPageLink=Item No.=FIELD(No.),
                                  Variant Code=CONST();
                      Visible=FALSE;
                      PromotedIsBig=Yes;
                      Image=Translations;
                      PromotedCategory=Category4;
                      Scope=Repeater }
      { 11      ;2   ;Action    ;
                      CaptionML=ENU=&Picture;
                      ToolTipML=ENU=View or add a picture of the selected item.;
                      RunObject=Page 346;
                      RunPageLink=No.=FIELD(No.),
                                  Date Filter=FIELD(Date Filter),
                                  Global Dimension 1 Filter=FIELD(Global Dimension 1 Filter),
                                  Global Dimension 2 Filter=FIELD(Global Dimension 2 Filter),
                                  Location Filter=FIELD(Location Filter),
                                  Drop Shipment Filter=FIELD(Drop Shipment Filter),
                                  Variant Filter=FIELD(Variant Filter);
                      Promoted=Yes;
                      Visible=FALSE;
                      PromotedIsBig=Yes;
                      Image=Picture;
                      PromotedCategory=Category4;
                      Scope=Repeater }
      { 17      ;2   ;Action    ;
                      Name=AdjustInventory;
                      CaptionML=ENU=Adjust Inventory;
                      ToolTipML=ENU=Increase or decrease the item's inventory quantity manually by entering a new quantity. Adjusting the inventory quantity manually may be relevant after a physical count or if you do not record purchased quantities.;
                      Enabled=InventoryItemEditable;
                      Image=InventoryCalculation;
                      Scope=Repeater;
                      OnAction=BEGIN
                                 COMMIT;
                                 PAGE.RUNMODAL(PAGE::"Mini Adjust Inventory",Rec)
                               END;
                                }
      { 9       ;2   ;Action    ;
                      ShortCutKey=Shift+Ctrl+D;
                      CaptionML=ENU=Dimensions;
                      ToolTipML=ENU=Set up default dimensions, such as a department or project code, for one or multiple selected items. You can assign dimension codes to transactions to distribute costs and analyze historical information.;
                      RunObject=Page 540;
                      RunPageLink=Table ID=CONST(27),
                                  No.=FIELD(No.);
                      Visible=FALSE;
                      PromotedIsBig=Yes;
                      Image=Dimensions;
                      PromotedCategory=Category4;
                      Scope=Repeater }
      { 56      ;1   ;ActionGroup;
                      CaptionML=ENU=History;
                      Image=History }
      { 84      ;2   ;ActionGroup;
                      CaptionML=ENU=E&ntries;
                      Image=Entries }
      { 14      ;3   ;Action    ;
                      ShortCutKey=Ctrl+F7;
                      CaptionML=ENU=Ledger E&ntries;
                      ToolTipML=ENU=View the history of positive and negative inventory changes that reflect transactions with the selected item.;
                      RunObject=Page 38;
                      RunPageView=SORTING(Item No.);
                      RunPageLink=Item No.=FIELD(No.);
                      PromotedIsBig=Yes;
                      Image=ItemLedger;
                      PromotedCategory=Category5;
                      Scope=Repeater }
      { 23      ;3   ;Action    ;
                      CaptionML=ENU=&Phys. Inventory Ledger Entries;
                      ToolTipML=ENU=View how many units of the item you had in stock at the last physical count.;
                      RunObject=Page 390;
                      RunPageView=SORTING(Item No.);
                      RunPageLink=Item No.=FIELD(No.);
                      PromotedIsBig=Yes;
                      Image=PhysicalInventoryLedger;
                      PromotedCategory=Category5;
                      Scope=Repeater }
      { 3       ;1   ;ActionGroup;
                      Name=PricesandDiscounts;
                      CaptionML=ENU=Prices and Discounts }
      { 36      ;2   ;Action    ;
                      CaptionML=ENU=Prices;
                      ToolTipML=ENU=Set up different prices for the selected item. An item price is automatically used on invoice lines when the specified criteria are met, such as customer, quantity, or ending date.;
                      RunObject=Page 7002;
                      RunPageView=SORTING(Item No.);
                      RunPageLink=Item No.=FIELD(No.);
                      PromotedIsBig=Yes;
                      Image=Price;
                      PromotedCategory=Category6;
                      Scope=Repeater }
      { 34      ;2   ;Action    ;
                      CaptionML=ENU=Line Discounts;
                      ToolTipML=ENU=Set up different discounts for the selected item. An item discount is automatically granted on invoice lines when the specified criteria are met, such as customer, quantity, or ending date.;
                      RunObject=Page 7004;
                      RunPageView=SORTING(Type,Code);
                      RunPageLink=Type=CONST(Item),
                                  Code=FIELD(No.);
                      PromotedIsBig=Yes;
                      Image=LineDiscount;
                      PromotedCategory=Category6;
                      Scope=Repeater }
      { 50      ;2   ;Action    ;
                      CaptionML=ENU=Sales Price Worksheet;
                      RunObject=Page 7023;
                      Image=PriceWorksheet }
      { 51      ;1   ;ActionGroup;
                      CaptionML=ENU=Periodic Activities }
      { 52      ;2   ;Action    ;
                      CaptionML=ENU=Adjust Cost - Item Entries;
                      RunObject=Report 795;
                      Image=AdjustEntries }
      { 60      ;2   ;Action    ;
                      CaptionML=ENU=Post Inventory Cost to G/L;
                      RunObject=Report 1002;
                      Image=PostInventoryToGL }
      { 54      ;2   ;Action    ;
                      CaptionML=ENU=Physical Inventory Journal;
                      RunObject=Page 392;
                      Image=PhysicalInventory }
      { 55      ;2   ;Action    ;
                      CaptionML=ENU=Revaluation Journal;
                      RunObject=Page 5803;
                      Image=Journal }
      { 1900000006;1 ;ActionGroup;
                      Name=ItemReports;
                      CaptionML=ENU=Reports;
                      ActionContainerType=Reports }
      { 22      ;2   ;ActionGroup;
                      Name=Reports;
                      CaptionML=ENU=Inventory Reports;
                      Image=Report }
      { 1905572506;3 ;Action    ;
                      CaptionML=ENU=Price List;
                      ToolTipML=ENU=View, print, or save a list of your items and their prices, for example, to send to customers. You can create the list for specific customers, campaigns, currencies, or other criteria.;
                      RunObject=Report 715;
                      Image=Report }
      { 1900128906;3 ;Action    ;
                      CaptionML=ENU=Inventory Cost and Price List;
                      ToolTipML=ENU=View, print, or save a list of your items and their price and cost information. The report specifies direct unit cost, last direct cost, unit price, profit percentage, and profit.;
                      RunObject=Report 716;
                      Image=Report }
      { 1900762706;3 ;Action    ;
                      CaptionML=ENU=Inventory - Sales Statistics;
                      ToolTipML=ENU=View, print, or save a summary of selected items' sales per customer, for example, to analyze the profit on individual items or trends in revenues and profit. The report specifies direct unit cost, unit price, sales quantity, sales in LCY, profit percentage, and profit.;
                      RunObject=Report 712;
                      Image=Report }
      { 1904034006;3 ;Action    ;
                      CaptionML=ENU=Inventory - Customer Sales;
                      ToolTipML=ENU=View, print, or save a list of customers that have purchased selected items within a selected period, for example, to analyze customers' purchasing patterns. The report specifies quantity, amount, discount, profit percentage, and profit.;
                      RunObject=Report 713;
                      Image=Report }
      { 45      ;3   ;Action    ;
                      CaptionML=ENU=Inventory Availability;
                      ToolTipML=ENU=View, print, or save a summary of historical inventory transactions with selected items, for example, to decide when to purchase the items. The report specifies quantity on sales order, quantity on purchase order, back orders from vendors, minimum inventory, and whether there are reorders.;
                      RunObject=Report 705;
                      Image=Report }
      { 42      ;3   ;Action    ;
                      CaptionML=ENU=Inventory - Top 10 List;
                      RunObject=Report 711;
                      Image=Report }
      { 41      ;3   ;Action    ;
                      CaptionML=ENU=Item Age Composition - Qty.;
                      RunObject=Report 5807;
                      Image=Report }
      { 46      ;2   ;ActionGroup;
                      CaptionML=ENU=Finance Reports;
                      Image=Report }
      { 44      ;3   ;Action    ;
                      CaptionML=ENU=Inventory Valuation;
                      RunObject=Report 1001;
                      Image=Report }
      { 43      ;3   ;Action    ;
                      CaptionML=ENU=Status;
                      RunObject=Report 706;
                      Image=Report }
      { 40      ;3   ;Action    ;
                      CaptionML=ENU=Item Age Composition - Value;
                      RunObject=Report 5808;
                      Image=Report }
    }
  }
  CONTROLS
  {
    { 1900000001;0;Container;
                ContainerType=ContentArea }

    { 1   ;1   ;Group     ;
                GroupType=Repeater }

    { 2   ;2   ;Field     ;
                ToolTipML=ENU=Specifies the number of the item. The field is either filled automatically from a defined number series, or you enter the number manually because you have enabled manual number entry in the number-series setup.;
                SourceExpr="No." }

    { 4   ;2   ;Field     ;
                ToolTipML=ENU=Specifies a description of the item. You can enter a maximum of 30 characters, both numbers and letters.;
                SourceExpr=Description }

    { 8   ;2   ;Field     ;
                ToolTipML=ENU=Specifies if the item card represents a physical item (Inventory) or a service (Service).;
                SourceExpr=Type }

    { 10  ;2   ;Field     ;
                ToolTipML=ENU=Specifies how many units, such as pieces, boxes, or cans, of the item are on inventory.;
                SourceExpr=Inventory;
                HideValue=IsService }

    { 53  ;2   ;Field     ;
                ToolTipML=ENU=Contains the cost per unit of the item.;
                SourceExpr="Unit Cost" }

    { 61  ;2   ;Field     ;
                ToolTipML=ENU=Specifies the price for one unit of the item, in LCY. You can enter a price manually or have it entered according to the Price/Profit Calculation field.;
                SourceExpr="Unit Price" }

  }
  CODE
  {
    VAR
      IsService@1000 : Boolean INDATASET;
      InventoryItemEditable@1001 : Boolean INDATASET;

    LOCAL PROCEDURE EnableControls@1();
    BEGIN
      IsService := (Type = Type::Service);
      InventoryItemEditable := Type = Type::Inventory;
    END;

    BEGIN
    END.
  }
}

