OBJECT Page 1367 Mini Purchase Credit Memos
{
  OBJECT-PROPERTIES
  {
    Date=09/09/14;
    Time=12:00:00;
    Version List=NAVW18.00;
  }
  PROPERTIES
  {
    Editable=No;
    CaptionML=ENU=Purchase Credit Memos;
    SourceTable=Table38;
    SourceTableView=WHERE(Document Type=CONST(Credit Memo));
    PageType=List;
    CardPageID=Mini Purchase Credit Memo;
    PromotedActionCategoriesML=ENU=New,Process,Report,Invoice,Posting;
    OnOpenPage=VAR
                 FileManagement@1000 : Codeunit 419;
               BEGIN
                 SetSecurityFilterOnRespCenter;

                 AllowDotNetAddIn := FileManagement.CanRunDotNetOnClient;
               END;

    ActionList=ACTIONS
    {
      { 21      ;0   ;ActionContainer;
                      ActionContainerType=RelatedInformation }
      { 1900000003;  ;ActionContainer;
                      ActionContainerType=ActionItems }
      { 24      ;1   ;ActionGroup;
                      Name=Invoice;
                      CaptionML=ENU=&Invoice;
                      Image=Invoice }
      { 4       ;2   ;Action    ;
                      Name=<Page Mini Vendor Card>;
                      ShortCutKey=Shift+F7;
                      CaptionML=ENU=Vendor;
                      ToolTipML=ENU=View or edit detailed information about the vendor on the selected purchase document.;
                      RunObject=Page 1330;
                      RunPageLink=No.=FIELD(Buy-from Vendor No.);
                      Promoted=Yes;
                      PromotedIsBig=Yes;
                      Image=Vendor;
                      PromotedCategory=Category4;
                      Scope=Repeater }
      { 49      ;1   ;ActionGroup;
                      Name=Posting;
                      CaptionML=ENU=P&osting;
                      Image=Post }
      { 51      ;2   ;Action    ;
                      Name=Post;
                      ShortCutKey=F9;
                      CaptionML=ENU=P&ost;
                      ToolTipML=ENU=Finalize the purchase document. Posting updates your books with the document's amounts and quantities.;
                      Promoted=Yes;
                      PromotedIsBig=Yes;
                      Image=PostOrder;
                      PromotedCategory=Category5;
                      Scope=Repeater;
                      OnAction=BEGIN
                                 Post(CODEUNIT::"Purch.-Post (Yes/No)");
                               END;
                                }
      { 1001    ;2   ;Action    ;
                      Name=Print;
                      Ellipsis=Yes;
                      CaptionML=ENU=&Print;
                      ToolTipML=ENU=Print a copy of the selected purchase credit memo.;
                      Promoted=Yes;
                      PromotedIsBig=Yes;
                      Image=Print;
                      PromotedCategory=Category5;
                      Scope=Repeater;
                      OnAction=BEGIN
                                 PostAndPrint(CODEUNIT::"Purch.-Post");
                               END;
                                }
      { 19      ;0   ;ActionContainer;
                      ActionContainerType=Reports }
      { 18      ;1   ;ActionGroup;
                      CaptionML=ENU=Sales;
                      Image=Sales }
      { 17      ;2   ;Action    ;
                      Name=<Report Vendor - Top 10 List>;
                      CaptionML=ENU=Vendor - Top 10 List;
                      ToolTipML=ENU=View, print, or save a list of the vendors from whom you purchase the most or to whom you owe the most.;
                      RunObject=Report 111;
                      Image=Report }
      { 16      ;2   ;Action    ;
                      Name=<Report Vendor - Purchase List>;
                      CaptionML=ENU=Vendor - Purchase List;
                      ToolTipML=ENU=View, print, or save a list of your purchases in a period, for example, to report purchase activity to customs and tax authorities.;
                      RunObject=Report 119;
                      Image=Report }
      { 15      ;2   ;Action    ;
                      Name=<Report Puchase Statistics>;
                      CaptionML=ENU=Purchase Statistics;
                      ToolTipML=ENU=View, print, or save an overview of amounts for purchases, invoice discount, and payment discount in LCY for each vendor, for example, to analyze item purchases for an individual customer and trends for item purchases.;
                      RunObject=Report 112;
                      Image=Report }
      { 14      ;1   ;ActionGroup;
                      Name=Finance;
                      CaptionML=ENU=Finance;
                      Image=Sales }
      { 13      ;2   ;Action    ;
                      CaptionML=ENU=Statement;
                      ToolTipML=ENU=View, print, or save a list of your transactions for a vendor for a selected period, for example, to study expenditure trends.;
                      RunObject=Report 116;
                      Image=Report }
      { 12      ;2   ;Action    ;
                      CaptionML=ENU=Vendor - Balance to Date;
                      ToolTipML=ENU=View, print, or save vendors' balances on a certain date, for example, to extract your total expenses at the close of an accounting period or fiscal year.;
                      RunObject=Report 121;
                      Image=Report }
      { 11      ;2   ;Action    ;
                      Name=<Report Vendor - Trial Balance;
                      CaptionML=ENU=Vendor - Trial Balance;
                      ToolTipML=ENU=View, print, or save the beginning and ending balance for vendors with entries within a specified period. The report can be used to verify that the balance for a vendor posting group is equal to the balance on the corresponding general ledger account on a certain date.;
                      RunObject=Report 129;
                      Image=Report }
      { 10      ;2   ;Action    ;
                      Name=[<Report Vendor - Detail Trial ];
                      CaptionML=ENU=Vendor - Detail. Trial Balance;
                      ToolTipML=ENU=View, print, or save the balance for vendors with balances on a specified date, for example, at the close of an accounting period or for an audit.;
                      RunObject=Report 104;
                      Image=Report }
      { 9       ;2   ;Action    ;
                      Name=<Report Vendor - Summary Aging;
                      CaptionML=ENU=Vendor - Summary Aging;
                      ToolTipML=ENU=View, print, or save a summary of the payables owed to each vendor, divided into three time periods. The report can be used to prepare liquidity analyses.;
                      RunObject=Report 105;
                      Image=Report }
      { 8       ;2   ;Action    ;
                      Name=<Report Vendor Detailed Aging>;
                      CaptionML=ENU=Vendor Detailed Aging;
                      ToolTipML=ENU=View, print, or save a detailed list of your due payments to vendors, divided into three time periods.;
                      RunObject=Report 106;
                      Image=Report }
      { 7       ;2   ;Action    ;
                      Name=<Report Aged Accounts Payables;
                      CaptionML=ENU=Aged Accounts Payables;
                      ToolTipML=ENU=View, print, or save an overview of when your payables to vendors are due or overdue, divided into four periods. You must specify the date you want aging calculated from and the length of the period that each column will contain data for.;
                      RunObject=Report 120;
                      Image=Report }
      { 5       ;2   ;Action    ;
                      Name=<Report Vendor - Payment Recei;
                      CaptionML=ENU=Vendor - Payment Receipt;
                      ToolTipML=ENU=View, print, or save a document showing which vendor ledger entries that a payment has been applied to.;
                      RunObject=Report 211;
                      Image=Report }
    }
  }
  CONTROLS
  {
    { 1900000001;0;Container;
                ContainerType=ContentArea }

    { 1   ;1   ;Group     ;
                GroupType=Repeater }

    { 2   ;2   ;Field     ;
                ToolTipML=ENU=Specifies the number of the purchase document.;
                SourceExpr="No." }

    { 6   ;2   ;Field     ;
                CaptionML=ENU=Vendor Name;
                ToolTipML=ENU=Specifies the name of the vendor who ships the items.;
                SourceExpr="Buy-from Vendor Name" }

    { 26  ;2   ;Field     ;
                ToolTipML=ENU=Specifies when the invoice is due. The program calculates the date using the Payment Terms Code and Document Date fields.;
                SourceExpr="Due Date" }

    { 3   ;2   ;Field     ;
                ToolTipML=ENU=Shows the sum of the amounts in the Amount field on the associated purchase lines.;
                SourceExpr=Amount }

  }
  CODE
  {
    VAR
      MiniLinesInstructionMgt@1000 : Codeunit 1320;
      OpenPostedPurchCrMemoQst@1001 : TextConst 'ENU=The credit memo has been posted and archived.\\Do you want to open the posted credit memo from the Posted Purchase Credit Memo list?';
      PostAndPrintQst@1002 : TextConst 'ENU=Do you want to post and print the credit memo?';
      AllowDotNetAddIn@1003 : Boolean INDATASET;

    LOCAL PROCEDURE Post@4(PostingCodeunitID@1000 : Integer);
    VAR
      PreAssignedNo@1001 : Code[20];
    BEGIN
      MiniLinesInstructionMgt.PurchaseCheckAllLinesHaveQuantityAssigned(Rec);
      PreAssignedNo := "No.";
      SendToPosting(PostingCodeunitID);
      IF "Job Queue Status" = "Job Queue Status"::"Scheduled for Posting" THEN
        CurrPage.CLOSE
      ELSE
        ShowPostedConfirmationMessage(PreAssignedNo);
    END;

    LOCAL PROCEDURE PostAndPrint@1(PostingCodeunitID@1000 : Integer);
    VAR
      PurchCrMemoHdr@1001 : Record 124;
      DocumentNo@1002 : Code[20];
      PreAssignedNo@1003 : Code[20];
    BEGIN
      MiniLinesInstructionMgt.PurchaseCheckAllLinesHaveQuantityAssigned(Rec);

      IF NOT CONFIRM(PostAndPrintQst,FALSE) THEN
        EXIT;

      PreAssignedNo := "No.";
      SendToPosting(PostingCodeunitID);

      IF "Last Posting No." = '' THEN
        DocumentNo := "No."
      ELSE
        DocumentNo := "Last Posting No.";

      IF PurchCrMemoHdr.GET(DocumentNo) THEN BEGIN
        PurchCrMemoHdr.SETRECFILTER;
        COMMIT;
        PurchCrMemoHdr.PrintRecords(NOT AllowDotNetAddIn);
        ShowPostedConfirmationMessage(PreAssignedNo);
      END;
    END;

    LOCAL PROCEDURE ShowPostedConfirmationMessage@7(PreAssignedNo@1001 : Code[20]);
    VAR
      PurchCrMemoHdr@1000 : Record 124;
    BEGIN
      PurchCrMemoHdr.SETRANGE("Pre-Assigned No.",PreAssignedNo);
      IF PurchCrMemoHdr.FINDFIRST THEN
        IF DIALOG.CONFIRM(OpenPostedPurchCrMemoQst,FALSE) THEN
          PAGE.RUN(PAGE::"Mini Posted Purch. Credit Memo",PurchCrMemoHdr);
    END;

    BEGIN
    END.
  }
}

