OBJECT Page 1105 Cost Allocation
{
  OBJECT-PROPERTIES
  {
    Date=07/09/12;
    Time=12:00:00;
    Version List=NAVW17.00;
  }
  PROPERTIES
  {
    CaptionML=ENU=Cost Allocation;
    SourceTable=Table1106;
    PageType=Document;
    ActionList=ACTIONS
    {
      { 1       ;0   ;ActionContainer;
                      ActionContainerType=RelatedInformation }
      { 2       ;1   ;ActionGroup;
                      CaptionML=ENU=Allo&cation;
                      Image=Allocate }
      { 3       ;2   ;Separator  }
      { 4       ;2   ;Action    ;
                      ShortCutKey=Ctrl+F7;
                      CaptionML=ENU=Cost E&ntries;
                      RunObject=Page 1103;
                      RunPageView=SORTING(Allocation ID,Posting Date);
                      RunPageLink=Allocation ID=FIELD(ID);
                      Image=CostEntries }
      { 5       ;0   ;ActionContainer;
                      ActionContainerType=ActionItems }
      { 6       ;1   ;ActionGroup;
                      CaptionML=ENU=F&unctions;
                      Image=Action }
      { 7       ;2   ;Action    ;
                      CaptionML=ENU=Calculate Allocation Key;
                      Promoted=Yes;
                      Image=CalculateCost;
                      PromotedCategory=Process;
                      OnAction=VAR
                                 CostAccAllocation@1000 : Codeunit 1104;
                               BEGIN
                                 CostAccAllocation.CalcAllocationKey(Rec);
                               END;
                                }
      { 8       ;0   ;ActionContainer;
                      ActionContainerType=Reports }
      { 9       ;1   ;Action    ;
                      CaptionML=ENU=Allocations;
                      RunObject=Report 1129;
                      Promoted=Yes;
                      Image=Allocations;
                      PromotedCategory=Report }
    }
  }
  CONTROLS
  {
    { 10  ;0   ;Container ;
                ContainerType=ContentArea }

    { 11  ;1   ;Group     ;
                CaptionML=ENU=General }

    { 12  ;2   ;Field     ;
                SourceExpr=ID }

    { 13  ;2   ;Field     ;
                SourceExpr=Level;
                Importance=Promoted }

    { 14  ;2   ;Field     ;
                SourceExpr="Valid From";
                Importance=Promoted }

    { 15  ;2   ;Field     ;
                SourceExpr="Valid To";
                Importance=Promoted }

    { 16  ;2   ;Field     ;
                SourceExpr=Variant;
                Importance=Promoted }

    { 17  ;2   ;Field     ;
                SourceExpr="Cost Type Range" }

    { 18  ;2   ;Field     ;
                SourceExpr="Cost Center Code" }

    { 19  ;2   ;Field     ;
                SourceExpr="Cost Object Code" }

    { 20  ;2   ;Field     ;
                SourceExpr="Credit to Cost Type" }

    { 21  ;2   ;Field     ;
                SourceExpr=Blocked }

    { 22  ;1   ;Part      ;
                Name=AllocTarget;
                SubPageLink=ID=FIELD(ID);
                PagePartID=Page1106 }

    { 23  ;1   ;Group     ;
                CaptionML=ENU=Statistics }

    { 24  ;2   ;Field     ;
                SourceExpr="Allocation Source Type";
                Importance=Promoted }

    { 25  ;2   ;Field     ;
                SourceExpr="Last Date Modified" }

    { 26  ;2   ;Field     ;
                SourceExpr="User ID" }

    { 27  ;2   ;Field     ;
                SourceExpr=Comment }

    { 28  ;2   ;Field     ;
                SourceExpr="Total Share" }

  }
  CODE
  {

    BEGIN
    END.
  }
}

