OBJECT Page 1316 Mini Extended Text List
{
  OBJECT-PROPERTIES
  {
    Date=23/09/13;
    Time=12:00:00;
    Version List=NAVW17.10;
  }
  PROPERTIES
  {
    Editable=No;
    CaptionML=ENU=Extended Text List;
    SourceTable=Table279;
    DataCaptionFields=No.;
    PageType=List;
    CardPageID=Mini Extended Text;
  }
  CONTROLS
  {
    { 7   ;0   ;Container ;
                ContainerType=ContentArea }

    { 5   ;1   ;Group     ;
                GroupType=Repeater }

    { 6   ;2   ;Field     ;
                ToolTipML=ENU=Specifies the content of the extended item description.;
                SourceExpr=Description }

    { 4   ;2   ;Field     ;
                ToolTipML=ENU=Specifies the language code of the extended text.;
                SourceExpr="Language Code" }

    { 3   ;2   ;Field     ;
                ToolTipML=ENU=Specifies whether the text should be used for all language codes. If a language code has been chosen in the Language Code field, it will be overruled by this function.;
                SourceExpr="All Language Codes" }

    { 2   ;2   ;Field     ;
                ToolTipML=ENU=Specifies a date from which the text will be used on the item, account, resource or standard text.;
                SourceExpr="Starting Date" }

    { 1   ;2   ;Field     ;
                ToolTipML=ENU=Specifies a date on which the text will no longer be used on the item, account, resource or standard text.;
                SourceExpr="Ending Date" }

  }
  CODE
  {

    BEGIN
    END.
  }
}

