OBJECT Page 1351 Mini Inventory Setup
{
  OBJECT-PROPERTIES
  {
    Date=09/09/14;
    Time=12:00:00;
    Version List=NAVW18.00;
  }
  PROPERTIES
  {
    CaptionML=ENU=Inventory Setup;
    InsertAllowed=No;
    DeleteAllowed=No;
    SourceTable=Table313;
    PageType=Card;
    PromotedActionCategoriesML=ENU=New,Process,Report,General,Posting,Journal Templates;
    OnOpenPage=BEGIN
                 RESET;
                 IF NOT GET THEN BEGIN
                   INIT;
                   INSERT;
                 END;
               END;

    ActionList=ACTIONS
    {
      { 10      ;    ;ActionContainer;
                      ActionContainerType=RelatedInformation }
      { 11      ;1   ;Action    ;
                      CaptionML=ENU=Inventory Periods;
                      ToolTipML=ENU=Set up periods in combinations with your accounting periods that define when you can post transactions that affect the value of your item inventory. When you close an inventory period, you cannot post any changes to the inventory value, either expected or actual value, before the ending date of the inventory period.;
                      RunObject=Page 5828;
                      Promoted=Yes;
                      PromotedIsBig=Yes;
                      Image=Period;
                      PromotedCategory=Category4 }
      { 12      ;1   ;Action    ;
                      CaptionML=ENU=Units of Measure;
                      ToolTipML=ENU=Set up the units of measure, such as PSC or HOUR, that you can select from in the Item Units of Measure window that you access from the item card.;
                      RunObject=Page 209;
                      Promoted=Yes;
                      PromotedIsBig=Yes;
                      Image=UnitOfMeasure;
                      PromotedCategory=Category4 }
      { 20      ;1   ;Action    ;
                      CaptionML=ENU=Item Discount Groups;
                      ToolTipML=ENU=Set up discount group codes that you can use as criteria when you define special discounts on a customer, vendor, or item card.;
                      RunObject=Page 513;
                      Promoted=Yes;
                      PromotedIsBig=Yes;
                      Image=Discount;
                      PromotedCategory=Category4 }
      { 13      ;1   ;ActionGroup;
                      CaptionML=ENU=Posting }
      { 14      ;2   ;Action    ;
                      CaptionML=ENU=Inventory Posting Setup;
                      ToolTipML=ENU=Set up links between inventory posting groups, inventory locations, and general ledger accounts to define where transactions for inventory items are recorded in the general ledger.;
                      RunObject=Page 5826;
                      Promoted=Yes;
                      PromotedIsBig=Yes;
                      Image=PostedInventoryPick;
                      PromotedCategory=Category5 }
      { 15      ;2   ;Action    ;
                      CaptionML=ENU=Inventory Posting Groups;
                      ToolTipML=ENU=Set up the posting groups that you assign to item cards to link business transactions made for the item with an inventory account in the general ledger to group amounts for that item type.;
                      RunObject=Page 112;
                      Promoted=Yes;
                      PromotedIsBig=Yes;
                      Image=ItemGroup;
                      PromotedCategory=Category5 }
      { 16      ;1   ;ActionGroup;
                      CaptionML=ENU=Journal Templates }
      { 17      ;2   ;Action    ;
                      CaptionML=ENU=Item Journal Templates;
                      ToolTipML=ENU=Set up number series and reason codes in the journals that you use for inventory adjustment. By using different templates you can design windows with different layouts and you can assign trace codes, number series, and reports to each template.;
                      RunObject=Page 102;
                      Promoted=Yes;
                      PromotedIsBig=Yes;
                      Image=JournalSetup;
                      PromotedCategory=Category6 }
    }
  }
  CONTROLS
  {
    { 101 ;0   ;Container ;
                ContainerType=ContentArea }

    { 1   ;1   ;Group     ;
                CaptionML=ENU=Setup Fields;
                GroupType=Group }

    { 2   ;2   ;Field     ;
                ToolTipML=ENU=Specifies that the Automatic Cost Posting function is used.;
                SourceExpr="Automatic Cost Posting" }

    { 36  ;2   ;Field     ;
                ToolTipML=ENU=Specifies whether to adjust for any cost changes automatically every time that you post inventory transactions. The adjustment process and its consequences are the same as for the Adjust Cost - Item Entries batch job.;
                SourceExpr="Automatic Cost Adjustment" }

    { 3   ;2   ;Field     ;
                ToolTipML=ENU=Specifies if you can post transactions that will bring inventory levels below zero.;
                SourceExpr="Prevent Negative Inventory" }

    { 4   ;2   ;Field     ;
                Lookup=Yes;
                CaptionML=ENU=Item Numbers;
                ToolTipML=ENU=Specifies the code for the number series that will be used to assign numbers to items. To see the number series that have been set up in the No. Series table, choose the field.;
                SourceExpr="Item Nos.";
                TableRelation="No. Series".Code }

  }
  CODE
  {

    BEGIN
    END.
  }
}

