OBJECT Page 1349 Mini Purch. & Payables Setup
{
  OBJECT-PROPERTIES
  {
    Date=23/09/13;
    Time=12:00:00;
    Version List=NAVW17.10;
  }
  PROPERTIES
  {
    CaptionML=ENU=Purchases & Payables Setup;
    InsertAllowed=No;
    DeleteAllowed=No;
    SourceTable=Table312;
    PageType=Card;
    OnOpenPage=BEGIN
                 RESET;
                 IF NOT GET THEN BEGIN
                   INIT;
                   INSERT;
                 END;
               END;

    ActionList=ACTIONS
    {
      { 20      ;    ;ActionContainer;
                      ActionContainerType=RelatedInformation }
      { 21      ;1   ;Action    ;
                      CaptionML=ENU=Vendor Posting Groups;
                      ToolTipML=ENU=Set up the posting groups to select from when you set up vendor cards to link business transactions made for the vendor with the appropriate account in the general ledger.;
                      RunObject=Page 111;
                      Promoted=Yes;
                      PromotedIsBig=Yes;
                      Image=Vendor;
                      PromotedCategory=Process }
      { 14      ;1   ;Action    ;
                      CaptionML=ENU=Incoming Documents Setup;
                      ToolTipML=ENU=Set up the journal template that will be used to create general journal lines from electronic external documents, such as invoices from your vendors on email.;
                      RunObject=Page 191;
                      Promoted=Yes;
                      PromotedIsBig=Yes;
                      Image=Documents;
                      PromotedCategory=Process }
    }
  }
  CONTROLS
  {
    { 101 ;0   ;Container ;
                ContainerType=ContentArea }

    { 1   ;1   ;Group     ;
                CaptionML=ENU=Setup Fields;
                GroupType=Group }

    { 2   ;2   ;Field     ;
                ToolTipML=ENU=Specifies the type of purchase discounts to post separately.;
                SourceExpr="Discount Posting" }

    { 6   ;2   ;Field     ;
                ToolTipML=ENU=Specifies that amounts are rounded for purchase invoices.;
                SourceExpr="Invoice Rounding" }

    { 8   ;2   ;Field     ;
                ToolTipML=ENU=Specifies whether it is mandatory to enter an external document number in the following situations:;
                SourceExpr="Ext. Doc. No. Mandatory" }

    { 3   ;2   ;Field     ;
                ToolTipML=ENU=Specifies that a return transaction cannot be posted unless the Appl.-to Item Entry field on the purchase order line contains an entry.;
                SourceExpr="Exact Cost Reversing Mandatory" }

    { 24  ;2   ;Field     ;
                ToolTipML=ENU=Specifies whether to allow the manual adjustment of VAT amounts in purchase documents.;
                SourceExpr="Allow VAT Difference" }

    { 10  ;2   ;Field     ;
                ToolTipML=ENU=Specifies whether the invoice discount amount is automatically calculated with purchase documents.;
                SourceExpr="Calc. Inv. Discount" }

    { 28  ;2   ;Field     ;
                ToolTipML=ENU=Specifies that the invoice discount is calculated according to VAT Identifier. If you choose not to place a check mark here, the invoice discount will be calculated on the invoice total. The two methods may lead to a small difference in the VAT amount calculated by the program.;
                SourceExpr="Calc. Inv. Disc. per VAT ID" }

    { 22  ;2   ;Field     ;
                ToolTipML=ENU=Specifies to what extent the application of entries in different currencies is allowed in the Purchases and Payables application area. You can select one of these options:;
                SourceExpr="Appln. between Currencies" }

    { 59  ;2   ;Field     ;
                ToolTipML=ENU=Specifies how to use the Posting Date field on purchase documents.;
                SourceExpr="Default Posting Date" }

    { 4   ;1   ;Group     ;
                CaptionML=ENU=Number Series;
                GroupType=Group }

    { 12  ;2   ;Field     ;
                Lookup=Yes;
                CaptionML=ENU=Vendor Numbers;
                ToolTipML=ENU=Specifies the code for the number series that will be used to assign numbers to vendors. To see the number series that have been set up in the No. Series table, click the field.;
                SourceExpr="Vendor Nos.";
                TableRelation="No. Series".Code }

    { 11  ;2   ;Field     ;
                Lookup=Yes;
                CaptionML=ENU=Purchase Invoice Numbers;
                ToolTipML=ENU=Specifies the code for the number series that will be used to assign numbers to purchase invoices. To see the number series that have been set up in the No. Series table, click the field.;
                SourceExpr="Invoice Nos.";
                TableRelation="No. Series".Code }

    { 9   ;2   ;Field     ;
                Lookup=Yes;
                CaptionML=ENU=Posted Purchase Invoice Numbers;
                ToolTipML=ENU=Specifies the code for the number series that will be used to assign numbers to purchase invoices when they are posted. To see the number series that have been set up in the No. Series table, click the field.;
                SourceExpr="Posted Invoice Nos.";
                TableRelation="No. Series".Code }

    { 7   ;2   ;Field     ;
                Lookup=Yes;
                CaptionML=ENU=Purchase Credit Memo Numbers;
                ToolTipML=ENU=Specifies the code for the number series that will be used to assign numbers to purchase credit memos. To see the number series that have been set up in the No. Series table, click the field.;
                SourceExpr="Credit Memo Nos.";
                TableRelation="No. Series".Code }

    { 5   ;2   ;Field     ;
                Lookup=Yes;
                CaptionML=ENU=Posted Purchase Credit Memo Numbers;
                ToolTipML=ENU=Specifies the code for the number series that will be used to assign numbers to purchase credit memos when they are posted. To see the number series that have been set up in the No. Series table, click the field.;
                SourceExpr="Posted Credit Memo Nos.";
                TableRelation="No. Series".Code }

  }
  CODE
  {

    BEGIN
    END.
  }
}

