OBJECT Page 195 Acc. Sched. KPI Web Srv. Setup
{
  OBJECT-PROPERTIES
  {
    Date=23/09/13;
    Time=12:00:00;
    Version List=NAVW17.10;
  }
  PROPERTIES
  {
    CaptionML=ENU=Account Schedule KPI Web Service Setup;
    InsertAllowed=No;
    DeleteAllowed=No;
    SourceTable=Table135;
    PageType=Worksheet;
    OnOpenPage=BEGIN
                 RESET;
                 IF NOT GET THEN BEGIN
                   INIT;
                   INSERT;
                 END;
               END;

    ActionList=ACTIONS
    {
      { 2       ;    ;ActionContainer;
                      ActionContainerType=ActionItems }
      { 8       ;1   ;Action    ;
                      Name=PublishWebService;
                      CaptionML=ENU=Publish Web Service;
                      Promoted=Yes;
                      PromotedIsBig=Yes;
                      Image=Add;
                      PromotedCategory=Process;
                      OnAction=BEGIN
                                 PublishWebService;
                               END;
                                }
      { 9       ;1   ;Action    ;
                      Name=DeleteWebService;
                      CaptionML=ENU=Remove Web Service;
                      Promoted=Yes;
                      PromotedIsBig=Yes;
                      Image=Delete;
                      PromotedCategory=Process;
                      OnAction=BEGIN
                                 DeleteWebService;
                               END;
                                }
      { 10      ;0   ;ActionContainer;
                      ActionContainerType=RelatedInformation }
      { 15      ;1   ;Action    ;
                      Name=KPIData;
                      CaptionML=ENU=Acc. Sched. KPI Web Service;
                      RunObject=Page 197;
                      Image=List }
      { 11      ;1   ;Action    ;
                      Name=WebServices;
                      CaptionML=ENU=Web Services;
                      RunObject=Page 810;
                      Image=Web }
    }
  }
  CONTROLS
  {
    { 1   ;0   ;Container ;
                ContainerType=ContentArea }

    { 14  ;1   ;Group     ;
                CaptionML=ENU=General;
                GroupType=Group }

    { 6   ;2   ;Field     ;
                SourceExpr=Period }

    { 5   ;2   ;Field     ;
                SourceExpr="View By" }

    { 12  ;2   ;Field     ;
                SourceExpr="G/L Budget Name" }

    { 16  ;2   ;Field     ;
                SourceExpr="Forecasted Values Start" }

    { 7   ;2   ;Field     ;
                SourceExpr="Web Service Name" }

    { 13  ;2   ;Field     ;
                SourceExpr=Published }

    { 3   ;2   ;Field     ;
                CaptionML=ENU=Last Locked Posting Date;
                SourceExpr=GetLastClosedAccDate }

    { 17  ;2   ;Field     ;
                CaptionML=ENU=Last Changed Budget Date;
                SourceExpr=GetLastBudgetChangedDate }

    { 4   ;1   ;Part      ;
                CaptionML=ENU=Account Schedules;
                PagePartID=Page196;
                PartType=Page;
                ShowFilter=No }

  }
  CODE
  {

    BEGIN
    END.
  }
}

