OBJECT Page 1302 Mini Item Card
{
  OBJECT-PROPERTIES
  {
    Date=07/01/15;
    Time=12:00:00;
    Version List=NAVW18.00.00.39368;
  }
  PROPERTIES
  {
    CaptionML=ENU=Item Card;
    SourceTable=Table27;
    PageType=Card;
    RefreshOnActivate=Yes;
    PromotedActionCategoriesML=ENU=New,Process,Report,Item,History,View;
    OnInit=BEGIN
             InventoryItemEditable := TRUE;
             "Costing Method" := "Costing Method"::FIFO;
             UnitCostEditable := TRUE;
           END;

    OnOpenPage=BEGIN
                 EnableControls;
                 VisualizingControls;
                 CurrPage.PriceAndLineDisc.PAGE.InitPage(TRUE);
                 ViewSetup := ShouldBeLoadedInSetupView;
               END;

    OnAfterGetRecord=BEGIN
                       EnableControls;
                     END;

    OnNewRecord=VAR
                  MiniItemTemplate@1002 : Record 1301;
                  Item@1004 : Record 27;
                  NewItemCode@1001 : Code[20];
                BEGIN
                  EnableControls;
                  IF "No." = '' THEN
                    NewItemCode := MiniItemTemplate.NewItemFromTemplate;
                  IF NewItemCode = '' THEN BEGIN
                    CurrPage.CLOSE;
                    EXIT;
                  END;
                  GET(NewItemCode);
                  IF Item.GET("No.") THEN
                    Item.DELETE(TRUE);
                END;

    OnInsertRecord=BEGIN
                     InsertItemUnitOfMeasure;
                   END;

    OnAfterGetCurrRecord=BEGIN
                           GetSalesPricesAndSalesLineDisc;
                         END;

    ActionList=ACTIONS
    {
      { 10      ;    ;ActionContainer;
                      ActionContainerType=ActionItems }
      { 42      ;1   ;ActionGroup;
                      CaptionML=ENU=Item;
                      Image=<DataEntry> }
      { 28      ;2   ;Action    ;
                      CaptionML=ENU=&Units of Measure;
                      ToolTipML=ENU=Set up the different units that the item can be traded in, such as piece, box, or hour.;
                      RunObject=Page 5404;
                      RunPageLink=Item No.=FIELD(No.);
                      Promoted=Yes;
                      PromotedIsBig=Yes;
                      Image=UnitOfMeasure;
                      PromotedCategory=Category4 }
      { 27      ;2   ;Action    ;
                      CaptionML=ENU=Cross Re&ferences;
                      ToolTipML=ENU=Set up a customer's own identification of the item. Cross-references to the customer's item number means that that item number is automatically shown on sales documents instead of the number that you use.;
                      RunObject=Page 5721;
                      RunPageLink=Item No.=FIELD(No.);
                      PromotedIsBig=Yes;
                      Image=Change;
                      PromotedCategory=Category4 }
      { 26      ;2   ;Action    ;
                      CaptionML=ENU=E&xtended Texts;
                      ToolTipML=ENU=Set up additional text for the description of the item. Extended text can be inserted under the Description field on document lines for the item.;
                      RunObject=Page 1316;
                      RunPageView=SORTING(Table Name,No.,Language Code,All Language Codes,Starting Date,Ending Date);
                      RunPageLink=Table Name=CONST(Item),
                                  No.=FIELD(No.);
                      PromotedIsBig=Yes;
                      Image=Text;
                      PromotedCategory=Category4 }
      { 23      ;2   ;Action    ;
                      CaptionML=ENU=Translations;
                      ToolTipML=ENU=Set up translated item descriptions. Translated item descriptions are automatically inserted on documents according to the language code.;
                      RunObject=Page 35;
                      RunPageLink=Item No.=FIELD(No.);
                      PromotedIsBig=Yes;
                      Image=Translations;
                      PromotedCategory=Category4 }
      { 21      ;2   ;Action    ;
                      CaptionML=ENU=&Picture;
                      ToolTipML=ENU=View or add a picture of the item.;
                      RunObject=Page 346;
                      RunPageLink=No.=FIELD(No.),
                                  Date Filter=FIELD(Date Filter),
                                  Global Dimension 1 Filter=FIELD(Global Dimension 1 Filter),
                                  Global Dimension 2 Filter=FIELD(Global Dimension 2 Filter),
                                  Location Filter=FIELD(Location Filter),
                                  Drop Shipment Filter=FIELD(Drop Shipment Filter),
                                  Variant Filter=FIELD(Variant Filter);
                      Promoted=Yes;
                      PromotedIsBig=Yes;
                      Image=Picture;
                      PromotedCategory=Category4 }
      { 5       ;2   ;Action    ;
                      Name=AdjustInventory;
                      CaptionML=ENU=Adjust Inventory;
                      ToolTipML=ENU=Increase or decrease the item's inventory quantity manually by entering a new quantity. Adjusting the inventory quantity manually may be relevant after a physical count or if you do not record purchased quantities.;
                      Enabled=InventoryItemEditable;
                      Image=InventoryCalculation;
                      OnAction=BEGIN
                                 COMMIT;
                                 PAGE.RUNMODAL(PAGE::"Mini Adjust Inventory",Rec)
                               END;
                                }
      { 18      ;2   ;Action    ;
                      ShortCutKey=Shift+Ctrl+D;
                      CaptionML=ENU=Dimensions;
                      ToolTipML=ENU=Set up default dimensions for the item, such as a department or project code. You can assign dimension codes to transactions to distribute costs and analyze historical information.;
                      RunObject=Page 540;
                      RunPageLink=Table ID=CONST(27),
                                  No.=FIELD(No.);
                      PromotedIsBig=Yes;
                      Image=Dimensions;
                      PromotedCategory=Category4 }
      { 126     ;1   ;ActionGroup;
                      CaptionML=ENU=History;
                      Image=History }
      { 101     ;2   ;ActionGroup;
                      CaptionML=ENU=E&ntries;
                      Image=Entries }
      { 105     ;3   ;Action    ;
                      ShortCutKey=Ctrl+F7;
                      CaptionML=ENU=Ledger E&ntries;
                      ToolTipML=ENU=View the history of positive and negative inventory changes that reflect transactions with the item.;
                      RunObject=Page 38;
                      RunPageView=SORTING(Item No.);
                      RunPageLink=Item No.=FIELD(No.);
                      PromotedIsBig=Yes;
                      Image=ItemLedger;
                      PromotedCategory=Category5 }
      { 112     ;3   ;Action    ;
                      CaptionML=ENU=&Phys. Inventory Ledger Entries;
                      ToolTipML=ENU=View how many units of the item you had in stock at the last physical count.;
                      RunObject=Page 390;
                      RunPageView=SORTING(Item No.);
                      RunPageLink=Item No.=FIELD(No.);
                      PromotedIsBig=Yes;
                      Image=PhysicalInventoryLedger;
                      PromotedCategory=Category5 }
      { 3       ;1   ;ActionGroup;
                      Name=PricesandDiscounts;
                      CaptionML=ENU=Prices and Discounts }
      { 82      ;2   ;Action    ;
                      CaptionML=ENU=Prices;
                      ToolTipML=ENU=Set up different prices for the item. An item price is automatically granted on invoice lines when the specified criteria are met, such as customer, quantity, or ending date.;
                      RunObject=Page 7002;
                      RunPageView=SORTING(Item No.);
                      RunPageLink=Item No.=FIELD(No.);
                      Image=Price }
      { 80      ;2   ;Action    ;
                      CaptionML=ENU=Line Discounts;
                      ToolTipML=ENU=Set up different discounts for the item. An item discount is automatically granted on invoice lines when the specified criteria are met, such as customer, quantity, or ending date.;
                      RunObject=Page 7004;
                      RunPageView=SORTING(Type,Code);
                      RunPageLink=Type=CONST(Item),
                                  Code=FIELD(No.);
                      Image=LineDiscount }
      { 39      ;1   ;ActionGroup;
                      Name=DataTemplate;
                      CaptionML=ENU=Data Template }
      { 37      ;2   ;Action    ;
                      Name=SaveAsTemplate;
                      Ellipsis=Yes;
                      CaptionML=ENU=Save as Template;
                      ToolTipML=ENU=Save the item card as a template that can be reused to create new item cards. Item templates contain preset information to help you fill in fields on item cards.;
                      PromotedIsBig=Yes;
                      Image=Save;
                      PromotedCategory=New;
                      OnAction=VAR
                                 TempMiniItemTemplate@1002 : TEMPORARY Record 1301;
                               BEGIN
                                 TempMiniItemTemplate.SaveAsTemplate(Rec);
                               END;
                                }
      { 8       ;2   ;Action    ;
                      Name=Templates;
                      CaptionML=ENU=Templates;
                      ToolTipML=ENU=View or edit item templates.;
                      RunObject=Page 1340;
                      RunPageView=WHERE(Table ID=CONST(27));
                      PromotedIsBig=Yes;
                      Image=Template }
      { 35      ;1   ;ActionGroup;
                      Name=View;
                      CaptionML=ENU=View }
      { 25      ;2   ;Action    ;
                      Name=ShowMainView;
                      CaptionML=ENU=Setup;
                      ToolTipML=ENU=View setup information for the item, such as cost fields and posting groups.;
                      Promoted=Yes;
                      PromotedIsBig=Yes;
                      Image=Setup;
                      PromotedCategory=Category6;
                      OnAction=BEGIN
                                 ViewSetup := NOT ViewSetup;
                               END;
                                }
    }
  }
  CONTROLS
  {
    { 1900000001;0;Container;
                ContainerType=ContentArea }

    { 1   ;1   ;Group     ;
                Name=Item;
                CaptionML=ENU=Item;
                GroupType=Group }

    { 7   ;2   ;Group     ;
                GroupType=Group }

    { 2   ;3   ;Field     ;
                ToolTipML=ENU=Specifies the number of the item. The field is either filled automatically from a defined number series, or you enter the number manually because you have enabled manual number entry in the number-series setup.;
                SourceExpr="No.";
                Importance=Promoted;
                OnAssistEdit=BEGIN
                               IF AssistEdit THEN
                                 CurrPage.UPDATE;
                             END;
                              }

    { 4   ;3   ;Field     ;
                ToolTipML=ENU=Specifies a description of the item. You can enter a maximum of 30 characters, both numbers and letters.;
                SourceExpr=Description;
                ShowMandatory=TRUE }

    { 20  ;3   ;Field     ;
                ToolTipML=ENU=Specifies if transactions with the item should be blocked, for example, because the item is in quarantine.;
                SourceExpr=Blocked }

    { 6   ;3   ;Field     ;
                ToolTipML=ENU=Specifies if the item card represents a physical item (Inventory) or a service (Service).;
                SourceExpr=Type;
                OnValidate=BEGIN
                             EnableControls;
                           END;
                            }

    { 11  ;3   ;Field     ;
                ToolTipML=ENU=Specifies the unit in which the item is held on inventory. The base unit of measure also serves as the conversion basis for alternate units of measure.;
                SourceExpr="Base Unit of Measure";
                Importance=Promoted;
                ShowMandatory=TRUE }

    { 12  ;2   ;Group     ;
                GroupType=Group }

    { 14  ;3   ;Field     ;
                ToolTipML=ENU=Specifies how many units, such as pieces, boxes, or cans, of the item are on inventory.;
                SourceExpr=Inventory;
                Importance=Promoted;
                Enabled=InventoryItemEditable }

    { 47  ;3   ;Field     ;
                CaptionML=ENU=Stockout Warning;
                ToolTipML=ENU=Specifies if a warning is displayed when you enter a quantity on a sales document that brings the item's inventory below zero. The calculation includes all sales document lines that have not yet been posted.;
                OptionCaptionML=ENU=Default (Yes),No,Yes;
                SourceExpr="Stockout Warning";
                Visible=ShowStockoutWarningDefaultYes }

    { 46  ;3   ;Field     ;
                Name=StockoutWarningDefNo;
                CaptionML=ENU=Stockout Warning;
                ToolTipML=ENU=Specifies if a warning is displayed when you enter a quantity on a sales document that brings the item's inventory below zero. The calculation includes all sales document lines that have not yet been posted.;
                OptionCaptionML=ENU=Default (No),No,Yes;
                SourceExpr="Stockout Warning";
                Visible=ShowStockoutWarningDefaultNo }

    { 45  ;3   ;Field     ;
                CaptionML=ENU=Prevent Negative Inventory;
                ToolTipML=ENU=Specifies if you can post a transaction that will bring the item's inventory below zero.;
                OptionCaptionML=ENU=Default (Yes),No,Yes;
                SourceExpr="Prevent Negative Inventory";
                Visible=PreventNegInventoryDefaultYes }

    { 43  ;3   ;Field     ;
                Name=PreventNegativeInventoryDefNo;
                CaptionML=ENU=Prevent Negative Inventory;
                ToolTipML=ENU=Specifies if you can post a transaction that will bring the item's inventory below zero.;
                OptionCaptionML=ENU=Default (No),No,Yes;
                SourceExpr=["Prevent Negative Inventory" ];
                Visible=PreventNegInventoryDefaultNo }

    { 49  ;3   ;Field     ;
                ToolTipML=ENU=Specifies that an extended text that you have set up will be added automatically on sales or purchase documents for this item.;
                SourceExpr="Automatic Ext. Texts" }

    { 50  ;3   ;Field     ;
                ToolTipML=ENU=Shows when the item card was last modified.;
                SourceExpr="Last Date Modified" }

    { 9   ;1   ;Group     ;
                Name=Price;
                CaptionML=ENU=Price;
                GroupType=Group }

    { 38  ;2   ;Field     ;
                ToolTipML=ENU=Specifies the price for one unit of the item, in LCY. You can enter a price manually or have it entered according to the Price/Profit Calculation field.;
                SourceExpr="Unit Price";
                Importance=Promoted }

    { 16  ;2   ;Field     ;
                SourceExpr=CalcUnitPriceExclVAT;
                CaptionClass='2,0,' + FIELDCAPTION("Unit Price") }

    { 29  ;2   ;Field     ;
                ToolTipML=ENU=Specifies if the Unit Price and Line Amount fields on sales document lines for this item should be shown with or without VAT.;
                SourceExpr="Price Includes VAT";
                OnValidate=BEGIN
                             IF "Price Includes VAT" = xRec."Price Includes VAT" THEN
                               EXIT;

                             CurrPage.PriceAndLineDisc.PAGE.RunUpdatePriceIncludesVatAndPrices("Price Includes VAT");
                           END;
                            }

    { 34  ;2   ;Field     ;
                ToolTipML=ENU=Specifies if the Profit % field, the Unit Price field, or neither field is calculated and filled. The value in the Profit % field is what is generally understood as the profit margin.;
                SourceExpr="Price/Profit Calculation" }

    { 36  ;2   ;Field     ;
                ToolTipML=ENU=Specifies the profit margin that you want to sell the item at. You can enter a profit percentage manually or have it entered according to the Price/Profit Calculation field.;
                DecimalPlaces=2:2;
                SourceExpr="Profit %" }

    { 44  ;2   ;Field     ;
                ToolTipML=ENU=Specifies if the item should be included in the calculation of an invoice discount on documents where the item is traded.;
                SourceExpr="Allow Invoice Disc." }

    { 48  ;2   ;Field     ;
                ToolTipML=ENU=Specifies an item group code that can be used as a criterion to grant a discount when the item is sold to a certain customer.;
                SourceExpr="Item Disc. Group";
                Importance=Promoted }

    { 1905885101;1;Group  ;
                Name=Cost;
                CaptionML=ENU=Cost;
                Visible=ViewSetup;
                Editable=ViewSetup;
                GroupType=Group }

    { 24  ;2   ;Field     ;
                ToolTipML=ENU=Specifies how the item's cost flow is recorded and whether an actual or budgeted value is capitalized and used in the cost calculation.;
                SourceExpr="Costing Method";
                Importance=Promoted;
                Enabled=FALSE }

    { 30  ;2   ;Field     ;
                ToolTipML=ENU=Specifies the most recent average cost for one unit of the item. After each sale, the unit cost is updated by automatic cost adjustment.;
                SourceExpr="Unit Cost";
                Editable=UnitCostEditable;
                OnDrillDown=VAR
                              ShowAvgCalcItem@1000 : Codeunit 5803;
                            BEGIN
                              ShowAvgCalcItem.DrillDownAvgCostAdjmtPoint(Rec)
                            END;
                             }

    { 155 ;2   ;Field     ;
                ToolTipML=ENU=Specifies the percentage of the item's last purchase cost that includes indirect costs, such as freight that is associated with the purchase of the item.;
                SourceExpr="Indirect Cost %" }

    { 32  ;2   ;Field     ;
                CaptionML=ENU=Last Purchase Cost;
                ToolTipML=ENU=Specifies the item's most recent purchase cost as invoiced by your vendor in the last posted purchase invoice for the item.;
                SourceExpr="Last Direct Cost" }

    { 17  ;1   ;Group     ;
                Name=Financial Details;
                CaptionML=ENU=Financial Details;
                Visible=ViewSetup;
                GroupType=Group }

    { 95  ;2   ;Field     ;
                ToolTipML=ENU=Links business transactions made for this item with the general ledger to account for the value of trade with the item.;
                SourceExpr="Gen. Prod. Posting Group";
                Importance=Promoted;
                ShowMandatory=TRUE }

    { 66  ;2   ;Field     ;
                ToolTipML=ENU=Links business transactions made for this item with the general ledger to account for VAT amounts that result from trade with the item.;
                SourceExpr="VAT Prod. Posting Group";
                ShowMandatory=TRUE }

    { 40  ;2   ;Field     ;
                ToolTipML=ENU=Links business transactions made for the item with an inventory account in the general ledger to group amounts for that item type.;
                SourceExpr="Inventory Posting Group";
                Importance=Promoted;
                Editable=InventoryItemEditable;
                ShowMandatory=TRUE }

    { 19  ;2   ;Field     ;
                ToolTipML=ENU=Specifies a code for the item's tariff number. To see the tariff numbers in the Tariff Numbers window, choose the field.;
                SourceExpr="Tariff No." }

    { 22  ;2   ;Field     ;
                ToolTipML=ENU=Specifies the net weight of the item.;
                SourceExpr="Net Weight" }

    { 41  ;1   ;Part      ;
                Name=PriceAndLineDisc;
                PagePartID=Page1345;
                PartType=Page }

    { 33  ;0   ;Container ;
                ContainerType=FactBoxArea }

    { 15  ;1   ;Part      ;
                SubPageLink=Source Type=CONST(Item),
                            Source No.=FIELD(No.);
                PagePartID=Page875;
                Visible=SocialListeningVisible;
                PartType=Page }

    { 13  ;1   ;Part      ;
                SubPageLink=Source Type=CONST(Item),
                            Source No.=FIELD(No.);
                PagePartID=Page876;
                Visible=SocialListeningSetupVisible;
                PartType=Page;
                UpdatePropagation=Both }

  }
  CODE
  {
    VAR
      InventoryItemEditable@1000 : Boolean INDATASET;
      UnitCostEditable@1001 : Boolean INDATASET;
      ViewSetup@1003 : Boolean;
      ShowStockoutWarningDefaultYes@1007 : Boolean;
      ShowStockoutWarningDefaultNo@1006 : Boolean;
      PreventNegInventoryDefaultYes@1005 : Boolean;
      PreventNegInventoryDefaultNo@1004 : Boolean;
      SocialListeningSetupVisible@1008 : Boolean INDATASET;
      SocialListeningVisible@1002 : Boolean INDATASET;

    LOCAL PROCEDURE EnableControls@3();
    VAR
      ItemLedgerEntry@1000 : Record 32;
    BEGIN
      InventoryItemEditable := Type = Type::Inventory;

      IF Type = Type::Inventory THEN BEGIN
        ItemLedgerEntry.SETRANGE("Item No.","No.");
        UnitCostEditable := ItemLedgerEntry.ISEMPTY;
      END ELSE
        UnitCostEditable := TRUE;

      SetSocialListeningFactboxVisibility
    END;

    LOCAL PROCEDURE VisualizingControls@5();
    VAR
      SalesSetup@1001 : Record 311;
      InventorySetup@1002 : Record 313;
    BEGIN
      SalesSetup.GET;
      ShowStockoutWarningDefaultYes := SalesSetup."Stockout Warning";
      ShowStockoutWarningDefaultNo := NOT ShowStockoutWarningDefaultYes;
      InventorySetup.GET;
      PreventNegInventoryDefaultYes := InventorySetup."Prevent Negative Inventory";
      PreventNegInventoryDefaultNo := NOT PreventNegInventoryDefaultYes;
    END;

    LOCAL PROCEDURE GetSalesPricesAndSalesLineDisc@4();
    BEGIN
      IF "No." <> CurrPage.PriceAndLineDisc.PAGE.GetLoadedItemNo THEN BEGIN
        CurrPage.PriceAndLineDisc.PAGE.LoadItem(Rec);
        CurrPage.PriceAndLineDisc.PAGE.UPDATE(FALSE);
      END;
    END;

    LOCAL PROCEDURE ShouldBeLoadedInSetupView@2() : Boolean;
    BEGIN
      EXIT('' IN [Description,
                  "VAT Prod. Posting Group",
                  "Gen. Prod. Posting Group"])
    END;

    LOCAL PROCEDURE InsertItemUnitOfMeasure@1();
    VAR
      ItemUnitOfMeasure@1000 : Record 5404;
    BEGIN
      IF "Base Unit of Measure" <> '' THEN BEGIN
        ItemUnitOfMeasure.INIT;
        ItemUnitOfMeasure."Item No." := "No.";
        ItemUnitOfMeasure.VALIDATE(Code,"Base Unit of Measure");
        ItemUnitOfMeasure."Qty. per Unit of Measure" := 1;
        ItemUnitOfMeasure.INSERT;
      END;
    END;

    LOCAL PROCEDURE SetSocialListeningFactboxVisibility@6();
    VAR
      SocialListeningMgt@1000 : Codeunit 871;
    BEGIN
      SocialListeningMgt.GetItemFactboxVisibility(Rec,SocialListeningSetupVisible,SocialListeningVisible);
    END;

    BEGIN
    END.
  }
}

