OBJECT Page 224 Res. Capacity Entries
{
  OBJECT-PROPERTIES
  {
    Date=14/08/09;
    Time=12:00:00;
    Version List=NAVW16.00.01;
  }
  PROPERTIES
  {
    Editable=No;
    CaptionML=[ENU=Res. Capacity Entries;
               PTB=Movs. Capacidade Recurso];
    SourceTable=Table160;
    DataCaptionFields=Resource No.,Resource Group No.;
    PageType=List;
  }
  CONTROLS
  {
    { 1900000001;0;Container;
                ContainerType=ContentArea }

    { 1   ;1   ;Group     ;
                GroupType=Repeater }

    { 8   ;2   ;Field     ;
                SourceExpr=Date }

    { 4   ;2   ;Field     ;
                SourceExpr="Resource No." }

    { 6   ;2   ;Field     ;
                SourceExpr="Resource Group No." }

    { 10  ;2   ;Field     ;
                SourceExpr=Capacity }

    { 2   ;2   ;Field     ;
                SourceExpr="Entry No." }

    { 1900000007;0;Container;
                ContainerType=FactBoxArea }

    { 1900383207;1;Part   ;
                Visible=FALSE;
                PartType=System;
                SystemPartID=RecordLinks }

    { 1905767507;1;Part   ;
                Visible=FALSE;
                PartType=System;
                SystemPartID=Notes }

  }
  CODE
  {

    BEGIN
    END.
  }
}

