OBJECT Page 35 Item Translations
{
  OBJECT-PROPERTIES
  {
    Date=14/08/09;
    Time=12:00:00;
    Version List=NAVW16.00.01;
  }
  PROPERTIES
  {
    CaptionML=[ENU=Item Translations;
               PTB=Traduášes Produto];
    SourceTable=Table30;
    DataCaptionFields=Item No.;
    PageType=List;
  }
  CONTROLS
  {
    { 1900000001;0;Container;
                ContainerType=ContentArea }

    { 1   ;1   ;Group     ;
                GroupType=Repeater }

    { 11  ;2   ;Field     ;
                SourceExpr="Item No.";
                Visible=FALSE }

    { 6   ;2   ;Field     ;
                SourceExpr="Variant Code";
                Visible=FALSE }

    { 2   ;2   ;Field     ;
                SourceExpr="Language Code" }

    { 4   ;2   ;Field     ;
                SourceExpr=Description }

    { 13  ;2   ;Field     ;
                SourceExpr="Description 2";
                Visible=FALSE }

    { 1900000007;0;Container;
                ContainerType=FactBoxArea }

    { 1900383207;1;Part   ;
                Visible=FALSE;
                PartType=System;
                SystemPartID=RecordLinks }

    { 1905767507;1;Part   ;
                Visible=FALSE;
                PartType=System;
                SystemPartID=Notes }

  }
  CODE
  {

    BEGIN
    END.
  }
}

