OBJECT Page 357 Companies
{
  OBJECT-PROPERTIES
  {
    Date=09/09/14;
    Time=12:00:00;
    Version List=NAVW18.00;
  }
  PROPERTIES
  {
    CaptionML=[ENU=Companies;
               PTB=Empresas];
    SourceTable=Table2000000006;
    PageType=List;
    OnDeleteRecord=BEGIN
                     EXIT(CONFIRM(DeleteCompanyQst,FALSE));
                   END;

    ActionList=ACTIONS
    {
      { 3       ;    ;ActionContainer;
                      ActionContainerType=ActionItems }
      { 4       ;1   ;Action    ;
                      Name=CopyCompany;
                      CaptionML=[ENU=Copy;
                                 PTB=Copiar];
                      Promoted=Yes;
                      PromotedIsBig=No;
                      Image=Copy;
                      OnAction=VAR
                                 Company@1000 : Record 2000000006;
                                 CopyCompany@1001 : Report 357;
                               BEGIN
                                 Company.SETRANGE(Name,Name);
                                 CopyCompany.SETTABLEVIEW(Company);
                                 CopyCompany.RUNMODAL;

                                 IF GET(CopyCompany.GetCompanyName) THEN;
                               END;
                                }
    }
  }
  CONTROLS
  {
    { 1900000001;0;Container;
                ContainerType=ContentArea }

    { 1   ;1   ;Group     ;
                GroupType=Repeater }

    { 2   ;2   ;Field     ;
                CaptionML=[ENU=Name;
                           PTB=Nome];
                SourceExpr=Name }

    { 1900000007;0;Container;
                ContainerType=FactBoxArea }

    { 1900383207;1;Part   ;
                Visible=FALSE;
                PartType=System;
                SystemPartID=RecordLinks }

    { 1905767507;1;Part   ;
                Visible=FALSE;
                PartType=System;
                SystemPartID=Notes }

  }
  CODE
  {
    VAR
      DeleteCompanyQst@1000 : TextConst 'ENU=Do you want to delete the company?\All company data will be deleted.\\Do you want to continue?';

    BEGIN
    END.
  }
}

