OBJECT Page 467 Tax Groups
{
  OBJECT-PROPERTIES
  {
    Date=07/09/12;
    Time=12:00:00;
    Version List=NAVW17.00;
  }
  PROPERTIES
  {
    CaptionML=[ENU=Tax Groups;
               PTB=Grupos de Impostos];
    SourceTable=Table321;
    PageType=List;
    ActionList=ACTIONS
    {
      { 1900000003;0 ;ActionContainer;
                      ActionContainerType=RelatedInformation }
      { 9       ;1   ;ActionGroup;
                      CaptionML=[ENU=&Group;
                                 PTB=&Group];
                      Image=Group }
      { 10      ;2   ;Action    ;
                      CaptionML=[ENU=Details;
                                 PTB=Detalhes];
                      RunObject=Page 468;
                      RunPageLink=Tax Group Code=FIELD(Code);
                      Image=View }
    }
  }
  CONTROLS
  {
    { 1900000001;0;Container;
                ContainerType=ContentArea }

    { 1   ;1   ;Group     ;
                GroupType=Repeater }

    { 2   ;2   ;Field     ;
                SourceExpr=Code }

    { 4   ;2   ;Field     ;
                SourceExpr=Description }

    { 1900000007;0;Container;
                ContainerType=FactBoxArea }

    { 1900383207;1;Part   ;
                Visible=FALSE;
                PartType=System;
                SystemPartID=RecordLinks }

    { 1905767507;1;Part   ;
                Visible=FALSE;
                PartType=System;
                SystemPartID=Notes }

  }
  CODE
  {

    BEGIN
    END.
  }
}

