OBJECT Page 445 Finance Charge Text
{
  OBJECT-PROPERTIES
  {
    Date=14/08/09;
    Time=12:00:00;
    Version List=NAVW16.00.01;
  }
  PROPERTIES
  {
    CaptionML=[ENU=Finance Charge Text;
               PTB=Texto Nota de Juros];
    SaveValues=Yes;
    MultipleNewLines=Yes;
    SourceTable=Table301;
    DelayedInsert=Yes;
    DataCaptionFields=Fin. Charge Terms Code,Position;
    PageType=List;
    AutoSplitKey=Yes;
  }
  CONTROLS
  {
    { 1900000001;0;Container;
                ContainerType=ContentArea }

    { 1   ;1   ;Group     ;
                GroupType=Repeater }

    { 2   ;2   ;Field     ;
                SourceExpr="Fin. Charge Terms Code";
                Visible=FALSE }

    { 8   ;2   ;Field     ;
                SourceExpr=Position;
                Visible=FALSE }

    { 10  ;2   ;Field     ;
                SourceExpr=Text }

    { 1900000007;0;Container;
                ContainerType=FactBoxArea }

    { 1900383207;1;Part   ;
                Visible=FALSE;
                PartType=System;
                SystemPartID=RecordLinks }

    { 1905767507;1;Part   ;
                Visible=FALSE;
                PartType=System;
                SystemPartID=Notes }

  }
  CODE
  {

    BEGIN
    END.
  }
}

