OBJECT Page 439 Issued Reminder Lines
{
  OBJECT-PROPERTIES
  {
    Date=27/11/14;
    Time=12:00:00;
    Version List=NAVW18.00.00.38798;
  }
  PROPERTIES
  {
    Editable=No;
    CaptionML=[ENU=Lines;
               PTB=Linhas];
    LinksAllowed=No;
    SourceTable=Table298;
    PageType=ListPart;
    AutoSplitKey=Yes;
  }
  CONTROLS
  {
    { 1900000001;0;Container;
                ContainerType=ContentArea }

    { 1   ;1   ;Group     ;
                GroupType=Repeater }

    { 28  ;2   ;Field     ;
                SourceExpr=Type }

    { 30  ;2   ;Field     ;
                SourceExpr="No." }

    { 2   ;2   ;Field     ;
                SourceExpr="Posting Date";
                Visible=FALSE }

    { 4   ;2   ;Field     ;
                SourceExpr="Document Date";
                Visible=FALSE }

    { 6   ;2   ;Field     ;
                SourceExpr="Document Type" }

    { 8   ;2   ;Field     ;
                SourceExpr="Document No." }

    { 22  ;2   ;Field     ;
                SourceExpr="Due Date" }

    { 10  ;2   ;Field     ;
                SourceExpr=Description }

    { 14  ;2   ;Field     ;
                SourceExpr="Original Amount";
                Visible=FALSE }

    { 16  ;2   ;Field     ;
                SourceExpr="Remaining Amount" }

    { 18  ;2   ;Field     ;
                SourceExpr=Amount }

    { 12  ;2   ;Field     ;
                SourceExpr="No. of Reminders";
                Visible=FALSE }

    { 32  ;2   ;Field     ;
                SourceExpr="Applies-To Document Type";
                Visible=FALSE }

    { 34  ;2   ;Field     ;
                SourceExpr="Applies-To Document No.";
                Visible=FALSE }

  }
  CODE
  {

    BEGIN
    END.
  }
}

