OBJECT Page 429 Territories
{
  OBJECT-PROPERTIES
  {
    Date=14/08/09;
    Time=12:00:00;
    Version List=NAVW16.00.01,NAVBR7;
  }
  PROPERTIES
  {
    CaptionML=[ENU=Territories;
               PTB=Unidades Federais];
    SourceTable=Table286;
    PageType=List;
  }
  CONTROLS
  {
    { 1900000001;0;Container;
                ContainerType=ContentArea }

    { 1   ;1   ;Group     ;
                GroupType=Repeater }

    { 2   ;2   ;Field     ;
                SourceExpr=Code }

    { 4   ;2   ;Field     ;
                SourceExpr=Name }

    { 1102300000;2;Field  ;
                SourceExpr="GIA Territory Code" }

    { 1102300001;2;Field  ;
                SourceExpr="IBGE Code" }

    { 1900000007;0;Container;
                ContainerType=FactBoxArea }

    { 1900383207;1;Part   ;
                Visible=FALSE;
                PartType=System;
                SystemPartID=RecordLinks }

    { 1905767507;1;Part   ;
                Visible=FALSE;
                PartType=System;
                SystemPartID=Notes }

  }
  CODE
  {

    BEGIN
    END.
  }
}

