OBJECT Page 535 Windows Languages
{
  OBJECT-PROPERTIES
  {
    Date=14/08/09;
    Time=12:00:00;
    Version List=NAVW16.00.01;
  }
  PROPERTIES
  {
    Editable=No;
    CaptionML=[ENU=Windows Languages;
               PTB=Linguagens Windows];
    SourceTable=Table2000000045;
    PageType=List;
  }
  CONTROLS
  {
    { 1900000001;0;Container;
                ContainerType=ContentArea }

    { 1   ;1   ;Group     ;
                GroupType=Repeater }

    { 9   ;2   ;Field     ;
                CaptionML=[ENU=ID;
                           PTB=ID];
                SourceExpr="Language ID" }

    { 4   ;2   ;Field     ;
                CaptionML=[ENU=Name;
                           PTB=Name];
                SourceExpr=Name }

    { 1900000007;0;Container;
                ContainerType=FactBoxArea }

    { 1900383207;1;Part   ;
                Visible=FALSE;
                PartType=System;
                SystemPartID=RecordLinks }

    { 1905767507;1;Part   ;
                Visible=FALSE;
                PartType=System;
                SystemPartID=Notes }

  }
  CODE
  {

    BEGIN
    END.
  }
}

