OBJECT Page 5756 Transfer Shipment Statistics
{
  OBJECT-PROPERTIES
  {
    Date=05/11/08;
    Time=12:00:00;
    Version List=NAVW16.00;
  }
  PROPERTIES
  {
    Editable=No;
    CaptionML=[ENU=Transfer Shipment Statistics;
               PTB=Estatísticas Envio Transf.];
    LinksAllowed=No;
    SourceTable=Table5744;
    PageType=Card;
    OnAfterGetRecord=VAR
                       TransShptLine@1000 : Record 5745;
                     BEGIN
                       CLEARALL;

                       TransShptLine.SETRANGE("Document No.","No.");

                       IF TransShptLine.FIND('-') THEN
                         REPEAT
                           LineQty := LineQty + TransShptLine.Quantity;
                           TotalNetWeight :=
                             TotalNetWeight + (TransShptLine.Quantity * TransShptLine."Net Weight");
                           TotalGrossWeight :=
                             TotalGrossWeight + (TransShptLine.Quantity * TransShptLine."Gross Weight");
                           TotalVolume :=
                             TotalVolume + (TransShptLine.Quantity * TransShptLine."Unit Volume");
                           IF TransShptLine."Units per Parcel" > 0 THEN
                             TotalParcels :=
                               TotalParcels +
                               ROUND(TransShptLine.Quantity / TransShptLine."Units per Parcel",1,'>');
                         UNTIL TransShptLine.NEXT = 0;
                     END;

  }
  CONTROLS
  {
    { 1900000001;0;Container;
                ContainerType=ContentArea }

    { 2   ;1   ;Group     ;
                CaptionML=[ENU=General;
                           PTB=Geral] }

    { 3   ;2   ;Field     ;
                CaptionML=[ENU=Quantity;
                           PTB=Quantidade];
                DecimalPlaces=0:5;
                SourceExpr=LineQty }

    { 13  ;2   ;Field     ;
                CaptionML=[ENU=Parcels;
                           PTB=Parcelas];
                DecimalPlaces=0:5;
                SourceExpr=TotalParcels }

    { 7   ;2   ;Field     ;
                CaptionML=[ENU=Net Weight;
                           PTB=Peso Liquido];
                DecimalPlaces=0:5;
                SourceExpr=TotalNetWeight }

    { 10  ;2   ;Field     ;
                CaptionML=[ENU=Gross Weight;
                           PTB=Peso Bruto];
                DecimalPlaces=0:5;
                SourceExpr=TotalGrossWeight }

    { 17  ;2   ;Field     ;
                CaptionML=[ENU=Volume;
                           PTB=Volume];
                DecimalPlaces=0:5;
                SourceExpr=TotalVolume }

  }
  CODE
  {
    VAR
      LineQty@1000 : Decimal;
      TotalNetWeight@1001 : Decimal;
      TotalGrossWeight@1002 : Decimal;
      TotalVolume@1003 : Decimal;
      TotalParcels@1004 : Decimal;

    BEGIN
    END.
  }
}

