OBJECT Page 585 XBRL Comment Lines
{
  OBJECT-PROPERTIES
  {
    Date=07/09/12;
    Time=12:00:00;
    Version List=NAVW17.00;
  }
  PROPERTIES
  {
    CaptionML=[ENU=XBRL Comment Lines;
               PTB=Linhas Coment rio XBRL];
    LinksAllowed=No;
    SourceTable=Table396;
    DataCaptionExpr=GetCaption;
    PageType=List;
    AutoSplitKey=Yes;
    OnNewRecord=BEGIN
                  IF BelowxRec THEN
                    Date := xRec.Date;
                END;

  }
  CONTROLS
  {
    { 1900000001;0;Container;
                ContainerType=ContentArea }

    { 1   ;1   ;Group     ;
                GroupType=Repeater }

    { 2   ;2   ;Field     ;
                SourceExpr="Comment Type";
                Visible=FALSE }

    { 9   ;2   ;Field     ;
                SourceExpr=Date }

    { 4   ;2   ;Field     ;
                SourceExpr=Comment }

  }
  CODE
  {

    LOCAL PROCEDURE GetCaption@1() : Text[250];
    VAR
      XBRLLine@1000 : Record 395;
    BEGIN
      IF NOT XBRLLine.GET("XBRL Taxonomy Name","XBRL Taxonomy Line No.") THEN
        EXIT(FORMAT("Comment Type"));

      COPYFILTER("Label Language Filter",XBRLLine."Label Language Filter");
      XBRLLine.CALCFIELDS(Label);
      IF XBRLLine.Label = '' THEN
        XBRLLine.Label := XBRLLine.Name;
      EXIT(XBRLLine.Label + '-' + FORMAT("Comment Type"));
    END;

    BEGIN
    END.
  }
}

