OBJECT Page 5080 Job Responsibilities
{
  OBJECT-PROPERTIES
  {
    Date=07/09/12;
    Time=12:00:00;
    Version List=NAVW17.00;
  }
  PROPERTIES
  {
    CaptionML=[ENU=Job Responsibilities;
               PTB=Cargos];
    SourceTable=Table5066;
    PageType=List;
    ActionList=ACTIONS
    {
      { 1900000003;0 ;ActionContainer;
                      ActionContainerType=RelatedInformation }
      { 11      ;1   ;ActionGroup;
                      CaptionML=[ENU=&Job Responsibility;
                                 PTB=&Projeto Responsabilidade];
                      Image=Job }
      { 12      ;2   ;Action    ;
                      CaptionML=[ENU=C&ontacts;
                                 PTB=C&ontatos];
                      RunObject=Page 5083;
                      RunPageLink=Job Responsibility Code=FIELD(Code);
                      Image=CustomerContact }
    }
  }
  CONTROLS
  {
    { 1900000001;0;Container;
                ContainerType=ContentArea }

    { 1   ;1   ;Group     ;
                GroupType=Repeater }

    { 2   ;2   ;Field     ;
                SourceExpr=Code }

    { 4   ;2   ;Field     ;
                SourceExpr=Description }

    { 6   ;2   ;Field     ;
                SourceExpr="No. of Contacts";
                DrillDownPageID=Job Responsibility Contacts }

    { 1900000007;0;Container;
                ContainerType=FactBoxArea }

    { 1900383207;1;Part   ;
                Visible=FALSE;
                PartType=System;
                SystemPartID=RecordLinks }

    { 1905767507;1;Part   ;
                Visible=FALSE;
                PartType=System;
                SystemPartID=Notes }

  }
  CODE
  {

    BEGIN
    END.
  }
}

