OBJECT Page 52112462 Contributor Substitute
{
  OBJECT-PROPERTIES
  {
    Date=30/04/13;
    Time=18:16:38;
    Version List=NAVBR7;
  }
  PROPERTIES
  {
    CaptionML=[ENU=Contributor Substitute;
               PTB=Contribuinte Substituto];
    SourceTable=Table52112572;
    PageType=Card;
  }
  CONTROLS
  {
    { 1900000001;0;Container;
                ContainerType=ContentArea }

    { 1102300000;1;Group  ;
                GroupType=Repeater }

    { 1102300001;2;Field  ;
                SourceExpr=UF }

    { 1102300003;2;Field  ;
                SourceExpr="State Inscr." }

  }
  CODE
  {

    BEGIN
    END.
  }
}

