OBJECT Page 5170 Answer Where-Used
{
  OBJECT-PROPERTIES
  {
    Date=14/08/09;
    Time=12:00:00;
    Version List=NAVW16.00.01;
  }
  PROPERTIES
  {
    Editable=No;
    CaptionML=[ENU=Answer Where-Used;
               PTB=Onde-Usada Resposta];
    SourceTable=Table5111;
    SourceTableView=SORTING(Rating Profile Quest. Code,Rating Profile Quest. Line No.);
    DataCaptionFields=Rating Profile Quest. Line No.;
    PageType=List;
  }
  CONTROLS
  {
    { 1900000001;0;Container;
                ContainerType=ContentArea }

    { 1   ;1   ;Group     ;
                GroupType=Repeater }

    { 2   ;2   ;Field     ;
                SourceExpr="Profile Questionnaire Code" }

    { 11  ;2   ;Field     ;
                DrillDown=No;
                SourceExpr="Profile Question Description" }

    { 6   ;2   ;Field     ;
                SourceExpr=Points }

    { 1900000007;0;Container;
                ContainerType=FactBoxArea }

    { 1900383207;1;Part   ;
                Visible=FALSE;
                PartType=System;
                SystemPartID=RecordLinks }

    { 1905767507;1;Part   ;
                Visible=FALSE;
                PartType=System;
                SystemPartID=Notes }

  }
  CODE
  {

    BEGIN
    END.
  }
}

