OBJECT Page 5216 Employee Statistics Groups
{
  OBJECT-PROPERTIES
  {
    Date=05/11/08;
    Time=12:00:00;
    Version List=NAVW16.00;
  }
  PROPERTIES
  {
    CaptionML=[ENU=Employee Statistics Groups;
               PTB=Gr. Estatísticos Empregados];
    LinksAllowed=No;
    SourceTable=Table5212;
    PageType=List;
  }
  CONTROLS
  {
    { 1900000001;0;Container;
                ContainerType=ContentArea }

    { 1   ;1   ;Group     ;
                GroupType=Repeater }

    { 2   ;2   ;Field     ;
                SourceExpr=Code }

    { 4   ;2   ;Field     ;
                SourceExpr=Description }

  }
  CODE
  {

    BEGIN
    END.
  }
}

