OBJECT Page 5104 Contact Picture
{
  OBJECT-PROPERTIES
  {
    Date=07/09/12;
    Time=12:00:00;
    Version List=NAVW17.00;
  }
  PROPERTIES
  {
    CaptionML=[ENU=Contact Picture;
               PTB=Imagem Contato];
    InsertAllowed=No;
    DeleteAllowed=No;
    LinksAllowed=No;
    SourceTable=Table5050;
    PageType=Card;
  }
  CONTROLS
  {
    { 1900000001;0;Container;
                ContainerType=ContentArea }

    { 1   ;1   ;Field     ;
                SourceExpr=Picture }

  }
  CODE
  {

    BEGIN
    END.
  }
}

