OBJECT Page 5115 Profile Contacts
{
  OBJECT-PROPERTIES
  {
    Date=14/08/09;
    Time=12:00:00;
    Version List=NAVW16.00.01;
  }
  PROPERTIES
  {
    CaptionML=[ENU=Profile Contacts;
               PTB=Perfil Contatos];
    SourceTable=Table5089;
    PageType=List;
  }
  CONTROLS
  {
    { 1900000001;0;Container;
                ContainerType=ContentArea }

    { 1   ;1   ;Group     ;
                GroupType=Repeater }

    { 2   ;2   ;Field     ;
                SourceExpr="Contact No." }

    { 4   ;2   ;Field     ;
                DrillDown=No;
                SourceExpr="Contact Company Name" }

    { 6   ;2   ;Field     ;
                DrillDown=No;
                SourceExpr="Contact Name" }

    { 1900000007;0;Container;
                ContainerType=FactBoxArea }

    { 1900383207;1;Part   ;
                Visible=FALSE;
                PartType=System;
                SystemPartID=RecordLinks }

    { 1905767507;1;Part   ;
                Visible=FALSE;
                PartType=System;
                SystemPartID=Notes }

  }
  CODE
  {

    BEGIN
    END.
  }
}

