OBJECT Page 52112932 DELETED DIRF Line Subform
{
  OBJECT-PROPERTIES
  {
    Date=01/01/13;
    Time=10:18:16;
    Version List=NAVBR7;
  }
  PROPERTIES
  {
    MultipleNewLines=Yes;
    InsertAllowed=No;
    SourceTable=Table52112928;
    DelayedInsert=Yes;
    PageType=ListPart;
  }
  CONTROLS
  {
  }
  CODE
  {

    BEGIN
    END.
  }
}

