OBJECT Page 5430 Planning Error Log
{
  OBJECT-PROPERTIES
  {
    Date=14/08/09;
    Time=12:00:00;
    Version List=NAVW16.00.01;
  }
  PROPERTIES
  {
    Editable=No;
    CaptionML=[ENU=Planning Error Log;
               PTB=Registro Erro Planejamento];
    SourceTable=Table5430;
    DataCaptionExpr=Caption;
    PageType=List;
    ActionList=ACTIONS
    {
      { 1900000004;0 ;ActionContainer;
                      ActionContainerType=ActionItems }
      { 2       ;1   ;Action    ;
                      CaptionML=[ENU=&Show;
                                 PTB=&Show];
                      Promoted=Yes;
                      Image=View;
                      PromotedCategory=Process;
                      OnAction=BEGIN
                                 ShowError;
                               END;
                                }
    }
  }
  CONTROLS
  {
    { 1900000001;0;Container;
                ContainerType=ContentArea }

    { 1   ;1   ;Group     ;
                GroupType=Repeater }

    { 4   ;2   ;Field     ;
                SourceExpr="Item No." }

    { 6   ;2   ;Field     ;
                SourceExpr="Error Description" }

    { 1900000007;0;Container;
                ContainerType=FactBoxArea }

    { 1900383207;1;Part   ;
                Visible=FALSE;
                PartType=System;
                SystemPartID=RecordLinks }

    { 1905767507;1;Part   ;
                Visible=FALSE;
                PartType=System;
                SystemPartID=Notes }

  }
  CODE
  {

    BEGIN
    END.
  }
}

