OBJECT Page 50006 Nathan Table Listing
{
  OBJECT-PROPERTIES
  {
    Date=12/09/17;
    Time=10:08:30;
    Modified=Yes;
    Version List=;
  }
  PROPERTIES
  {
    SourceTable=Table2000000028;
    PageType=List;
  }
  CONTROLS
  {
    { 1000000000;0;Container;
                ContainerType=ContentArea }

    { 1000000001;1;Group  ;
                Name=Group;
                GroupType=Repeater }

    { 1000000002;2;Field  ;
                SourceExpr="Company Name" }

    { 1000000003;2;Field  ;
                SourceExpr="Table No." }

    { 1000000004;2;Field  ;
                SourceExpr="Table Name" }

    { 1000000005;2;Field  ;
                SourceExpr="No. of Records" }

  }
  CODE
  {

    BEGIN
    END.
  }
}

