OBJECT Page 5311 Outlook Synch. Dependencies
{
  OBJECT-PROPERTIES
  {
    Date=07/09/12;
    Time=12:00:00;
    Version List=NAVW17.00;
  }
  PROPERTIES
  {
    CaptionML=[ENU=Outlook Synch. Dependencies;
               PTB=Outlook Sincronizar Dependłncias];
    SourceTable=Table5311;
    DataCaptionExpr=GetFormCaption;
    DelayedInsert=Yes;
    DataCaptionFields=Synch. Entity Code;
    PageType=List;
  }
  CONTROLS
  {
    { 1900000001;0;Container;
                ContainerType=ContentArea }

    { 1   ;1   ;Group     ;
                GroupType=Repeater }

    { 2   ;2   ;Field     ;
                SourceExpr="Depend. Synch. Entity Code" }

    { 4   ;2   ;Field     ;
                SourceExpr=Description }

    { 9   ;2   ;Field     ;
                SourceExpr=Condition;
                OnAssistEdit=BEGIN
                               IF ISNULLGUID("Record GUID") THEN
                                 "Record GUID" := CREATEGUID;

                               OSynchEntityElement.GET("Synch. Entity Code","Element No.");
                               Condition :=
                                 COPYSTR(OSynchSetupMgt.ShowOSynchFiltersForm("Record GUID",OSynchEntityElement."Table No.",0),1,MAXSTRLEN(Condition));
                             END;
                              }

    { 11  ;2   ;Field     ;
                SourceExpr="Table Relation";
                OnAssistEdit=BEGIN
                               IF ISNULLGUID("Record GUID") THEN
                                 "Record GUID" := CREATEGUID;

                               OSynchEntity.GET("Depend. Synch. Entity Code");
                               OSynchEntityElement.GET("Synch. Entity Code","Element No.");
                               "Table Relation" :=
                                 COPYSTR(
                                   OSynchSetupMgt.ShowOSynchFiltersForm("Record GUID",OSynchEntity."Table No.",OSynchEntityElement."Table No."),
                                   1,MAXSTRLEN(Condition));
                             END;
                              }

    { 1900000007;0;Container;
                ContainerType=FactBoxArea }

    { 1900383207;1;Part   ;
                Visible=FALSE;
                PartType=System;
                SystemPartID=RecordLinks }

    { 1905767507;1;Part   ;
                Visible=FALSE;
                PartType=System;
                SystemPartID=Notes }

  }
  CODE
  {
    VAR
      OSynchEntity@1002 : Record 5300;
      OSynchEntityElement@1001 : Record 5301;
      OSynchSetupMgt@1000 : Codeunit 5300;

    PROCEDURE GetFormCaption@2() : Text[80];
    BEGIN
      EXIT(STRSUBSTNO('%1 %2 %3',OSynchEntityElement.TABLECAPTION,"Synch. Entity Code","Element No."));
    END;

    BEGIN
    END.
  }
}

