OBJECT Page 680 Report Inbox
{
  OBJECT-PROPERTIES
  {
    Date=09/09/14;
    Time=12:00:00;
    Version List=NAVW18.00;
  }
  PROPERTIES
  {
    CaptionML=ENU=Report Inbox;
    InsertAllowed=No;
    DeleteAllowed=No;
    ModifyAllowed=No;
    SourceTable=Table477;
    SourceTableView=SORTING(User ID,Created Date-Time)
                    ORDER(Descending);
    PageType=List;
  }
  CONTROLS
  {
    { 1   ;0   ;Container ;
                ContainerType=ContentArea }

    { 2   ;1   ;Group     ;
                Name=Group;
                GroupType=Repeater }

    { 3   ;2   ;Field     ;
                SourceExpr="User ID" }

    { 4   ;2   ;Field     ;
                SourceExpr="Created Date-Time" }

    { 5   ;2   ;Field     ;
                SourceExpr="Report ID" }

    { 6   ;2   ;Field     ;
                SourceExpr="Report Name" }

  }
  CODE
  {

    BEGIN
    END.
  }
}

