OBJECT Page 6507 Item Tracking List
{
  OBJECT-PROPERTIES
  {
    Date=14/08/09;
    Time=12:00:00;
    Version List=NAVW16.00.01;
  }
  PROPERTIES
  {
    Editable=No;
    CaptionML=[ENU=Item Tracking List;
               PTB=Lista Rastreabilidade Produto];
    SourceTable=Table337;
    PageType=List;
  }
  CONTROLS
  {
    { 1900000001;0;Container;
                ContainerType=ContentArea }

    { 1   ;1   ;Group     ;
                GroupType=Repeater }

    { 2   ;2   ;Field     ;
                SourceExpr="Serial No." }

    { 4   ;2   ;Field     ;
                SourceExpr="Lot No." }

    { 6   ;2   ;Field     ;
                SourceExpr="Warranty Date";
                Visible=FALSE }

    { 8   ;2   ;Field     ;
                SourceExpr="Expiration Date";
                Visible=FALSE }

    { 10  ;2   ;Field     ;
                SourceExpr="Quantity (Base)" }

    { 1900000007;0;Container;
                ContainerType=FactBoxArea }

    { 1900383207;1;Part   ;
                Visible=FALSE;
                PartType=System;
                SystemPartID=RecordLinks }

    { 1905767507;1;Part   ;
                Visible=FALSE;
                PartType=System;
                SystemPartID=Notes }

  }
  CODE
  {

    BEGIN
    END.
  }
}

