OBJECT Page 6059 Contract Statistics
{
  OBJECT-PROPERTIES
  {
    Date=07/09/12;
    Time=12:00:00;
    Version List=NAVW17.00;
  }
  PROPERTIES
  {
    Editable=No;
    CaptionML=[ENU=Contract Statistics;
               PTB=Estatísticas Contrato];
    LinksAllowed=No;
    SourceTable=Table5965;
    PageType=Card;
    OnAfterGetRecord=VAR
                       ServLedgerEntry@1000 : Record 5907;
                     BEGIN
                       CLEARALL;
                       ServLedgerEntry.RESET;
                       ServLedgerEntry.SETRANGE("Service Contract No.","Contract No.");
                       ServLedgerEntry.SETRANGE("Entry Type",ServLedgerEntry."Entry Type"::Sale);
                       SETRANGE("Type Filter","Type Filter"::"Service Contract");
                       CALCFIELDS(
                         "Contract Invoice Amount","Contract Prepaid Amount","Contract Cost Amount",
                         "Contract Discount Amount");

                       Income[4] := "Contract Invoice Amount";
                       TotalDiscount[4] := "Contract Discount Amount";
                       TotalCost[4] := "Contract Cost Amount";
                       ProfitAmount[4] := Income[4] - TotalCost[4];
                       ProfitAmountPercent[4] := CalcPercentage(ProfitAmount[4],Income[4]);

                       Income[5] := Income[5] + Income[4];
                       PrepaidIncome := "Contract Prepaid Amount";

                       TotalCost[5] := TotalCost[5] + TotalCost[4];
                       TotalDiscount[5] := TotalDiscount[5] + TotalDiscount[4];
                       FOR i := 1 TO 3 DO BEGIN
                         IF i = 3 THEN
                           SETFILTER("Type Filter",'%1|%2',"Type Filter"::"Service Cost","Type Filter"::"G/L Account")
                         ELSE
                           SETRANGE("Type Filter",i);
                         ServLedgerEntry.SETRANGE(Type,i);
                         IF ServLedgerEntry.FINDSET THEN
                           REPEAT
                             TotalDiscount[i] := TotalDiscount[i] - ServLedgerEntry."Discount Amount";
                           UNTIL ServLedgerEntry.NEXT = 0;
                         CALCFIELDS("Contract Invoice Amount","Contract Discount Amount","Contract Cost Amount");

                         Income[i] := "Contract Invoice Amount";
                         Income[5] := Income[5] + "Contract Invoice Amount";

                         TotalCost[i] := "Contract Cost Amount";
                         TotalCost[5] := TotalCost[5] + TotalCost[i];

                         TotalDiscount[5] := TotalDiscount[5] + TotalDiscount[i];
                         ProfitAmount[i] := Income[i] - TotalCost[i];
                         ProfitAmount[i] := MakeNegativeZero(ProfitAmount[i]);

                         ProfitAmountPercent[i] := CalcPercentage(ProfitAmount[i],Income[i]);
                       END;

                       TotalIncome := Income[5] + PrepaidIncome;

                       ProfitAmount[5] := Income[5] - TotalCost[5];
                       ProfitAmountPercent[5] := CalcPercentage(ProfitAmount[5],Income[5]);
                       ProfitAmountPercent[5] := MakeNegativeZero(ProfitAmountPercent[5]);
                       ProfitAmount[5] := MakeNegativeZero(ProfitAmount[5]);

                       TotalProfit := TotalIncome - TotalCost[5];
                       TotalProfit := MakeNegativeZero(TotalProfit);

                       TotalProfitPct := CalcPercentage(TotalProfit,TotalIncome);

                       SETRANGE("Type Filter");
                     END;

  }
  CONTROLS
  {
    { 1900000001;0;Container;
                ContainerType=ContentArea }

    { 2   ;1   ;Group     ;
                CaptionML=[ENU=General;
                           PTB=Geral] }

    { 1903895201;2;Group  ;
                GroupType=FixedLayout }

    { 1900724401;3;Group  ;
                CaptionML=[ENU=Resources;
                           PTB=Recursos] }

    { 19  ;4   ;Field     ;
                CaptionML=[ENU=Invoiced Amount;
                           PTB=Nota Fiscald Valor];
                SourceExpr=Income[1];
                AutoFormatType=1 }

    { 13  ;4   ;Field     ;
                CaptionML=[ENU=Discount Amount;
                           PTB=Discount Valor];
                SourceExpr=TotalDiscount[1];
                AutoFormatType=1 }

    { 29  ;4   ;Field     ;
                CaptionML=[ENU=Cost Amount;
                           PTB=Cost Valor];
                SourceExpr=TotalCost[1];
                AutoFormatType=1 }

    { 34  ;4   ;Field     ;
                CaptionML=[ENU=Profit Amount;
                           PTB=Profit Valor];
                SourceExpr=ProfitAmount[1];
                AutoFormatType=1 }

    { 38  ;4   ;Field     ;
                CaptionML=[ENU=Profit %;
                           PTB=Profit %];
                DecimalPlaces=1:1;
                SourceExpr=ProfitAmountPercent[1];
                AutoFormatType=1 }

    { 25  ;4   ;Field     ;
                CaptionML=[ENU=Prepaid Amount;
                           PTB=Prepaid Valor];
                SourceExpr=Text000;
                Visible=FALSE }

    { 44  ;4   ;Field     ;
                CaptionML=[ENU=Total Amount;
                           PTB=Total Valor];
                SourceExpr=Text000;
                Visible=FALSE }

    { 48  ;4   ;Field     ;
                CaptionML=[ENU=Profit Amount;
                           PTB=Profit Valor];
                SourceExpr=Text000;
                Visible=FALSE }

    { 52  ;4   ;Field     ;
                CaptionML=[ENU=Profit %;
                           PTB=Profit %];
                SourceExpr=Text000;
                Visible=FALSE }

    { 1900724301;3;Group  ;
                CaptionML=[ENU=Items;
                           PTB=Itens] }

    { 21  ;4   ;Field     ;
                CaptionML=[ENU=Invoiced Amount;
                           PTB=Nota Fiscald Valor];
                SourceExpr=Income[2];
                AutoFormatType=1 }

    { 14  ;4   ;Field     ;
                CaptionML=[ENU=Discount Amount;
                           PTB=Discount Valor];
                SourceExpr=TotalDiscount[2];
                AutoFormatType=1 }

    { 30  ;4   ;Field     ;
                CaptionML=[ENU=Cost Amount;
                           PTB=Cost Valor];
                SourceExpr=TotalCost[2];
                AutoFormatType=1 }

    { 35  ;4   ;Field     ;
                CaptionML=[ENU=Profit Amount;
                           PTB=Profit Valor];
                SourceExpr=ProfitAmount[2];
                AutoFormatType=1 }

    { 39  ;4   ;Field     ;
                CaptionML=[ENU=Profit %;
                           PTB=Profit %];
                DecimalPlaces=1:1;
                SourceExpr=ProfitAmountPercent[2];
                AutoFormatType=1 }

    { 28  ;4   ;Field     ;
                SourceExpr=Text000;
                Visible=FALSE }

    { 45  ;4   ;Field     ;
                SourceExpr=Text000;
                Visible=FALSE }

    { 49  ;4   ;Field     ;
                SourceExpr=Text000;
                Visible=FALSE }

    { 53  ;4   ;Field     ;
                SourceExpr=Text000;
                Visible=FALSE }

    { 1900724201;3;Group  ;
                CaptionML=[ENU=Costs && G/L Accounts;
                           PTB=Costs && G/L Accounts] }

    { 22  ;4   ;Field     ;
                CaptionML=[ENU=Invoiced Amount;
                           PTB=Nota Fiscald Valor];
                SourceExpr=Income[3];
                AutoFormatType=1 }

    { 15  ;4   ;Field     ;
                CaptionML=[ENU=Discount Amount;
                           PTB=Discount Valor];
                SourceExpr=TotalDiscount[3];
                AutoFormatType=1 }

    { 31  ;4   ;Field     ;
                CaptionML=[ENU=Cost Amount;
                           PTB=Cost Valor];
                SourceExpr=TotalCost[3];
                AutoFormatType=1 }

    { 36  ;4   ;Field     ;
                CaptionML=[ENU=Profit Amount;
                           PTB=Profit Valor];
                SourceExpr=ProfitAmount[3];
                AutoFormatType=1 }

    { 40  ;4   ;Field     ;
                CaptionML=[ENU=Profit %;
                           PTB=Profit %];
                DecimalPlaces=1:1;
                SourceExpr=ProfitAmountPercent[3];
                AutoFormatType=1 }

    { 42  ;4   ;Field     ;
                SourceExpr=Text000;
                Visible=FALSE }

    { 46  ;4   ;Field     ;
                SourceExpr=Text000;
                Visible=FALSE }

    { 50  ;4   ;Field     ;
                SourceExpr=Text000;
                Visible=FALSE }

    { 54  ;4   ;Field     ;
                SourceExpr=Text000;
                Visible=FALSE }

    { 1901652601;3;Group  ;
                CaptionML=[ENU=Service Contracts;
                           PTB=Service Contracts] }

    { 26  ;4   ;Field     ;
                CaptionML=[ENU=Invoiced Amount;
                           PTB=Nota Fiscald Valor];
                SourceExpr=Income[4];
                AutoFormatType=1 }

    { 27  ;4   ;Field     ;
                CaptionML=[ENU=Discount Amount;
                           PTB=Discount Valor];
                SourceExpr=TotalDiscount[4];
                AutoFormatType=1 }

    { 32  ;4   ;Field     ;
                CaptionML=[ENU=Cost Amount;
                           PTB=Cost Valor];
                SourceExpr=TotalCost[4];
                AutoFormatType=1 }

    { 37  ;4   ;Field     ;
                CaptionML=[ENU=Profit Amount;
                           PTB=Profit Valor];
                SourceExpr=ProfitAmount[4];
                AutoFormatType=1 }

    { 41  ;4   ;Field     ;
                CaptionML=[ENU=Profit %;
                           PTB=Profit %];
                DecimalPlaces=1:1;
                SourceExpr=ProfitAmountPercent[4];
                AutoFormatType=1 }

    { 43  ;4   ;Field     ;
                CaptionML=[ENU=Prepaid Amount;
                           PTB=Prepaid Valor];
                SourceExpr=PrepaidIncome;
                AutoFormatType=1 }

    { 47  ;4   ;Field     ;
                SourceExpr=Text000;
                Visible=FALSE }

    { 51  ;4   ;Field     ;
                SourceExpr=Text000;
                Visible=FALSE }

    { 55  ;4   ;Field     ;
                SourceExpr=Text000;
                Visible=FALSE }

    { 1900724101;3;Group  ;
                CaptionML=[ENU=Total;
                           PTB=Total] }

    { 23  ;4   ;Field     ;
                CaptionML=[ENU=Total Invoiced Amount;
                           PTB=Total Nota Fiscald Valor];
                SourceExpr=Income[5];
                AutoFormatType=1 }

    { 20  ;4   ;Field     ;
                CaptionML=[ENU=Total Discount Amount;
                           PTB=Total Discount Valor];
                SourceExpr=TotalDiscount[5];
                AutoFormatType=1 }

    { 33  ;4   ;Field     ;
                CaptionML=[ENU=Total Cost Amount;
                           PTB=Total Cost Valor];
                SourceExpr=TotalCost[5];
                AutoFormatType=1 }

    { 64  ;4   ;Field     ;
                CaptionML=[ENU=Total Profit Amount;
                           PTB=Total Profit Valor];
                SourceExpr=ProfitAmount[5];
                AutoFormatType=1 }

    { 69  ;4   ;Field     ;
                CaptionML=[ENU=Profit %;
                           PTB=Profit %];
                DecimalPlaces=1:1;
                SourceExpr=ProfitAmountPercent[5];
                AutoFormatType=1 }

    { 3   ;4   ;Field     ;
                Name=PrepaidIncome2;
                CaptionML=[ENU=Total Prepaid Amount;
                           PTB=Total Prepaid Valor];
                SourceExpr=PrepaidIncome;
                AutoFormatType=1 }

    { 8   ;4   ;Field     ;
                CaptionML=[ENU=Total Amount;
                           PTB=Total Valor];
                SourceExpr=TotalIncome;
                AutoFormatType=1 }

    { 16  ;4   ;Field     ;
                CaptionML=[ENU=Profit Amount;
                           PTB=Profit Valor];
                SourceExpr=TotalProfit;
                AutoFormatType=1 }

    { 17  ;4   ;Field     ;
                CaptionML=[ENU=Profit %;
                           PTB=Profit %];
                DecimalPlaces=1:1;
                SourceExpr=TotalProfitPct;
                AutoFormatType=1 }

  }
  CODE
  {
    VAR
      i@1000 : Integer;
      PrepaidIncome@1001 : Decimal;
      TotalIncome@1002 : Decimal;
      Income@1003 : ARRAY [5] OF Decimal;
      TotalCost@1004 : ARRAY [5] OF Decimal;
      TotalDiscount@1005 : ARRAY [5] OF Decimal;
      ProfitAmount@1011 : ARRAY [5] OF Decimal;
      ProfitAmountPercent@1012 : ARRAY [5] OF Decimal;
      TotalProfit@1008 : Decimal;
      TotalProfitPct@1009 : Decimal;
      Text000@1010 : TextConst 'ENU=Placeholder;PTB=Placeholder';

    LOCAL PROCEDURE CalcPercentage@3(PartAmount@1000 : Decimal;Base@1001 : Decimal) : Decimal;
    BEGIN
      IF Base <> 0 THEN
        EXIT(100 * PartAmount / Base);

      EXIT(0);
    END;

    PROCEDURE MakeNegativeZero@4(Amount@1000 : Decimal) : Decimal;
    BEGIN
      IF Amount < 0 THEN
        EXIT(0);
      EXIT(Amount);
    END;

    BEGIN
    END.
  }
}

