OBJECT Page 6039 Service Cr. Memo Lines Subform
{
  OBJECT-PROPERTIES
  {
    Date=23/09/13;
    Time=12:00:00;
    Version List=NAVW17.10;
  }
  PROPERTIES
  {
    Editable=No;
    CaptionML=[ENU=Lines;
               PTB=Linhas];
    LinksAllowed=No;
    SourceTable=Table5995;
    PageType=ListPart;
    OnAfterGetRecord=BEGIN
                       StyleIsStrong := IsFirstDocLine;
                       DocumentNoHideValue := NOT IsFirstDocLine;
                     END;

  }
  CONTROLS
  {
    { 1900000001;0;Container;
                ContainerType=ContentArea }

    { 1   ;1   ;Group     ;
                GroupType=Repeater }

    { 2   ;2   ;Field     ;
                Lookup=No;
                SourceExpr="Document No.";
                HideValue=DocumentNoHideValue;
                Style=Strong;
                StyleExpr=StyleIsStrong }

    { 50  ;2   ;Field     ;
                SourceExpr="Bill-to Customer No.";
                Visible=FALSE }

    { 4   ;2   ;Field     ;
                SourceExpr="Customer No.";
                Visible=FALSE }

    { 6   ;2   ;Field     ;
                SourceExpr=Type }

    { 8   ;2   ;Field     ;
                SourceExpr="No." }

    { 10  ;2   ;Field     ;
                SourceExpr="Variant Code";
                Visible=FALSE }

    { 30  ;2   ;Field     ;
                SourceExpr=Nonstock;
                Visible=FALSE }

    { 12  ;2   ;Field     ;
                SourceExpr=Description }

    { 42  ;2   ;Field     ;
                SourceExpr="Return Reason Code";
                Visible=FALSE }

    { 18  ;2   ;Field     ;
                SourceExpr="Location Code";
                Visible=FALSE }

    { 20  ;2   ;Field     ;
                SourceExpr="Bin Code";
                Visible=FALSE }

    { 14  ;2   ;Field     ;
                SourceExpr="Shortcut Dimension 1 Code";
                Visible=FALSE }

    { 16  ;2   ;Field     ;
                SourceExpr="Shortcut Dimension 2 Code";
                Visible=FALSE }

    { 24  ;2   ;Field     ;
                SourceExpr="Unit of Measure Code" }

    { 22  ;2   ;Field     ;
                SourceExpr=Quantity }

    { 26  ;2   ;Field     ;
                SourceExpr="Unit of Measure";
                Visible=FALSE }

    { 44  ;2   ;Field     ;
                SourceExpr="Unit Cost (LCY)";
                Visible=FALSE }

    { 46  ;2   ;Field     ;
                BlankZero=Yes;
                SourceExpr="Line Discount %" }

    { 48  ;2   ;Field     ;
                SourceExpr="Line Discount Amount";
                Visible=FALSE }

    { 52  ;2   ;Field     ;
                SourceExpr="Allow Invoice Disc.";
                Visible=FALSE }

    { 54  ;2   ;Field     ;
                SourceExpr="Inv. Discount Amount";
                Visible=FALSE }

    { 56  ;2   ;Field     ;
                SourceExpr="Contract No.";
                Visible=FALSE }

    { 60  ;2   ;Field     ;
                SourceExpr="Shipment No.";
                Visible=FALSE }

    { 62  ;2   ;Field     ;
                SourceExpr="Service Item No.";
                Visible=FALSE }

    { 66  ;2   ;Field     ;
                SourceExpr="Appl.-to Service Entry";
                Visible=FALSE }

    { 72  ;2   ;Field     ;
                SourceExpr="Appl.-from Item Entry";
                Visible=FALSE }

  }
  CODE
  {
    VAR
      TempServCrMemoLine@1002 : TEMPORARY Record 5995;
      StyleIsStrong@1000 : Boolean INDATASET;
      DocumentNoHideValue@1001 : Boolean INDATASET;

    LOCAL PROCEDURE IsFirstDocLine@2() : Boolean;
    VAR
      ServCrMemoLine@1000 : Record 5995;
    BEGIN
      TempServCrMemoLine.RESET;
      TempServCrMemoLine.COPYFILTERS(Rec);
      TempServCrMemoLine.SETRANGE("Document No.","Document No.");
      IF NOT TempServCrMemoLine.FINDFIRST THEN BEGIN
        ServCrMemoLine.COPYFILTERS(Rec);
        ServCrMemoLine.SETRANGE("Document No.","Document No.");
        IF NOT ServCrMemoLine.FINDFIRST THEN
          EXIT(FALSE);
        TempServCrMemoLine := ServCrMemoLine;
        TempServCrMemoLine.INSERT;
      END;
      EXIT("Line No." = TempServCrMemoLine."Line No.");
    END;

    PROCEDURE GetSelectedLine@1(VAR FromServCrMemoLine@1000 : Record 5995);
    BEGIN
      FromServCrMemoLine.COPY(Rec);
      CurrPage.SETSELECTIONFILTER(FromServCrMemoLine);
    END;

    BEGIN
    END.
  }
}

