OBJECT Page 667 Additional Approvers
{
  OBJECT-PROPERTIES
  {
    Date=14/08/09;
    Time=12:00:00;
    Version List=NAVW16.00.01;
  }
  PROPERTIES
  {
    CaptionML=[ENU=Additional Approvers;
               PTB=Aprovadores Adiconais];
    SourceTable=Table465;
    SourceTableView=SORTING(Sequence No.);
    PageType=List;
    AutoSplitKey=Yes;
  }
  CONTROLS
  {
    { 1900000001;0;Container;
                ContainerType=ContentArea }

    { 1   ;1   ;Group     ;
                GroupType=Repeater }

    { 2   ;2   ;Field     ;
                SourceExpr="Approver ID" }

    { 13  ;2   ;Field     ;
                SourceExpr="Limit Type" }

    { 4   ;2   ;Field     ;
                SourceExpr="Approval Code";
                Editable=FALSE }

    { 6   ;2   ;Field     ;
                SourceExpr="Approval Type";
                Editable=FALSE }

    { 8   ;2   ;Field     ;
                SourceExpr="Document Type";
                Editable=FALSE }

    { 15  ;2   ;Field     ;
                SourceExpr="Sequence No." }

    { 1900000007;0;Container;
                ContainerType=FactBoxArea }

    { 1900383207;1;Part   ;
                Visible=FALSE;
                PartType=System;
                SystemPartID=RecordLinks }

    { 1905767507;1;Part   ;
                Visible=FALSE;
                PartType=System;
                SystemPartID=Notes }

  }
  CODE
  {

    BEGIN
    END.
  }
}

