OBJECT Page 6054 Service Contract Quote Subform
{
  OBJECT-PROPERTIES
  {
    Date=07/09/12;
    Time=12:00:00;
    Version List=NAVW17.00;
  }
  PROPERTIES
  {
    CaptionML=[ENU=Lines;
               PTB=Linhas];
    MultipleNewLines=Yes;
    LinksAllowed=No;
    SourceTable=Table5964;
    DelayedInsert=Yes;
    SourceTableView=WHERE(Contract Type=FILTER(Quote));
    PageType=ListPart;
    AutoSplitKey=Yes;
    OnNewRecord=BEGIN
                  SetupNewLine;
                END;

    ActionList=ACTIONS
    {
      { 1900000004;0 ;ActionContainer;
                      ActionContainerType=ActionItems }
      { 1907935204;1 ;ActionGroup;
                      CaptionML=[ENU=&Line;
                                 PTB=&Linha];
                      Image=Line }
      { 1900545104;2 ;Action    ;
                      CaptionML=[ENU=&Comments;
                                 PTB=&Coment rios];
                      Image=ViewComments;
                      OnAction=BEGIN
                                 ShowComments;
                               END;
                                }
    }
  }
  CONTROLS
  {
    { 1900000001;0;Container;
                ContainerType=ContentArea }

    { 1   ;1   ;Group     ;
                GroupType=Repeater }

    { 22  ;2   ;Field     ;
                SourceExpr="Service Item No.";
                OnLookup=VAR
                           ServContractMgt@1000 : Codeunit 5940;
                         BEGIN
                           ServContractMgt.LookupServItemNo(Rec);
                         END;
                          }

    { 8   ;2   ;Field     ;
                SourceExpr=Description }

    { 28  ;2   ;Field     ;
                SourceExpr="Ship-to Code";
                Visible=FALSE;
                Editable=FALSE }

    { 24  ;2   ;Field     ;
                SourceExpr="Unit of Measure Code" }

    { 2   ;2   ;Field     ;
                SourceExpr="Serial No.";
                OnAssistEdit=BEGIN
                               CLEAR(ItemLedgerEntry);
                               ItemLedgerEntry.SETRANGE("Item No.","Item No.");
                               ItemLedgerEntry.SETRANGE("Variant Code","Variant Code");
                               ItemLedgerEntry.SETRANGE("Serial No.","Serial No.");
                               PAGE.RUN(PAGE::"Item Ledger Entries",ItemLedgerEntry);
                             END;
                              }

    { 20  ;2   ;Field     ;
                SourceExpr="Item No." }

    { 4   ;2   ;Field     ;
                SourceExpr="Variant Code";
                Visible=FALSE }

    { 26  ;2   ;Field     ;
                SourceExpr="Response Time (Hours)" }

    { 30  ;2   ;Field     ;
                SourceExpr="Line Cost" }

    { 12  ;2   ;Field     ;
                SourceExpr="Line Value" }

    { 14  ;2   ;Field     ;
                SourceExpr="Line Discount %" }

    { 32  ;2   ;Field     ;
                SourceExpr="Line Discount Amount";
                Visible=FALSE }

    { 16  ;2   ;Field     ;
                SourceExpr="Line Amount" }

    { 34  ;2   ;Field     ;
                SourceExpr=Profit }

    { 6   ;2   ;Field     ;
                SourceExpr="Last Service Date" }

    { 18  ;2   ;Field     ;
                SourceExpr="Service Period" }

    { 10  ;2   ;Field     ;
                SourceExpr="Next Planned Service Date" }

  }
  CODE
  {
    VAR
      ItemLedgerEntry@1006 : Record 32;

    BEGIN
    END.
  }
}

