OBJECT Page 675 My Job Queue
{
  OBJECT-PROPERTIES
  {
    Date=09/09/14;
    Time=12:00:00;
    Version List=NAVW18.00;
  }
  PROPERTIES
  {
    Editable=No;
    CaptionML=[ENU=My Job Queue;
               PTB=Meu Job Queue];
    SourceTable=Table472;
    SourceTableView=SORTING(Priority,Last Ready State);
    PageType=ListPart;
    RefreshOnActivate=Yes;
    OnOpenPage=BEGIN
                 SETRANGE("User ID",USERID);
                 AddInReady := FALSE;
               END;

    OnAfterGetRecord=BEGIN
                       StatusIsError := Status = Status::Error;
                     END;

    OnQueryClosePage=BEGIN
                       IF AddInReady THEN
                         CurrPage.PingPong.Stop;
                       EXIT(TRUE);
                     END;

    ActionList=ACTIONS
    {
      { 6       ;    ;ActionContainer;
                      CaptionML=ENU=Actions;
                      ActionContainerType=ActionItems }
      { 7       ;1   ;Action    ;
                      Name=ShowError;
                      CaptionML=ENU=Show Error;
                      Image=Error;
                      OnAction=BEGIN
                                 ShowErrorMessage;
                               END;
                                }
      { 10      ;1   ;Action    ;
                      Name=Cancel;
                      CaptionML=ENU=Delete;
                      Image=Delete;
                      OnAction=BEGIN
                                 Cancel;
                               END;
                                }
      { 9       ;1   ;Action    ;
                      Name=Restart;
                      CaptionML=ENU=Restart;
                      Image=Start;
                      OnAction=BEGIN
                                 Restart;
                               END;
                                }
      { 13      ;1   ;Action    ;
                      Name=ShowRecord;
                      CaptionML=ENU=Show Record;
                      Image=ViewDetails;
                      OnAction=BEGIN
                                 LookupRecordToProcess;
                               END;
                                }
      { 15      ;1   ;Action    ;
                      Name=ScheduleReport;
                      CaptionML=ENU=Schedule a Report;
                      Image=report;
                      OnAction=BEGIN
                                 CurrPage.PingPong.Stop;
                                 PAGE.RUNMODAL(PAGE::"Schedule a Report");
                                 CurrPage.PingPong.Ping(1000);
                               END;
                                }
      { 14      ;1   ;Action    ;
                      Name=EditJob;
                      ShortCutKey=Return;
                      CaptionML=ENU=Edit Job;
                      RunObject=Page 673;
                      RunPageOnRec=Yes;
                      Image=Edit }
    }
  }
  CONTROLS
  {
    { 1   ;0   ;Container ;
                CaptionML=PTB=Minimum Prioridade;
                ContainerType=ContentArea }

    { 2   ;1   ;Group     ;
                Name=Group;
                GroupType=Repeater }

    { 3   ;2   ;Field     ;
                CaptionML=PTB=Maximum Prioridade;
                SourceExpr="Object Caption to Run";
                Visible=false;
                Style=Attention;
                StyleExpr=StatusIsError }

    { 8   ;2   ;Field     ;
                SourceExpr="Parameter String";
                Visible=FALSE }

    { 11  ;2   ;Field     ;
                SourceExpr=Description;
                Style=Attention;
                StyleExpr=StatusIsError }

    { 4   ;2   ;Field     ;
                SourceExpr=Status;
                Style=Attention;
                StyleExpr=StatusIsError }

    { 12  ;2   ;Field     ;
                SourceExpr="Earliest Start Date/Time" }

    { 16  ;2   ;Field     ;
                SourceExpr="Expiration Date/Time";
                Visible=FALSE }

    { 5   ;2   ;Field     ;
                SourceExpr="Job Queue Category Code";
                Visible=false }

    { 18  ;1   ;Group     ;
                GroupType=Group }

    { 17  ;2   ;Field     ;
                Name=PingPong;
                ControlAddIn=[Microsoft.Dynamics.Nav.Client.PingPong;PublicKeyToken=31bf3856ad364e35] }

  }
  CODE
  {
    VAR
      PrevLastJobQueueEntry@1001 : Record 472;
      StatusIsError@1000 : Boolean INDATASET;
      AddInReady@1002 : Boolean;

    EVENT PingPong@-17::AddInReady@2();
    BEGIN
      AddInReady := TRUE;
      IF NOT PrevLastJobQueueEntry.FINDLAST THEN
        CLEAR(PrevLastJobQueueEntry);
      CurrPage.PingPong.Ping(10000);
    END;

    EVENT PingPong@-17::Pong@3();
    VAR
      CurrLastJobQueueEntry@1001 : Record 472;
    BEGIN
      IF NOT CurrLastJobQueueEntry.FINDLAST THEN
        CLEAR(CurrLastJobQueueEntry);
      IF (CurrLastJobQueueEntry.ID <> PrevLastJobQueueEntry.ID) OR (CurrLastJobQueueEntry.Status <> PrevLastJobQueueEntry.Status) THEN
        CurrPage.UPDATE(FALSE);
      PrevLastJobQueueEntry := CurrLastJobQueueEntry;
      CurrPage.PingPong.Ping(10000);
    END;

    BEGIN
    END.
  }
}

