OBJECT Page 7392 Posted Invt. Pick
{
  OBJECT-PROPERTIES
  {
    Date=07/09/12;
    Time=12:00:00;
    Version List=NAVW17.00;
  }
  PROPERTIES
  {
    Editable=No;
    CaptionML=[ENU=Posted Invt. Pick;
               PTB=Histórico Invt. Picking];
    SaveValues=Yes;
    SourceTable=Table7342;
    PageType=Document;
    RefreshOnActivate=Yes;
    OnDeleteRecord=BEGIN
                     CurrPage.UPDATE;
                   END;

    ActionList=ACTIONS
    {
      { 1900000003;0 ;ActionContainer;
                      ActionContainerType=RelatedInformation }
      { 100     ;1   ;ActionGroup;
                      CaptionML=[ENU=P&ick;
                                 PTB=P&ick];
                      Image=CreateInventoryPickup }
      { 30      ;2   ;Action    ;
                      CaptionML=[ENU=Co&mments;
                                 PTB=Co&mentários];
                      RunObject=Page 5776;
                      RunPageLink=Table Name=CONST(Posted Invt. Pick),
                                  Type=CONST(" "),
                                  No.=FIELD(No.);
                      Image=ViewComments }
      { 1900000004;0 ;ActionContainer;
                      ActionContainerType=ActionItems }
      { 7       ;1   ;Action    ;
                      CaptionML=[ENU=&Navigate;
                                 PTB=&Navegar];
                      Promoted=Yes;
                      Image=Navigate;
                      PromotedCategory=Process;
                      OnAction=BEGIN
                                 Navigate;
                               END;
                                }
    }
  }
  CONTROLS
  {
    { 1900000001;0;Container;
                ContainerType=ContentArea }

    { 1   ;1   ;Group     ;
                CaptionML=[ENU=General;
                           PTB=Geral] }

    { 2   ;2   ;Field     ;
                SourceExpr="No." }

    { 8   ;2   ;Field     ;
                SourceExpr="Location Code" }

    { 11  ;2   ;Field     ;
                SourceExpr="Source No." }

    { 17  ;2   ;Field     ;
                SourceExpr="Destination No.";
                CaptionClass=FORMAT(WMSMgt.GetCaption("Destination Type","Source Document",0));
                Editable=FALSE }

    { 5   ;2   ;Field     ;
                CaptionML=[ENU=Name;
                           PTB=Name];
                SourceExpr=WMSMgt.GetDestinationName("Destination Type","Destination No.");
                CaptionClass=FORMAT(WMSMgt.GetCaption("Destination Type","Source Document",1));
                Editable=FALSE }

    { 15  ;2   ;Field     ;
                SourceExpr="Posting Date" }

    { 4   ;2   ;Field     ;
                SourceExpr="Shipment Date" }

    { 21  ;2   ;Field     ;
                SourceExpr="External Document No.";
                CaptionClass=FORMAT(WMSMgt.GetCaption("Destination Type","Source Document",2)) }

    { 20  ;2   ;Field     ;
                SourceExpr="External Document No.2";
                CaptionClass=FORMAT(WMSMgt.GetCaption("Destination Type","Source Document",3)) }

    { 97  ;1   ;Part      ;
                Name=WhseActivityLines;
                SubPageView=SORTING(No.,Sorting Sequence No.);
                SubPageLink=No.=FIELD(No.);
                PagePartID=Page7393 }

    { 1900000007;0;Container;
                ContainerType=FactBoxArea }

    { 1900383207;1;Part   ;
                Visible=FALSE;
                PartType=System;
                SystemPartID=RecordLinks }

    { 1905767507;1;Part   ;
                Visible=TRUE;
                PartType=System;
                SystemPartID=Notes }

  }
  CODE
  {
    VAR
      WMSMgt@1001 : Codeunit 7302;

    BEGIN
    END.
  }
}

