OBJECT Page 7313 Put-away Template Subform
{
  OBJECT-PROPERTIES
  {
    Date=05/11/08;
    Time=12:00:00;
    Version List=NAVW16.00;
  }
  PROPERTIES
  {
    CaptionML=[ENU=Lines;
               PTB=Linhas];
    LinksAllowed=No;
    SourceTable=Table7308;
    DelayedInsert=Yes;
    PageType=ListPart;
    AutoSplitKey=Yes;
  }
  CONTROLS
  {
    { 1900000001;0;Container;
                ContainerType=ContentArea }

    { 1   ;1   ;Group     ;
                GroupType=Repeater }

    { 2   ;2   ;Field     ;
                SourceExpr="Find Fixed Bin" }

    { 4   ;2   ;Field     ;
                SourceExpr="Find Floating Bin" }

    { 6   ;2   ;Field     ;
                SourceExpr="Find Same Item" }

    { 8   ;2   ;Field     ;
                SourceExpr="Find Unit of Measure Match" }

    { 10  ;2   ;Field     ;
                SourceExpr="Find Bin w. Less than Min. Qty" }

    { 12  ;2   ;Field     ;
                SourceExpr="Find Empty Bin" }

    { 14  ;2   ;Field     ;
                SourceExpr=Description }

  }
  CODE
  {

    BEGIN
    END.
  }
}

