OBJECT Page 7172 Sales Lines Subform
{
  OBJECT-PROPERTIES
  {
    Date=07/09/12;
    Time=12:00:00;
    Version List=NAVW17.00;
  }
  PROPERTIES
  {
    Editable=No;
    CaptionML=[ENU=Lines;
               PTB=Linhas];
    MultipleNewLines=Yes;
    LinksAllowed=No;
    SourceTable=Table37;
    PageType=ListPart;
  }
  CONTROLS
  {
  }
  CODE
  {

    PROCEDURE GetSelectedLine@1(VAR FromSalesLine@1000 : Record 37);
    BEGIN
    END;

    BEGIN
    END.
  }
}

