OBJECT Page 7346 Worksheet Names List
{
  OBJECT-PROPERTIES
  {
    Date=07/09/12;
    Time=12:00:00;
    Version List=NAVW17.00;
  }
  PROPERTIES
  {
    Editable=No;
    CaptionML=[ENU=Worksheet Names List;
               PTB=Lista Nomes Folhas];
    SourceTable=Table7327;
    PageType=List;
    OnInit=BEGIN
             SETRANGE("Worksheet Template Name");
           END;

    OnOpenPage=BEGIN
                 WhseWkshLine.OpenWhseWkshBatch(Rec);
               END;

    OnFindRecord=BEGIN
                   IF FIND(Which) THEN BEGIN
                     PickWkshName := Rec;
                     WHILE TRUE DO BEGIN
                       IF WMSMgt.LocationIsAllowed("Location Code") THEN
                         EXIT(TRUE);
                       IF NEXT(1) = 0 THEN BEGIN
                         Rec := PickWkshName;
                         IF FIND(Which) THEN
                           WHILE TRUE DO BEGIN
                             IF WMSMgt.LocationIsAllowed("Location Code") THEN
                               EXIT(TRUE);
                             IF NEXT(-1) = 0 THEN
                               EXIT(FALSE);
                           END;
                       END;
                     END;
                   END;
                   EXIT(FALSE);
                 END;

    OnNextRecord=VAR
                   RealSteps@1001 : Integer;
                   NextSteps@1000 : Integer;
                 BEGIN
                   IF Steps = 0 THEN
                     EXIT;

                   PickWkshName := Rec;
                   REPEAT
                     NextSteps := NEXT(Steps / ABS(Steps));
                     IF WMSMgt.LocationIsAllowed("Location Code") THEN BEGIN
                       RealSteps := RealSteps + NextSteps;
                       PickWkshName := Rec;
                     END;
                   UNTIL (NextSteps = 0) OR (RealSteps = Steps);
                   Rec := PickWkshName;
                   FIND;
                   EXIT(RealSteps);
                 END;

    ActionList=ACTIONS
    {
      { 1900000004;0 ;ActionContainer;
                      ActionContainerType=ActionItems }
      { 11      ;1   ;Action    ;
                      ShortCutKey=Return;
                      CaptionML=[ENU=Edit Worksheet;
                                 PTB=Edit Worksheet];
                      Promoted=Yes;
                      PromotedIsBig=Yes;
                      Image=OpenWorksheet;
                      PromotedCategory=Process;
                      OnAction=BEGIN
                                 WhseWkshLine.TemplateSelectionFromBatch(Rec);
                               END;
                                }
    }
  }
  CONTROLS
  {
    { 1900000001;0;Container;
                ContainerType=ContentArea }

    { 1   ;1   ;Group     ;
                GroupType=Repeater }

    { 2   ;2   ;Field     ;
                SourceExpr=Name }

    { 4   ;2   ;Field     ;
                SourceExpr="Location Code" }

    { 6   ;2   ;Field     ;
                SourceExpr=Description }

    { 1900000007;0;Container;
                ContainerType=FactBoxArea }

    { 1900383207;1;Part   ;
                Visible=FALSE;
                PartType=System;
                SystemPartID=RecordLinks }

    { 1905767507;1;Part   ;
                Visible=FALSE;
                PartType=System;
                SystemPartID=Notes }

  }
  CODE
  {
    VAR
      PickWkshName@1001 : Record 7327;
      WhseWkshLine@1002 : Record 7326;
      WMSMgt@1000 : Codeunit 7302;

    BEGIN
    END.
  }
}

