OBJECT Page 7173 Shipment Lines Subform
{
  OBJECT-PROPERTIES
  {
    Date=07/09/12;
    Time=12:00:00;
    Version List=NAVW17.00;
  }
  PROPERTIES
  {
    Editable=No;
    CaptionML=[ENU=Lines;
               PTB=Linhas];
    SaveValues=Yes;
    LinksAllowed=No;
    SourceTable=Table111;
    PageType=ListPart;
  }
  CONTROLS
  {
  }
  CODE
  {

    PROCEDURE GetSelectedLine@1(VAR FromSalesShptLine@1000 : Record 111);
    BEGIN
    END;

    BEGIN
    END.
  }
}

