OBJECT Page 770 Sales Performance
{
  OBJECT-PROPERTIES
  {
    Date=09/09/14;
    Time=12:00:00;
    Version List=NAVW18.00;
  }
  PROPERTIES
  {
    CaptionML=[ENU=Sales Performance;
               PTB=Desempenho Vendas];
    SourceTable=Table485;
    PageType=CardPart;
    ActionList=ACTIONS
    {
      { 23      ;    ;ActionContainer;
                      ActionContainerType=ActionItems }
      { 18      ;1   ;Action    ;
                      Name=SelectChart;
                      CaptionML=ENU=Select Chart;
                      Image=SelectChart;
                      OnAction=BEGIN
                                 IF AnalysisReportChartMgt.SelectChart(AnalysisReportChartSetup,Rec) THEN
                                   UpdateChart(Period::" ");
                               END;
                                }
      { 5       ;1   ;Separator  }
      { 15      ;1   ;ActionGroup;
                      Name=PeriodLength;
                      CaptionML=ENU=Period Length;
                      Image=Period }
      { 14      ;2   ;Action    ;
                      Name=Day;
                      CaptionML=ENU=Day;
                      OnAction=BEGIN
                                 AnalysisReportChartSetup.SetPeriodLength(AnalysisReportChartSetup."Period Length"::Day);
                                 UpdateChart(Period::" ");
                               END;
                                }
      { 13      ;2   ;Action    ;
                      Name=Week;
                      CaptionML=ENU=Week;
                      OnAction=BEGIN
                                 AnalysisReportChartSetup.SetPeriodLength(AnalysisReportChartSetup."Period Length"::Week);
                                 UpdateChart(Period::" ");
                               END;
                                }
      { 12      ;2   ;Action    ;
                      Name=Month;
                      CaptionML=ENU=Month;
                      OnAction=BEGIN
                                 AnalysisReportChartSetup.SetPeriodLength(AnalysisReportChartSetup."Period Length"::Month);
                                 UpdateChart(Period::" ");
                               END;
                                }
      { 11      ;2   ;Action    ;
                      Name=Quarter;
                      CaptionML=ENU=Quarter;
                      OnAction=BEGIN
                                 AnalysisReportChartSetup.SetPeriodLength(AnalysisReportChartSetup."Period Length"::Quarter);
                                 UpdateChart(Period::" ");
                               END;
                                }
      { 9       ;2   ;Action    ;
                      Name=Year;
                      CaptionML=ENU=Year;
                      OnAction=BEGIN
                                 AnalysisReportChartSetup.SetPeriodLength(AnalysisReportChartSetup."Period Length"::Year);
                                 UpdateChart(Period::" ");
                               END;
                                }
      { 16      ;1   ;Action    ;
                      Name=PreviousPeriod;
                      CaptionML=ENU=Previous;
                      Image=PreviousRecord;
                      OnAction=BEGIN
                                 UpdateChart(Period::Previous);
                               END;
                                }
      { 17      ;1   ;Action    ;
                      Name=NextPeriod;
                      CaptionML=ENU=Next;
                      Image=NextRecord;
                      OnAction=BEGIN
                                 UpdateChart(Period::Next);
                               END;
                                }
      { 7       ;1   ;Separator  }
      { 19      ;1   ;Action    ;
                      Name=Refresh;
                      CaptionML=ENU=Refresh;
                      Image=Refresh;
                      OnAction=BEGIN
                                 InitializePeriodFilter(0D,0D);
                                 UpdateChart(Period::" ");
                               END;
                                }
    }
  }
  CONTROLS
  {
    { 1   ;    ;Container ;
                Name=container;
                ContainerType=ContentArea }

    { 2   ;1   ;Field     ;
                SourceExpr=StatusText;
                Enabled=FALSE;
                Style=StrongAccent;
                StyleExpr=TRUE;
                ShowCaption=No }

    { 3   ;1   ;Field     ;
                Name=BusinessChart;
                ControlAddIn=[Microsoft.Dynamics.Nav.Client.BusinessChart;PublicKeyToken=31bf3856ad364e35] }

  }
  CODE
  {
    VAR
      AnalysisReportChartSetup@1004 : Record 770;
      AnalysisReportChartMgt@1002 : Codeunit 770;
      StatusText@1001 : Text[250];
      Period@1005 : ' ,Next,Previous';

    LOCAL PROCEDURE UpdateChart@6(Period@1000 : ',Next,Previous');
    BEGIN
      AnalysisReportChartMgt.UpdateChart(
        Period,AnalysisReportChartSetup,AnalysisReportChartSetup."Analysis Area"::Sales,Rec,StatusText);
      Update(CurrPage.BusinessChart);
    END;

    EVENT BusinessChart@-5::DataPointClicked@12(point@1000 : DotNet "'Microsoft.Dynamics.Nav.Client.BusinessChart.Model, Version=8.0.0.0, Culture=neutral, PublicKeyToken=31bf3856ad364e35'.Microsoft.Dynamics.Nav.Client.BusinessChart.BusinessChartDataPoint");
    BEGIN
      SetDrillDownIndexes(point);
      AnalysisReportChartMgt.DrillDown(Rec,AnalysisReportChartSetup);
    END;

    EVENT BusinessChart@-5::DataPointDoubleClicked@13(point@1000 : DotNet "'Microsoft.Dynamics.Nav.Client.BusinessChart.Model, Version=8.0.0.0, Culture=neutral, PublicKeyToken=31bf3856ad364e35'.Microsoft.Dynamics.Nav.Client.BusinessChart.BusinessChartDataPoint");
    BEGIN
    END;

    EVENT BusinessChart@-3::AddInReady@14();
    BEGIN
      UpdateChart(Period::" ");
    END;

    BEGIN
    END.
  }
}

