OBJECT Page 7111 Analysis Type List
{
  OBJECT-PROPERTIES
  {
    Date=07/09/12;
    Time=12:00:00;
    Version List=NAVW17.00;
  }
  PROPERTIES
  {
    Editable=No;
    CaptionML=[ENU=Analysis Type List;
               PTB=An lise Tipo Lista];
    SourceTable=Table7113;
    PageType=List;
    ActionList=ACTIONS
    {
      { 1900000004;0 ;ActionContainer;
                      ActionContainerType=ActionItems }
      { 11      ;1   ;Action    ;
                      CaptionML=[ENU=&Setup;
                                 PTB=&Setup];
                      RunObject=Page 7110;
                      Promoted=Yes;
                      Image=Setup;
                      PromotedCategory=Process }
    }
  }
  CONTROLS
  {
    { 1900000001;0;Container;
                ContainerType=ContentArea }

    { 1   ;1   ;Group     ;
                GroupType=Repeater }

    { 2   ;2   ;Field     ;
                SourceExpr=Code }

    { 4   ;2   ;Field     ;
                SourceExpr=Name }

    { 6   ;2   ;Field     ;
                SourceExpr="Value Type" }

    { 1900000007;0;Container;
                ContainerType=FactBoxArea }

    { 1900383207;1;Part   ;
                Visible=FALSE;
                PartType=System;
                SystemPartID=RecordLinks }

    { 1905767507;1;Part   ;
                Visible=FALSE;
                PartType=System;
                SystemPartID=Notes }

  }
  CODE
  {

    BEGIN
    END.
  }
}

