OBJECT Page 7189 Get Purchase Line Disc.
{
  OBJECT-PROPERTIES
  {
    Date=07/09/12;
    Time=12:00:00;
    Version List=NAVW17.00;
  }
  PROPERTIES
  {
    Editable=No;
    CaptionML=[ENU=Get Purchase Line Disc.;
               PTB=Linha Desconto Compra];
    SourceTable=Table7014;
    PageType=List;
  }
  CONTROLS
  {
    { 1900000001;0;Container;
                ContainerType=ContentArea }

    { 1102628000;1;Group  ;
                GroupType=Repeater }

    { 1102628001;2;Field  ;
                SourceExpr="Vendor No." }

    { 1102628003;2;Field  ;
                SourceExpr="Currency Code" }

    { 1102628005;2;Field  ;
                SourceExpr="Item No." }

    { 1102628007;2;Field  ;
                SourceExpr="Variant Code" }

    { 1102628009;2;Field  ;
                SourceExpr="Unit of Measure Code" }

    { 1102628011;2;Field  ;
                SourceExpr="Minimum Quantity" }

    { 1102628013;2;Field  ;
                SourceExpr="Line Discount %" }

    { 1102628015;2;Field  ;
                SourceExpr="Starting Date" }

    { 1102628017;2;Field  ;
                SourceExpr="Ending Date" }

  }
  CODE
  {

    BEGIN
    END.
  }
}

