OBJECT Page 810 Web Services
{
  OBJECT-PROPERTIES
  {
    Date=23/09/13;
    Time=12:00:00;
    Version List=NAVW17.10;
  }
  PROPERTIES
  {
    CaptionML=[ENU=Web Services;
               PTB=Web Services];
    SourceTable=Table2000000076;
    DelayedInsert=Yes;
    PageType=List;
    OnInsertRecord=VAR
                     Object@1102601001 : Record 2000000001;
                   BEGIN
                     TESTFIELD("Object ID");
                     TESTFIELD("Service Name");
                     IF NOT ("Object Type" IN ["Object Type"::Codeunit,"Object Type"::Page,"Object Type"::Query]) THEN
                       FIELDERROR("Object Type");
                     IF ("Object Type" = "Object Type"::Page) AND ("Object ID" = PAGE::"Web Services") THEN
                       FIELDERROR("Object ID");
                     Object.GET("Object Type",'',"Object ID");
                   END;

    OnModifyRecord=VAR
                     Object@1102601000 : Record 2000000001;
                   BEGIN
                     TESTFIELD("Object ID");
                     TESTFIELD("Service Name");
                     IF NOT ("Object Type" IN ["Object Type"::Codeunit,"Object Type"::Page,"Object Type"::Query]) THEN
                       FIELDERROR("Object Type");
                     IF ("Object Type" = "Object Type"::Page) AND ("Object ID" = PAGE::"Web Services") THEN
                       FIELDERROR("Object ID");
                     Object.GET("Object Type",'',"Object ID");
                   END;

  }
  CONTROLS
  {
    { 1900000001;0;Container;
                ContainerType=ContentArea }

    { 1102601000;1;Group  ;
                GroupType=Repeater }

    { 1102601001;2;Field  ;
                CaptionML=ENU=Object Type;
                BlankZero=Yes;
                SourceExpr="Object Type";
                ValuesAllowed=[Codeunit;Page;Query] }

    { 1102601003;2;Field  ;
                CaptionML=ENU=Object ID;
                SourceExpr="Object ID";
                TableRelation=Object.ID WHERE (Type=FIELD(Object Type));
                LookupPageID=Objects }

    { 2   ;2   ;Field     ;
                Name=ObjectName;
                CaptionML=ENU=Object Name;
                SourceExpr=GetObjectCaption;
                Editable=FALSE }

    { 1102601005;2;Field  ;
                CaptionML=ENU=Service Name;
                SourceExpr="Service Name" }

    { 1102601007;2;Field  ;
                CaptionML=ENU=Published;
                SourceExpr=Published;
                OnValidate=BEGIN
                             CurrPage.UPDATE;
                           END;
                            }

    { 6   ;2   ;Field     ;
                Name=ODataUrl;
                ExtendedDatatype=URL;
                CaptionML=ENU=OData URL;
                SourceExpr=GetODataUrl;
                Editable=False }

    { 7   ;2   ;Field     ;
                Name=SOAPUrl;
                ExtendedDatatype=URL;
                CaptionML=ENU=SOAP URL;
                SourceExpr=GetSOAPUrl;
                Editable=False }

  }
  CODE
  {
    VAR
      NotApplicableTxt@1000 : TextConst 'ENU=Not applicable';

    PROCEDURE GetObjectCaption@1() : Text[80];
    VAR
      AllObjWithCaption@1000 : Record 2000000058;
    BEGIN
      IF AllObjWithCaption.GET("Object Type","Object ID") THEN
        EXIT(AllObjWithCaption."Object Caption");
      EXIT('');
    END;

    LOCAL PROCEDURE GetODataUrl@2() : Text;
    BEGIN
      IF NOT Published THEN
        EXIT('');

      CASE "Object Type" OF
        "Object Type"::Page:
          EXIT(GETURL(CLIENTTYPE::OData,COMPANYNAME,OBJECTTYPE::Page,"Object ID"));
        "Object Type"::Query:
          EXIT(GETURL(CLIENTTYPE::OData,COMPANYNAME,OBJECTTYPE::Query,"Object ID"));
        ELSE
          EXIT(NotApplicableTxt);
      END;
    END;

    LOCAL PROCEDURE GetSOAPUrl@3() : Text;
    BEGIN
      IF NOT Published THEN
        EXIT('');

      CASE "Object Type" OF
        "Object Type"::Page:
          EXIT(GETURL(CLIENTTYPE::SOAP,COMPANYNAME,OBJECTTYPE::Page,"Object ID"));
        "Object Type"::Codeunit:
          EXIT(GETURL(CLIENTTYPE::SOAP,COMPANYNAME,OBJECTTYPE::Codeunit,"Object ID"));
        ELSE
          EXIT(NotApplicableTxt);
      END;
    END;

    BEGIN
    END.
  }
}

