OBJECT Page 860 CF Entries Dim. Overview
{
  OBJECT-PROPERTIES
  {
    Date=07/09/12;
    Time=12:00:00;
    Version List=NAVW17.00;
  }
  PROPERTIES
  {
    CaptionML=ENU=CF Forcst. Entries Dimension Overview;
    InsertAllowed=No;
    DeleteAllowed=No;
    ModifyAllowed=No;
    LinksAllowed=No;
    SourceTable=Table847;
    PageType=Card;
    OnOpenPage=VAR
                 MATRIX_Step@1000 : 'First,Previous,Same,Next';
               BEGIN
                 MATRIX_GenerateColumnCaptions(MATRIX_Step::First);
               END;

    ActionList=ACTIONS
    {
      { 1900000004;0 ;ActionContainer;
                      ActionContainerType=ActionItems }
      { 4       ;1   ;Action    ;
                      Name=ShowMatrix;
                      CaptionML=ENU=&Show Matrix;
                      Promoted=Yes;
                      PromotedIsBig=Yes;
                      Image=ShowMatrix;
                      PromotedCategory=Process;
                      OnAction=VAR
                                 CFEntriesDimMatrix@1456 : Page 863;
                               BEGIN
                                 CLEAR(CFEntriesDimMatrix);
                                 CFEntriesDimMatrix.Load(MATRIX_CaptionSet,MATRIX_PKFirstCaptionInCurrSet,MATRIX_CurrSetLength);
                                 IF RunOnTempRec THEN
                                   CFEntriesDimMatrix.SetTempCFForecastEntry(TempCFForecastEntry)
                                 ELSE
                                   CFEntriesDimMatrix.SETTABLEVIEW(Rec);
                                 CFEntriesDimMatrix.RUNMODAL;
                               END;
                                }
      { 7       ;1   ;Action    ;
                      CaptionML=ENU=Next Set;
                      ToolTipML=ENU=Next Set;
                      Promoted=Yes;
                      PromotedIsBig=Yes;
                      Image=NextSet;
                      PromotedCategory=Process;
                      OnAction=VAR
                                 MATRIX_Step@1001 : 'First,Previous,Same,Next';
                               BEGIN
                                 MATRIX_GenerateColumnCaptions(MATRIX_Step::Next);
                               END;
                                }
      { 5       ;1   ;Action    ;
                      CaptionML=ENU=Previous Set;
                      ToolTipML=ENU=Previous Set;
                      Promoted=Yes;
                      PromotedIsBig=Yes;
                      Image=PreviousSet;
                      PromotedCategory=Process;
                      OnAction=VAR
                                 MATRIX_Step@1001 : 'First,Previous,Same,Next';
                               BEGIN
                                 MATRIX_GenerateColumnCaptions(MATRIX_Step::Previous);
                               END;
                                }
    }
  }
  CONTROLS
  {
    { 1900000001;0;Container;
                ContainerType=ContentArea }

    { 2   ;1   ;Group     ;
                CaptionML=ENU=Matrix Options }

    { 3   ;2   ;Field     ;
                CaptionML=ENU=Column Set;
                SourceExpr=MATRIX_CaptionRange;
                Editable=FALSE }

  }
  CODE
  {
    VAR
      TempCFForecastEntry@1001 : TEMPORARY Record 847;
      Dimension@1008 : Record 348;
      RunOnTempRec@1004 : Boolean;
      MATRIX_CaptionSet@1005 : ARRAY [32] OF Text[1024];
      MATRIX_PKFirstCaptionInCurrSet@1006 : Text[1024];
      MATRIX_CaptionRange@1007 : Text[1024];
      MATRIX_CurrSetLength@1009 : Integer;

    PROCEDURE SetTempCFForecastEntry@1000(VAR NewCFForecastEntry@1000 : Record 847);
    BEGIN
      RunOnTempRec := TRUE;
      TempCFForecastEntry.DELETEALL;
      IF NewCFForecastEntry.FIND('-') THEN
        REPEAT
          TempCFForecastEntry := NewCFForecastEntry;
          TempCFForecastEntry.INSERT;
        UNTIL NewCFForecastEntry.NEXT = 0;
    END;

    PROCEDURE MATRIX_GenerateColumnCaptions@4(Step@1000 : 'First,Previous,Same,Next');
    VAR
      MatrixMgt@1001 : Codeunit 9200;
      RecRef@1002 : RecordRef;
    BEGIN
      RecRef.GETTABLE(Dimension);
      RecRef.SETTABLE(Dimension);

      MatrixMgt.GenerateMatrixData(RecRef,Step,ARRAYLEN(MATRIX_CaptionSet)
        ,1,MATRIX_PKFirstCaptionInCurrSet,MATRIX_CaptionSet,MATRIX_CaptionRange,MATRIX_CurrSetLength);
    END;

    BEGIN
    END.
  }
}

