OBJECT Page 863 CF Entries Dim. Matrix
{
  OBJECT-PROPERTIES
  {
    Date=09/09/14;
    Time=12:00:00;
    Version List=NAVW18.00;
  }
  PROPERTIES
  {
    Editable=No;
    CaptionML=ENU=CF Forcst. Entries Dim. Overv. M.;
    InsertAllowed=No;
    DeleteAllowed=No;
    LinksAllowed=No;
    SourceTable=Table847;
    DataCaptionExpr=GetCaption;
    PageType=List;
    OnInit=BEGIN
             Field32Visible := TRUE;
             Field31Visible := TRUE;
             Field30Visible := TRUE;
             Field29Visible := TRUE;
             Field28Visible := TRUE;
             Field27Visible := TRUE;
             Field26Visible := TRUE;
             Field25Visible := TRUE;
             Field24Visible := TRUE;
             Field23Visible := TRUE;
             Field22Visible := TRUE;
             Field21Visible := TRUE;
             Field20Visible := TRUE;
             Field19Visible := TRUE;
             Field18Visible := TRUE;
             Field17Visible := TRUE;
             Field16Visible := TRUE;
             Field15Visible := TRUE;
             Field14Visible := TRUE;
             Field13Visible := TRUE;
             Field12Visible := TRUE;
             Field11Visible := TRUE;
             Field10Visible := TRUE;
             Field9Visible := TRUE;
             Field8Visible := TRUE;
             Field7Visible := TRUE;
             Field6Visible := TRUE;
             Field5Visible := TRUE;
             Field4Visible := TRUE;
             Field3Visible := TRUE;
             Field2Visible := TRUE;
             Field1Visible := TRUE;
           END;

    OnOpenPage=BEGIN
                 MATRIX_NoOfMatrixColumns := ARRAYLEN(MATRIX_CellData);
                 SetColumnVisibility;
               END;

    OnFindRecord=VAR
                   Found@1398 : Boolean;
                 BEGIN
                   IF RunOnTempRec THEN BEGIN
                     TempCFForecastEntry := Rec;
                     Found := TempCFForecastEntry.FIND(Which);
                     IF Found THEN
                       Rec := TempCFForecastEntry;
                     EXIT(Found);
                   END;
                   EXIT(FIND(Which));
                 END;

    OnNextRecord=VAR
                   ResultSteps@1001 : Integer;
                 BEGIN
                   IF RunOnTempRec THEN BEGIN
                     TempCFForecastEntry := Rec;
                     ResultSteps := TempCFForecastEntry.NEXT(Steps);
                     IF ResultSteps <> 0 THEN
                       Rec := TempCFForecastEntry;
                     EXIT(ResultSteps);
                   END;
                   EXIT(NEXT(Steps));
                 END;

    OnAfterGetRecord=VAR
                       MATRIX_Steps@1401 : Integer;
                     BEGIN
                       MATRIX_CurrentColumnOrdinal := 0;
                       DimensionMatrix.SETPOSITION(MATRIX_PKFirstCaptionInSet);
                       IF MATRIX_OnFindRecord('=') THEN BEGIN
                         MATRIX_CurrentColumnOrdinal := 1;
                         REPEAT
                           MATRIX_OnAfterGetRecord;
                           MATRIX_Steps := MATRIX_OnNextRecord(1);
                           MATRIX_CurrentColumnOrdinal := MATRIX_CurrentColumnOrdinal + MATRIX_Steps;
                         UNTIL (MATRIX_CurrentColumnOrdinal - MATRIX_Steps = MATRIX_NoOfMatrixColumns) OR (MATRIX_Steps = 0);
                         IF MATRIX_CurrentColumnOrdinal <> 1 THEN BEGIN
                           MATRIX_OnNextRecord(1 - MATRIX_CurrentColumnOrdinal);
                           MATRIX_CurrentColumnOrdinal := 1;
                         END;
                       END;

                       MATRIX_CurrentColumnOrdinal := MATRIX_CurrentColumnOrdinal;
                     END;

    ActionList=ACTIONS
    {
      { 1900000003;0 ;ActionContainer;
                      ActionContainerType=RelatedInformation }
      { 10      ;1   ;ActionGroup;
                      CaptionML=ENU=&Actions;
                      Image=Action }
      { 14      ;2   ;ActionGroup;
                      CaptionML=ENU=Entries;
                      Image=Entries }
      { 12      ;3   ;Action    ;
                      AccessByPermission=TableData 348=R;
                      ShortCutKey=Shift+Ctrl+D;
                      CaptionML=ENU=Dimensions;
                      Image=Dimensions;
                      OnAction=BEGIN
                                 ShowDimensions;
                               END;
                                }
    }
  }
  CONTROLS
  {
    { 1900000001;0;Container;
                ContainerType=ContentArea }

    { 1   ;1   ;Group     ;
                Editable=FALSE;
                GroupType=Repeater }

    { 1002;2   ;Field     ;
                SourceExpr="Cash Flow Date" }

    { 1004;2   ;Field     ;
                SourceExpr="Document No." }

    { 1006;2   ;Field     ;
                SourceExpr="Cash Flow Forecast No." }

    { 1008;2   ;Field     ;
                SourceExpr="Cash Flow Account No." }

    { 1010;2   ;Field     ;
                SourceExpr=Description }

    { 1012;2   ;Field     ;
                SourceExpr="Amount (LCY)" }

    { 1014;2   ;Field     ;
                SourceExpr="Entry No." }

    { 1366;2   ;Field     ;
                Name=Field1;
                SourceExpr=MATRIX_CellData[1];
                CaptionClass='3,' + MATRIX_ColumnCaptions[1];
                Visible=Field1Visible;
                OnLookup=BEGIN
                           MATRIX_UpdateMatrixRecord(1);
                           MATRIX_OnLookup(Text);
                         END;
                          }

    { 1367;2   ;Field     ;
                Name=Field2;
                SourceExpr=MATRIX_CellData[2];
                CaptionClass='3,' + MATRIX_ColumnCaptions[2];
                Visible=Field2Visible;
                OnLookup=BEGIN
                           MATRIX_UpdateMatrixRecord(2);
                           MATRIX_OnLookup(Text);
                         END;
                          }

    { 1368;2   ;Field     ;
                Name=Field3;
                SourceExpr=MATRIX_CellData[3];
                CaptionClass='3,' + MATRIX_ColumnCaptions[3];
                Visible=Field3Visible;
                OnLookup=BEGIN
                           MATRIX_UpdateMatrixRecord(3);
                           MATRIX_OnLookup(Text);
                         END;
                          }

    { 1369;2   ;Field     ;
                Name=Field4;
                SourceExpr=MATRIX_CellData[4];
                CaptionClass='3,' + MATRIX_ColumnCaptions[4];
                Visible=Field4Visible;
                OnLookup=BEGIN
                           MATRIX_UpdateMatrixRecord(4);
                           MATRIX_OnLookup(Text);
                         END;
                          }

    { 1370;2   ;Field     ;
                Name=Field5;
                SourceExpr=MATRIX_CellData[5];
                CaptionClass='3,' + MATRIX_ColumnCaptions[5];
                Visible=Field5Visible;
                OnLookup=BEGIN
                           MATRIX_UpdateMatrixRecord(5);
                           MATRIX_OnLookup(Text);
                         END;
                          }

    { 1371;2   ;Field     ;
                Name=Field6;
                SourceExpr=MATRIX_CellData[6];
                CaptionClass='3,' + MATRIX_ColumnCaptions[6];
                Visible=Field6Visible;
                OnLookup=BEGIN
                           MATRIX_UpdateMatrixRecord(6);
                           MATRIX_OnLookup(Text);
                         END;
                          }

    { 1372;2   ;Field     ;
                Name=Field7;
                SourceExpr=MATRIX_CellData[7];
                CaptionClass='3,' + MATRIX_ColumnCaptions[7];
                Visible=Field7Visible;
                OnLookup=BEGIN
                           MATRIX_UpdateMatrixRecord(7);
                           MATRIX_OnLookup(Text);
                         END;
                          }

    { 1373;2   ;Field     ;
                Name=Field8;
                SourceExpr=MATRIX_CellData[8];
                CaptionClass='3,' + MATRIX_ColumnCaptions[8];
                Visible=Field8Visible;
                OnLookup=BEGIN
                           MATRIX_UpdateMatrixRecord(8);
                           MATRIX_OnLookup(Text);
                         END;
                          }

    { 1374;2   ;Field     ;
                Name=Field9;
                SourceExpr=MATRIX_CellData[9];
                CaptionClass='3,' + MATRIX_ColumnCaptions[9];
                Visible=Field9Visible;
                OnLookup=BEGIN
                           MATRIX_UpdateMatrixRecord(9);
                           MATRIX_OnLookup(Text);
                         END;
                          }

    { 1375;2   ;Field     ;
                Name=Field10;
                SourceExpr=MATRIX_CellData[10];
                CaptionClass='3,' + MATRIX_ColumnCaptions[10];
                Visible=Field10Visible;
                OnLookup=BEGIN
                           MATRIX_UpdateMatrixRecord(10);
                           MATRIX_OnLookup(Text);
                         END;
                          }

    { 1376;2   ;Field     ;
                Name=Field11;
                SourceExpr=MATRIX_CellData[11];
                CaptionClass='3,' + MATRIX_ColumnCaptions[11];
                Visible=Field11Visible;
                OnLookup=BEGIN
                           MATRIX_UpdateMatrixRecord(11);
                           MATRIX_OnLookup(Text);
                         END;
                          }

    { 1377;2   ;Field     ;
                Name=Field12;
                SourceExpr=MATRIX_CellData[12];
                CaptionClass='3,' + MATRIX_ColumnCaptions[12];
                Visible=Field12Visible;
                OnLookup=BEGIN
                           MATRIX_UpdateMatrixRecord(12);
                           MATRIX_OnLookup(Text);
                         END;
                          }

    { 1378;2   ;Field     ;
                Name=Field13;
                SourceExpr=MATRIX_CellData[13];
                CaptionClass='3,' + MATRIX_ColumnCaptions[13];
                Visible=Field13Visible;
                OnLookup=BEGIN
                           MATRIX_UpdateMatrixRecord(13);
                           MATRIX_OnLookup(Text);
                         END;
                          }

    { 1379;2   ;Field     ;
                Name=Field14;
                SourceExpr=MATRIX_CellData[14];
                CaptionClass='3,' + MATRIX_ColumnCaptions[14];
                Visible=Field14Visible;
                OnLookup=BEGIN
                           MATRIX_UpdateMatrixRecord(14);
                           MATRIX_OnLookup(Text);
                         END;
                          }

    { 1380;2   ;Field     ;
                Name=Field15;
                SourceExpr=MATRIX_CellData[15];
                CaptionClass='3,' + MATRIX_ColumnCaptions[15];
                Visible=Field15Visible;
                OnLookup=BEGIN
                           MATRIX_UpdateMatrixRecord(15);
                           MATRIX_OnLookup(Text);
                         END;
                          }

    { 1381;2   ;Field     ;
                Name=Field16;
                SourceExpr=MATRIX_CellData[16];
                CaptionClass='3,' + MATRIX_ColumnCaptions[16];
                Visible=Field16Visible;
                OnLookup=BEGIN
                           MATRIX_UpdateMatrixRecord(16);
                           MATRIX_OnLookup(Text);
                         END;
                          }

    { 1382;2   ;Field     ;
                Name=Field17;
                SourceExpr=MATRIX_CellData[17];
                CaptionClass='3,' + MATRIX_ColumnCaptions[17];
                Visible=Field17Visible;
                OnLookup=BEGIN
                           MATRIX_UpdateMatrixRecord(17);
                           MATRIX_OnLookup(Text);
                         END;
                          }

    { 1383;2   ;Field     ;
                Name=Field18;
                SourceExpr=MATRIX_CellData[18];
                CaptionClass='3,' + MATRIX_ColumnCaptions[18];
                Visible=Field18Visible;
                OnLookup=BEGIN
                           MATRIX_UpdateMatrixRecord(18);
                           MATRIX_OnLookup(Text);
                         END;
                          }

    { 1384;2   ;Field     ;
                Name=Field19;
                SourceExpr=MATRIX_CellData[19];
                CaptionClass='3,' + MATRIX_ColumnCaptions[19];
                Visible=Field19Visible;
                OnLookup=BEGIN
                           MATRIX_UpdateMatrixRecord(19);
                           MATRIX_OnLookup(Text);
                         END;
                          }

    { 1385;2   ;Field     ;
                Name=Field20;
                SourceExpr=MATRIX_CellData[20];
                CaptionClass='3,' + MATRIX_ColumnCaptions[20];
                Visible=Field20Visible;
                OnLookup=BEGIN
                           MATRIX_UpdateMatrixRecord(20);
                           MATRIX_OnLookup(Text);
                         END;
                          }

    { 1386;2   ;Field     ;
                Name=Field21;
                SourceExpr=MATRIX_CellData[21];
                CaptionClass='3,' + MATRIX_ColumnCaptions[21];
                Visible=Field21Visible;
                OnLookup=BEGIN
                           MATRIX_UpdateMatrixRecord(21);
                           MATRIX_OnLookup(Text);
                         END;
                          }

    { 1387;2   ;Field     ;
                Name=Field22;
                SourceExpr=MATRIX_CellData[22];
                CaptionClass='3,' + MATRIX_ColumnCaptions[22];
                Visible=Field22Visible;
                OnLookup=BEGIN
                           MATRIX_UpdateMatrixRecord(22);
                           MATRIX_OnLookup(Text);
                         END;
                          }

    { 1388;2   ;Field     ;
                Name=Field23;
                SourceExpr=MATRIX_CellData[23];
                CaptionClass='3,' + MATRIX_ColumnCaptions[23];
                Visible=Field23Visible;
                OnLookup=BEGIN
                           MATRIX_UpdateMatrixRecord(23);
                           MATRIX_OnLookup(Text);
                         END;
                          }

    { 1389;2   ;Field     ;
                Name=Field24;
                SourceExpr=MATRIX_CellData[24];
                CaptionClass='3,' + MATRIX_ColumnCaptions[24];
                Visible=Field24Visible;
                OnLookup=BEGIN
                           MATRIX_UpdateMatrixRecord(24);
                           MATRIX_OnLookup(Text);
                         END;
                          }

    { 1390;2   ;Field     ;
                Name=Field25;
                SourceExpr=MATRIX_CellData[25];
                CaptionClass='3,' + MATRIX_ColumnCaptions[25];
                Visible=Field25Visible;
                OnLookup=BEGIN
                           MATRIX_UpdateMatrixRecord(25);
                           MATRIX_OnLookup(Text);
                         END;
                          }

    { 1391;2   ;Field     ;
                Name=Field26;
                SourceExpr=MATRIX_CellData[26];
                CaptionClass='3,' + MATRIX_ColumnCaptions[26];
                Visible=Field26Visible;
                OnLookup=BEGIN
                           MATRIX_UpdateMatrixRecord(26);
                           MATRIX_OnLookup(Text);
                         END;
                          }

    { 1392;2   ;Field     ;
                Name=Field27;
                SourceExpr=MATRIX_CellData[27];
                CaptionClass='3,' + MATRIX_ColumnCaptions[27];
                Visible=Field27Visible;
                OnLookup=BEGIN
                           MATRIX_UpdateMatrixRecord(27);
                           MATRIX_OnLookup(Text);
                         END;
                          }

    { 1393;2   ;Field     ;
                Name=Field28;
                SourceExpr=MATRIX_CellData[28];
                CaptionClass='3,' + MATRIX_ColumnCaptions[28];
                Visible=Field28Visible;
                OnLookup=BEGIN
                           MATRIX_UpdateMatrixRecord(28);
                           MATRIX_OnLookup(Text);
                         END;
                          }

    { 1394;2   ;Field     ;
                Name=Field29;
                SourceExpr=MATRIX_CellData[29];
                CaptionClass='3,' + MATRIX_ColumnCaptions[29];
                Visible=Field29Visible;
                OnLookup=BEGIN
                           MATRIX_UpdateMatrixRecord(29);
                           MATRIX_OnLookup(Text);
                         END;
                          }

    { 1395;2   ;Field     ;
                Name=Field30;
                SourceExpr=MATRIX_CellData[30];
                CaptionClass='3,' + MATRIX_ColumnCaptions[30];
                Visible=Field30Visible;
                OnLookup=BEGIN
                           MATRIX_UpdateMatrixRecord(30);
                           MATRIX_OnLookup(Text);
                         END;
                          }

    { 1396;2   ;Field     ;
                Name=Field31;
                SourceExpr=MATRIX_CellData[31];
                CaptionClass='3,' + MATRIX_ColumnCaptions[31];
                Visible=Field31Visible;
                OnLookup=BEGIN
                           MATRIX_UpdateMatrixRecord(31);
                           MATRIX_OnLookup(Text);
                         END;
                          }

    { 1397;2   ;Field     ;
                Name=Field32;
                SourceExpr=MATRIX_CellData[32];
                CaptionClass='3,' + MATRIX_ColumnCaptions[32];
                Visible=Field32Visible;
                OnLookup=BEGIN
                           MATRIX_UpdateMatrixRecord(32);
                           MATRIX_OnLookup(Text);
                         END;
                          }

  }
  CODE
  {
    VAR
      CFAccount@1000 : Record 841;
      TempCFForecastEntry@1001 : TEMPORARY Record 847;
      DimSetEntry@1004 : Record 480;
      DimensionMatrix@1003 : Record 348;
      MATRIX_CellData@1005 : ARRAY [32] OF Text[1024];
      MATRIX_ColumnCaptions@1006 : ARRAY [32] OF Text[1024];
      MATRIX_PKFirstCaptionInSet@1007 : Text[1024];
      MATRIX_NoOfMatrixColumns@1008 : Integer;
      MATRIX_CurrentColumnOrdinal@1009 : Integer;
      MATRIX_CurrSetLength@1010 : Integer;
      RunOnTempRec@1011 : Boolean;
      Field1Visible@19069335 : Boolean INDATASET;
      Field2Visible@19014807 : Boolean INDATASET;
      Field3Visible@19062679 : Boolean INDATASET;
      Field4Visible@19074839 : Boolean INDATASET;
      Field5Visible@19043543 : Boolean INDATASET;
      Field6Visible@19067287 : Boolean INDATASET;
      Field7Visible@19067863 : Boolean INDATASET;
      Field8Visible@19039959 : Boolean INDATASET;
      Field9Visible@19008663 : Boolean INDATASET;
      Field10Visible@19006501 : Boolean INDATASET;
      Field11Visible@19052468 : Boolean INDATASET;
      Field12Visible@19013039 : Boolean INDATASET;
      Field13Visible@19079726 : Boolean INDATASET;
      Field14Visible@19077225 : Boolean INDATASET;
      Field15Visible@19035896 : Boolean INDATASET;
      Field16Visible@19003763 : Boolean INDATASET;
      Field17Visible@19049730 : Boolean INDATASET;
      Field18Visible@19007213 : Boolean INDATASET;
      Field19Visible@19053180 : Boolean INDATASET;
      Field20Visible@19014629 : Boolean INDATASET;
      Field21Visible@19060596 : Boolean INDATASET;
      Field22Visible@19021167 : Boolean INDATASET;
      Field23Visible@19047854 : Boolean INDATASET;
      Field24Visible@19045353 : Boolean INDATASET;
      Field25Visible@19004024 : Boolean INDATASET;
      Field26Visible@19011891 : Boolean INDATASET;
      Field27Visible@19057858 : Boolean INDATASET;
      Field28Visible@19015341 : Boolean INDATASET;
      Field29Visible@19061308 : Boolean INDATASET;
      Field30Visible@19010597 : Boolean INDATASET;
      Field31Visible@19056564 : Boolean INDATASET;
      Field32Visible@19017135 : Boolean INDATASET;

    LOCAL PROCEDURE GetCaption@1450() : Text[250];
    BEGIN
      IF CFAccount."No." <> "Cash Flow Account No." THEN
        CFAccount.GET("Cash Flow Account No.");
      EXIT(STRSUBSTNO('%1 %2',CFAccount."No.",CFAccount.Name));
    END;

    LOCAL PROCEDURE MATRIX_UpdateMatrixRecord@1451(MATRIX_NewColumnOrdinal@1360 : Integer);
    BEGIN
      MATRIX_CurrentColumnOrdinal := MATRIX_NewColumnOrdinal;
      DimensionMatrix.SETPOSITION(MATRIX_PKFirstCaptionInSet);
      MATRIX_OnFindRecord('=');
      MATRIX_OnNextRecord(MATRIX_NewColumnOrdinal - 1);
    END;

    LOCAL PROCEDURE MATRIX_OnAfterGetRecord@1453();
    BEGIN
      IF NOT DimSetEntry.GET("Dimension Set ID",DimensionMatrix.Code)
      THEN BEGIN
        DimSetEntry.INIT;
        DimSetEntry."Dimension Code" := DimensionMatrix.Code;
      END;
      MATRIX_CellData[MATRIX_CurrentColumnOrdinal] := FORMAT(DimSetEntry."Dimension Value Code");
    END;

    LOCAL PROCEDURE MATRIX_OnFindRecord@1454(Which@1362 : Text[1024]) : Boolean;
    BEGIN
      EXIT(DimensionMatrix.FIND(Which));
    END;

    LOCAL PROCEDURE MATRIX_OnNextRecord@1455(Steps@1363 : Integer) : Integer;
    BEGIN
      EXIT(DimensionMatrix.NEXT(Steps));
    END;

    PROCEDURE Load@1(NewMATRIX_Captions@1000 : ARRAY [32] OF Text[1024];PKFirstCaptionInSet@1001 : Text[1024];LengthOfCurrSet@1002 : Integer);
    BEGIN
      COPYARRAY(MATRIX_ColumnCaptions,NewMATRIX_Captions,1);
      MATRIX_PKFirstCaptionInSet := PKFirstCaptionInSet;
      MATRIX_CurrSetLength := LengthOfCurrSet;
    END;

    PROCEDURE MATRIX_OnLookup@2(VAR Text@1001 : Text[1024]);
    VAR
      DimVal@1000 : Record 349;
    BEGIN
      Text := DimensionMatrix.Code; // For PreCal
      DimVal.SETRANGE("Dimension Code",DimensionMatrix.Code);
      DimVal."Dimension Code" := DimSetEntry."Dimension Code";
      DimVal.Code := DimSetEntry."Dimension Value Code";
      PAGE.RUNMODAL(PAGE::"Dimension Value List",DimVal);
    END;

    PROCEDURE SetTempCFForecastEntry@3(VAR NewCFForecastEntry@1000 : Record 847);
    BEGIN
      RunOnTempRec := TRUE;
      TempCFForecastEntry.DELETEALL;
      IF NewCFForecastEntry.FIND('-') THEN
        REPEAT
          TempCFForecastEntry := NewCFForecastEntry;
          TempCFForecastEntry.INSERT;
        UNTIL NewCFForecastEntry.NEXT = 0;
    END;

    PROCEDURE SetColumnVisibility@4();
    BEGIN
      Field1Visible := MATRIX_CurrSetLength >= 1;
      Field2Visible := MATRIX_CurrSetLength >= 2;
      Field3Visible := MATRIX_CurrSetLength >= 3;
      Field4Visible := MATRIX_CurrSetLength >= 4;
      Field5Visible := MATRIX_CurrSetLength >= 5;
      Field6Visible := MATRIX_CurrSetLength >= 6;
      Field7Visible := MATRIX_CurrSetLength >= 7;
      Field8Visible := MATRIX_CurrSetLength >= 8;
      Field9Visible := MATRIX_CurrSetLength >= 9;
      Field10Visible := MATRIX_CurrSetLength >= 10;
      Field11Visible := MATRIX_CurrSetLength >= 11;
      Field12Visible := MATRIX_CurrSetLength >= 12;
      Field13Visible := MATRIX_CurrSetLength >= 13;
      Field14Visible := MATRIX_CurrSetLength >= 14;
      Field15Visible := MATRIX_CurrSetLength >= 15;
      Field16Visible := MATRIX_CurrSetLength >= 16;
      Field17Visible := MATRIX_CurrSetLength >= 17;
      Field18Visible := MATRIX_CurrSetLength >= 18;
      Field19Visible := MATRIX_CurrSetLength >= 19;
      Field20Visible := MATRIX_CurrSetLength >= 20;
      Field21Visible := MATRIX_CurrSetLength >= 21;
      Field22Visible := MATRIX_CurrSetLength >= 22;
      Field23Visible := MATRIX_CurrSetLength >= 23;
      Field24Visible := MATRIX_CurrSetLength >= 24;
      Field25Visible := MATRIX_CurrSetLength >= 25;
      Field26Visible := MATRIX_CurrSetLength >= 26;
      Field27Visible := MATRIX_CurrSetLength >= 27;
      Field28Visible := MATRIX_CurrSetLength >= 28;
      Field29Visible := MATRIX_CurrSetLength >= 29;
      Field30Visible := MATRIX_CurrSetLength >= 30;
      Field31Visible := MATRIX_CurrSetLength >= 31;
      Field32Visible := MATRIX_CurrSetLength >= 32;
    END;

    BEGIN
    END.
  }
}

