OBJECT Page 8629 Config. Wizard
{
  OBJECT-PROPERTIES
  {
    Date=07/09/12;
    Time=12:00:00;
    Version List=NAVW17.00;
  }
  PROPERTIES
  {
    CaptionML=ENU=Welcome to RapidStart Services for Microsoft Dynamics NAV;
    InsertAllowed=No;
    DeleteAllowed=No;
    LinksAllowed=No;
    SourceTable=Table8627;
    PageType=Card;
    PromotedActionCategoriesML=ENU=New,Process,Report,Step 4,Step 5;
    ShowFilter=No;
    OnOpenPage=BEGIN
                 RESET;
                 IF NOT GET THEN BEGIN
                   INIT;
                   INSERT;
                 END ELSE BEGIN
                   "Package File Name" := '';
                   "Package Name" := '';
                   "Package Code" := '';
                   MODIFY;
                 END;
               END;

    OnClosePage=BEGIN
                  SelectDefaultRoleCenter("Your Profile Code");
                END;

    ActionList=ACTIONS
    {
      { 6       ;    ;ActionContainer;
                      ActionContainerType=ActionItems }
      { 8       ;1   ;ActionGroup;
                      CaptionML=ENU=Actions }
      { 13      ;2   ;Action    ;
                      CaptionML=ENU=Apply Package;
                      Promoted=Yes;
                      Enabled=ApplyVisible;
                      PromotedIsBig=Yes;
                      Image=Apply;
                      PromotedCategory=Category4;
                      OnAction=BEGIN
                                 IF CompleteWizard THEN
                                   ConfigVisible := TRUE
                                 ELSE
                                   ERROR(Text003);
                               END;
                                }
      { 12      ;2   ;Action    ;
                      CaptionML=ENU=Configuration Worksheet;
                      RunObject=Page 8632;
                      Promoted=Yes;
                      Enabled=ConfigVisible;
                      PromotedIsBig=Yes;
                      Image=SetupLines;
                      PromotedCategory=Category4 }
      { 14      ;1   ;ActionGroup;
                      CaptionML=ENU=Setup }
      { 16      ;2   ;Action    ;
                      CaptionML=ENU=Users;
                      RunObject=Page 9800;
                      Promoted=Yes;
                      PromotedIsBig=Yes;
                      Image=User;
                      PromotedCategory=Category5 }
      { 18      ;2   ;Action    ;
                      CaptionML=ENU=Users Personalization;
                      RunObject=Page 9173;
                      Promoted=Yes;
                      PromotedIsBig=Yes;
                      Image=UserSetup;
                      PromotedCategory=Category5 }
    }
  }
  CONTROLS
  {
    { 1900000001;0;Container;
                ContainerType=ContentArea }

    { 56  ;1   ;Group     ;
                CaptionML=ENU=Step 1. Enter your company details. }

    { 5   ;2   ;Group     ;
                GroupType=Group }

    { 55  ;3   ;Field     ;
                CaptionML=ENU=Name (Required);
                SourceExpr=Name }

    { 54  ;3   ;Field     ;
                SourceExpr=Address }

    { 53  ;3   ;Field     ;
                SourceExpr="Address 2" }

    { 52  ;3   ;Field     ;
                SourceExpr="Post Code" }

    { 51  ;3   ;Field     ;
                SourceExpr=City }

    { 50  ;3   ;Field     ;
                SourceExpr="Country/Region Code" }

    { 48  ;3   ;Field     ;
                SourceExpr="VAT Registration No." }

    { 47  ;3   ;Field     ;
                SourceExpr="Industrial Classification" }

    { 10  ;2   ;Field     ;
                SourceExpr=Picture }

    { 45  ;1   ;Group     ;
                CaptionML=ENU=Step 2. Enter communication details. }

    { 44  ;2   ;Field     ;
                Name=Phone No.2;
                SourceExpr="Phone No." }

    { 43  ;2   ;Field     ;
                SourceExpr="Fax No." }

    { 42  ;2   ;Field     ;
                SourceExpr="E-Mail" }

    { 41  ;2   ;Field     ;
                SourceExpr="Home Page" }

    { 37  ;1   ;Group     ;
                CaptionML=ENU=Step 3. Enter payment details. }

    { 36  ;2   ;Field     ;
                SourceExpr="Bank Name" }

    { 35  ;2   ;Field     ;
                SourceExpr="Bank Branch No." }

    { 34  ;2   ;Field     ;
                SourceExpr="Bank Account No." }

    { 33  ;2   ;Field     ;
                SourceExpr="Payment Routing No." }

    { 32  ;2   ;Field     ;
                SourceExpr="Giro No." }

    { 31  ;2   ;Field     ;
                SourceExpr="SWIFT Code" }

    { 27  ;2   ;Field     ;
                SourceExpr=IBAN }

    { 1   ;1   ;Group     ;
                CaptionML=ENU=Step 4. Select package.;
                GroupType=Group }

    { 2   ;2   ;Group     ;
                GroupType=Group }

    { 4   ;3   ;Field     ;
                CaptionML=ENU=Select the configuration package you want to load:;
                SourceExpr="Package File Name";
                Editable=FALSE;
                OnValidate=BEGIN
                             IF "Package File Name" = '' THEN
                               ApplyVisible := FALSE;

                             CurrPage.UPDATE;
                           END;

                OnAssistEdit=VAR
                               FileMgt@1000 : Codeunit 419;
                               ConfigXMLExchange@1001 : Codeunit 8614;
                             BEGIN
                               IF ConfigVisible THEN
                                 ERROR(Text005);

                               "Package File Name" :=
                                 COPYSTR(
                                   FileMgt.OpenFileDialog(
                                     Text004,'',ConfigXMLExchange.GetFileDialogFilter),1,MAXSTRLEN("Package File Name"));

                               IF "Package File Name" <> '' THEN BEGIN
                                 VALIDATE("Package File Name");
                                 ApplyVisible := TRUE;
                               END ELSE
                                 ApplyVisible := FALSE;
                             END;
                              }

    { 21  ;3   ;Field     ;
                SourceExpr="Package Code" }

    { 22  ;3   ;Field     ;
                SourceExpr="Package Name";
                Editable=FALSE }

    { 19  ;3   ;Field     ;
                CaptionML=ENU=Choose Apply Package action to load the data from the configuration to Microsoft Dynamics NAV tables. }

    { 20  ;3   ;Field     ;
                CaptionML=ENU=Choose Configuration Worksheet if you want to edit and modify applied data. }

    { 15  ;1   ;Group     ;
                CaptionML=ENU=Step 5. Select profile.;
                GroupType=Group }

    { 11  ;2   ;Group     ;
                GroupType=Group }

    { 9   ;3   ;Group     ;
                GroupType=Group }

    { 7   ;4   ;Field     ;
                Name=ProfileText;
                CaptionML=ENU=If you are finished setting up your company, select the profile that you want to use as your default, and then choose the OK button to close the Wizard. }

    { 17  ;4   ;Field     ;
                CaptionML=ENU=Select the profile that you want to use after the setup has completed.;
                SourceExpr="Your Profile Code";
                ShowCaption=No }

    { 3   ;3   ;Field     ;
                CaptionML=ENU=If you still need to change setup data, do not change the profile. Choose the OK button to close the wizard, and then use the configuration worksheet to continue setting up Microsoft Dynamics NAV.;
                Style=Attention;
                StyleExpr=TRUE }

  }
  CODE
  {
    VAR
      Text003@1001 : TextConst 'ENU=Select a package to run the Apply Package function.';
      Text004@1000 : TextConst 'ENU=Select a package file.';
      ApplyVisible@1002 : Boolean;
      ConfigVisible@1003 : Boolean;
      Text005@1005 : TextConst 'ENU=A package has already been selected and applied.';

    BEGIN
    END.
  }
}

