OBJECT Page 8632 Config. Worksheet
{
  OBJECT-PROPERTIES
  {
    Date=09/09/14;
    Time=12:00:00;
    Version List=NAVW18.00;
  }
  PROPERTIES
  {
    CaptionML=ENU=Config. Worksheet;
    SourceTable=Table8622;
    DelayedInsert=Yes;
    SourceTableView=SORTING(Vertical Sorting);
    PageType=List;
    PromotedActionCategoriesML=ENU=New,Process,Report,Excel,Show;
    OnOpenPage=BEGIN
                 FILTERGROUP := 2;
                 SETRANGE("Company Filter",COMPANYNAME);
                 FILTERGROUP := 0;
               END;

    OnClosePage=VAR
                  ConfigMgt@1002 : Codeunit 8616;
                BEGIN
                  ConfigMgt.AssignParentLineNos;
                END;

    OnAfterGetRecord=BEGIN
                       NameIndent := 0;
                       CASE "Line Type" OF
                         "Line Type"::Group:
                           NameIndent := 1;
                         "Line Type"::Table:
                           NameIndent := 2;
                       END;

                       NameEmphasize := (NameIndent IN [0,1]);
                     END;

    OnNewRecord=BEGIN
                  "Line Type" := xRec."Line Type";
                END;

    OnInsertRecord=VAR
                     ConfigLine@1001 : Record 8622;
                   BEGIN
                     NextLineNo := 10000;
                     ConfigLine.RESET;
                     IF ConfigLine.FINDLAST THEN
                       NextLineNo := ConfigLine."Line No." + 10000;

                     ConfigLine.SETCURRENTKEY("Vertical Sorting");
                     IF BelowxRec THEN BEGIN
                       IF ConfigLine.FINDLAST THEN;
                       "Vertical Sorting" := ConfigLine."Vertical Sorting" + 1;
                       "Line No." := NextLineNo;
                     END ELSE BEGIN
                       NextVertNo := xRec."Vertical Sorting";

                       ConfigLine.SETFILTER("Vertical Sorting",'%1..',NextVertNo);
                       IF ConfigLine.FIND('+') THEN
                         REPEAT
                           ConfigLine."Vertical Sorting" := ConfigLine."Vertical Sorting" + 1;
                           ConfigLine.MODIFY;
                         UNTIL ConfigLine.NEXT(-1) = 0;

                       "Line No." := NextLineNo;
                       "Vertical Sorting" := NextVertNo;
                     END;
                   END;

    ActionList=ACTIONS
    {
      { 1900000003;0 ;ActionContainer;
                      ActionContainerType=RelatedInformation }
      { 14      ;1   ;ActionGroup;
                      CaptionML=ENU=&Setup;
                      Image=Setup }
      { 9       ;2   ;Action    ;
                      Name=Questions;
                      CaptionML=ENU=Questions;
                      Promoted=Yes;
                      PromotedIsBig=Yes;
                      Image=Answers;
                      PromotedCategory=Category5;
                      OnAction=BEGIN
                                 ShowQuestions;
                               END;
                                }
      { 27      ;2   ;Action    ;
                      CaptionML=ENU=Users;
                      RunObject=Page 9800;
                      Image=Users }
      { 57      ;2   ;Action    ;
                      CaptionML=ENU=Users Personalization;
                      RunObject=Page 9173;
                      Image=UserSetup }
      { 1900000004;0 ;ActionContainer;
                      ActionContainerType=ActionItems }
      { 18      ;1   ;ActionGroup;
                      CaptionML=ENU=Sho&w;
                      Image=Action }
      { 58      ;2   ;Action    ;
                      Name=PackageCard;
                      CaptionML=ENU=Package Card;
                      Promoted=Yes;
                      PromotedIsBig=Yes;
                      Image=Bin;
                      PromotedCategory=Category5;
                      OnAction=BEGIN
                                 TESTFIELD("Package Code");
                                 ConfigPackageTable.ShowPackageCard("Package Code");
                               END;
                                }
      { 12      ;2   ;Action    ;
                      Name=PromotedOnly;
                      CaptionML=ENU=Promoted Only;
                      Promoted=Yes;
                      PromotedIsBig=Yes;
                      Image=ShowSelected;
                      PromotedCategory=Category5;
                      OnAction=BEGIN
                                 IF GETFILTER("Promoted Table") = '' THEN
                                   SETRANGE("Promoted Table",TRUE)
                                 ELSE
                                   SETRANGE("Promoted Table");
                               END;
                                }
      { 23      ;2   ;Action    ;
                      CaptionML=ENU=Database Data;
                      Promoted=Yes;
                      PromotedIsBig=Yes;
                      Image=Database;
                      PromotedCategory=Category5;
                      OnAction=BEGIN
                                 ShowTableData;
                               END;
                                }
      { 21      ;2   ;Action    ;
                      Name=PackageData;
                      CaptionML=ENU=Package Data;
                      Promoted=Yes;
                      PromotedIsBig=Yes;
                      Image=Grid;
                      PromotedCategory=Category5;
                      OnAction=BEGIN
                                 GetConfigPackageTable(ConfigPackageTable);
                                 ConfigPackageTable.ShowPackageRecords(Show::Records,"Dimensions as Columns");
                               END;
                                }
      { 36      ;2   ;Action    ;
                      CaptionML=ENU=Errors;
                      Image=ErrorLog;
                      OnAction=BEGIN
                                 GetConfigPackageTable(ConfigPackageTable);
                                 ConfigPackageTable.ShowPackageRecords(Show::Errors,"Dimensions as Columns");
                               END;
                                }
      { 35      ;2   ;Action    ;
                      CaptionML=ENU=Fields;
                      Image=CheckList;
                      OnAction=BEGIN
                                 GetConfigPackageTable(ConfigPackageTable);
                                 ConfigPackageTable.ShowPackageFields;
                               END;
                                }
      { 37      ;2   ;Action    ;
                      CaptionML=ENU=Filters;
                      Image=FilterLines;
                      OnAction=BEGIN
                                 GetConfigPackageTable(ConfigPackageTable);
                                 ConfigPackageTable.ShowFilters;
                               END;
                                }
      { 45      ;1   ;ActionGroup;
                      CaptionML=ENU=Functions }
      { 34      ;2   ;Action    ;
                      Ellipsis=Yes;
                      CaptionML=ENU=Get Tables;
                      PromotedIsBig=Yes;
                      Image=GetLines;
                      PromotedCategory=Process;
                      OnAction=VAR
                                 GetConfigTables@1000 : Report 8614;
                               BEGIN
                                 GetConfigTables.RUNMODAL;
                                 CLEAR(GetConfigTables);
                               END;
                                }
      { 56      ;2   ;Action    ;
                      Name=GetRelatedTables;
                      CaptionML=ENU=Get Related Tables;
                      Image=GetEntries;
                      OnAction=VAR
                                 Object@1002 : Record 2000000001;
                                 ConfigLine@1000 : Record 8622;
                                 ConfigMgt@1001 : Codeunit 8616;
                               BEGIN
                                 CurrPage.SETSELECTIONFILTER(ConfigLine);
                                 IF ConfigLine.FINDSET THEN
                                   REPEAT
                                     Object.SETRANGE(Type,Object.Type::Table);
                                     Object.SETRANGE(ID,ConfigLine."Table ID");
                                     ConfigMgt.GetConfigTables(Object,FALSE,TRUE,FALSE,FALSE,FALSE);
                                     COMMIT;
                                   UNTIL ConfigLine.NEXT = 0;
                               END;
                                }
      { 59      ;2   ;Action    ;
                      Name=DeleteDuplicateLines;
                      CaptionML=ENU=Delete Duplicate Lines;
                      PromotedIsBig=Yes;
                      Image=RemoveLine;
                      OnAction=BEGIN
                                 DeleteDuplicateLines;
                               END;
                                }
      { 46      ;2   ;Action    ;
                      Name=ApplyData;
                      CaptionML=ENU=Apply Data;
                      Promoted=Yes;
                      PromotedIsBig=Yes;
                      Image=Apply;
                      PromotedCategory=Process;
                      OnAction=VAR
                                 ConfigLine@1002 : Record 8622;
                                 ConfigPackageMgt@1001 : Codeunit 8611;
                               BEGIN
                                 CurrPage.SETSELECTIONFILTER(ConfigLine);
                                 CheckSelectedLines(ConfigLine);
                                 IF CONFIRM(Text003,FALSE) THEN
                                   ConfigPackageMgt.ApplyConfigLines(ConfigLine);
                               END;
                                }
      { 38      ;2   ;Action    ;
                      Name=MoveUp;
                      CaptionML=ENU=Move Up;
                      Image=MoveUp;
                      OnAction=VAR
                                 ConfigLine@1000 : Record 8622;
                               BEGIN
                                 CurrPage.SAVERECORD;
                                 ConfigLine.SETCURRENTKEY("Vertical Sorting");
                                 ConfigLine.SETFILTER("Vertical Sorting",'..%1',"Vertical Sorting" - 1);
                                 IF ConfigLine.FINDLAST THEN BEGIN
                                   ExchangeLines(Rec,ConfigLine);
                                   CurrPage.UPDATE(FALSE);
                                 END;
                               END;
                                }
      { 39      ;2   ;Action    ;
                      Name=MoveDown;
                      CaptionML=ENU=Move Down;
                      Image=MoveDown;
                      OnAction=VAR
                                 ConfigLine@1000 : Record 8622;
                               BEGIN
                                 CurrPage.SAVERECORD;
                                 ConfigLine.SETCURRENTKEY("Vertical Sorting");
                                 ConfigLine.SETFILTER("Vertical Sorting",'%1..',"Vertical Sorting" + 1);
                                 IF ConfigLine.FINDFIRST THEN BEGIN
                                   ExchangeLines(Rec,ConfigLine);
                                   CurrPage.UPDATE(FALSE);
                                 END;
                               END;
                                }
      { 7       ;2   ;Action    ;
                      Name=AssignPackage;
                      CaptionML=ENU=Assign Package;
                      Image=Migration;
                      PromotedCategory=Process;
                      OnAction=VAR
                                 ConfigLine@1000 : Record 8622;
                               BEGIN
                                 CurrPage.SETSELECTIONFILTER(ConfigLine);
                                 AssignPackagePrompt(ConfigLine);
                               END;
                                }
      { 47      ;1   ;ActionGroup;
                      CaptionML=ENU=Tools }
      { 48      ;2   ;Action    ;
                      Name=CopyDataFromCompany;
                      Ellipsis=Yes;
                      CaptionML=ENU=Copy Data from Company;
                      Image=Copy;
                      OnAction=BEGIN
                                 PAGE.RUNMODAL(PAGE::"Copy Company Data");
                               END;
                                }
      { 24      ;1   ;ActionGroup;
                      CaptionML=ENU=Excel }
      { 3       ;2   ;Action    ;
                      CaptionML=ENU=Export to Template;
                      Promoted=Yes;
                      PromotedIsBig=Yes;
                      Image=ExportToExcel;
                      PromotedCategory=Category4;
                      OnAction=VAR
                                 ConfigLine@1001 : Record 8622;
                                 ConfigExcelExchange@1000 : Codeunit 8618;
                               BEGIN
                                 CurrPage.SETSELECTIONFILTER(ConfigLine);
                                 CheckSelectedLines(ConfigLine);
                                 IF CONFIRM(Text005,TRUE,ConfigLine.COUNT) THEN
                                   ConfigExcelExchange.ExportExcelFromConfig(ConfigLine);
                               END;
                                }
      { 29      ;2   ;Action    ;
                      CaptionML=ENU=Import from Template;
                      Promoted=Yes;
                      PromotedIsBig=Yes;
                      Image=ImportExcel;
                      PromotedCategory=Category4;
                      OnAction=VAR
                                 ConfigExcelExchange@1000 : Codeunit 8618;
                               BEGIN
                                 IF CONFIRM(Text004,TRUE) THEN
                                   ConfigExcelExchange.ImportExcelFromConfig(Rec);
                               END;
                                }
      { 49      ;0   ;ActionContainer;
                      ActionContainerType=Reports }
      { 50      ;1   ;ActionGroup;
                      CaptionML=ENU=C&reate }
      { 51      ;2   ;Action    ;
                      CaptionML=ENU=Create G/L Journal Lines;
                      RunObject=Report 8610;
                      Image=Report }
      { 52      ;2   ;Action    ;
                      CaptionML=ENU=Create Customer Journal Lines;
                      RunObject=Report 8611;
                      Image=Report }
      { 53      ;2   ;Action    ;
                      CaptionML=ENU=Create Vendor Journal Lines;
                      RunObject=Report 8612;
                      Image=Report }
      { 54      ;2   ;Action    ;
                      CaptionML=ENU=Create Item Journal Lines;
                      RunObject=Report 8613;
                      Image=Report }
    }
  }
  CONTROLS
  {
    { 1900000001;0;Container;
                ContainerType=ContentArea }

    { 1   ;1   ;Group     ;
                IndentationColumnName=NameIndent;
                IndentationControls=Name;
                GroupType=Repeater }

    { 32  ;2   ;Field     ;
                SourceExpr="Line Type";
                Style=Strong;
                StyleExpr=NameEmphasize }

    { 17  ;2   ;Field     ;
                BlankZero=Yes;
                SourceExpr="Table ID" }

    { 26  ;2   ;Field     ;
                SourceExpr=Name;
                Style=Strong;
                StyleExpr=NameEmphasize }

    { 40  ;2   ;Field     ;
                SourceExpr="Promoted Table" }

    { 2   ;2   ;Field     ;
                Width=20;
                SourceExpr=Reference }

    { 43  ;2   ;Field     ;
                SourceExpr="Package Code";
                Editable=FALSE }

    { 44  ;2   ;Field     ;
                BlankZero=Yes;
                SourceExpr="Package Exists" }

    { 16  ;2   ;Field     ;
                SourceExpr="Responsible ID" }

    { 31  ;2   ;Field     ;
                SourceExpr=Status }

    { 11  ;2   ;Field     ;
                AssistEdit=Yes;
                BlankZero=Yes;
                SourceExpr="Page ID";
                OnAssistEdit=BEGIN
                               ShowTableData;
                             END;
                              }

    { 13  ;2   ;Field     ;
                SourceExpr="Page Caption" }

    { 33  ;2   ;Field     ;
                SourceExpr="Licensed Table" }

    { 15  ;2   ;Field     ;
                Name=NoOfRecords;
                CaptionML=ENU=No. of Records;
                BlankZero=Yes;
                SourceExpr=GetNoOfRecords }

    { 20  ;2   ;Field     ;
                SourceExpr="Dimensions as Columns" }

    { 8   ;2   ;Field     ;
                SourceExpr="Copying Available" }

    { 5   ;2   ;Field     ;
                BlankZero=Yes;
                SourceExpr="No. of Question Groups";
                Visible=FALSE }

    { 30  ;2   ;Field     ;
                SourceExpr="Licensed Page" }

    { 1900000007;0;Container;
                ContainerType=FactBoxArea }

    { 6   ;1   ;Part      ;
                CaptionML=ENU=Package Table;
                SubPageView=SORTING(Package Code,Table ID);
                SubPageLink=Package Code=FIELD(Package Code),
                            Table ID=FIELD(Table ID);
                PagePartID=Page8634;
                PartType=Page }

    { 28  ;1   ;Part      ;
                CaptionML=ENU=Related Tables;
                SubPageLink=Table ID=FIELD(Table ID);
                PagePartID=Page8635;
                PartType=Page }

    { 22  ;1   ;Part      ;
                CaptionML=ENU=Questions;
                SubPageLink=Table ID=FIELD(Table ID);
                PagePartID=Page8633;
                PartType=Page }

    { 25  ;1   ;Part      ;
                CaptionML=ENU=Notes;
                Visible=FALSE;
                PartType=System;
                SystemPartID=Notes }

    { 41  ;1   ;Part      ;
                CaptionML=ENU=Links;
                Visible=FALSE;
                PartType=System;
                SystemPartID=RecordLinks }

  }
  CODE
  {
    VAR
      ConfigPackageTable@1010 : Record 8613;
      Show@1002 : 'Records,Errors,All';
      NameEmphasize@1004 : Boolean INDATASET;
      NameIndent@1003 : Integer INDATASET;
      NextLineNo@1005 : Integer;
      NextVertNo@1006 : Integer;
      Text001@1001 : TextConst 'ENU=You must assign a package code before you can carry out this action.';
      Text002@1000 : TextConst 'ENU=You must select table lines with the same package code.';
      Text003@1007 : TextConst 'ENU=Do you want to apply package data for the selected tables?';
      Text004@1008 : TextConst 'ENU=Do you want to import data from the Excel template?';
      Text005@1009 : TextConst 'ENU=Do you want to export data from %1 tables to the Excel template?';

    LOCAL PROCEDURE ExchangeLines@1(VAR ConfigLine1@1000 : Record 8622;VAR ConfigLine2@1001 : Record 8622);
    VAR
      VertSort@1002 : Integer;
    BEGIN
      VertSort := ConfigLine1."Vertical Sorting";
      ConfigLine1."Vertical Sorting" := ConfigLine2."Vertical Sorting";
      ConfigLine2."Vertical Sorting" := VertSort;
      ConfigLine1.MODIFY;
      ConfigLine2.MODIFY;
    END;

    LOCAL PROCEDURE AssignPackagePrompt@7(VAR ConfigLine@1000 : Record 8622);
    VAR
      ConfigPackage@1002 : Record 8623;
      ConfigPackageMgt@1003 : Codeunit 8611;
      ConfigPackages@1001 : Page 8615;
    BEGIN
      ConfigPackageMgt.CheckConfigLinesToAssign(ConfigLine);
      CLEAR(ConfigPackages);
      ConfigPackage.INIT;
      ConfigPackages.LOOKUPMODE(TRUE);
      IF ConfigPackages.RUNMODAL = ACTION::LookupOK THEN BEGIN
        ConfigPackages.GETRECORD(ConfigPackage);
        ConfigPackageMgt.AssignPackage(ConfigLine,ConfigPackage.Code);
      END;
    END;

    PROCEDURE CheckSelectedLines@2(VAR SelectedConfigLine@1000 : Record 8622);
    VAR
      PackageCode@1001 : Code[20];
    BEGIN
      PackageCode := '';
      WITH SelectedConfigLine DO BEGIN
        IF FINDSET THEN
          REPEAT
            CheckBlocked;
            IF ("Package Code" <> '') AND
               ("Line Type" = "Line Type"::Table) AND
               (Status <= Status::"In Progress")
            THEN BEGIN
              IF PackageCode = '' THEN
                PackageCode := "Package Code"
              ELSE
                IF PackageCode <> "Package Code" THEN
                  ERROR(Text002);
            END ELSE
              IF "Package Code" = '' THEN
                ERROR(Text001);
          UNTIL NEXT = 0;
      END;
    END;

    LOCAL PROCEDURE GetConfigPackageTable@4(VAR ConfigPackageTable@1000 : Record 8613);
    BEGIN
      TESTFIELD("Table ID");
      IF NOT ConfigPackageTable.GET("Package Code","Table ID") THEN
        ERROR(Text001);
    END;

    BEGIN
    END.
  }
}

