OBJECT Page 8633 Config. Questions Factbox
{
  OBJECT-PROPERTIES
  {
    Date=07/09/12;
    Time=12:00:00;
    Version List=NAVW17.00;
  }
  PROPERTIES
  {
    Editable=No;
    CaptionML=ENU=Config. Questions Factbox;
    SourceTable=Table8612;
    PageType=ListPart;
  }
  CONTROLS
  {
    { 1   ;0   ;Container ;
                ContainerType=ContentArea }

    { 2   ;1   ;Group     ;
                Name=Group;
                GroupType=Repeater }

    { 3   ;2   ;Field     ;
                SourceExpr="Questionnaire Code";
                Visible=FALSE }

    { 4   ;2   ;Field     ;
                SourceExpr="Question Area Code";
                Visible=FALSE }

    { 5   ;2   ;Field     ;
                SourceExpr=Question }

    { 6   ;2   ;Field     ;
                SourceExpr=Answer }

  }
  CODE
  {

    BEGIN
    END.
  }
}

