OBJECT Page 9 Languages
{
  OBJECT-PROPERTIES
  {
    Date=07/09/12;
    Time=12:00:00;
    Version List=NAVW17.00;
  }
  PROPERTIES
  {
    CaptionML=[ENU=Languages;
               PTB=Linguagens];
    SourceTable=Table8;
    PageType=List;
  }
  CONTROLS
  {
    { 1900000001;0;Container;
                ContainerType=ContentArea }

    { 1   ;1   ;Group     ;
                GroupType=Repeater }

    { 2   ;2   ;Field     ;
                SourceExpr=Code }

    { 4   ;2   ;Field     ;
                SourceExpr=Name }

    { 9   ;2   ;Field     ;
                SourceExpr="Windows Language ID";
                LookupPageID=Windows Languages }

    { 11  ;2   ;Field     ;
                DrillDown=No;
                SourceExpr="Windows Language Name" }

    { 1900000007;0;Container;
                ContainerType=FactBoxArea }

    { 1900383207;1;Part   ;
                Visible=FALSE;
                PartType=System;
                SystemPartID=RecordLinks }

    { 1905767507;1;Part   ;
                Visible=FALSE;
                PartType=System;
                SystemPartID=Notes }

  }
  CODE
  {

    BEGIN
    END.
  }
}

