OBJECT Page 9506 Session List
{
  OBJECT-PROPERTIES
  {
    Date=23/09/13;
    Time=12:00:00;
    Version List=NAVW17.10;
  }
  PROPERTIES
  {
    CaptionML=ENU=Session List;
    InsertAllowed=No;
    DeleteAllowed=No;
    ModifyAllowed=No;
    LinksAllowed=No;
    SourceTable=Table2000000110;
    PageType=List;
    RefreshOnActivate=Yes;
    PromotedActionCategoriesML=ENU=New,Process,Report,Session,SQL Trace;
    OnOpenPage=BEGIN
                 FILTERGROUP(2);
                 SETFILTER("Server Instance ID",'=%1',SERVICEINSTANCEID);
                 SETFILTER("Session ID",'<>%1',SESSIONID);
                 FILTERGROUP(0);

                 FullSQLTracingStarted := DEBUGGER.ENABLESQLTRACE(0);
               END;

    OnFindRecord=BEGIN
                   CanDebugNextSession := NOT DEBUGGER.ISACTIVE;
                   CanDebugSelectedSession := NOT DEBUGGER.ISATTACHED AND NOT ISEMPTY;

                   // If the session list is empty, insert an empty row to carry the button state to the client
                   IF NOT FIND(Which) THEN BEGIN
                     INIT;
                     "Session ID" := 0;
                   END;

                   EXIT(TRUE);
                 END;

    OnAfterGetRecord=BEGIN
                       IsDebugging := DEBUGGER.ISACTIVE AND ("Session ID" = DEBUGGER.DEBUGGINGSESSIONID);
                       IsDebugged := DEBUGGER.ISATTACHED AND ("Session ID" = DEBUGGER.DEBUGGEDSESSIONID);
                       IsSQLTracing := DEBUGGER.ENABLESQLTRACE("Session ID");

                       // If this is the empty row, clear the Session ID and Client Type
                       IF "Session ID" = 0 THEN BEGIN
                         SessionIdText := '';
                         ClientTypeText := '';
                       END ELSE BEGIN
                         SessionIdText := FORMAT("Session ID");
                         ClientTypeText := FORMAT("Client Type");
                       END;
                     END;

    ActionList=ACTIONS
    {
      { 9       ;    ;ActionContainer;
                      ActionContainerType=ActionItems }
      { 8       ;1   ;Separator  }
      { 13      ;1   ;ActionGroup;
                      Name=Session;
                      CaptionML=ENU=Session }
      { 11      ;2   ;Action    ;
                      Name=Debug Selected Session;
                      ShortCutKey=Shift+Ctrl+S;
                      CaptionML=ENU=Debug;
                      ToolTipML=ENU=Debug the selected session;
                      Promoted=Yes;
                      Enabled=CanDebugSelectedSession;
                      PromotedIsBig=Yes;
                      Image=Debug;
                      PromotedCategory=Category4;
                      OnAction=BEGIN
                                 DebuggerManagement.SetDebuggedSession(Rec);
                                 DebuggerManagement.OpenDebuggerTaskPage;
                               END;
                                }
      { 10      ;2   ;Action    ;
                      Name=Debug Next Session;
                      ShortCutKey=Shift+Ctrl+N;
                      CaptionML=ENU=Debug Next;
                      ToolTipML=ENU=Debug the next session that breaks code execution.;
                      Promoted=Yes;
                      Enabled=CanDebugNextSession;
                      PromotedIsBig=Yes;
                      Image=DebugNext;
                      PromotedCategory=Category4;
                      OnAction=VAR
                                 DebuggedSessionTemp@1001 : Record 2000000110;
                               BEGIN
                                 DebuggedSessionTemp."Session ID" := 0;
                                 DebuggerManagement.SetDebuggedSession(DebuggedSessionTemp);
                                 DebuggerManagement.OpenDebuggerTaskPage;
                               END;
                                }
      { 19      ;1   ;ActionGroup;
                      Name=SQL Trace;
                      CaptionML=ENU=SQL Trace }
      { 20      ;2   ;Action    ;
                      Name=Start Full SQL Tracing;
                      CaptionML=ENU=Start Full SQL Tracing;
                      Promoted=Yes;
                      Enabled=NOT FullSQLTracingStarted;
                      Image=Continue;
                      PromotedCategory=Category5;
                      OnAction=BEGIN
                                 DEBUGGER.ENABLESQLTRACE(0,TRUE);
                                 FullSQLTracingStarted := TRUE;
                               END;
                                }
      { 21      ;2   ;Action    ;
                      Name=Stop Full SQL Tracing;
                      CaptionML=ENU=Stop Full SQL Tracing;
                      Promoted=Yes;
                      Enabled=FullSQLTracingStarted;
                      Image=Stop;
                      PromotedCategory=Category5;
                      OnAction=BEGIN
                                 DEBUGGER.ENABLESQLTRACE(0,FALSE);
                                 FullSQLTracingStarted := FALSE;
                               END;
                                }
    }
  }
  CONTROLS
  {
    { 1   ;0   ;Container ;
                ContainerType=ContentArea }

    { 2   ;1   ;Group     ;
                Name=Group;
                GroupType=Repeater }

    { 3   ;2   ;Field     ;
                CaptionML=ENU=Session ID;
                SourceExpr=SessionIdText;
                Editable=FALSE }

    { 4   ;2   ;Field     ;
                CaptionML=ENU=User ID;
                SourceExpr="User ID";
                Editable=FALSE }

    { 15  ;2   ;Field     ;
                CaptionML=ENU=SQL Tracing;
                SourceExpr=IsSQLTracing;
                OnValidate=BEGIN
                             DEBUGGER.ENABLESQLTRACE("Session ID",IsSQLTracing);
                           END;
                            }

    { 5   ;2   ;Field     ;
                Name=Client Type;
                CaptionML=ENU=Client Type;
                SourceExpr=ClientTypeText;
                Editable=FALSE }

    { 6   ;2   ;Field     ;
                CaptionML=ENU=Login Date;
                SourceExpr="Login Datetime";
                Editable=FALSE }

    { 14  ;2   ;Field     ;
                CaptionML=ENU=Server Computer Name;
                SourceExpr="Server Computer Name";
                Editable=FALSE }

    { 7   ;2   ;Field     ;
                CaptionML=ENU=Server Instance Name;
                SourceExpr="Server Instance Name";
                Editable=FALSE }

    { 12  ;2   ;Field     ;
                CaptionML=ENU=Debugging;
                SourceExpr=IsDebugging;
                Editable=FALSE }

    { 16  ;2   ;Field     ;
                CaptionML=ENU=Debugged;
                SourceExpr=IsDebugged;
                Editable=FALSE }

  }
  CODE
  {
    VAR
      DebuggerManagement@1000 : Codeunit 9500;
      CanDebugNextSession@1002 : Boolean INDATASET;
      CanDebugSelectedSession@1003 : Boolean INDATASET;
      FullSQLTracingStarted@1008 : Boolean INDATASET;
      IsDebugging@1004 : Boolean;
      IsDebugged@1005 : Boolean;
      IsSQLTracing@1007 : Boolean;
      SessionIdText@1001 : Text;
      ClientTypeText@1006 : Text;

    BEGIN
    END.
  }
}

