OBJECT Page 940 Blanket Assembly Order
{
  OBJECT-PROPERTIES
  {
    Date=09/09/14;
    Time=12:00:00;
    Version List=NAVW18.00;
  }
  PROPERTIES
  {
    CaptionML=ENU=Blanket Assembly Order;
    InsertAllowed=No;
    DeleteAllowed=No;
    SourceTable=Table900;
    SourceTableView=SORTING(Document Type,No.)
                    ORDER(Ascending)
                    WHERE(Document Type=CONST(Blanket Order));
    PageType=Document;
    OnOpenPage=BEGIN
                 IsUnitCostEditable := TRUE;
                 IsAsmToOrderEditable := TRUE;

                 UpdateWarningOnLines;
               END;

    OnAfterGetRecord=BEGIN
                       IsUnitCostEditable := NOT IsStandardCostItem;
                       IsAsmToOrderEditable := NOT IsAsmToOrder;
                     END;

    ActionList=ACTIONS
    {
      { 18      ;    ;ActionContainer;
                      ActionContainerType=RelatedInformation }
      { 14      ;1   ;Action    ;
                      ShortCutKey=F7;
                      CaptionML=ENU=Statistics;
                      RunPageOnRec=Yes;
                      Image=Statistics;
                      OnAction=BEGIN
                                 ShowStatistics;
                               END;
                                }
      { 15      ;1   ;Action    ;
                      AccessByPermission=TableData 348=R;
                      ShortCutKey=Shift+Ctrl+D;
                      CaptionML=ENU=Dimensions;
                      Image=Dimensions;
                      OnAction=BEGIN
                                 ShowDimensions;
                               END;
                                }
      { 31      ;1   ;Action    ;
                      CaptionML=ENU=Assembly BOM;
                      Image=AssemblyBOM;
                      OnAction=BEGIN
                                 ShowAssemblyList;
                               END;
                                }
      { 32      ;1   ;Action    ;
                      CaptionML=ENU=Comments;
                      RunObject=Page 907;
                      RunPageLink=Document Type=FIELD(Document Type),
                                  Document No.=FIELD(No.),
                                  Document Line No.=CONST(0);
                      Image=ViewComments }
      { 42      ;0   ;ActionContainer;
                      ActionContainerType=ActionItems }
      { 17      ;1   ;ActionGroup;
                      CaptionML=ENU=F&unctions;
                      ActionContainerType=ActionItems;
                      Image=Action }
      { 19      ;2   ;Action    ;
                      CaptionML=ENU=Update Unit Cost;
                      Enabled=IsUnitCostEditable;
                      Image=UpdateUnitCost;
                      OnAction=BEGIN
                                 UpdateUnitCost;
                               END;
                                }
      { 13      ;2   ;Action    ;
                      CaptionML=ENU=Refresh Lines;
                      Image=RefreshLines;
                      OnAction=BEGIN
                                 RefreshBOM;
                                 CurrPage.UPDATE;
                               END;
                                }
      { 41      ;2   ;Action    ;
                      CaptionML=ENU=Show Availability;
                      Image=ItemAvailbyLoc;
                      OnAction=BEGIN
                                 ShowAvailability;
                               END;
                                }
    }
  }
  CONTROLS
  {
    { 1   ;0   ;Container ;
                ContainerType=ContentArea }

    { 2   ;1   ;Group     ;
                CaptionML=ENU=General;
                GroupType=Group }

    { 3   ;2   ;Field     ;
                AssistEdit=Yes;
                SourceExpr="No.";
                OnAssistEdit=BEGIN
                               IF AssistEdit(xRec) THEN
                                 CurrPage.UPDATE;
                             END;
                              }

    { 4   ;2   ;Field     ;
                SourceExpr="Item No.";
                TableRelation=Item.No. WHERE (Assembly BOM=CONST(Yes));
                Importance=Promoted;
                Editable=IsAsmToOrderEditable }

    { 5   ;2   ;Field     ;
                SourceExpr=Description }

    { 33  ;2   ;Group     ;
                GroupType=Group }

    { 6   ;3   ;Field     ;
                SourceExpr=Quantity;
                Importance=Promoted;
                Editable=IsAsmToOrderEditable }

    { 30  ;3   ;Field     ;
                SourceExpr="Unit of Measure Code";
                Editable=IsAsmToOrderEditable }

    { 27  ;2   ;Field     ;
                SourceExpr="Posting Date";
                Importance=Promoted }

    { 26  ;2   ;Field     ;
                SourceExpr="Due Date";
                Importance=Promoted;
                Editable=IsAsmToOrderEditable }

    { 45  ;2   ;Field     ;
                SourceExpr="Starting Date" }

    { 46  ;2   ;Field     ;
                SourceExpr="Ending Date" }

    { 47  ;2   ;Field     ;
                SourceExpr="Assemble to Order";
                OnDrillDown=BEGIN
                              ShowAsmToOrder;
                            END;
                             }

    { 48  ;2   ;Field     ;
                SourceExpr=Status }

    { 34  ;1   ;Part      ;
                Name=Lines;
                CaptionML=ENU=Lines;
                SubPageLink=Document Type=FIELD(Document Type),
                            Document No.=FIELD(No.);
                PagePartID=Page941;
                PartType=Page }

    { 23  ;1   ;Group     ;
                CaptionML=ENU=Posting;
                GroupType=Group }

    { 29  ;2   ;Field     ;
                SourceExpr="Variant Code";
                Importance=Promoted;
                Editable=IsAsmToOrderEditable }

    { 28  ;2   ;Field     ;
                SourceExpr="Location Code";
                Importance=Promoted;
                Editable=IsAsmToOrderEditable }

    { 58  ;2   ;Field     ;
                SourceExpr="Bin Code";
                Editable=IsAsmToOrderEditable }

    { 24  ;2   ;Field     ;
                SourceExpr="Unit Cost";
                Editable=IsUnitCostEditable }

    { 25  ;2   ;Field     ;
                SourceExpr="Cost Amount";
                Editable=IsUnitCostEditable }

    { 16  ;2   ;Field     ;
                SourceExpr="Assigned User ID";
                Visible=False }

    { 7   ;0   ;Container ;
                ContainerType=FactBoxArea }

    { 11  ;1   ;Part      ;
                SubPageLink=No.=FIELD(Item No.);
                PagePartID=Page910;
                PartType=Page }

    { 44  ;1   ;Part      ;
                SubPageLink=No.=FIELD(No.);
                PagePartID=Page911;
                ProviderID=34;
                PartType=Page }

    { 43  ;1   ;Part      ;
                SubPageLink=No.=FIELD(No.);
                PagePartID=Page912;
                ProviderID=34;
                PartType=Page }

    { 8   ;1   ;Part      ;
                PartType=System;
                SystemPartID=RecordLinks }

    { 9   ;1   ;Part      ;
                PartType=System;
                SystemPartID=Notes }

  }
  CODE
  {
    VAR
      IsUnitCostEditable@1000 : Boolean INDATASET;
      IsAsmToOrderEditable@1001 : Boolean INDATASET;

    BEGIN
    END.
  }
}

