OBJECT Page 962 Manager Time Sheet Arc. List
{
  OBJECT-PROPERTIES
  {
    Date=07/09/12;
    Time=12:00:00;
    Version List=NAVW17.00;
  }
  PROPERTIES
  {
    CaptionML=ENU=Manager Time Sheet Arc. List;
    InsertAllowed=No;
    ModifyAllowed=No;
    SourceTable=Table954;
    SourceTableView=SORTING(Resource No.,Starting Date);
    PageType=List;
    OnOpenPage=BEGIN
                 IF UserSetup.GET(USERID) THEN
                   CurrPage.EDITABLE := UserSetup."Time Sheet Admin.";
                 TimeSheetMgt.FilterTimeSheetsArchive(Rec,FIELDNO("Approver User ID"));
               END;

    ActionList=ACTIONS
    {
      { 3       ;    ;ActionContainer;
                      ActionContainerType=ActionItems }
      { 5       ;1   ;Action    ;
                      ShortCutKey=Return;
                      CaptionML=ENU=&View Time Sheet;
                      Promoted=Yes;
                      PromotedIsBig=Yes;
                      Image=OpenJournal;
                      PromotedCategory=Process;
                      OnAction=BEGIN
                                 EditTimeSheet;
                               END;
                                }
      { 7       ;    ;ActionContainer;
                      ActionContainerType=RelatedInformation }
      { 8       ;1   ;ActionGroup;
                      CaptionML=ENU=&Time Sheet;
                      Image=Timesheet }
      { 9       ;2   ;Action    ;
                      CaptionML=ENU=Co&mments;
                      RunObject=Page 963;
                      RunPageLink=No.=FIELD(No.),
                                  Time Sheet Line No.=CONST(0);
                      Image=ViewComments }
      { 10      ;2   ;Action    ;
                      CaptionML=ENU=Posting E&ntries;
                      RunObject=Page 958;
                      RunPageLink=Time Sheet No.=FIELD(No.);
                      Image=PostingEntries }
    }
  }
  CONTROLS
  {
    { 1900000001;0;Container;
                ContainerType=ContentArea }

    { 1   ;1   ;Group     ;
                GroupType=Repeater }

    { 11  ;2   ;Field     ;
                SourceExpr="No." }

    { 2   ;2   ;Field     ;
                SourceExpr="Starting Date" }

    { 4   ;2   ;Field     ;
                SourceExpr="Ending Date" }

    { 6   ;2   ;Field     ;
                SourceExpr="Resource No." }

  }
  CODE
  {
    VAR
      UserSetup@1001 : Record 91;
      TimeSheetMgt@1000 : Codeunit 950;

    PROCEDURE EditTimeSheet@1();
    VAR
      TimeSheetLineArchive@1001 : Record 955;
    BEGIN
      TimeSheetMgt.SetTimeSheetArchiveNo("No.",TimeSheetLineArchive);
      PAGE.RUN(PAGE::"Manager Time Sheet Archive",TimeSheetLineArchive);
    END;

    BEGIN
    END.
  }
}

