OBJECT Page 986 Document Search Result
{
  OBJECT-PROPERTIES
  {
    Date=23/09/13;
    Time=12:00:00;
    Version List=NAVW17.10;
  }
  PROPERTIES
  {
    Editable=No;
    CaptionML=ENU=Document Search Result;
    SourceTable=Table983;
    SourceTableView=SORTING(Doc. No.)
                    ORDER(Ascending);
    PageType=List;
    SourceTableTemporary=Yes;
    ActionList=ACTIONS
    {
      { 6       ;    ;ActionContainer;
                      ActionContainerType=ActionItems }
      { 7       ;1   ;Action    ;
                      Name=ShowRecord;
                      CaptionML=ENU=Show;
                      ToolTipML=ENU=Open the document on the selected line.;
                      Promoted=Yes;
                      PromotedIsBig=Yes;
                      Image=ShowSelected;
                      PromotedCategory=Process;
                      OnAction=BEGIN
                                 PaymentRegistrationMgt.ShowRecords(Rec);
                               END;
                                }
    }
  }
  CONTROLS
  {
    { 1   ;0   ;Container ;
                ContainerType=ContentArea }

    { 2   ;1   ;Group     ;
                Name=General;
                GroupType=Repeater }

    { 3   ;2   ;Field     ;
                SourceExpr="Doc. No.";
                OnDrillDown=BEGIN
                              PaymentRegistrationMgt.ShowRecords(Rec);
                            END;
                             }

    { 4   ;2   ;Field     ;
                SourceExpr=Description;
                OnDrillDown=BEGIN
                              PaymentRegistrationMgt.ShowRecords(Rec);
                            END;
                             }

    { 5   ;2   ;Field     ;
                SourceExpr=Amount }

  }
  CODE
  {
    VAR
      PaymentRegistrationMgt@1000 : Codeunit 980;

    BEGIN
    END.
  }
}

