OBJECT Page 951 Time Sheet List
{
  OBJECT-PROPERTIES
  {
    Date=07/09/12;
    Time=12:00:00;
    Version List=NAVW17.00,NAVBR7;
  }
  PROPERTIES
  {
    CaptionML=[ENU=Time Sheet List;
               PTB=Apontamentos];
    InsertAllowed=No;
    ModifyAllowed=No;
    SourceTable=Table950;
    SourceTableView=SORTING(Resource No.,Starting Date);
    PageType=List;
    OnOpenPage=BEGIN
                 IF UserSetup.GET(USERID) THEN
                   CurrPage.EDITABLE := UserSetup."Time Sheet Admin.";
                 TimeSheetMgt.FilterTimeSheets(Rec,FIELDNO("Owner User ID"));
               END;

    ActionList=ACTIONS
    {
      { 3       ;    ;ActionContainer;
                      ActionContainerType=ActionItems }
      { 5       ;1   ;Action    ;
                      ShortCutKey=Return;
                      CaptionML=[ENU=&Edit Time Sheet;
                                 PTB=&Editar Apontamento];
                      Promoted=Yes;
                      PromotedIsBig=Yes;
                      Image=OpenJournal;
                      PromotedCategory=Process;
                      OnAction=BEGIN
                                 EditTimeSheet;
                               END;
                                }
      { 9       ;0   ;ActionContainer;
                      ActionContainerType=RelatedInformation }
      { 7       ;1   ;ActionGroup;
                      CaptionML=[ENU=&Time Sheet;
                                 PTB=&Apontamento];
                      ActionContainerType=RelatedInformation;
                      Image=Timesheet }
      { 8       ;2   ;Action    ;
                      Name=Comments;
                      CaptionML=[ENU=Co&mments;
                                 PTB=Co&ment rios];
                      RunObject=Page 955;
                      RunPageLink=No.=FIELD(No.),
                                  Time Sheet Line No.=CONST(0);
                      Image=ViewComments }
    }
  }
  CONTROLS
  {
    { 1900000001;0;Container;
                ContainerType=ContentArea }

    { 1   ;1   ;Group     ;
                GroupType=Repeater }

    { 11  ;2   ;Field     ;
                SourceExpr="No." }

    { 2   ;2   ;Field     ;
                SourceExpr="Starting Date" }

    { 4   ;2   ;Field     ;
                SourceExpr="Ending Date" }

    { 6   ;2   ;Field     ;
                SourceExpr="Resource No." }

    { 52006500;2;Field    ;
                SourceExpr="Resource Name" }

    { 10  ;2   ;Field     ;
                SourceExpr=Comment }

  }
  CODE
  {
    VAR
      UserSetup@1001 : Record 91;
      TimeSheetMgt@1000 : Codeunit 950;

    PROCEDURE EditTimeSheet@1();
    VAR
      TimeSheetLine@1001 : Record 951;
    BEGIN
      TimeSheetMgt.SetTimeSheetNo("No.",TimeSheetLine);
      PAGE.RUN(PAGE::"Time Sheet",TimeSheetLine);
    END;

    BEGIN
    END.
  }
}

