OBJECT Page 99000916 Machine Center Task List
{
  OBJECT-PROPERTIES
  {
    Date=31/10/14;
    Time=12:00:00;
    Version List=NAVW18.00.00.38457;
  }
  PROPERTIES
  {
    CaptionML=[ENU=Machine Center Task List;
               PTB=Lista Tarefas Centro M quina];
    InsertAllowed=No;
    DeleteAllowed=No;
    SourceTable=Table5409;
    DataCaptionFields=No.;
    PageType=List;
    ActionList=ACTIONS
    {
      { 1900000003;0 ;ActionContainer;
                      ActionContainerType=RelatedInformation }
      { 63      ;1   ;ActionGroup;
                      CaptionML=[ENU=&Mach. Ctr.;
                                 PTB=&Mach. Ctr.];
                      Image=MachineCenter }
      { 65      ;2   ;Action    ;
                      ShortCutKey=Ctrl+F7;
                      CaptionML=[ENU=Capacity Ledger E&ntries;
                                 PTB=Movimento Capacidade];
                      RunObject=Page 5832;
                      RunPageView=SORTING(Type,No.,Work Shift Code,Item No.,Posting Date);
                      RunPageLink=Type=CONST(Machine Center),
                                  No.=FIELD(No.);
                      Image=CapacityLedger }
      { 66      ;2   ;Action    ;
                      CaptionML=[ENU=Co&mments;
                                 PTB=Co&ment rios];
                      RunObject=Page 99000784;
                      RunPageView=WHERE(Table Name=CONST(Machine Center));
                      RunPageLink=No.=FIELD(No.);
                      Image=ViewComments }
      { 67      ;2   ;Action    ;
                      CaptionML=[ENU=Lo&ad;
                                 PTB=C&arregar];
                      RunObject=Page 99000889;
                      RunPageLink=No.=FIELD(No.);
                      Image=WorkCenterLoad }
      { 68      ;2   ;Separator  }
      { 69      ;2   ;Action    ;
                      ShortCutKey=F7;
                      CaptionML=[ENU=Statistics;
                                 PTB=Estatisticas];
                      RunObject=Page 99000762;
                      RunPageLink=No.=FIELD(No.);
                      Promoted=Yes;
                      Image=Statistics;
                      PromotedCategory=Process }
      { 1900000004;0 ;ActionContainer;
                      ActionContainerType=ActionItems }
      { 51      ;1   ;ActionGroup;
                      CaptionML=ENU=F&unctions;
                      Image=Action }
      { 54      ;2   ;Action    ;
                      Ellipsis=Yes;
                      CaptionML=[ENU=&Move;
                                 PTB=&Mover];
                      Image=Change;
                      OnAction=VAR
                                 CalculateProdOrder@1000 : Codeunit 99000773;
                               BEGIN
                                 IF "Prod. Order No." = '' THEN
                                   EXIT;

                                 CalculateProdOrder.AssignProdOrderLineBinCodeFromProdRtngLineMachineCenter(Rec);

                                 CurrPage.UPDATE;
                               END;
                                }
      { 56      ;2   ;Separator  }
      { 53      ;2   ;Action    ;
                      CaptionML=[ENU=Order &Tracking;
                                 PTB=Pedido &Rastreabilidade];
                      Image=OrderTracking;
                      OnAction=VAR
                                 ProdOrderLine@1001 : Record 5406;
                                 TrackingForm@1002 : Page 99000822;
                               BEGIN
                                 ProdOrderLine.SETRANGE(Status,Status);
                                 ProdOrderLine.SETRANGE("Prod. Order No.","Prod. Order No.");
                                 ProdOrderLine.SETRANGE("Routing No.","Routing No.");
                                 IF ProdOrderLine.FINDFIRST THEN BEGIN
                                   TrackingForm.SetProdOrderLine(ProdOrderLine);
                                   TrackingForm.RUNMODAL;
                                 END;
                               END;
                                }
    }
  }
  CONTROLS
  {
    { 1900000001;0;Container;
                ContainerType=ContentArea }

    { 1   ;1   ;Group     ;
                GroupType=Repeater }

    { 4   ;2   ;Field     ;
                SourceExpr=Status }

    { 6   ;2   ;Field     ;
                SourceExpr="Prod. Order No." }

    { 2   ;2   ;Field     ;
                SourceExpr="Operation No." }

    { 8   ;2   ;Field     ;
                SourceExpr=Description }

    { 10  ;2   ;Field     ;
                SourceExpr="Setup Time" }

    { 12  ;2   ;Field     ;
                SourceExpr="Setup Time Unit of Meas. Code";
                Visible=FALSE }

    { 14  ;2   ;Field     ;
                SourceExpr="Run Time" }

    { 16  ;2   ;Field     ;
                SourceExpr="Run Time Unit of Meas. Code";
                Visible=FALSE }

    { 18  ;2   ;Field     ;
                SourceExpr="Wait Time" }

    { 20  ;2   ;Field     ;
                SourceExpr="Wait Time Unit of Meas. Code";
                Visible=FALSE }

    { 22  ;2   ;Field     ;
                SourceExpr="Move Time" }

    { 24  ;2   ;Field     ;
                SourceExpr="Move Time Unit of Meas. Code";
                Visible=FALSE }

    { 40  ;2   ;Field     ;
                SourceExpr="Starting Time" }

    { 42  ;2   ;Field     ;
                SourceExpr="Starting Date" }

    { 44  ;2   ;Field     ;
                SourceExpr="Ending Time" }

    { 46  ;2   ;Field     ;
                SourceExpr="Ending Date" }

    { 26  ;2   ;Field     ;
                SourceExpr="Fixed Scrap Quantity";
                Visible=FALSE }

    { 28  ;2   ;Field     ;
                SourceExpr="Lot Size";
                Visible=FALSE }

    { 30  ;2   ;Field     ;
                SourceExpr="Scrap Factor %";
                Visible=FALSE }

    { 32  ;2   ;Field     ;
                SourceExpr="Concurrent Capacities" }

    { 34  ;2   ;Field     ;
                SourceExpr="Send-Ahead Quantity";
                Visible=FALSE }

    { 36  ;2   ;Field     ;
                SourceExpr="Routing Link Code";
                Visible=FALSE }

    { 38  ;2   ;Field     ;
                SourceExpr="Unit Cost per";
                Visible=FALSE }

    { 1900000007;0;Container;
                ContainerType=FactBoxArea }

    { 1900383207;1;Part   ;
                Visible=FALSE;
                PartType=System;
                SystemPartID=RecordLinks }

    { 1905767507;1;Part   ;
                Visible=FALSE;
                PartType=System;
                SystemPartID=Notes }

  }
  CODE
  {

    BEGIN
    END.
  }
}

