OBJECT Page 9651 Report Layout Lookup
{
  OBJECT-PROPERTIES
  {
    Date=09/09/14;
    Time=12:00:00;
    Version List=NAVW18.00;
  }
  PROPERTIES
  {
    CaptionML=ENU=Insert Built-in Layout for a Report;
    PageType=StandardDialog;
    OnOpenPage=BEGIN
                 ShowReportID := ReportID = 0;
                 IF ReportID <> 0 THEN
                   IF AllObjWithCaption.GET(AllObjWithCaption."Object Type"::Report,ReportID) THEN;
               END;

  }
  CONTROLS
  {
    { 1   ;    ;Container ;
                CaptionML=ENU=Report;
                ContainerType=ContentArea }

    { 6   ;1   ;Group     ;
                GroupType=Group }

    { 2   ;1   ;Field     ;
                Name=ReportID;
                CaptionML=ENU=Report ID;
                SourceExpr=ReportID;
                TableRelation=AllObjWithCaption."Object ID" WHERE (Object Type=CONST(Report));
                Enabled=ShowReportID;
                OnValidate=BEGIN
                             IF NOT AllObjWithCaption.GET(AllObjWithCaption."Object Type"::Report,ReportID) THEN
                               ERROR(ReportNotFoundErr,ReportID);
                           END;
                            }

    { 3   ;1   ;Field     ;
                Name=ReportName;
                CaptionML=ENU=Report Name;
                SourceExpr=AllObjWithCaption."Object Caption";
                Enabled=FALSE }

    { 4   ;1   ;Field     ;
                CaptionML=ENU=Insert Word Layout;
                SourceExpr=AddWord }

    { 5   ;1   ;Field     ;
                CaptionML=ENU=Insert RDLC Layout;
                SourceExpr=AddRDLC }

  }
  CODE
  {
    VAR
      AllObjWithCaption@1002 : Record 2000000058;
      ReportID@1000 : Integer;
      AddWord@1001 : Boolean;
      AddRDLC@1003 : Boolean;
      ReportNotFoundErr@1004 : TextConst 'ENU=Report %1 does not exist.';
      ShowReportID@1005 : Boolean;

    PROCEDURE SetReportID@4(NewReportID@1000 : Integer);
    BEGIN
      ReportID := NewReportID;
    END;

    PROCEDURE SelectedReportID@1() : Integer;
    BEGIN
      EXIT(ReportID);
    END;

    PROCEDURE SelectedAddWordLayot@2() : Boolean;
    BEGIN
      EXIT(AddWord);
    END;

    PROCEDURE SelectedAddRdlcLayot@3() : Boolean;
    BEGIN
      EXIT(AddRDLC);
    END;

    BEGIN
    END.
  }
}

