OBJECT Page 9181 Generic Chart Filters
{
  OBJECT-PROPERTIES
  {
    Date=07/09/12;
    Time=12:00:00;
    Version List=NAVW17.00;
  }
  PROPERTIES
  {
    CaptionML=[ENU=Generic Chart Filters;
               PTB=Filtros Planos Genéricos];
    SourceTable=Table9181;
    PageType=List;
    AutoSplitKey=Yes;
  }
  CONTROLS
  {
    { 1   ;0   ;Container ;
                ContainerType=ContentArea }

    { 2   ;1   ;Group     ;
                Name=Group;
                GroupType=Repeater }

    { 3   ;2   ;Field     ;
                SourceExpr="Filter Field ID";
                Visible=FALSE }

    { 4   ;2   ;Field     ;
                SourceExpr="Filter Field Name";
                OnValidate=VAR
                             DummyAggregation@1000 : 'None,Count,Sum,Min,Max,Avg';
                           BEGIN
                             GenericChartMgt.ValidateFieldColumn(
                               TempGenericChartSetup,"Filter Field ID","Filter Field Name","Filter Field Name",0,TRUE,DummyAggregation);
                           END;

                OnLookup=BEGIN
                           GenericChartMgt.RetrieveFieldColumn(TempGenericChartSetup,"Filter Field ID","Filter Field Name","Filter Field Name",0,TRUE);
                         END;
                          }

    { 5   ;2   ;Field     ;
                SourceExpr="Filter Value" }

  }
  CODE
  {
    VAR
      TempGenericChartSetup@1001 : TEMPORARY Record 9180;
      GenericChartMgt@1002 : Codeunit 9180;

    PROCEDURE SetFilters@1(VAR TempGenericChartFilter2@1000 : TEMPORARY Record 9181);
    BEGIN
      DELETEALL;
      IF TempGenericChartFilter2.FIND('-') THEN
        REPEAT
          Rec := TempGenericChartFilter2;
          INSERT;
        UNTIL TempGenericChartFilter2.NEXT = 0;
    END;

    PROCEDURE GetFilters@2(VAR TempGenericChartFilter2@1000 : TEMPORARY Record 9181);
    BEGIN
      TempGenericChartFilter2.DELETEALL;
      IF FIND('-') THEN
        REPEAT
          TempGenericChartFilter2 := Rec;
          TempGenericChartFilter2.INSERT;
        UNTIL NEXT = 0;
    END;

    PROCEDURE SetTempGenericChart@4(VAR TempGenericChartSetup2@1000 : TEMPORARY Record 9180);
    BEGIN
      TempGenericChartSetup := TempGenericChartSetup2;
    END;

    BEGIN
    END.
  }
}

