OBJECT Page 9503 Debugger Watch Value FactBox
{
  OBJECT-PROPERTIES
  {
    Date=23/09/13;
    Time=12:00:00;
    Version List=NAVW17.10;
  }
  PROPERTIES
  {
    Editable=No;
    CaptionML=ENU=Debugger Watch Value FactBox;
    LinksAllowed=No;
    SourceTable=Table2000000103;
    PageType=ListPart;
    ActionList=ACTIONS
    {
      { 6       ;    ;ActionContainer;
                      ActionContainerType=ActionItems }
      { 9       ;1   ;Separator  }
      { 7       ;1   ;Action    ;
                      Name=Delete Watch;
                      ShortCutKey=Ctrl+Delete;
                      CaptionML=ENU=Delete Watch;
                      ToolTipML=ENU=Delete the selected variables from the watch list.;
                      Image=Delete;
                      OnAction=VAR
                                 DebuggerWatch@1000 : Record 2000000104;
                                 DebuggerWatchValue@1002 : Record 2000000103;
                                 DebuggerWatchValueTemp@1003 : TEMPORARY Record 2000000103;
                               BEGIN
                                 CurrPage.SETSELECTIONFILTER(DebuggerWatchValue);

                                 // Copy the selected records to take a snapshot of the watches,
                                 // otherwise the DELETEALL would dynamically change the Debugger Watch Value primary keys
                                 // causing incorrect records to be deleted.

                                 IF DebuggerWatchValue.FIND('-') THEN
                                   REPEAT
                                     DebuggerWatchValueTemp := DebuggerWatchValue;
                                     DebuggerWatchValueTemp.INSERT;
                                   UNTIL DebuggerWatchValue.NEXT = 0;

                                 IF DebuggerWatchValueTemp.FIND('-') THEN BEGIN
                                   REPEAT
                                     DebuggerWatch.SETRANGE(Path,DebuggerWatchValueTemp.Name);
                                     DebuggerWatch.DELETEALL(TRUE);
                                   UNTIL DebuggerWatchValueTemp.NEXT = 0;
                                 END;
                               END;
                                }
    }
  }
  CONTROLS
  {
    { 1   ;0   ;Container ;
                ContainerType=ContentArea }

    { 2   ;1   ;Group     ;
                Name=Group;
                GroupType=Repeater }

    { 3   ;2   ;Field     ;
                CaptionML=ENU=Name;
                SourceExpr=Name }

    { 4   ;2   ;Field     ;
                CaptionML=ENU=Value;
                SourceExpr=Value }

    { 5   ;2   ;Field     ;
                CaptionML=ENU=Type;
                SourceExpr=Type }

  }
  CODE
  {

    BEGIN
    END.
  }
}

