OBJECT Page 9295 Work Ctr. Grp. Calendar Matrix
{
  OBJECT-PROPERTIES
  {
    Date=07/09/12;
    Time=12:00:00;
    Version List=NAVW17.00;
  }
  PROPERTIES
  {
    Editable=No;
    CaptionML=[ENU=Work Ctr. Grp. Calendar Matrix;
               PTB=Centro Gr. Trab. Calend. Matriz];
    LinksAllowed=No;
    SourceTable=Table99000756;
    DataCaptionExpr='';
    PageType=List;
    OnOpenPage=BEGIN
                 MATRIX_CurrentNoOfMatrixColumn := ARRAYLEN(MATRIX_CaptionSet);
                 MfgSetup.GET;
                 MfgSetup.TESTFIELD("Show Capacity In");
               END;

    OnAfterGetRecord=VAR
                       MATRIX_CurrentColumnOrdinal@1044 : Integer;
                     BEGIN
                       MATRIX_CurrentColumnOrdinal := 0;
                       WHILE MATRIX_CurrentColumnOrdinal < MATRIX_CurrentNoOfMatrixColumn DO BEGIN
                         MATRIX_CurrentColumnOrdinal := MATRIX_CurrentColumnOrdinal + 1;
                         MATRIX_OnAfterGetRecord(MATRIX_CurrentColumnOrdinal);
                       END;
                     END;

  }
  CONTROLS
  {
    { 1900000001;0;Container;
                ContainerType=ContentArea }

    { 1   ;1   ;Group     ;
                GroupType=Repeater }

    { 6   ;2   ;Field     ;
                SourceExpr=Code }

    { 4   ;2   ;Field     ;
                SourceExpr=Name }

    { 1012;2   ;Field     ;
                Name=Field1;
                BlankZero=Yes;
                SourceExpr=MATRIX_CellData[1];
                CaptionClass='3,' + MATRIX_CaptionSet[1];
                OnDrillDown=BEGIN
                              MATRIX_OnDrillDown(1);
                            END;
                             }

    { 1013;2   ;Field     ;
                Name=Field2;
                BlankZero=Yes;
                SourceExpr=MATRIX_CellData[2];
                CaptionClass='3,' + MATRIX_CaptionSet[2];
                OnDrillDown=BEGIN
                              MATRIX_OnDrillDown(2);
                            END;
                             }

    { 1014;2   ;Field     ;
                Name=Field3;
                BlankZero=Yes;
                SourceExpr=MATRIX_CellData[3];
                CaptionClass='3,' + MATRIX_CaptionSet[3];
                OnDrillDown=BEGIN
                              MATRIX_OnDrillDown(3);
                            END;
                             }

    { 1015;2   ;Field     ;
                Name=Field4;
                BlankZero=Yes;
                SourceExpr=MATRIX_CellData[4];
                CaptionClass='3,' + MATRIX_CaptionSet[4];
                OnDrillDown=BEGIN
                              MATRIX_OnDrillDown(4);
                            END;
                             }

    { 1016;2   ;Field     ;
                Name=Field5;
                BlankZero=Yes;
                SourceExpr=MATRIX_CellData[5];
                CaptionClass='3,' + MATRIX_CaptionSet[5];
                OnDrillDown=BEGIN
                              MATRIX_OnDrillDown(5);
                            END;
                             }

    { 1017;2   ;Field     ;
                Name=Field6;
                BlankZero=Yes;
                SourceExpr=MATRIX_CellData[6];
                CaptionClass='3,' + MATRIX_CaptionSet[6];
                OnDrillDown=BEGIN
                              MATRIX_OnDrillDown(6);
                            END;
                             }

    { 1018;2   ;Field     ;
                Name=Field7;
                BlankZero=Yes;
                SourceExpr=MATRIX_CellData[7];
                CaptionClass='3,' + MATRIX_CaptionSet[7];
                OnDrillDown=BEGIN
                              MATRIX_OnDrillDown(7);
                            END;
                             }

    { 1019;2   ;Field     ;
                Name=Field8;
                BlankZero=Yes;
                SourceExpr=MATRIX_CellData[8];
                CaptionClass='3,' + MATRIX_CaptionSet[8];
                OnDrillDown=BEGIN
                              MATRIX_OnDrillDown(8);
                            END;
                             }

    { 1020;2   ;Field     ;
                Name=Field9;
                BlankZero=Yes;
                SourceExpr=MATRIX_CellData[9];
                CaptionClass='3,' + MATRIX_CaptionSet[9];
                OnDrillDown=BEGIN
                              MATRIX_OnDrillDown(9);
                            END;
                             }

    { 1021;2   ;Field     ;
                Name=Field10;
                BlankZero=Yes;
                SourceExpr=MATRIX_CellData[10];
                CaptionClass='3,' + MATRIX_CaptionSet[10];
                OnDrillDown=BEGIN
                              MATRIX_OnDrillDown(10);
                            END;
                             }

    { 1022;2   ;Field     ;
                Name=Field11;
                BlankZero=Yes;
                SourceExpr=MATRIX_CellData[11];
                CaptionClass='3,' + MATRIX_CaptionSet[11];
                OnDrillDown=BEGIN
                              MATRIX_OnDrillDown(11);
                            END;
                             }

    { 1023;2   ;Field     ;
                Name=Field12;
                BlankZero=Yes;
                SourceExpr=MATRIX_CellData[12];
                CaptionClass='3,' + MATRIX_CaptionSet[12];
                OnDrillDown=BEGIN
                              MATRIX_OnDrillDown(12);
                            END;
                             }

    { 1024;2   ;Field     ;
                Name=Field13;
                BlankZero=Yes;
                SourceExpr=MATRIX_CellData[13];
                CaptionClass='3,' + MATRIX_CaptionSet[13];
                OnDrillDown=BEGIN
                              MATRIX_OnDrillDown(13);
                            END;
                             }

    { 1025;2   ;Field     ;
                Name=Field14;
                BlankZero=Yes;
                SourceExpr=MATRIX_CellData[14];
                CaptionClass='3,' + MATRIX_CaptionSet[14];
                OnDrillDown=BEGIN
                              MATRIX_OnDrillDown(14);
                            END;
                             }

    { 1026;2   ;Field     ;
                Name=Field15;
                BlankZero=Yes;
                SourceExpr=MATRIX_CellData[15];
                CaptionClass='3,' + MATRIX_CaptionSet[15];
                OnDrillDown=BEGIN
                              MATRIX_OnDrillDown(15);
                            END;
                             }

    { 1027;2   ;Field     ;
                Name=Field16;
                BlankZero=Yes;
                SourceExpr=MATRIX_CellData[16];
                CaptionClass='3,' + MATRIX_CaptionSet[16];
                OnDrillDown=BEGIN
                              MATRIX_OnDrillDown(16);
                            END;
                             }

    { 1028;2   ;Field     ;
                Name=Field17;
                BlankZero=Yes;
                SourceExpr=MATRIX_CellData[17];
                CaptionClass='3,' + MATRIX_CaptionSet[17];
                OnDrillDown=BEGIN
                              MATRIX_OnDrillDown(17);
                            END;
                             }

    { 1029;2   ;Field     ;
                Name=Field18;
                BlankZero=Yes;
                SourceExpr=MATRIX_CellData[18];
                CaptionClass='3,' + MATRIX_CaptionSet[18];
                OnDrillDown=BEGIN
                              MATRIX_OnDrillDown(18);
                            END;
                             }

    { 1030;2   ;Field     ;
                Name=Field19;
                BlankZero=Yes;
                SourceExpr=MATRIX_CellData[19];
                CaptionClass='3,' + MATRIX_CaptionSet[19];
                OnDrillDown=BEGIN
                              MATRIX_OnDrillDown(19);
                            END;
                             }

    { 1031;2   ;Field     ;
                Name=Field20;
                BlankZero=Yes;
                SourceExpr=MATRIX_CellData[20];
                CaptionClass='3,' + MATRIX_CaptionSet[20];
                OnDrillDown=BEGIN
                              MATRIX_OnDrillDown(20);
                            END;
                             }

    { 1032;2   ;Field     ;
                Name=Field21;
                BlankZero=Yes;
                SourceExpr=MATRIX_CellData[21];
                CaptionClass='3,' + MATRIX_CaptionSet[21];
                OnDrillDown=BEGIN
                              MATRIX_OnDrillDown(21);
                            END;
                             }

    { 1033;2   ;Field     ;
                Name=Field22;
                BlankZero=Yes;
                SourceExpr=MATRIX_CellData[22];
                CaptionClass='3,' + MATRIX_CaptionSet[22];
                OnDrillDown=BEGIN
                              MATRIX_OnDrillDown(22);
                            END;
                             }

    { 1034;2   ;Field     ;
                Name=Field23;
                BlankZero=Yes;
                SourceExpr=MATRIX_CellData[23];
                CaptionClass='3,' + MATRIX_CaptionSet[23];
                OnDrillDown=BEGIN
                              MATRIX_OnDrillDown(23);
                            END;
                             }

    { 1035;2   ;Field     ;
                Name=Field24;
                BlankZero=Yes;
                SourceExpr=MATRIX_CellData[24];
                CaptionClass='3,' + MATRIX_CaptionSet[24];
                OnDrillDown=BEGIN
                              MATRIX_OnDrillDown(24);
                            END;
                             }

    { 1036;2   ;Field     ;
                Name=Field25;
                BlankZero=Yes;
                SourceExpr=MATRIX_CellData[25];
                CaptionClass='3,' + MATRIX_CaptionSet[25];
                OnDrillDown=BEGIN
                              MATRIX_OnDrillDown(25);
                            END;
                             }

    { 1037;2   ;Field     ;
                Name=Field26;
                BlankZero=Yes;
                SourceExpr=MATRIX_CellData[26];
                CaptionClass='3,' + MATRIX_CaptionSet[26];
                OnDrillDown=BEGIN
                              MATRIX_OnDrillDown(26);
                            END;
                             }

    { 1038;2   ;Field     ;
                Name=Field27;
                BlankZero=Yes;
                SourceExpr=MATRIX_CellData[27];
                CaptionClass='3,' + MATRIX_CaptionSet[27];
                OnDrillDown=BEGIN
                              MATRIX_OnDrillDown(27);
                            END;
                             }

    { 1039;2   ;Field     ;
                Name=Field28;
                BlankZero=Yes;
                SourceExpr=MATRIX_CellData[28];
                CaptionClass='3,' + MATRIX_CaptionSet[28];
                OnDrillDown=BEGIN
                              MATRIX_OnDrillDown(28);
                            END;
                             }

    { 1040;2   ;Field     ;
                Name=Field29;
                BlankZero=Yes;
                SourceExpr=MATRIX_CellData[29];
                CaptionClass='3,' + MATRIX_CaptionSet[29];
                OnDrillDown=BEGIN
                              MATRIX_OnDrillDown(29);
                            END;
                             }

    { 1041;2   ;Field     ;
                Name=Field30;
                BlankZero=Yes;
                SourceExpr=MATRIX_CellData[30];
                CaptionClass='3,' + MATRIX_CaptionSet[30];
                OnDrillDown=BEGIN
                              MATRIX_OnDrillDown(30);
                            END;
                             }

    { 1042;2   ;Field     ;
                Name=Field31;
                BlankZero=Yes;
                SourceExpr=MATRIX_CellData[31];
                CaptionClass='3,' + MATRIX_CaptionSet[31];
                OnDrillDown=BEGIN
                              MATRIX_OnDrillDown(31);
                            END;
                             }

    { 1043;2   ;Field     ;
                Name=Field32;
                BlankZero=Yes;
                SourceExpr=MATRIX_CellData[32];
                CaptionClass='3,' + MATRIX_CaptionSet[32];
                OnDrillDown=BEGIN
                              MATRIX_OnDrillDown(32);
                            END;
                             }

  }
  CODE
  {
    VAR
      MfgSetup@1001 : Record 99000765;
      MatrixRecords@1081 : ARRAY [32] OF Record 2000000007;
      MATRIX_CurrentNoOfMatrixColumn@1082 : Integer;
      MATRIX_CellData@1083 : ARRAY [32] OF Decimal;
      MATRIX_CaptionSet@1084 : ARRAY [32] OF Text[1024];
      CapacityUoM@1000 : Code[10];

    LOCAL PROCEDURE SetDateFilter@1085(MATRIX_ColumnOrdinal@1000 : Integer);
    BEGIN
      IF MatrixRecords[MATRIX_ColumnOrdinal]."Period Start" = MatrixRecords[MATRIX_ColumnOrdinal]."Period End" THEN
        SETRANGE("Date Filter",MatrixRecords[MATRIX_ColumnOrdinal]."Period Start")
      ELSE
        SETRANGE("Date Filter",MatrixRecords[MATRIX_ColumnOrdinal]."Period Start",MatrixRecords[MATRIX_ColumnOrdinal]."Period End")
    END;

    PROCEDURE Load@1086(MatrixColumns1@1005 : ARRAY [32] OF Text[1024];VAR MatrixRecords1@1006 : ARRAY [32] OF Record 2000000007;CurrentNoOfMatrixColumns@1007 : Integer;SetCapacityUoM@1000 : Code[10]);
    BEGIN
      COPYARRAY(MATRIX_CaptionSet,MatrixColumns1,1);
      COPYARRAY(MatrixRecords,MatrixRecords1,1);
      MATRIX_CurrentNoOfMatrixColumn := CurrentNoOfMatrixColumns;
      CapacityUoM := SetCapacityUoM;
    END;

    LOCAL PROCEDURE MATRIX_OnDrillDown@1087(MATRIX_ColumnOrdinal@1008 : Integer);
    VAR
      CalendarEntry@1001 : Record 99000757;
      CalendarEntries@1000 : Page 99000759;
    BEGIN
      CalendarEntry.SETRANGE("Capacity Type",CalendarEntry."Capacity Type"::"Work Center");
      CalendarEntry.SETRANGE("Work Center Group Code",Code);

      IF MatrixRecords[MATRIX_ColumnOrdinal]."Period Start" = MatrixRecords[MATRIX_ColumnOrdinal]."Period End" THEN
        CalendarEntry.SETRANGE(Date,MatrixRecords[MATRIX_ColumnOrdinal]."Period Start")
      ELSE
        CalendarEntry.SETRANGE(Date,
          MatrixRecords[MATRIX_ColumnOrdinal]."Period Start",MatrixRecords[MATRIX_ColumnOrdinal]."Period End");

      CalendarEntries.SETTABLEVIEW(CalendarEntry);
      CalendarEntries.RUNMODAL;
      // PAGE.RUNMODAL(99000759,CalendarEntry);
    END;

    LOCAL PROCEDURE MATRIX_OnAfterGetRecord@1089(MATRIX_ColumnOrdinal@1010 : Integer);
    BEGIN
      SetDateFilter(MATRIX_ColumnOrdinal);
      "Capacity (Effective)" := CalculateCapacity;
      MATRIX_CellData[MATRIX_ColumnOrdinal] := "Capacity (Effective)";
    END;

    PROCEDURE CalculateCapacity@2() : Decimal;
    VAR
      WorkCenter@1000 : Record 99000754;
      CalendarMgt@1001 : Codeunit 99000755;
      Capacity@1002 : Decimal;
    BEGIN
      IF CapacityUoM = '' THEN
        CapacityUoM := MfgSetup."Show Capacity In";
      WorkCenter.SETCURRENTKEY("Work Center Group Code");
      WorkCenter.SETRANGE("Work Center Group Code",Code);
      IF WorkCenter.FINDSET THEN
        REPEAT
          IF GETFILTER("Work Shift Filter") <> '' THEN
            COPYFILTER("Work Shift Filter",WorkCenter."Work Shift Filter");
          COPYFILTER("Date Filter",WorkCenter."Date Filter");
          WorkCenter.CALCFIELDS("Capacity (Effective)");
          Capacity :=
            Capacity +
            WorkCenter."Capacity (Effective)" *
            CalendarMgt.TimeFactor(WorkCenter."Unit of Measure Code") /
            CalendarMgt.TimeFactor(CapacityUoM);
        UNTIL WorkCenter.NEXT = 0;

      EXIT(Capacity);
    END;

    BEGIN
    END.
  }
}

