OBJECT Page 9068 Project Manager Activities
{
  OBJECT-PROPERTIES
  {
    Date=07/09/12;
    Time=12:00:00;
    Version List=NAVW17.00;
  }
  PROPERTIES
  {
    CaptionML=[ENU=Activities;
               PTB=Atividades];
    SourceTable=Table9057;
    PageType=CardPart;
    OnOpenPage=BEGIN
                 RESET;
                 IF NOT GET THEN BEGIN
                   INIT;
                   INSERT;
                 END;

                 SETFILTER("Date Filter",'>=%1',WORKDATE);
                 SETFILTER("Date Filter2",'<%1&<>%2',WORKDATE,0D);
               END;

  }
  CONTROLS
  {
    { 1900000001;0;Container;
                ContainerType=ContentArea }

    { 7   ;1   ;Group     ;
                CaptionML=[ENU=Invoicing;
                           PTB=Faturar];
                GroupType=CueGroup;
                ActionList=ACTIONS
                {
                  { 4       ;0   ;Action    ;
                                  CaptionML=[ENU=Job Create Sales Invoice;
                                             PTB=Projeto Criar Nota Fiscal Vendas];
                                  RunObject=Report 1093;
                                  Image=CreateJobSalesInvoice }
                }
                 }

    { 1   ;2   ;Field     ;
                SourceExpr="Upcoming Invoices";
                DrillDownPageID=Job List }

    { 5   ;2   ;Field     ;
                SourceExpr="Invoices Due - Not Created";
                DrillDownPageID=Job List }

    { 8   ;1   ;Group     ;
                CaptionML=[ENU=Work in Process;
                           PTB=Trabalho em Andamento];
                GroupType=CueGroup;
                ActionList=ACTIONS
                {
                  { 14      ;0   ;Action    ;
                                  CaptionML=[ENU=Update Job Item Cost;
                                             PTB=Atualizar Custo Prod. Projeto];
                                  RunObject=Report 1095;
                                  Image=Report }
                  { 15      ;    ;Action    ;
                                  Name=<Action15>;
                                  CaptionML=[ENU=Job WIP Cockpit;
                                             PTB=Projeto Calcular WIP];
                                  RunObject=Page 1027 }
                }
                 }

    { 11  ;2   ;Field     ;
                SourceExpr="WIP Not Posted";
                DrillDownPageID=Job List }

    { 12  ;2   ;Field     ;
                SourceExpr="Completed - WIP Not Calculated";
                DrillDownPageID=Job List }

  }
  CODE
  {

    BEGIN
    END.
  }
}

