OBJECT Page 99000796 Routing Comment List
{
  OBJECT-PROPERTIES
  {
    Date=05/11/08;
    Time=12:00:00;
    Version List=NAVW16.00;
  }
  PROPERTIES
  {
    Editable=No;
    CaptionML=[ENU=Comment List;
               PTB=Lista Coment rios];
    LinksAllowed=No;
    SourceTable=Table99000775;
    DataCaptionExpr=Caption;
    PageType=List;
    AutoSplitKey=Yes;
  }
  CONTROLS
  {
    { 1900000001;0;Container;
                ContainerType=ContentArea }

    { 1   ;1   ;Group     ;
                GroupType=Repeater }

    { 2   ;2   ;Field     ;
                SourceExpr=Date }

    { 4   ;2   ;Field     ;
                SourceExpr=Comment }

    { 6   ;2   ;Field     ;
                SourceExpr=Code;
                Visible=FALSE }

  }
  CODE
  {

    BEGIN
    END.
  }
}

