OBJECT Page 958 Time Sheet Posting Entries
{
  OBJECT-PROPERTIES
  {
    Date=07/09/12;
    Time=12:00:00;
    Version List=NAVW17.00;
  }
  PROPERTIES
  {
    Editable=No;
    CaptionML=ENU=Time Sheet Posting Entries;
    SourceTable=Table958;
    DataCaptionFields=Time Sheet No.;
    PageType=List;
    ActionList=ACTIONS
    {
      { 10      ;    ;ActionContainer;
                      ActionContainerType=NewDocumentItems }
      { 11      ;1   ;Action    ;
                      CaptionML=ENU=&Navigate;
                      Promoted=Yes;
                      Image=Navigate;
                      PromotedCategory=Process;
                      OnAction=BEGIN
                                 Navigate.SetDoc("Posting Date","Document No.");
                                 Navigate.RUN;
                               END;
                                }
    }
  }
  CONTROLS
  {
    { 1   ;0   ;Container ;
                ContainerType=ContentArea }

    { 2   ;1   ;Group     ;
                GroupType=Repeater }

    { 4   ;2   ;Field     ;
                SourceExpr="Time Sheet No." }

    { 5   ;2   ;Field     ;
                SourceExpr="Time Sheet Line No." }

    { 6   ;2   ;Field     ;
                SourceExpr="Time Sheet Date" }

    { 12  ;2   ;Field     ;
                SourceExpr=Description }

    { 7   ;2   ;Field     ;
                SourceExpr=Quantity }

    { 8   ;2   ;Field     ;
                SourceExpr="Document No." }

    { 9   ;2   ;Field     ;
                SourceExpr="Posting Date" }

    { 3   ;2   ;Field     ;
                SourceExpr="Entry No." }

  }
  CODE
  {
    VAR
      Navigate@1000 : Page 344;

    BEGIN
    END.
  }
}

