OBJECT Page 983 Payment Registration Details
{
  OBJECT-PROPERTIES
  {
    Date=09/09/14;
    Time=12:00:00;
    Version List=NAVW18.00;
  }
  PROPERTIES
  {
    CaptionML=ENU=Payment Registration Details;
    InsertAllowed=No;
    DeleteAllowed=No;
    SourceTable=Table981;
    DataCaptionExpr=PageCaption;
    PageType=ListPlus;
    PromotedActionCategoriesML=ENU=New,Process,Report,Navigate;
    OnOpenPage=BEGIN
                 PageCaption := '';
               END;

    OnAfterGetRecord=BEGIN
                       SetUserInteractions;
                     END;

    ActionList=ACTIONS
    {
      { 12      ;0   ;ActionContainer;
                      ActionContainerType=RelatedInformation }
      { 13      ;1   ;ActionGroup;
                      CaptionML=ENU=New Document }
      { 24      ;2   ;Action    ;
                      Name=FinanceChargeMemo;
                      CaptionML=ENU=Finance Charge Memo;
                      ToolTipML=ENU=Create a finance charge memo for the customer on the selected line, for example, to issue a finance charge for late payment.;
                      RunObject=Page 446;
                      RunPageLink=Customer No.=FIELD(Source No.);
                      Promoted=Yes;
                      PromotedIsBig=Yes;
                      Image=FinChargeMemo;
                      RunPageMode=Create }
      { 19      ;1   ;ActionGroup;
                      CaptionML=ENU=Navigate }
      { 18      ;2   ;Action    ;
                      Name=Navigate;
                      CaptionML=ENU=Navigate;
                      ToolTipML=ENU=View and link to all entries that exist for the document number on the selected line.;
                      Promoted=Yes;
                      PromotedIsBig=Yes;
                      Image=Navigate;
                      PromotedCategory=Category4;
                      OnAction=BEGIN
                                 Navigate;
                               END;
                                }
    }
  }
  CONTROLS
  {
    { 1   ;0   ;Container ;
                ContainerType=ContentArea }

    { 3   ;1   ;Group     ;
                CaptionML=ENU=Document Name;
                GroupType=Group }

    { 14  ;2   ;Field     ;
                SourceExpr=Name;
                Editable=FALSE;
                StyleExpr=TRUE;
                OnDrillDown=VAR
                              Customer@1000 : Record 18;
                            BEGIN
                              Customer.GET("Source No.");
                              PAGE.RUN(PAGE::"Customer Card",Customer);
                            END;
                             }

    { 2   ;1   ;Group     ;
                Name=Document Details;
                CaptionML=ENU=Document Details;
                GroupType=Group }

    { 4   ;2   ;Field     ;
                SourceExpr="Document No.";
                Editable=FALSE;
                OnDrillDown=BEGIN
                              Navigate;
                            END;
                             }

    { 5   ;2   ;Field     ;
                SourceExpr="Document Type";
                Editable=FALSE }

    { 6   ;2   ;Field     ;
                SourceExpr=Description;
                Editable=FALSE }

    { 7   ;2   ;Field     ;
                SourceExpr="Due Date";
                Editable=FALSE;
                StyleExpr=DueDateStyle }

    { 8   ;1   ;Group     ;
                Name=Payment Discount;
                CaptionML=ENU=Payment Discount;
                GroupType=Group }

    { 9   ;2   ;Field     ;
                SourceExpr="Pmt. Discount Date";
                StyleExpr=PmtDiscStyle;
                OnValidate=BEGIN
                             SetUserInteractions;
                           END;
                            }

    { 10  ;2   ;Field     ;
                SourceExpr="Remaining Amount";
                Editable=FALSE;
                StyleExpr=PmtDiscStyle }

    { 11  ;2   ;Field     ;
                SourceExpr="Rem. Amt. after Discount";
                Editable=FALSE }

    { 22  ;1   ;Group     ;
                CaptionML=ENU=Warning;
                GroupType=Group }

    { 21  ;2   ;Group     ;
                GroupType=FixedLayout }

    { 20  ;3   ;Group     ;
                GroupType=Group }

    { 16  ;4   ;Field     ;
                SourceExpr=Warning;
                Editable=FALSE;
                Style=Unfavorable;
                StyleExpr=TRUE }

  }
  CODE
  {
    VAR
      PmtDiscStyle@1002 : Text;
      DueDateStyle@1000 : Text;
      Warning@1001 : Text;
      PageCaption@1003 : Text;

    LOCAL PROCEDURE SetUserInteractions@1();
    BEGIN
      PmtDiscStyle := GetPmtDiscStyle;
      DueDateStyle := GetDueDateStyle;
      Warning := GetWarning;
    END;

    BEGIN
    END.
  }
}

