OBJECT Query 5404 My Delayed Prod. Orders
{
  OBJECT-PROPERTIES
  {
    Date=07/09/12;
    Time=12:00:00;
    Version List=NAVW17.00;
  }
  PROPERTIES
  {
    CaptionML=ENU=My Delayed Prod. Orders;
    OnBeforeOpen=BEGIN
                   SETFILTER(Due_Date,'<%1',TODAY);
                   SETRANGE(User_ID,USERID);
                 END;

  }
  ELEMENTS
  {
    { 7   ;0   ;DataItem;                    ;
               DataItemTable=Table9152 }

    { 5   ;1   ;Filter  ;                    ;
               DataSource=User ID }

    { 1   ;1   ;DataItem;                    ;
               DataItemTable=Table5406;
               DataItemTableFilter=Status=FILTER(Planned|Firm Planned|Released);
               DataItemLink=Item No.=My_Item."Item No." }

    { 2   ;2   ;Column  ;                    ;
               DataSource=Item No. }

    { 6   ;2   ;Column  ;                    ;
               DataSource=Status }

    { 3   ;2   ;Filter  ;                    ;
               DataSource=Due Date }

    { 4   ;2   ;Column  ;                    ;
               DataSource=Remaining Quantity;
               MethodType=Totals;
               Method=Sum }

  }
  CODE
  {

    BEGIN
    END.
  }
}

