OBJECT Query 5400 Delayed Prod. Orders - by Cost
{
  OBJECT-PROPERTIES
  {
    Date=07/09/12;
    Time=12:00:00;
    Version List=NAVW17.00;
  }
  PROPERTIES
  {
    CaptionML=ENU=Delayed Prod. Orders - by Cost;
    OrderBy=Cost_of_Open_Production_Orders=Descending;
    OnBeforeOpen=BEGIN
                   SETFILTER(Due_Date,'<%1',TODAY);
                 END;

  }
  ELEMENTS
  {
    { 1   ;    ;DataItem;                    ;
               DataItemTable=Table5406;
               DataItemTableFilter=Status=FILTER(Planned|Firm Planned|Released) }

    { 2   ;1   ;Column  ;                    ;
               DataSource=Item No. }

    { 6   ;1   ;Column  ;                    ;
               DataSource=Status }

    { 3   ;1   ;Filter  ;                    ;
               DataSource=Due Date }

    { 4   ;1   ;Column  ;                    ;
               DataSource=Remaining Quantity;
               MethodType=Totals;
               Method=Sum }

    { 7   ;1   ;DataItem;                    ;
               DataItemTable=Table27;
               DataItemLink=No.=Prod_Order_Line."Item No." }

    { 8   ;2   ;Column  ;                    ;
               DataSource=Cost of Open Production Orders }

  }
  CODE
  {

    BEGIN
    END.
  }
}

