OBJECT Report 1107 Resource - Cost Breakdown
{
  OBJECT-PROPERTIES
  {
    Date=23/09/13;
    Time=12:00:00;
    Version List=NAVW17.10;
  }
  PROPERTIES
  {
    CaptionML=[ENU=Resource - Cost Breakdown;
               PTB=Recurso - An lise Custos];
    OnPreReport=BEGIN
                  ResFilter := Resource.GETFILTERS;
                  ResLedgEntryFilter := "Res. Ledger Entry".GETFILTERS;
                END;

  }
  DATASET
  {
    { 5508;    ;DataItem;                    ;
               DataItemTable=Table156;
               OnAfterGetRecord=BEGIN
                                  CurrReport.PAGENO := 1;
                                  FirstGroupTotal := TRUE;
                                END;

               ReqFilterFields=No. }

    { 38  ;1   ;Column  ;No_Resource         ;
               SourceExpr="No." }

    { 5444;1   ;DataItem;                    ;
               DataItemTable=Table2000000026;
               DataItemTableView=SORTING(Number)
                                 WHERE(Number=CONST(1)) }

    { 25  ;2   ;Column  ;TodayFormatted      ;
               SourceExpr=FORMAT(TODAY,0,4) }

    { 26  ;2   ;Column  ;CompanyName         ;
               SourceExpr=COMPANYNAME }

    { 30  ;2   ;Column  ;ResTableCaptResFilter;
               SourceExpr=Resource.TABLECAPTION + ': ' + ResFilter }

    { 2   ;2   ;Column  ;ResFilter           ;
               SourceExpr=ResFilter }

    { 31  ;2   ;Column  ;ResLedEntrytableCaptFilt;
               SourceExpr="Res. Ledger Entry".TABLECAPTION + ': ' + ResLedgEntryFilter }

    { 4   ;2   ;Column  ;ResLedgerEntryFilter;
               SourceExpr=ResLedgEntryFilter }

    { 24  ;2   ;Column  ;ResCostBreakdownCaption;
               SourceExpr=ResCostBreakdownCaptionLbl }

    { 27  ;2   ;Column  ;CurrReportPageNoCaption;
               SourceExpr=CurrReportPageNoCaptionLbl }

    { 4729;2   ;DataItem;                    ;
               DataItemTable=Table203;
               DataItemTableView=SORTING(Entry Type,Chargeable,Unit of Measure Code,Resource No.,Posting Date)
                                 WHERE(Entry Type=CONST(Usage));
               OnPreDataItem=BEGIN
                               CurrReport.CREATETOTALS(TotalDirectCost,Quantity,"Total Cost");
                             END;

               OnAfterGetRecord=BEGIN
                                  TotalDirectCost := Quantity * "Direct Unit Cost";
                                END;

               ReqFilterFields=Unit of Measure Code,Posting Date;
               DataItemLinkReference=Resource;
               DataItemLink=Resource No.=FIELD(No.) }

    { 22  ;3   ;Column  ;Name_Resource       ;
               SourceExpr=Resource.Name }

    { 20  ;3   ;Column  ;No1_Resource        ;
               SourceExpr=Resource."No." }

    { 11  ;3   ;Column  ;UmoCost_ResLedgEntry;
               IncludeCaption=Yes;
               SourceExpr="Unit of Measure Code" }

    { 1   ;3   ;Column  ;Desc_ResLedgEntry   ;
               IncludeCaption=Yes;
               SourceExpr=Description }

    { 3   ;3   ;Column  ;WorkTypeCode_ResLedgEntry;
               IncludeCaption=Yes;
               SourceExpr="Work Type Code" }

    { 5   ;3   ;Column  ;Qty_ResLedgEntry    ;
               IncludeCaption=Yes;
               SourceExpr=Quantity }

    { 7   ;3   ;Column  ;DirectUnitCost_ResLedgEntry;
               IncludeCaption=Yes;
               SourceExpr="Direct Unit Cost" }

    { 9   ;3   ;Column  ;TotalDirectCost     ;
               SourceExpr=TotalDirectCost;
               AutoFormatType=1 }

    { 18  ;3   ;Column  ;UnitCost_ResLedgEntry;
               IncludeCaption=Yes;
               SourceExpr="Unit Cost" }

    { 23  ;3   ;Column  ;TotalCost_ResLedgEntry;
               IncludeCaption=Yes;
               SourceExpr="Total Cost" }

    { 6   ;3   ;Column  ;Chargeable_ResLedgEntry;
               SourceExpr=Chargeable }

    { 10  ;3   ;Column  ;TotalDirectCostCaption;
               SourceExpr=TotalDirectCostCaptionLbl }

    { 19  ;3   ;Column  ;TotalCaption        ;
               SourceExpr=TotalCaptionLbl }

  }
  REQUESTPAGE
  {
    PROPERTIES
    {
    }
    CONTROLS
    {
    }
  }
  LABELS
  {
  }
  CODE
  {
    VAR
      TotalDirectCost@1000 : Decimal;
      ResFilter@1001 : Text;
      ResLedgEntryFilter@1002 : Text;
      FirstGroupTotal@1003 : Boolean;
      ResCostBreakdownCaptionLbl@2829 : TextConst 'ENU=Resource - Cost Breakdown;PTB=Recurso - An lise Custos';
      CurrReportPageNoCaptionLbl@2595 : TextConst 'ENU=Page;PTB=P gina';
      TotalDirectCostCaptionLbl@6727 : TextConst 'ENU=Total Direct Cost;PTB=Custo Direto Total';
      TotalCaptionLbl@1909 : TextConst 'ENU=Total;PTB=Total';

    BEGIN
    END.
  }
  RDLDATA
  {
    <?xml version="1.0" encoding="utf-8"?>
<Report xmlns:rd="http://schemas.microsoft.com/SQLServer/reporting/reportdesigner" xmlns="http://schemas.microsoft.com/sqlserver/reporting/2010/01/reportdefinition">
  <AutoRefresh>0</AutoRefresh>
  <DataSources>
    <DataSource Name="DataSource">
      <ConnectionProperties>
        <DataProvider>SQL</DataProvider>
        <ConnectString />
      </ConnectionProperties>
      <rd:SecurityType>None</rd:SecurityType>
      <rd:DataSourceID>16267d75-9054-48c5-943f-8f1fb25dd34b</rd:DataSourceID>
    </DataSource>
  </DataSources>
  <DataSets>
    <DataSet Name="DataSet_Result">
      <Query>
        <DataSourceName>DataSource</DataSourceName>
        <CommandText />
      </Query>
      <Fields>
        <Field Name="No_Resource">
          <DataField>No_Resource</DataField>
        </Field>
        <Field Name="TodayFormatted">
          <DataField>TodayFormatted</DataField>
        </Field>
        <Field Name="CompanyName">
          <DataField>CompanyName</DataField>
        </Field>
        <Field Name="ResTableCaptResFilter">
          <DataField>ResTableCaptResFilter</DataField>
        </Field>
        <Field Name="ResFilter">
          <DataField>ResFilter</DataField>
        </Field>
        <Field Name="ResLedEntrytableCaptFilt">
          <DataField>ResLedEntrytableCaptFilt</DataField>
        </Field>
        <Field Name="ResLedgerEntryFilter">
          <DataField>ResLedgerEntryFilter</DataField>
        </Field>
        <Field Name="ResCostBreakdownCaption">
          <DataField>ResCostBreakdownCaption</DataField>
        </Field>
        <Field Name="CurrReportPageNoCaption">
          <DataField>CurrReportPageNoCaption</DataField>
        </Field>
        <Field Name="Name_Resource">
          <DataField>Name_Resource</DataField>
        </Field>
        <Field Name="No1_Resource">
          <DataField>No1_Resource</DataField>
        </Field>
        <Field Name="UmoCost_ResLedgEntry">
          <DataField>UmoCost_ResLedgEntry</DataField>
        </Field>
        <Field Name="Desc_ResLedgEntry">
          <DataField>Desc_ResLedgEntry</DataField>
        </Field>
        <Field Name="WorkTypeCode_ResLedgEntry">
          <DataField>WorkTypeCode_ResLedgEntry</DataField>
        </Field>
        <Field Name="Qty_ResLedgEntry">
          <DataField>Qty_ResLedgEntry</DataField>
        </Field>
        <Field Name="Qty_ResLedgEntryFormat">
          <DataField>Qty_ResLedgEntryFormat</DataField>
        </Field>
        <Field Name="DirectUnitCost_ResLedgEntry">
          <DataField>DirectUnitCost_ResLedgEntry</DataField>
        </Field>
        <Field Name="DirectUnitCost_ResLedgEntryFormat">
          <DataField>DirectUnitCost_ResLedgEntryFormat</DataField>
        </Field>
        <Field Name="TotalDirectCost">
          <DataField>TotalDirectCost</DataField>
        </Field>
        <Field Name="TotalDirectCostFormat">
          <DataField>TotalDirectCostFormat</DataField>
        </Field>
        <Field Name="UnitCost_ResLedgEntry">
          <DataField>UnitCost_ResLedgEntry</DataField>
        </Field>
        <Field Name="UnitCost_ResLedgEntryFormat">
          <DataField>UnitCost_ResLedgEntryFormat</DataField>
        </Field>
        <Field Name="TotalCost_ResLedgEntry">
          <DataField>TotalCost_ResLedgEntry</DataField>
        </Field>
        <Field Name="TotalCost_ResLedgEntryFormat">
          <DataField>TotalCost_ResLedgEntryFormat</DataField>
        </Field>
        <Field Name="Chargeable_ResLedgEntry">
          <DataField>Chargeable_ResLedgEntry</DataField>
        </Field>
        <Field Name="TotalDirectCostCaption">
          <DataField>TotalDirectCostCaption</DataField>
        </Field>
        <Field Name="TotalCaption">
          <DataField>TotalCaption</DataField>
        </Field>
      </Fields>
      <rd:DataSetInfo>
        <rd:DataSetName>DataSet</rd:DataSetName>
        <rd:SchemaPath>Report.xsd</rd:SchemaPath>
        <rd:TableName>Result</rd:TableName>
      </rd:DataSetInfo>
    </DataSet>
  </DataSets>
  <ReportSections>
    <ReportSection>
      <Body>
        <ReportItems>
          <Tablix Name="ResLedgEntryTable">
            <TablixBody>
              <TablixColumns>
                <TablixColumn>
                  <Width>0.63154in</Width>
                </TablixColumn>
                <TablixColumn>
                  <Width>0.27721in</Width>
                </TablixColumn>
                <TablixColumn>
                  <Width>1.02524in</Width>
                </TablixColumn>
                <TablixColumn>
                  <Width>0.21815in</Width>
                </TablixColumn>
                <TablixColumn>
                  <Width>0.39532in</Width>
                </TablixColumn>
                <TablixColumn>
                  <Width>0.49374in</Width>
                </TablixColumn>
                <TablixColumn>
                  <Width>0.67091in</Width>
                </TablixColumn>
                <TablixColumn>
                  <Width>1.00559in</Width>
                </TablixColumn>
                <TablixColumn>
                  <Width>0.98587in</Width>
                </TablixColumn>
                <TablixColumn>
                  <Width>0.63154in</Width>
                </TablixColumn>
                <TablixColumn>
                  <Width>0.64591in</Width>
                </TablixColumn>
              </TablixColumns>
              <TablixRows>
                <TablixRow>
                  <Height>0.13889in</Height>
                  <TablixCells>
                    <TablixCell>
                      <CellContents>
                        <Textbox Name="ResLedgEntryDescCaption">
                          <CanGrow>true</CanGrow>
                          <KeepTogether>true</KeepTogether>
                          <Paragraphs>
                            <Paragraph>
                              <TextRuns>
                                <TextRun>
                                  <Value>=Parameters!Desc_ResLedgEntryCaption.Value</Value>
                                  <Style>
                                    <FontFamily>Segoe UI</FontFamily>
                                    <FontSize>8pt</FontSize>
                                    <FontWeight>Bold</FontWeight>
                                  </Style>
                                </TextRun>
                              </TextRuns>
                              <Style />
                            </Paragraph>
                          </Paragraphs>
                          <ZIndex>92</ZIndex>
                          <Style>
                            <VerticalAlign>Bottom</VerticalAlign>
                            <PaddingRight>5pt</PaddingRight>
                          </Style>
                        </Textbox>
                        <ColSpan>4</ColSpan>
                      </CellContents>
                    </TablixCell>
                    <TablixCell />
                    <TablixCell />
                    <TablixCell />
                    <TablixCell>
                      <CellContents>
                        <Textbox Name="ResLedgEntryWorkTypeCodeCaption">
                          <CanGrow>true</CanGrow>
                          <KeepTogether>true</KeepTogether>
                          <Paragraphs>
                            <Paragraph>
                              <TextRuns>
                                <TextRun>
                                  <Value>=Parameters!WorkTypeCode_ResLedgEntryCaption.Value</Value>
                                  <Style>
                                    <FontFamily>Segoe UI</FontFamily>
                                    <FontSize>8pt</FontSize>
                                    <FontWeight>Bold</FontWeight>
                                  </Style>
                                </TextRun>
                              </TextRuns>
                              <Style>
                                <TextAlign>Left</TextAlign>
                              </Style>
                            </Paragraph>
                          </Paragraphs>
                          <ZIndex>91</ZIndex>
                          <Style>
                            <VerticalAlign>Bottom</VerticalAlign>
                            <PaddingLeft>5pt</PaddingLeft>
                            <PaddingRight>5pt</PaddingRight>
                          </Style>
                        </Textbox>
                        <ColSpan>2</ColSpan>
                      </CellContents>
                    </TablixCell>
                    <TablixCell />
                    <TablixCell>
                      <CellContents>
                        <Textbox Name="ResLedgEntryQtyCaption">
                          <CanGrow>true</CanGrow>
                          <KeepTogether>true</KeepTogether>
                          <Paragraphs>
                            <Paragraph>
                              <TextRuns>
                                <TextRun>
                                  <Value>=Parameters!Qty_ResLedgEntryCaption.Value</Value>
                                  <Style>
                                    <FontFamily>Segoe UI</FontFamily>
                                    <FontSize>8pt</FontSize>
                                    <FontWeight>Bold</FontWeight>
                                  </Style>
                                </TextRun>
                              </TextRuns>
                              <Style>
                                <TextAlign>Right</TextAlign>
                              </Style>
                            </Paragraph>
                          </Paragraphs>
                          <ZIndex>90</ZIndex>
                          <Style>
                            <VerticalAlign>Bottom</VerticalAlign>
                            <PaddingLeft>5pt</PaddingLeft>
                            <PaddingRight>5pt</PaddingRight>
                          </Style>
                        </Textbox>
                      </CellContents>
                    </TablixCell>
                    <TablixCell>
                      <CellContents>
                        <Textbox Name="ResLedgEntryDirectUnitCostCaption">
                          <CanGrow>true</CanGrow>
                          <KeepTogether>true</KeepTogether>
                          <Paragraphs>
                            <Paragraph>
                              <TextRuns>
                                <TextRun>
                                  <Value>=Parameters!DirectUnitCost_ResLedgEntryCaption.Value</Value>
                                  <Style>
                                    <FontFamily>Segoe UI</FontFamily>
                                    <FontSize>8pt</FontSize>
                                    <FontWeight>Bold</FontWeight>
                                  </Style>
                                </TextRun>
                              </TextRuns>
                              <Style>
                                <TextAlign>Right</TextAlign>
                              </Style>
                            </Paragraph>
                          </Paragraphs>
                          <ZIndex>89</ZIndex>
                          <Style>
                            <VerticalAlign>Bottom</VerticalAlign>
                            <PaddingLeft>5pt</PaddingLeft>
                            <PaddingRight>5pt</PaddingRight>
                          </Style>
                        </Textbox>
                      </CellContents>
                    </TablixCell>
                    <TablixCell>
                      <CellContents>
                        <Textbox Name="TotalDirectCostCaption">
                          <CanGrow>true</CanGrow>
                          <KeepTogether>true</KeepTogether>
                          <Paragraphs>
                            <Paragraph>
                              <TextRuns>
                                <TextRun>
                                  <Value>=Fields!TotalDirectCostCaption.Value</Value>
                                  <Style>
                                    <FontFamily>Segoe UI</FontFamily>
                                    <FontSize>8pt</FontSize>
                                    <FontWeight>Bold</FontWeight>
                                  </Style>
                                </TextRun>
                              </TextRuns>
                              <Style>
                                <TextAlign>Right</TextAlign>
                              </Style>
                            </Paragraph>
                          </Paragraphs>
                          <ZIndex>88</ZIndex>
                          <Style>
                            <VerticalAlign>Bottom</VerticalAlign>
                            <PaddingLeft>5pt</PaddingLeft>
                            <PaddingRight>5pt</PaddingRight>
                          </Style>
                        </Textbox>
                      </CellContents>
                    </TablixCell>
                    <TablixCell>
                      <CellContents>
                        <Textbox Name="ResLedgEntryUnitCostCaption">
                          <CanGrow>true</CanGrow>
                          <KeepTogether>true</KeepTogether>
                          <Paragraphs>
                            <Paragraph>
                              <TextRuns>
                                <TextRun>
                                  <Value>=Parameters!UnitCost_ResLedgEntryCaption.Value</Value>
                                  <Style>
                                    <FontFamily>Segoe UI</FontFamily>
                                    <FontSize>8pt</FontSize>
                                    <FontWeight>Bold</FontWeight>
                                  </Style>
                                </TextRun>
                              </TextRuns>
                              <Style>
                                <TextAlign>Right</TextAlign>
                              </Style>
                            </Paragraph>
                          </Paragraphs>
                          <ZIndex>87</ZIndex>
                          <Style>
                            <VerticalAlign>Bottom</VerticalAlign>
                            <PaddingLeft>5pt</PaddingLeft>
                            <PaddingRight>5pt</PaddingRight>
                          </Style>
                        </Textbox>
                      </CellContents>
                    </TablixCell>
                    <TablixCell>
                      <CellContents>
                        <Textbox Name="ResLedgEntryTotalCostCaption">
                          <CanGrow>true</CanGrow>
                          <KeepTogether>true</KeepTogether>
                          <Paragraphs>
                            <Paragraph>
                              <TextRuns>
                                <TextRun>
                                  <Value>=Parameters!TotalCost_ResLedgEntryCaption.Value</Value>
                                  <Style>
                                    <FontFamily>Segoe UI</FontFamily>
                                    <FontSize>8pt</FontSize>
                                    <FontWeight>Bold</FontWeight>
                                  </Style>
                                </TextRun>
                              </TextRuns>
                              <Style>
                                <TextAlign>Right</TextAlign>
                              </Style>
                            </Paragraph>
                          </Paragraphs>
                          <ZIndex>86</ZIndex>
                          <Style>
                            <VerticalAlign>Bottom</VerticalAlign>
                            <PaddingLeft>5pt</PaddingLeft>
                          </Style>
                        </Textbox>
                      </CellContents>
                    </TablixCell>
                  </TablixCells>
                </TablixRow>
                <TablixRow>
                  <Height>0.06944in</Height>
                  <TablixCells>
                    <TablixCell>
                      <CellContents>
                        <Textbox Name="Textbox1">
                          <CanGrow>true</CanGrow>
                          <KeepTogether>true</KeepTogether>
                          <Paragraphs>
                            <Paragraph>
                              <TextRuns>
                                <TextRun>
                                  <Value />
                                  <Style>
                                    <FontSize>7pt</FontSize>
                                    <FontWeight>Bold</FontWeight>
                                  </Style>
                                </TextRun>
                              </TextRuns>
                              <Style />
                            </Paragraph>
                          </Paragraphs>
                          <rd:DefaultName>Textbox1</rd:DefaultName>
                          <Style>
                            <Border>
                              <Style>None</Style>
                            </Border>
                            <BottomBorder>
                              <Style>Solid</Style>
                            </BottomBorder>
                          </Style>
                        </Textbox>
                        <ColSpan>11</ColSpan>
                      </CellContents>
                    </TablixCell>
                    <TablixCell />
                    <TablixCell />
                    <TablixCell />
                    <TablixCell />
                    <TablixCell />
                    <TablixCell />
                    <TablixCell />
                    <TablixCell />
                    <TablixCell />
                    <TablixCell />
                  </TablixCells>
                </TablixRow>
                <TablixRow>
                  <Height>0.06944in</Height>
                  <TablixCells>
                    <TablixCell>
                      <CellContents>
                        <Textbox Name="Textbox86">
                          <CanGrow>true</CanGrow>
                          <KeepTogether>true</KeepTogether>
                          <Paragraphs>
                            <Paragraph>
                              <TextRuns>
                                <TextRun>
                                  <Value />
                                  <Style>
                                    <FontSize>7pt</FontSize>
                                    <FontWeight>Bold</FontWeight>
                                  </Style>
                                </TextRun>
                              </TextRuns>
                              <Style />
                            </Paragraph>
                          </Paragraphs>
                          <rd:DefaultName>Textbox86</rd:DefaultName>
                          <Style />
                        </Textbox>
                        <ColSpan>11</ColSpan>
                      </CellContents>
                    </TablixCell>
                    <TablixCell />
                    <TablixCell />
                    <TablixCell />
                    <TablixCell />
                    <TablixCell />
                    <TablixCell />
                    <TablixCell />
                    <TablixCell />
                    <TablixCell />
                    <TablixCell />
                  </TablixCells>
                </TablixRow>
                <TablixRow>
                  <Height>0.13889in</Height>
                  <TablixCells>
                    <TablixCell>
                      <CellContents>
                        <Textbox Name="ResNo1">
                          <KeepTogether>true</KeepTogether>
                          <Paragraphs>
                            <Paragraph>
                              <TextRuns>
                                <TextRun>
                                  <Value>=Fields!No1_Resource.Value</Value>
                                  <Style>
                                    <FontFamily>Segoe UI</FontFamily>
                                    <FontSize>8pt</FontSize>
                                    <FontWeight>Bold</FontWeight>
                                  </Style>
                                </TextRun>
                              </TextRuns>
                              <Style />
                            </Paragraph>
                          </Paragraphs>
                          <ZIndex>77</ZIndex>
                          <Style>
                            <VerticalAlign>Top</VerticalAlign>
                            <PaddingRight>5pt</PaddingRight>
                          </Style>
                        </Textbox>
                      </CellContents>
                    </TablixCell>
                    <TablixCell>
                      <CellContents>
                        <Textbox Name="ResName">
                          <KeepTogether>true</KeepTogether>
                          <Paragraphs>
                            <Paragraph>
                              <TextRuns>
                                <TextRun>
                                  <Value>=Fields!Name_Resource.Value</Value>
                                  <Style>
                                    <FontFamily>Segoe UI</FontFamily>
                                    <FontSize>8pt</FontSize>
                                    <FontWeight>Bold</FontWeight>
                                  </Style>
                                </TextRun>
                              </TextRuns>
                              <Style />
                            </Paragraph>
                          </Paragraphs>
                          <ZIndex>76</ZIndex>
                          <Style>
                            <VerticalAlign>Top</VerticalAlign>
                            <PaddingLeft>5pt</PaddingLeft>
                            <PaddingRight>5pt</PaddingRight>
                          </Style>
                        </Textbox>
                        <ColSpan>5</ColSpan>
                      </CellContents>
                    </TablixCell>
                    <TablixCell />
                    <TablixCell />
                    <TablixCell />
                    <TablixCell />
                    <TablixCell>
                      <CellContents>
                        <Textbox Name="textbox31">
                          <KeepTogether>true</KeepTogether>
                          <Paragraphs>
                            <Paragraph>
                              <TextRuns>
                                <TextRun>
                                  <Value />
                                  <Style>
                                    <FontFamily>Segoe UI</FontFamily>
                                    <FontSize>8pt</FontSize>
                                  </Style>
                                </TextRun>
                              </TextRuns>
                              <Style />
                            </Paragraph>
                          </Paragraphs>
                          <rd:DefaultName>textbox31</rd:DefaultName>
                          <ZIndex>75</ZIndex>
                          <Style />
                        </Textbox>
                        <ColSpan>5</ColSpan>
                      </CellContents>
                    </TablixCell>
                    <TablixCell />
                    <TablixCell />
                    <TablixCell />
                    <TablixCell />
                  </TablixCells>
                </TablixRow>
                <TablixRow>
                  <Height>0.13889in</Height>
                  <TablixCells>
                    <TablixCell>
                      <CellContents>
                        <Textbox Name="textbox19">
                          <KeepTogether>true</KeepTogether>
                          <Paragraphs>
                            <Paragraph>
                              <TextRuns>
                                <TextRun>
                                  <Value />
                                  <Style>
                                    <FontFamily>Segoe UI</FontFamily>
                                    <FontSize>8pt</FontSize>
                                  </Style>
                                </TextRun>
                              </TextRuns>
                              <Style />
                            </Paragraph>
                          </Paragraphs>
                          <rd:DefaultName>textbox19</rd:DefaultName>
                          <ZIndex>62</ZIndex>
                          <Style />
                        </Textbox>
                      </CellContents>
                    </TablixCell>
                    <TablixCell>
                      <CellContents>
                        <Textbox Name="ResLedgEntryUOMCodeCaption">
                          <CanGrow>true</CanGrow>
                          <KeepTogether>true</KeepTogether>
                          <Paragraphs>
                            <Paragraph>
                              <TextRuns>
                                <TextRun>
                                  <Value>=Parameters!UmoCost_ResLedgEntryCaption.Value</Value>
                                  <Style>
                                    <FontFamily>Segoe UI</FontFamily>
                                    <FontSize>8pt</FontSize>
                                    <FontWeight>Bold</FontWeight>
                                  </Style>
                                </TextRun>
                              </TextRuns>
                              <Style />
                            </Paragraph>
                          </Paragraphs>
                          <ZIndex>61</ZIndex>
                          <Style>
                            <VerticalAlign>Top</VerticalAlign>
                            <PaddingLeft>5pt</PaddingLeft>
                            <PaddingRight>5pt</PaddingRight>
                          </Style>
                        </Textbox>
                        <ColSpan>2</ColSpan>
                      </CellContents>
                    </TablixCell>
                    <TablixCell />
                    <TablixCell>
                      <CellContents>
                        <Textbox Name="ResLedgEntryUOMCode">
                          <KeepTogether>true</KeepTogether>
                          <Paragraphs>
                            <Paragraph>
                              <TextRuns>
                                <TextRun>
                                  <Value>=First(Fields!UmoCost_ResLedgEntry.Value)</Value>
                                  <Style>
                                    <FontFamily>Segoe UI</FontFamily>
                                    <FontSize>8pt</FontSize>
                                    <FontWeight>Bold</FontWeight>
                                  </Style>
                                </TextRun>
                              </TextRuns>
                              <Style />
                            </Paragraph>
                          </Paragraphs>
                          <ZIndex>60</ZIndex>
                          <Style>
                            <VerticalAlign>Top</VerticalAlign>
                            <PaddingLeft>5pt</PaddingLeft>
                            <PaddingRight>5pt</PaddingRight>
                          </Style>
                        </Textbox>
                        <ColSpan>2</ColSpan>
                      </CellContents>
                    </TablixCell>
                    <TablixCell />
                    <TablixCell>
                      <CellContents>
                        <Textbox Name="textbox6">
                          <KeepTogether>true</KeepTogether>
                          <Paragraphs>
                            <Paragraph>
                              <TextRuns>
                                <TextRun>
                                  <Value />
                                  <Style>
                                    <FontFamily>Segoe UI</FontFamily>
                                    <FontSize>8pt</FontSize>
                                    <FontWeight>Bold</FontWeight>
                                  </Style>
                                </TextRun>
                              </TextRuns>
                              <Style />
                            </Paragraph>
                          </Paragraphs>
                          <rd:DefaultName>textbox6</rd:DefaultName>
                          <ZIndex>59</ZIndex>
                          <Style />
                        </Textbox>
                        <ColSpan>6</ColSpan>
                      </CellContents>
                    </TablixCell>
                    <TablixCell />
                    <TablixCell />
                    <TablixCell />
                    <TablixCell />
                    <TablixCell />
                  </TablixCells>
                </TablixRow>
                <TablixRow>
                  <Height>0.13889in</Height>
                  <TablixCells>
                    <TablixCell>
                      <CellContents>
                        <Textbox Name="ResLedgEntryDesc">
                          <KeepTogether>true</KeepTogether>
                          <Paragraphs>
                            <Paragraph>
                              <TextRuns>
                                <TextRun>
                                  <Value>=Fields!Desc_ResLedgEntry.Value</Value>
                                  <Style>
                                    <FontFamily>Segoe UI</FontFamily>
                                    <FontSize>8pt</FontSize>
                                  </Style>
                                </TextRun>
                              </TextRuns>
                              <Style />
                            </Paragraph>
                          </Paragraphs>
                          <ZIndex>14</ZIndex>
                          <Style>
                            <BackgroundColor>="#efefef"</BackgroundColor>
                            <VerticalAlign>Top</VerticalAlign>
                            <PaddingRight>5pt</PaddingRight>
                          </Style>
                        </Textbox>
                        <ColSpan>4</ColSpan>
                      </CellContents>
                    </TablixCell>
                    <TablixCell />
                    <TablixCell />
                    <TablixCell />
                    <TablixCell>
                      <CellContents>
                        <Textbox Name="ResLedgEntryWorkTypeCode">
                          <KeepTogether>true</KeepTogether>
                          <Paragraphs>
                            <Paragraph>
                              <TextRuns>
                                <TextRun>
                                  <Value>=Fields!WorkTypeCode_ResLedgEntry.Value</Value>
                                  <Style>
                                    <FontFamily>Segoe UI</FontFamily>
                                    <FontSize>8pt</FontSize>
                                  </Style>
                                </TextRun>
                              </TextRuns>
                              <Style>
                                <TextAlign>Left</TextAlign>
                              </Style>
                            </Paragraph>
                          </Paragraphs>
                          <ZIndex>13</ZIndex>
                          <Style>
                            <BackgroundColor>="#efefef"</BackgroundColor>
                            <VerticalAlign>Top</VerticalAlign>
                            <PaddingLeft>5pt</PaddingLeft>
                            <PaddingRight>5pt</PaddingRight>
                          </Style>
                        </Textbox>
                        <ColSpan>2</ColSpan>
                      </CellContents>
                    </TablixCell>
                    <TablixCell />
                    <TablixCell>
                      <CellContents>
                        <Textbox Name="ResLedgEntryQty">
                          <CanGrow>true</CanGrow>
                          <KeepTogether>true</KeepTogether>
                          <Paragraphs>
                            <Paragraph>
                              <TextRuns>
                                <TextRun>
                                  <Value>=Fields!Qty_ResLedgEntry.Value</Value>
                                  <Style>
                                    <FontFamily>Segoe UI</FontFamily>
                                    <FontSize>8pt</FontSize>
                                    <Format>=Fields!Qty_ResLedgEntryFormat.Value</Format>
                                  </Style>
                                </TextRun>
                              </TextRuns>
                              <Style />
                            </Paragraph>
                          </Paragraphs>
                          <ZIndex>12</ZIndex>
                          <Style>
                            <BackgroundColor>="#efefef"</BackgroundColor>
                            <VerticalAlign>Top</VerticalAlign>
                            <PaddingLeft>5pt</PaddingLeft>
                            <PaddingRight>5pt</PaddingRight>
                          </Style>
                        </Textbox>
                      </CellContents>
                    </TablixCell>
                    <TablixCell>
                      <CellContents>
                        <Textbox Name="ResLedgEntryDirectUnitCost">
                          <CanGrow>true</CanGrow>
                          <KeepTogether>true</KeepTogether>
                          <Paragraphs>
                            <Paragraph>
                              <TextRuns>
                                <TextRun>
                                  <Value>=Fields!DirectUnitCost_ResLedgEntry.Value</Value>
                                  <Style>
                                    <FontFamily>Segoe UI</FontFamily>
                                    <FontSize>8pt</FontSize>
                                    <Format>=Fields!DirectUnitCost_ResLedgEntryFormat.Value</Format>
                                  </Style>
                                </TextRun>
                              </TextRuns>
                              <Style>
                                <TextAlign>Right</TextAlign>
                              </Style>
                            </Paragraph>
                          </Paragraphs>
                          <ZIndex>11</ZIndex>
                          <Style>
                            <BackgroundColor>="#efefef"</BackgroundColor>
                            <VerticalAlign>Top</VerticalAlign>
                            <PaddingLeft>5pt</PaddingLeft>
                            <PaddingRight>5pt</PaddingRight>
                          </Style>
                        </Textbox>
                      </CellContents>
                    </TablixCell>
                    <TablixCell>
                      <CellContents>
                        <Textbox Name="TotalDirectCost">
                          <CanGrow>true</CanGrow>
                          <KeepTogether>true</KeepTogether>
                          <Paragraphs>
                            <Paragraph>
                              <TextRuns>
                                <TextRun>
                                  <Value>=Fields!TotalDirectCost.Value</Value>
                                  <Style>
                                    <FontFamily>Segoe UI</FontFamily>
                                    <FontSize>8pt</FontSize>
                                    <Format>=Fields!TotalDirectCostFormat.Value</Format>
                                  </Style>
                                </TextRun>
                              </TextRuns>
                              <Style>
                                <TextAlign>Right</TextAlign>
                              </Style>
                            </Paragraph>
                          </Paragraphs>
                          <ZIndex>10</ZIndex>
                          <Style>
                            <BackgroundColor>="#efefef"</BackgroundColor>
                            <VerticalAlign>Top</VerticalAlign>
                            <PaddingLeft>5pt</PaddingLeft>
                            <PaddingRight>5pt</PaddingRight>
                          </Style>
                        </Textbox>
                      </CellContents>
                    </TablixCell>
                    <TablixCell>
                      <CellContents>
                        <Textbox Name="ResLedgEntryUnitCost">
                          <CanGrow>true</CanGrow>
                          <KeepTogether>true</KeepTogether>
                          <Paragraphs>
                            <Paragraph>
                              <TextRuns>
                                <TextRun>
                                  <Value>=Fields!UnitCost_ResLedgEntry.Value</Value>
                                  <Style>
                                    <FontFamily>Segoe UI</FontFamily>
                                    <FontSize>8pt</FontSize>
                                    <Format>=Fields!UnitCost_ResLedgEntryFormat.Value</Format>
                                  </Style>
                                </TextRun>
                              </TextRuns>
                              <Style>
                                <TextAlign>Right</TextAlign>
                              </Style>
                            </Paragraph>
                          </Paragraphs>
                          <ZIndex>9</ZIndex>
                          <Style>
                            <BackgroundColor>="#efefef"</BackgroundColor>
                            <VerticalAlign>Top</VerticalAlign>
                            <PaddingLeft>5pt</PaddingLeft>
                            <PaddingRight>5pt</PaddingRight>
                          </Style>
                        </Textbox>
                      </CellContents>
                    </TablixCell>
                    <TablixCell>
                      <CellContents>
                        <Textbox Name="ResLedgEntryTotalCost">
                          <CanGrow>true</CanGrow>
                          <KeepTogether>true</KeepTogether>
                          <Paragraphs>
                            <Paragraph>
                              <TextRuns>
                                <TextRun>
                                  <Value>=Fields!TotalCost_ResLedgEntry.Value</Value>
                                  <Style>
                                    <FontFamily>Segoe UI</FontFamily>
                                    <FontSize>8pt</FontSize>
                                    <Format>=Fields!TotalCost_ResLedgEntryFormat.Value</Format>
                                  </Style>
                                </TextRun>
                              </TextRuns>
                              <Style>
                                <TextAlign>Right</TextAlign>
                              </Style>
                            </Paragraph>
                          </Paragraphs>
                          <ZIndex>8</ZIndex>
                          <Style>
                            <BackgroundColor>="#efefef"</BackgroundColor>
                            <VerticalAlign>Top</VerticalAlign>
                            <PaddingLeft>5pt</PaddingLeft>
                          </Style>
                        </Textbox>
                      </CellContents>
                    </TablixCell>
                  </TablixCells>
                </TablixRow>
                <TablixRow>
                  <Height>0.13889in</Height>
                  <TablixCells>
                    <TablixCell>
                      <CellContents>
                        <Textbox Name="textbox2">
                          <KeepTogether>true</KeepTogether>
                          <Paragraphs>
                            <Paragraph>
                              <TextRuns>
                                <TextRun>
                                  <Value />
                                  <Style>
                                    <FontFamily>Segoe UI</FontFamily>
                                    <FontSize>8pt</FontSize>
                                  </Style>
                                </TextRun>
                              </TextRuns>
                              <Style />
                            </Paragraph>
                          </Paragraphs>
                          <rd:DefaultName>textbox2</rd:DefaultName>
                          <ZIndex>31</ZIndex>
                          <Style>
                            <Border>
                              <Style>None</Style>
                            </Border>
                            <TopBorder>
                              <Color>#cccccc</Color>
                              <Style>Solid</Style>
                            </TopBorder>
                          </Style>
                        </Textbox>
                        <ColSpan>3</ColSpan>
                      </CellContents>
                    </TablixCell>
                    <TablixCell />
                    <TablixCell />
                    <TablixCell>
                      <CellContents>
                        <Textbox Name="TotalCaption1">
                          <CanGrow>true</CanGrow>
                          <KeepTogether>true</KeepTogether>
                          <Paragraphs>
                            <Paragraph>
                              <TextRuns>
                                <TextRun>
                                  <Value>=Fields!TotalCaption.Value</Value>
                                  <Style>
                                    <FontFamily>Segoe UI</FontFamily>
                                    <FontSize>8pt</FontSize>
                                    <FontWeight>Bold</FontWeight>
                                  </Style>
                                </TextRun>
                              </TextRuns>
                              <Style>
                                <TextAlign>Left</TextAlign>
                              </Style>
                            </Paragraph>
                          </Paragraphs>
                          <ZIndex>28</ZIndex>
                          <Style>
                            <Border>
                              <Style>None</Style>
                            </Border>
                            <TopBorder>
                              <Color>#cccccc</Color>
                              <Style>Solid</Style>
                            </TopBorder>
                            <VerticalAlign>Top</VerticalAlign>
                            <PaddingLeft>5pt</PaddingLeft>
                            <PaddingRight>5pt</PaddingRight>
                          </Style>
                        </Textbox>
                        <ColSpan>3</ColSpan>
                      </CellContents>
                    </TablixCell>
                    <TablixCell />
                    <TablixCell />
                    <TablixCell>
                      <CellContents>
                        <Textbox Name="SumResLedgEntryQty">
                          <KeepTogether>true</KeepTogether>
                          <Paragraphs>
                            <Paragraph>
                              <TextRuns>
                                <TextRun>
                                  <Value>=Sum(Fields!Qty_ResLedgEntry.Value)</Value>
                                  <Style>
                                    <FontFamily>Segoe UI</FontFamily>
                                    <FontSize>8pt</FontSize>
                                    <FontWeight>Bold</FontWeight>
                                  </Style>
                                </TextRun>
                              </TextRuns>
                              <Style />
                            </Paragraph>
                          </Paragraphs>
                          <ZIndex>27</ZIndex>
                          <Style>
                            <Border>
                              <Style>None</Style>
                            </Border>
                            <TopBorder>
                              <Color>#cccccc</Color>
                              <Style>Solid</Style>
                            </TopBorder>
                            <PaddingLeft>5pt</PaddingLeft>
                            <PaddingRight>5pt</PaddingRight>
                          </Style>
                        </Textbox>
                      </CellContents>
                    </TablixCell>
                    <TablixCell>
                      <CellContents>
                        <Textbox Name="textbox30">
                          <KeepTogether>true</KeepTogether>
                          <Paragraphs>
                            <Paragraph>
                              <TextRuns>
                                <TextRun>
                                  <Value />
                                  <Style>
                                    <FontFamily>Segoe UI</FontFamily>
                                    <FontSize>8pt</FontSize>
                                  </Style>
                                </TextRun>
                              </TextRuns>
                              <Style />
                            </Paragraph>
                          </Paragraphs>
                          <rd:DefaultName>textbox30</rd:DefaultName>
                          <ZIndex>26</ZIndex>
                          <Style>
                            <Border>
                              <Style>None</Style>
                            </Border>
                            <TopBorder>
                              <Color>#cccccc</Color>
                              <Style>Solid</Style>
                            </TopBorder>
                          </Style>
                        </Textbox>
                      </CellContents>
                    </TablixCell>
                    <TablixCell>
                      <CellContents>
                        <Textbox Name="SumTotalDirectCost">
                          <CanGrow>true</CanGrow>
                          <KeepTogether>true</KeepTogether>
                          <Paragraphs>
                            <Paragraph>
                              <TextRuns>
                                <TextRun>
                                  <Value>=Round(Sum(Fields!TotalDirectCost.Value),2)</Value>
                                  <Style>
                                    <FontFamily>Segoe UI</FontFamily>
                                    <FontSize>8pt</FontSize>
                                    <FontWeight>Bold</FontWeight>
                                    <Format>=Fields!TotalDirectCostFormat.Value</Format>
                                  </Style>
                                </TextRun>
                              </TextRuns>
                              <Style>
                                <TextAlign>Right</TextAlign>
                              </Style>
                            </Paragraph>
                          </Paragraphs>
                          <ZIndex>25</ZIndex>
                          <Style>
                            <Border>
                              <Style>None</Style>
                            </Border>
                            <TopBorder>
                              <Color>#cccccc</Color>
                              <Style>Solid</Style>
                            </TopBorder>
                            <VerticalAlign>Top</VerticalAlign>
                            <PaddingLeft>5pt</PaddingLeft>
                            <PaddingRight>5pt</PaddingRight>
                          </Style>
                        </Textbox>
                      </CellContents>
                    </TablixCell>
                    <TablixCell>
                      <CellContents>
                        <Textbox Name="textbox32">
                          <KeepTogether>true</KeepTogether>
                          <Paragraphs>
                            <Paragraph>
                              <TextRuns>
                                <TextRun>
                                  <Value />
                                  <Style>
                                    <FontFamily>Segoe UI</FontFamily>
                                    <FontSize>8pt</FontSize>
                                  </Style>
                                </TextRun>
                              </TextRuns>
                              <Style />
                            </Paragraph>
                          </Paragraphs>
                          <rd:DefaultName>textbox32</rd:DefaultName>
                          <ZIndex>24</ZIndex>
                          <Style>
                            <Border>
                              <Style>None</Style>
                            </Border>
                            <TopBorder>
                              <Color>#cccccc</Color>
                              <Style>Solid</Style>
                            </TopBorder>
                          </Style>
                        </Textbox>
                      </CellContents>
                    </TablixCell>
                    <TablixCell>
                      <CellContents>
                        <Textbox Name="SumResLedgEntryTotalCost">
                          <CanGrow>true</CanGrow>
                          <KeepTogether>true</KeepTogether>
                          <Paragraphs>
                            <Paragraph>
                              <TextRuns>
                                <TextRun>
                                  <Value>=Sum(Fields!TotalCost_ResLedgEntry.Value)</Value>
                                  <Style>
                                    <FontFamily>Segoe UI</FontFamily>
                                    <FontSize>8pt</FontSize>
                                    <FontWeight>Bold</FontWeight>
                                    <Format>=Fields!TotalCost_ResLedgEntryFormat.Value</Format>
                                  </Style>
                                </TextRun>
                              </TextRuns>
                              <Style>
                                <TextAlign>Right</TextAlign>
                              </Style>
                            </Paragraph>
                          </Paragraphs>
                          <ZIndex>23</ZIndex>
                          <Style>
                            <Border>
                              <Style>None</Style>
                            </Border>
                            <TopBorder>
                              <Color>#cccccc</Color>
                              <Style>Solid</Style>
                            </TopBorder>
                            <VerticalAlign>Top</VerticalAlign>
                            <PaddingLeft>5pt</PaddingLeft>
                          </Style>
                        </Textbox>
                      </CellContents>
                    </TablixCell>
                  </TablixCells>
                </TablixRow>
                <TablixRow>
                  <Height>0.13889in</Height>
                  <TablixCells>
                    <TablixCell>
                      <CellContents>
                        <Textbox Name="Textbox92">
                          <CanGrow>true</CanGrow>
                          <KeepTogether>true</KeepTogether>
                          <Paragraphs>
                            <Paragraph>
                              <TextRuns>
                                <TextRun>
                                  <Value />
                                  <Style>
                                    <FontFamily>Segoe UI</FontFamily>
                                    <FontSize>8pt</FontSize>
                                  </Style>
                                </TextRun>
                              </TextRuns>
                              <Style />
                            </Paragraph>
                          </Paragraphs>
                          <rd:DefaultName>Textbox92</rd:DefaultName>
                          <Style>
                            <Border>
                              <Style>None</Style>
                            </Border>
                          </Style>
                        </Textbox>
                        <ColSpan>11</ColSpan>
                      </CellContents>
                    </TablixCell>
                    <TablixCell />
                    <TablixCell />
                    <TablixCell />
                    <TablixCell />
                    <TablixCell />
                    <TablixCell />
                    <TablixCell />
                    <TablixCell />
                    <TablixCell />
                    <TablixCell />
                  </TablixCells>
                </TablixRow>
                <TablixRow>
                  <Height>0.06944in</Height>
                  <TablixCells>
                    <TablixCell>
                      <CellContents>
                        <Textbox Name="Textbox3">
                          <CanGrow>true</CanGrow>
                          <KeepTogether>true</KeepTogether>
                          <Paragraphs>
                            <Paragraph>
                              <TextRuns>
                                <TextRun>
                                  <Value />
                                  <Style>
                                    <FontFamily>Segoe UI</FontFamily>
                                    <FontSize>8pt</FontSize>
                                    <FontWeight>Bold</FontWeight>
                                  </Style>
                                </TextRun>
                              </TextRuns>
                              <Style />
                            </Paragraph>
                          </Paragraphs>
                          <rd:DefaultName>Textbox3</rd:DefaultName>
                          <Style>
                            <Border />
                            <VerticalAlign>Top</VerticalAlign>
                            <PaddingRight>5pt</PaddingRight>
                          </Style>
                        </Textbox>
                        <ColSpan>8</ColSpan>
                      </CellContents>
                    </TablixCell>
                    <TablixCell />
                    <TablixCell />
                    <TablixCell />
                    <TablixCell />
                    <TablixCell />
                    <TablixCell />
                    <TablixCell />
                    <TablixCell>
                      <CellContents>
                        <Textbox Name="Textbox12">
                          <CanGrow>true</CanGrow>
                          <KeepTogether>true</KeepTogether>
                          <Paragraphs>
                            <Paragraph>
                              <TextRuns>
                                <TextRun>
                                  <Value />
                                  <Style>
                                    <FontFamily>Segoe UI</FontFamily>
                                    <FontSize>8pt</FontSize>
                                    <FontWeight>Bold</FontWeight>
                                  </Style>
                                </TextRun>
                              </TextRuns>
                              <Style />
                            </Paragraph>
                          </Paragraphs>
                          <rd:DefaultName>Textbox12</rd:DefaultName>
                          <Style>
                            <Border>
                              <Style>None</Style>
                            </Border>
                            <TopBorder>
                              <Style>Solid</Style>
                            </TopBorder>
                            <VerticalAlign>Top</VerticalAlign>
                            <PaddingLeft>5pt</PaddingLeft>
                            <PaddingRight>5pt</PaddingRight>
                          </Style>
                        </Textbox>
                      </CellContents>
                    </TablixCell>
                    <TablixCell>
                      <CellContents>
                        <Textbox Name="Textbox13">
                          <CanGrow>true</CanGrow>
                          <KeepTogether>true</KeepTogether>
                          <Paragraphs>
                            <Paragraph>
                              <TextRuns>
                                <TextRun>
                                  <Value />
                                  <Style>
                                    <FontFamily>Segoe UI</FontFamily>
                                    <FontSize>8pt</FontSize>
                                  </Style>
                                </TextRun>
                              </TextRuns>
                              <Style />
                            </Paragraph>
                          </Paragraphs>
                          <rd:DefaultName>Textbox13</rd:DefaultName>
                          <Style>
                            <Border />
                          </Style>
                        </Textbox>
                      </CellContents>
                    </TablixCell>
                    <TablixCell>
                      <CellContents>
                        <Textbox Name="Textbox14">
                          <CanGrow>true</CanGrow>
                          <KeepTogether>true</KeepTogether>
                          <Paragraphs>
                            <Paragraph>
                              <TextRuns>
                                <TextRun>
                                  <Value />
                                  <Style>
                                    <FontFamily>Segoe UI</FontFamily>
                                    <FontSize>8pt</FontSize>
                                    <FontWeight>Bold</FontWeight>
                                  </Style>
                                </TextRun>
                              </TextRuns>
                              <Style />
                            </Paragraph>
                          </Paragraphs>
                          <rd:DefaultName>Textbox14</rd:DefaultName>
                          <Style>
                            <Border>
                              <Style>None</Style>
                            </Border>
                            <TopBorder>
                              <Style>Solid</Style>
                            </TopBorder>
                            <VerticalAlign>Top</VerticalAlign>
                            <PaddingLeft>5pt</PaddingLeft>
                          </Style>
                        </Textbox>
                      </CellContents>
                    </TablixCell>
                  </TablixCells>
                </TablixRow>
                <TablixRow>
                  <Height>0.13889in</Height>
                  <TablixCells>
                    <TablixCell>
                      <CellContents>
                        <Textbox Name="Textbox15">
                          <CanGrow>true</CanGrow>
                          <KeepTogether>true</KeepTogether>
                          <Paragraphs>
                            <Paragraph>
                              <TextRuns>
                                <TextRun>
                                  <Value />
                                  <Style>
                                    <FontFamily>Segoe UI</FontFamily>
                                    <FontSize>8pt</FontSize>
                                    <FontWeight>Bold</FontWeight>
                                  </Style>
                                </TextRun>
                              </TextRuns>
                              <Style />
                            </Paragraph>
                          </Paragraphs>
                          <rd:DefaultName>Textbox15</rd:DefaultName>
                          <Style>
                            <Border />
                            <VerticalAlign>Top</VerticalAlign>
                            <PaddingRight>5pt</PaddingRight>
                          </Style>
                        </Textbox>
                        <ColSpan>2</ColSpan>
                      </CellContents>
                    </TablixCell>
                    <TablixCell />
                    <TablixCell>
                      <CellContents>
                        <Textbox Name="textbox53">
                          <KeepTogether>true</KeepTogether>
                          <Paragraphs>
                            <Paragraph>
                              <TextRuns>
                                <TextRun>
                                  <Value />
                                  <Style>
                                    <FontFamily>Segoe UI</FontFamily>
                                    <FontSize>8pt</FontSize>
                                  </Style>
                                </TextRun>
                              </TextRuns>
                              <Style />
                            </Paragraph>
                          </Paragraphs>
                          <rd:DefaultName>textbox53</rd:DefaultName>
                          <ZIndex>46</ZIndex>
                          <Style>
                            <Border />
                          </Style>
                        </Textbox>
                      </CellContents>
                    </TablixCell>
                    <TablixCell>
                      <CellContents>
                        <Textbox Name="TotalDirectCostCaption1">
                          <CanGrow>true</CanGrow>
                          <KeepTogether>true</KeepTogether>
                          <Paragraphs>
                            <Paragraph>
                              <TextRuns>
                                <TextRun>
                                  <Value>=Fields!TotalCaption.Value</Value>
                                  <Style>
                                    <FontFamily>Segoe UI</FontFamily>
                                    <FontSize>8pt</FontSize>
                                    <FontWeight>Bold</FontWeight>
                                  </Style>
                                </TextRun>
                              </TextRuns>
                              <Style>
                                <TextAlign>Left</TextAlign>
                              </Style>
                            </Paragraph>
                          </Paragraphs>
                          <ZIndex>45</ZIndex>
                          <Style>
                            <Border />
                            <VerticalAlign>Top</VerticalAlign>
                            <PaddingLeft>5pt</PaddingLeft>
                            <PaddingRight>5pt</PaddingRight>
                          </Style>
                        </Textbox>
                        <ColSpan>3</ColSpan>
                      </CellContents>
                    </TablixCell>
                    <TablixCell />
                    <TablixCell />
                    <TablixCell>
                      <CellContents>
                        <Textbox Name="Textbox18">
                          <CanGrow>true</CanGrow>
                          <KeepTogether>true</KeepTogether>
                          <Paragraphs>
                            <Paragraph>
                              <TextRuns>
                                <TextRun>
                                  <Value />
                                  <Style>
                                    <FontFamily>Segoe UI</FontFamily>
                                    <FontSize>8pt</FontSize>
                                    <FontWeight>Bold</FontWeight>
                                  </Style>
                                </TextRun>
                              </TextRuns>
                              <Style>
                                <TextAlign>Right</TextAlign>
                              </Style>
                            </Paragraph>
                          </Paragraphs>
                          <rd:DefaultName>Textbox18</rd:DefaultName>
                          <Style>
                            <Border />
                            <VerticalAlign>Top</VerticalAlign>
                            <PaddingLeft>5pt</PaddingLeft>
                            <PaddingRight>5pt</PaddingRight>
                          </Style>
                        </Textbox>
                      </CellContents>
                    </TablixCell>
                    <TablixCell>
                      <CellContents>
                        <Textbox Name="Textbox20">
                          <CanGrow>true</CanGrow>
                          <KeepTogether>true</KeepTogether>
                          <Paragraphs>
                            <Paragraph>
                              <TextRuns>
                                <TextRun>
                                  <Value />
                                  <Style>
                                    <FontFamily>Segoe UI</FontFamily>
                                    <FontSize>8pt</FontSize>
                                    <FontWeight>Bold</FontWeight>
                                  </Style>
                                </TextRun>
                              </TextRuns>
                              <Style>
                                <TextAlign>Right</TextAlign>
                              </Style>
                            </Paragraph>
                          </Paragraphs>
                          <rd:DefaultName>Textbox20</rd:DefaultName>
                          <Style>
                            <Border />
                            <VerticalAlign>Top</VerticalAlign>
                            <PaddingLeft>5pt</PaddingLeft>
                            <PaddingRight>5pt</PaddingRight>
                          </Style>
                        </Textbox>
                      </CellContents>
                    </TablixCell>
                    <TablixCell>
                      <CellContents>
                        <Textbox Name="TotalDirectCost2">
                          <CanGrow>true</CanGrow>
                          <KeepTogether>true</KeepTogether>
                          <Paragraphs>
                            <Paragraph>
                              <TextRuns>
                                <TextRun>
                                  <Value>=Sum(Fields!TotalDirectCost.Value)</Value>
                                  <Style>
                                    <FontFamily>Segoe UI</FontFamily>
                                    <FontSize>8pt</FontSize>
                                    <FontWeight>Bold</FontWeight>
                                    <Format>=Fields!TotalDirectCostFormat.Value</Format>
                                  </Style>
                                </TextRun>
                              </TextRuns>
                              <Style>
                                <TextAlign>Right</TextAlign>
                              </Style>
                            </Paragraph>
                          </Paragraphs>
                          <ZIndex>42</ZIndex>
                          <Style>
                            <Border />
                            <VerticalAlign>Top</VerticalAlign>
                            <PaddingLeft>5pt</PaddingLeft>
                            <PaddingRight>5pt</PaddingRight>
                          </Style>
                        </Textbox>
                      </CellContents>
                    </TablixCell>
                    <TablixCell>
                      <CellContents>
                        <Textbox Name="textbox60">
                          <KeepTogether>true</KeepTogether>
                          <Paragraphs>
                            <Paragraph>
                              <TextRuns>
                                <TextRun>
                                  <Value />
                                  <Style>
                                    <FontFamily>Segoe UI</FontFamily>
                                    <FontSize>8pt</FontSize>
                                  </Style>
                                </TextRun>
                              </TextRuns>
                              <Style />
                            </Paragraph>
                          </Paragraphs>
                          <rd:DefaultName>textbox60</rd:DefaultName>
                          <ZIndex>41</ZIndex>
                          <Style>
                            <Border />
                          </Style>
                        </Textbox>
                      </CellContents>
                    </TablixCell>
                    <TablixCell>
                      <CellContents>
                        <Textbox Name="ResLedgEntryTotalCost1">
                          <CanGrow>true</CanGrow>
                          <KeepTogether>true</KeepTogether>
                          <Paragraphs>
                            <Paragraph>
                              <TextRuns>
                                <TextRun>
                                  <Value>=Sum(Fields!TotalCost_ResLedgEntry.Value)</Value>
                                  <Style>
                                    <FontFamily>Segoe UI</FontFamily>
                                    <FontSize>8pt</FontSize>
                                    <FontWeight>Bold</FontWeight>
                                    <Format>=Fields!TotalDirectCostFormat.Value</Format>
                                  </Style>
                                </TextRun>
                              </TextRuns>
                              <Style>
                                <TextAlign>Right</TextAlign>
                              </Style>
                            </Paragraph>
                          </Paragraphs>
                          <ZIndex>40</ZIndex>
                          <Style>
                            <Border />
                            <VerticalAlign>Top</VerticalAlign>
                            <PaddingLeft>5pt</PaddingLeft>
                          </Style>
                        </Textbox>
                      </CellContents>
                    </TablixCell>
                  </TablixCells>
                </TablixRow>
              </TablixRows>
            </TablixBody>
            <TablixColumnHierarchy>
              <TablixMembers>
                <TablixMember />
                <TablixMember />
                <TablixMember />
                <TablixMember />
                <TablixMember />
                <TablixMember />
                <TablixMember />
                <TablixMember />
                <TablixMember />
                <TablixMember />
                <TablixMember />
              </TablixMembers>
            </TablixColumnHierarchy>
            <TablixRowHierarchy>
              <TablixMembers>
                <TablixMember>
                  <KeepWithGroup>After</KeepWithGroup>
                  <RepeatOnNewPage>true</RepeatOnNewPage>
                  <KeepTogether>true</KeepTogether>
                </TablixMember>
                <TablixMember>
                  <KeepWithGroup>After</KeepWithGroup>
                  <RepeatOnNewPage>true</RepeatOnNewPage>
                </TablixMember>
                <TablixMember>
                  <KeepWithGroup>After</KeepWithGroup>
                  <RepeatOnNewPage>true</RepeatOnNewPage>
                </TablixMember>
                <TablixMember>
                  <Group Name="Table1_Group2">
                    <GroupExpressions>
                      <GroupExpression>=Fields!No_Resource.Value</GroupExpression>
                    </GroupExpressions>
                    <PageBreak>
                      <BreakLocation>Between</BreakLocation>
                    </PageBreak>
                  </Group>
                  <TablixMembers>
                    <TablixMember>
                      <Visibility>
                        <Hidden>=IIF(First(Fields!No1_Resource.Value) =  "" AND First(Fields!Name_Resource.Value) = "", TRUE,FALSE)</Hidden>
                      </Visibility>
                      <KeepWithGroup>After</KeepWithGroup>
                      <KeepTogether>true</KeepTogether>
                    </TablixMember>
                    <TablixMember>
                      <Group Name="Table1_Group">
                        <GroupExpressions>
                          <GroupExpression>=Fields!UmoCost_ResLedgEntry.Value</GroupExpression>
                          <GroupExpression>=Fields!Chargeable_ResLedgEntry.Value</GroupExpression>
                        </GroupExpressions>
                      </Group>
                      <TablixMembers>
                        <TablixMember>
                          <Visibility>
                            <Hidden>=IIF(First(Fields!UmoCost_ResLedgEntry.Value) = "",TRUE,FALSE)</Hidden>
                          </Visibility>
                          <KeepWithGroup>After</KeepWithGroup>
                          <KeepTogether>true</KeepTogether>
                        </TablixMember>
                        <TablixMember>
                          <Group Name="Table1_Details_Group">
                            <DataElementName>Detail</DataElementName>
                          </Group>
                          <TablixMembers>
                            <TablixMember>
                              <Visibility>
                                <Hidden>=IIF(Fields!Qty_ResLedgEntry.Value = 0, True,False)</Hidden>
                              </Visibility>
                            </TablixMember>
                          </TablixMembers>
                          <DataElementName>Detail_Collection</DataElementName>
                          <DataElementOutput>Output</DataElementOutput>
                          <KeepTogether>true</KeepTogether>
                        </TablixMember>
                        <TablixMember>
                          <Visibility>
                            <Hidden>=IIF(First(Fields!TotalCaption.Value) = "", True,False)</Hidden>
                          </Visibility>
                          <KeepWithGroup>Before</KeepWithGroup>
                          <KeepTogether>true</KeepTogether>
                        </TablixMember>
                        <TablixMember>
                          <Visibility>
                            <Hidden>=IIF(First(Fields!TotalCaption.Value) = "", True,False)</Hidden>
                          </Visibility>
                          <KeepWithGroup>Before</KeepWithGroup>
                        </TablixMember>
                      </TablixMembers>
                    </TablixMember>
                    <TablixMember>
                      <Visibility>
                        <Hidden>=IIF(First(Fields!TotalCaption.Value)= "",True,False)</Hidden>
                      </Visibility>
                      <KeepWithGroup>Before</KeepWithGroup>
                    </TablixMember>
                    <TablixMember>
                      <Visibility>
                        <Hidden>=IIF(First(Fields!TotalCaption.Value)= "",True,False)</Hidden>
                      </Visibility>
                      <KeepWithGroup>Before</KeepWithGroup>
                      <KeepTogether>true</KeepTogether>
                    </TablixMember>
                  </TablixMembers>
                </TablixMember>
              </TablixMembers>
            </TablixRowHierarchy>
            <DataSetName>DataSet_Result</DataSetName>
            <PageBreak>
              <BreakLocation>End</BreakLocation>
            </PageBreak>
            <Height>2.9986cm</Height>
            <Width>6.981in</Width>
            <Style />
          </Tablix>
        </ReportItems>
        <Height>2.9986cm</Height>
        <Style />
      </Body>
      <Width>17.73175cm</Width>
      <Page>
        <PageHeader>
          <Height>2.64663cm</Height>
          <PrintOnFirstPage>true</PrintOnFirstPage>
          <PrintOnLastPage>true</PrintOnLastPage>
          <ReportItems>
            <Textbox Name="ResLedEntryTABLECAPTIONFilter">
              <KeepTogether>true</KeepTogether>
              <Paragraphs>
                <Paragraph>
                  <TextRuns>
                    <TextRun>
                      <Value>=First(Fields!ResLedEntrytableCaptFilt.Value,"DataSet_Result")</Value>
                      <Style>
                        <FontFamily>Segoe UI</FontFamily>
                        <FontSize>8pt</FontSize>
                      </Style>
                    </TextRun>
                  </TextRuns>
                  <Style />
                </Paragraph>
              </Paragraphs>
              <Top>2.29385cm</Top>
              <Height>11pt</Height>
              <Width>6.981in</Width>
              <Visibility>
                <Hidden>= IIF(Fields!ResLedgerEntryFilter.Value = "",True,False)</Hidden>
              </Visibility>
              <DataElementOutput>NoOutput</DataElementOutput>
              <Style>
                <Border />
                <VerticalAlign>Top</VerticalAlign>
              </Style>
            </Textbox>
            <Textbox Name="ResTABLECAPTIONResFilter">
              <KeepTogether>true</KeepTogether>
              <Paragraphs>
                <Paragraph>
                  <TextRuns>
                    <TextRun>
                      <Value>=Fields!ResTableCaptResFilter.Value</Value>
                      <Style>
                        <FontFamily>Segoe UI</FontFamily>
                        <FontSize>8pt</FontSize>
                      </Style>
                    </TextRun>
                  </TextRuns>
                  <Style />
                </Paragraph>
              </Paragraphs>
              <Top>1.8825cm</Top>
              <Height>11pt</Height>
              <Width>6.981in</Width>
              <ZIndex>1</ZIndex>
              <Visibility>
                <Hidden>= IIF (Fields!ResFilter.Value = "",True,False)</Hidden>
              </Visibility>
              <DataElementOutput>NoOutput</DataElementOutput>
              <Style>
                <Border />
                <VerticalAlign>Top</VerticalAlign>
              </Style>
            </Textbox>
            <Textbox Name="CurrReportPAGENOCaption">
              <KeepTogether>true</KeepTogether>
              <Paragraphs>
                <Paragraph>
                  <TextRuns>
                    <TextRun>
                      <Value>=First(Fields!CurrReportPageNoCaption.Value,"DataSet_Result")</Value>
                      <Style>
                        <FontFamily>Segoe UI</FontFamily>
                        <FontSize>8pt</FontSize>
                      </Style>
                    </TextRun>
                  </TextRuns>
                  <Style>
                    <TextAlign>Right</TextAlign>
                  </Style>
                </Paragraph>
              </Paragraphs>
              <Top>0.423cm</Top>
              <Left>14.36025cm</Left>
              <Height>11pt</Height>
              <Width>2.7365cm</Width>
              <ZIndex>2</ZIndex>
              <Style>
                <Border />
                <VerticalAlign>Top</VerticalAlign>
              </Style>
            </Textbox>
            <Textbox Name="ResCostBreakdownCaption">
              <KeepTogether>true</KeepTogether>
              <Paragraphs>
                <Paragraph>
                  <TextRuns>
                    <TextRun>
                      <Value>=First(Fields!ResCostBreakdownCaption.Value,"DataSet_Result")</Value>
                      <Style>
                        <FontFamily>Segoe UI</FontFamily>
                        <FontSize>14pt</FontSize>
                        <FontWeight>Bold</FontWeight>
                      </Style>
                    </TextRun>
                  </TextRuns>
                  <Style />
                </Paragraph>
              </Paragraphs>
              <Height>20pt</Height>
              <Width>13.66175cm</Width>
              <ZIndex>3</ZIndex>
              <Style>
                <Border />
                <VerticalAlign>Top</VerticalAlign>
              </Style>
            </Textbox>
            <Textbox Name="COMPANYNAME">
              <KeepTogether>true</KeepTogether>
              <Paragraphs>
                <Paragraph>
                  <TextRuns>
                    <TextRun>
                      <Value>=First(Fields!CompanyName.Value,"DataSet_Result")</Value>
                      <Style>
                        <FontFamily>Segoe UI</FontFamily>
                        <FontSize>8pt</FontSize>
                      </Style>
                    </TextRun>
                  </TextRuns>
                  <Style />
                </Paragraph>
              </Paragraphs>
              <Top>0.7405cm</Top>
              <Height>11pt</Height>
              <Width>13.66175cm</Width>
              <ZIndex>4</ZIndex>
              <Style>
                <Border />
                <VerticalAlign>Top</VerticalAlign>
              </Style>
            </Textbox>
            <Textbox Name="ExecutionTimeTextBox">
              <KeepTogether>true</KeepTogether>
              <Paragraphs>
                <Paragraph>
                  <TextRuns>
                    <TextRun>
                      <Value>=First(Fields!TodayFormatted.Value,"DataSet_Result")</Value>
                      <Style>
                        <FontFamily>Segoe UI</FontFamily>
                        <FontSize>8pt</FontSize>
                        <Format>g</Format>
                      </Style>
                    </TextRun>
                  </TextRuns>
                  <Style>
                    <TextAlign>Right</TextAlign>
                  </Style>
                </Paragraph>
              </Paragraphs>
              <Left>14.36025cm</Left>
              <Height>11pt</Height>
              <Width>3.25cm</Width>
              <ZIndex>5</ZIndex>
              <Style>
                <VerticalAlign>Top</VerticalAlign>
              </Style>
            </Textbox>
            <Textbox Name="UserIdTextBox">
              <KeepTogether>true</KeepTogether>
              <Paragraphs>
                <Paragraph>
                  <TextRuns>
                    <TextRun>
                      <Value>=User!UserID</Value>
                      <Style>
                        <FontFamily>Segoe UI</FontFamily>
                        <FontSize>8pt</FontSize>
                      </Style>
                    </TextRun>
                  </TextRuns>
                  <Style>
                    <TextAlign>Right</TextAlign>
                  </Style>
                </Paragraph>
              </Paragraphs>
              <Top>0.846cm</Top>
              <Left>14.36025cm</Left>
              <Height>11pt</Height>
              <Width>3.25cm</Width>
              <ZIndex>6</ZIndex>
              <Visibility>
                <Hidden>=IIF(Fields!CurrReportPageNoCaption.Value = "",TRUE,FALSE)</Hidden>
              </Visibility>
              <DataElementOutput>NoOutput</DataElementOutput>
              <Style>
                <Border />
                <VerticalAlign>Top</VerticalAlign>
              </Style>
            </Textbox>
            <Textbox Name="PageNumberTextBox">
              <KeepTogether>true</KeepTogether>
              <Paragraphs>
                <Paragraph>
                  <TextRuns>
                    <TextRun>
                      <Value>=Code.GetGroupPageNumber((IIF(Code.IsNewPage(Fields!No_Resource.Value,Fields!UmoCost_ResLedgEntry.Value),True,False)),Globals!PageNumber)</Value>
                      <Style>
                        <FontFamily>Segoe UI</FontFamily>
                        <FontSize>8pt</FontSize>
                      </Style>
                    </TextRun>
                  </TextRuns>
                  <Style>
                    <TextAlign>Right</TextAlign>
                  </Style>
                </Paragraph>
              </Paragraphs>
              <Top>0.423cm</Top>
              <Left>17.16025cm</Left>
              <Height>11pt</Height>
              <Width>0.45cm</Width>
              <ZIndex>7</ZIndex>
              <Visibility>
                <Hidden>=IIF(Fields!CurrReportPageNoCaption.Value = "",TRUE,FALSE)</Hidden>
              </Visibility>
              <DataElementOutput>NoOutput</DataElementOutput>
              <Style>
                <Border />
                <VerticalAlign>Top</VerticalAlign>
              </Style>
            </Textbox>
          </ReportItems>
          <Style />
        </PageHeader>
        <PageHeight>29.7cm</PageHeight>
        <PageWidth>21cm</PageWidth>
        <InteractiveHeight>11in</InteractiveHeight>
        <InteractiveWidth>8.5in</InteractiveWidth>
        <LeftMargin>1.76388cm</LeftMargin>
        <RightMargin>1.05834cm</RightMargin>
        <TopMargin>1.05834cm</TopMargin>
        <BottomMargin>1.48166cm</BottomMargin>
        <ColumnSpacing>1.27cm</ColumnSpacing>
        <Style />
      </Page>
    </ReportSection>
  </ReportSections>
  <ReportParameters>
    <ReportParameter Name="UmoCost_ResLedgEntryCaption">
      <DataType>String</DataType>
      <DefaultValue>
        <Values>
          <Value>UmoCost_ResLedgEntryCaption</Value>
        </Values>
      </DefaultValue>
      <Prompt>UmoCost_ResLedgEntryCaption</Prompt>
    </ReportParameter>
    <ReportParameter Name="Desc_ResLedgEntryCaption">
      <DataType>String</DataType>
      <DefaultValue>
        <Values>
          <Value>Desc_ResLedgEntryCaption</Value>
        </Values>
      </DefaultValue>
      <Prompt>Desc_ResLedgEntryCaption</Prompt>
    </ReportParameter>
    <ReportParameter Name="WorkTypeCode_ResLedgEntryCaption">
      <DataType>String</DataType>
      <DefaultValue>
        <Values>
          <Value>WorkTypeCode_ResLedgEntryCaption</Value>
        </Values>
      </DefaultValue>
      <Prompt>WorkTypeCode_ResLedgEntryCaption</Prompt>
    </ReportParameter>
    <ReportParameter Name="Qty_ResLedgEntryCaption">
      <DataType>String</DataType>
      <DefaultValue>
        <Values>
          <Value>Qty_ResLedgEntryCaption</Value>
        </Values>
      </DefaultValue>
      <Prompt>Qty_ResLedgEntryCaption</Prompt>
    </ReportParameter>
    <ReportParameter Name="DirectUnitCost_ResLedgEntryCaption">
      <DataType>String</DataType>
      <DefaultValue>
        <Values>
          <Value>DirectUnitCost_ResLedgEntryCaption</Value>
        </Values>
      </DefaultValue>
      <Prompt>DirectUnitCost_ResLedgEntryCaption</Prompt>
    </ReportParameter>
    <ReportParameter Name="UnitCost_ResLedgEntryCaption">
      <DataType>String</DataType>
      <DefaultValue>
        <Values>
          <Value>UnitCost_ResLedgEntryCaption</Value>
        </Values>
      </DefaultValue>
      <Prompt>UnitCost_ResLedgEntryCaption</Prompt>
    </ReportParameter>
    <ReportParameter Name="TotalCost_ResLedgEntryCaption">
      <DataType>String</DataType>
      <DefaultValue>
        <Values>
          <Value>TotalCost_ResLedgEntryCaption</Value>
        </Values>
      </DefaultValue>
      <Prompt>TotalCost_ResLedgEntryCaption</Prompt>
    </ReportParameter>
  </ReportParameters>
  <Code>Public Function BlankZero(ByVal Value As Decimal)
    if Value = 0 then
        Return ""
    end if
    Return Value
End Function

Public Function BlankPos(ByVal Value As Decimal)
    if Value &gt; 0 then
        Return ""
    end if
    Return Value
End Function

Public Function BlankZeroAndPos(ByVal Value As Decimal)
    if Value &gt;= 0 then
        Return ""
    end if
    Return Value
End Function

Public Function BlankNeg(ByVal Value As Decimal)
    if Value &lt; 0 then
        Return ""
    end if
    Return Value
End Function

Public Function BlankNegAndZero(ByVal Value As Decimal)
    if Value &lt;= 0 then
        Return ""
    end if
    Return Value
End Function

Shared offset as Integer
Shared newPage as Object
Shared currentgroup1 as Object
Shared currentgroup2 as Object

Public Function GetGroupPageNumber(NewPage as Boolean, pagenumber as Integer) as Object
  If NewPage
    offset = pagenumber - 1
  End If
  Return pagenumber - offset
End Function

Public Function IsNewPage(group1 as Object, group2 as Object) As Boolean
newPage = FALSE
If Not (group1 = currentgroup1)
   NewPage = TRUE
   currentgroup2 = group2
   currentgroup1 = group1
ELSE
   If Not (group2 = currentgroup2)
      NewPage = TRUE
      currentgroup2 = group2
   End If
End If
Return NewPage
End Function
</Code>
  <Language>=User!Language</Language>
  <ConsumeContainerWhitespace>true</ConsumeContainerWhitespace>
  <rd:ReportUnitType>Cm</rd:ReportUnitType>
  <rd:ReportID>67f5dee7-c826-4a1d-8542-5231cf342002</rd:ReportID>
</Report>
    END_OF_RDLDATA
  }
}

