OBJECT Report 1093 Job Create Sales Invoice
{
  OBJECT-PROPERTIES
  {
    Date=07/09/12;
    Time=12:00:00;
    Version List=NAVW17.00;
  }
  PROPERTIES
  {
    CaptionML=ENU=Job Create Sales Invoice;
    ProcessingOnly=Yes;
    OnPreReport=BEGIN
                  JobCalcBatches.BatchError(PostingDate,Text000);
                  InvoicePerTask := JobChoice = JobChoice::"Job Task";
                  JobCreateInvoice.DeleteSalesInvoiceBuffer;
                END;

    OnPostReport=BEGIN
                   JobCalcBatches.EndCreateInvoice(NoOfInvoices);
                 END;

  }
  DATASET
  {
    { 2969;    ;DataItem;                    ;
               DataItemTable=Table1001;
               DataItemTableView=SORTING(Job No.,Job Task No.);
               OnPreDataItem=BEGIN
                               NoOfInvoices := 0;
                               OldJobNo := '';
                               OldJTNo := '';
                             END;

               OnAfterGetRecord=BEGIN
                                  JobCreateInvoice.CreateSalesInvoiceJT(
                                    "Job Task",PostingDate,InvoicePerTask,NoOfInvoices,OldJobNo,OldJTNo,FALSE);
                                END;

               OnPostDataItem=BEGIN
                                JobCreateInvoice.CreateSalesInvoiceJT(
                                  "Job Task",PostingDate,InvoicePerTask,NoOfInvoices,OldJobNo,OldJTNo,TRUE);
                              END;

               ReqFilterFields=Job No.,Job Task No.,Planning Date Filter }

  }
  REQUESTPAGE
  {
    PROPERTIES
    {
      OnOpenPage=BEGIN
                   PostingDate := WORKDATE;
                 END;

    }
    CONTROLS
    {
      { 1900000001;0;Container;
                  ContainerType=ContentArea }

      { 1900000002;1;Group  ;
                  CaptionML=ENU=Options }

      { 7   ;2   ;Field     ;
                  CaptionML=ENU=Posting Date;
                  SourceExpr=PostingDate }

      { 1   ;2   ;Field     ;
                  CaptionML=ENU=Create Invoice per;
                  OptionCaptionML=ENU=Job,Job Task;
                  SourceExpr=JobChoice }

    }
  }
  LABELS
  {
  }
  CODE
  {
    VAR
      JobCreateInvoice@1001 : Codeunit 1002;
      JobCalcBatches@1000 : Codeunit 1005;
      PostingDate@1003 : Date;
      NoOfInvoices@1002 : Integer;
      InvoicePerTask@1004 : Boolean;
      JobChoice@1005 : 'Job,Job Task';
      OldJobNo@1006 : Code[20];
      OldJTNo@1007 : Code[20];
      Text000@1008 : TextConst '@@@=A;ENU=A';

    BEGIN
    END.
  }
  RDLDATA
  {
  }
}

