OBJECT Report 31 VAT Exceptions
{
  OBJECT-PROPERTIES
  {
    Date=23/09/13;
    Time=12:00:00;
    Version List=NAVW17.10;
  }
  PROPERTIES
  {
    CaptionML=ENU=VAT Exceptions;
    OnPreReport=BEGIN
                  GLSetup.GET;
                  VATEntryFilter := "VAT Entry".GETFILTERS;
                  IF UseAmtsInAddCurr THEN
                    AddCurrAmtTxt := STRSUBSTNO(Text000,GLSetup."Additional Reporting Currency");
                  MinVATDiffText := STRSUBSTNO(Text001,"VAT Entry".FIELDCAPTION("VAT Difference"));
                END;

  }
  DATASET
  {
    { 7612;    ;DataItem;                    ;
               DataItemTable=Table254;
               OnPreDataItem=BEGIN
                               IF UseAmtsInAddCurr THEN
                                 SETFILTER("Add.-Curr. VAT Difference",'<=%1|>=%2',-ABS(MinVATDifference),ABS(MinVATDifference))
                               ELSE
                                 SETFILTER("VAT Difference",'<=%1|>=%2',-ABS(MinVATDifference),ABS(MinVATDifference));
                             END;

               OnAfterGetRecord=BEGIN
                                  IF NOT PrintReversedEntries THEN
                                    IF Reversed THEN
                                      CurrReport.SKIP;
                                  IF UseAmtsInAddCurr THEN BEGIN
                                    Base := "Additional-Currency Base";
                                    Amount := "Additional-Currency Amount";
                                    "VAT Difference" := "Add.-Curr. VAT Difference";
                                  END;
                                END;

               ReqFilterFields=Posting Date }

    { 7   ;1   ;Column  ;CompanyName         ;
               SourceExpr=COMPANYNAME }

    { 1   ;1   ;Column  ;Filter1_VatEntry    ;
               SourceExpr=TABLECAPTION + ': ' + VATEntryFilter }

    { 2   ;1   ;Column  ;MinVatDifference    ;
               SourceExpr=MinVATDifference;
               AutoFormatType=1;
               AutoFormatExpr=GetCurrency }

    { 4   ;1   ;Column  ;MinVatDiffText      ;
               SourceExpr=MinVATDiffText }

    { 76  ;1   ;Column  ;AddCurrAmt_VatEntry ;
               SourceExpr=AddCurrAmtTxt }

    { 32  ;1   ;Column  ;PostingDate_VatEntry;
               SourceExpr=FORMAT("Posting Date") }

    { 33  ;1   ;Column  ;DocumentType_VatEntry;
               SourceExpr="Document Type" }

    { 34  ;1   ;Column  ;DocumentNo_VatEntry ;
               IncludeCaption=Yes;
               SourceExpr="Document No." }

    { 35  ;1   ;Column  ;Type_VatEntry       ;
               IncludeCaption=Yes;
               SourceExpr=Type }

    { 36  ;1   ;Column  ;GenBusPostGrp_VatEntry;
               SourceExpr="Gen. Bus. Posting Group" }

    { 37  ;1   ;Column  ;GenProdPostGrp_VatEntry;
               SourceExpr="Gen. Prod. Posting Group" }

    { 38  ;1   ;Column  ;Base_VatEntry       ;
               IncludeCaption=Yes;
               SourceExpr=Base;
               AutoFormatType=1;
               AutoFormatExpr=GetCurrency }

    { 39  ;1   ;Column  ;Amount_VatEntry     ;
               IncludeCaption=Yes;
               SourceExpr=Amount;
               AutoFormatType=1;
               AutoFormatExpr=GetCurrency }

    { 40  ;1   ;Column  ;VatCalType_VatEntry ;
               SourceExpr="VAT Calculation Type" }

    { 41  ;1   ;Column  ;BillToPay_VatEntry  ;
               IncludeCaption=Yes;
               SourceExpr="Bill-to/Pay-to No." }

    { 42  ;1   ;Column  ;Eu3PartyTrade_VatEntry;
               SourceExpr=FORMAT("EU 3-Party Trade") }

    { 43  ;1   ;Column  ;FormatClosed        ;
               SourceExpr=FORMAT(Closed) }

    { 45  ;1   ;Column  ;EntrtyNo_VatEntry   ;
               IncludeCaption=Yes;
               SourceExpr="Entry No." }

    { 74  ;1   ;Column  ;VatDiff_VatEntry    ;
               IncludeCaption=Yes;
               SourceExpr="VAT Difference" }

    { 9   ;1   ;Column  ;VATExceptionsCaption;
               SourceExpr=VATExceptionsCaptionLbl }

    { 27  ;1   ;Column  ;CurrReportPageNoOCaption;
               SourceExpr=CurrReportPageNoOCaptionLbl }

    { 62  ;1   ;Column  ;FORMATEU3PartyTradeCap;
               SourceExpr=FORMATEU3PartyTradeCapLbl }

    { 63  ;1   ;Column  ;FORMATClosedCaption ;
               SourceExpr=FORMATClosedCaptionLbl }

    { 65  ;1   ;Column  ;VATEntryVATCalcTypeCap;
               SourceExpr=VATEntryVATCalcTypeCapLbl }

    { 68  ;1   ;Column  ;GenProdPostingGrpCaption;
               SourceExpr=GenProdPostingGrpCaptionLbl }

    { 69  ;1   ;Column  ;GenBusPostingGrpCaption;
               SourceExpr=GenBusPostingGrpCaptionLbl }

    { 72  ;1   ;Column  ;DocumentTypeCaption ;
               SourceExpr=DocumentTypeCaptionLbl }

    { 73  ;1   ;Column  ;PostingDateCaption  ;
               SourceExpr=PostingDateCaptionLbl }

  }
  REQUESTPAGE
  {
    PROPERTIES
    {
      SaveValues=Yes;
    }
    CONTROLS
    {
      { 1900000001;0;Container;
                  ContainerType=ContentArea }

      { 1900000002;1;Group  ;
                  CaptionML=ENU=Options }

      { 1   ;2   ;Field     ;
                  Name=AmountsInAddReportingCurrency;
                  CaptionML=ENU=Show Amounts in Add. Reporting Currency;
                  SourceExpr=UseAmtsInAddCurr;
                  MultiLine=Yes }

      { 5   ;2   ;Field     ;
                  Name=IncludeReversedEntries;
                  CaptionML=ENU=Include Reversed Entries;
                  SourceExpr=PrintReversedEntries }

      { 3   ;2   ;Field     ;
                  Name=MinVATDifference;
                  CaptionML=ENU=Min. VAT Difference;
                  SourceExpr=MinVATDifference;
                  AutoFormatType=1;
                  AutoFormatExpr=GetCurrency;
                  OnValidate=BEGIN
                               MinVATDifference := ABS(ROUND(MinVATDifference));
                             END;
                              }

    }
  }
  LABELS
  {
  }
  CODE
  {
    VAR
      Text000@1000 : TextConst 'ENU=Amounts are shown in %1.';
      Text001@1001 : TextConst 'ENU=Show %1 equal to or greater than';
      GLSetup@1002 : Record 98;
      VATEntryFilter@1003 : Text;
      UseAmtsInAddCurr@1004 : Boolean;
      AddCurrAmtTxt@1005 : Text[50];
      MinVATDifference@1006 : Decimal;
      MinVATDiffText@1007 : Text[250];
      PrintReversedEntries@1008 : Boolean;
      VATExceptionsCaptionLbl@4383 : TextConst 'ENU=VAT Exceptions';
      CurrReportPageNoOCaptionLbl@6304 : TextConst 'ENU=Page';
      FORMATEU3PartyTradeCapLbl@2320 : TextConst 'ENU=EU 3-Party Trade';
      FORMATClosedCaptionLbl@6816 : TextConst 'ENU=Closed';
      VATEntryVATCalcTypeCapLbl@9672 : TextConst 'ENU=VAT Calculation Type';
      GenProdPostingGrpCaptionLbl@4674 : TextConst 'ENU=Gen. Prod. Posting Group';
      GenBusPostingGrpCaptionLbl@1845 : TextConst 'ENU=Gen. Bus. Posting Group';
      DocumentTypeCaptionLbl@5905 : TextConst 'ENU=Document Type';
      PostingDateCaptionLbl@4591 : TextConst 'ENU=Posting Date';

    LOCAL PROCEDURE GetCurrency@5() : Code[10];
    BEGIN
      IF UseAmtsInAddCurr THEN
        EXIT(GLSetup."Additional Reporting Currency");

      EXIT('');
    END;

    PROCEDURE InitializeRequest@1(NewUseAmtsInAddCurr@1000 : Boolean;NewPrintReversedEntries@1001 : Boolean;NewMinVATDifference@1002 : Decimal);
    BEGIN
      UseAmtsInAddCurr := NewUseAmtsInAddCurr;
      PrintReversedEntries := NewPrintReversedEntries;
      MinVATDifference := ABS(ROUND(NewMinVATDifference));
    END;

    BEGIN
    END.
  }
  RDLDATA
  {
    <?xml version="1.0" encoding="utf-8"?>
<Report xmlns:rd="http://schemas.microsoft.com/SQLServer/reporting/reportdesigner" xmlns="http://schemas.microsoft.com/sqlserver/reporting/2010/01/reportdefinition">
  <AutoRefresh>0</AutoRefresh>
  <DataSources>
    <DataSource Name="DataSource">
      <ConnectionProperties>
        <DataProvider>SQL</DataProvider>
        <ConnectString />
      </ConnectionProperties>
      <rd:SecurityType>None</rd:SecurityType>
      <rd:DataSourceID>781d0af3-deb5-4c1f-8c65-e4a18060ad49</rd:DataSourceID>
    </DataSource>
  </DataSources>
  <DataSets>
    <DataSet Name="DataSet_Result">
      <Query>
        <DataSourceName>DataSource</DataSourceName>
        <CommandText />
      </Query>
      <Fields>
        <Field Name="CompanyName">
          <DataField>CompanyName</DataField>
        </Field>
        <Field Name="Filter1_VatEntry">
          <DataField>Filter1_VatEntry</DataField>
        </Field>
        <Field Name="MinVatDifference">
          <DataField>MinVatDifference</DataField>
        </Field>
        <Field Name="MinVatDifferenceFormat">
          <DataField>MinVatDifferenceFormat</DataField>
        </Field>
        <Field Name="MinVatDiffText">
          <DataField>MinVatDiffText</DataField>
        </Field>
        <Field Name="AddCurrAmt_VatEntry">
          <DataField>AddCurrAmt_VatEntry</DataField>
        </Field>
        <Field Name="PostingDate_VatEntry">
          <DataField>PostingDate_VatEntry</DataField>
        </Field>
        <Field Name="DocumentType_VatEntry">
          <DataField>DocumentType_VatEntry</DataField>
        </Field>
        <Field Name="DocumentNo_VatEntry">
          <DataField>DocumentNo_VatEntry</DataField>
        </Field>
        <Field Name="Type_VatEntry">
          <DataField>Type_VatEntry</DataField>
        </Field>
        <Field Name="GenBusPostGrp_VatEntry">
          <DataField>GenBusPostGrp_VatEntry</DataField>
        </Field>
        <Field Name="GenProdPostGrp_VatEntry">
          <DataField>GenProdPostGrp_VatEntry</DataField>
        </Field>
        <Field Name="Base_VatEntry">
          <DataField>Base_VatEntry</DataField>
        </Field>
        <Field Name="Base_VatEntryFormat">
          <DataField>Base_VatEntryFormat</DataField>
        </Field>
        <Field Name="Amount_VatEntry">
          <DataField>Amount_VatEntry</DataField>
        </Field>
        <Field Name="Amount_VatEntryFormat">
          <DataField>Amount_VatEntryFormat</DataField>
        </Field>
        <Field Name="VatCalType_VatEntry">
          <DataField>VatCalType_VatEntry</DataField>
        </Field>
        <Field Name="BillToPay_VatEntry">
          <DataField>BillToPay_VatEntry</DataField>
        </Field>
        <Field Name="Eu3PartyTrade_VatEntry">
          <DataField>Eu3PartyTrade_VatEntry</DataField>
        </Field>
        <Field Name="FormatClosed">
          <DataField>FormatClosed</DataField>
        </Field>
        <Field Name="EntrtyNo_VatEntry">
          <DataField>EntrtyNo_VatEntry</DataField>
        </Field>
        <Field Name="VatDiff_VatEntry">
          <DataField>VatDiff_VatEntry</DataField>
        </Field>
        <Field Name="VatDiff_VatEntryFormat">
          <DataField>VatDiff_VatEntryFormat</DataField>
        </Field>
        <Field Name="VATExceptionsCaption">
          <DataField>VATExceptionsCaption</DataField>
        </Field>
        <Field Name="CurrReportPageNoOCaption">
          <DataField>CurrReportPageNoOCaption</DataField>
        </Field>
        <Field Name="FORMATEU3PartyTradeCap">
          <DataField>FORMATEU3PartyTradeCap</DataField>
        </Field>
        <Field Name="FORMATClosedCaption">
          <DataField>FORMATClosedCaption</DataField>
        </Field>
        <Field Name="VATEntryVATCalcTypeCap">
          <DataField>VATEntryVATCalcTypeCap</DataField>
        </Field>
        <Field Name="GenProdPostingGrpCaption">
          <DataField>GenProdPostingGrpCaption</DataField>
        </Field>
        <Field Name="GenBusPostingGrpCaption">
          <DataField>GenBusPostingGrpCaption</DataField>
        </Field>
        <Field Name="DocumentTypeCaption">
          <DataField>DocumentTypeCaption</DataField>
        </Field>
        <Field Name="PostingDateCaption">
          <DataField>PostingDateCaption</DataField>
        </Field>
      </Fields>
      <rd:DataSetInfo>
        <rd:DataSetName>DataSet</rd:DataSetName>
        <rd:SchemaPath>Report.xsd</rd:SchemaPath>
        <rd:TableName>Result</rd:TableName>
      </rd:DataSetInfo>
    </DataSet>
  </DataSets>
  <ReportSections>
    <ReportSection>
      <Body>
        <ReportItems>
          <Tablix Name="Table1">
            <TablixBody>
              <TablixColumns>
                <TablixColumn>
                  <Width>0.62492in</Width>
                </TablixColumn>
                <TablixColumn>
                  <Width>0.70705in</Width>
                </TablixColumn>
                <TablixColumn>
                  <Width>0.75379in</Width>
                </TablixColumn>
                <TablixColumn>
                  <Width>0.8in</Width>
                </TablixColumn>
                <TablixColumn>
                  <Width>0.77042in</Width>
                </TablixColumn>
                <TablixColumn>
                  <Width>0.79485in</Width>
                </TablixColumn>
                <TablixColumn>
                  <Width>0.78in</Width>
                </TablixColumn>
                <TablixColumn>
                  <Width>0.8in</Width>
                </TablixColumn>
                <TablixColumn>
                  <Width>0.73112in</Width>
                </TablixColumn>
                <TablixColumn>
                  <Width>0.80892in</Width>
                </TablixColumn>
                <TablixColumn>
                  <Width>0.8in</Width>
                </TablixColumn>
                <TablixColumn>
                  <Width>0.47912in</Width>
                </TablixColumn>
                <TablixColumn>
                  <Width>0.56964in</Width>
                </TablixColumn>
                <TablixColumn>
                  <Width>0.47066in</Width>
                </TablixColumn>
              </TablixColumns>
              <TablixRows>
                <TablixRow>
                  <Height>0.13889in</Height>
                  <TablixCells>
                    <TablixCell>
                      <CellContents>
                        <Textbox Name="VATEntryPostDateCap">
                          <CanGrow>true</CanGrow>
                          <KeepTogether>true</KeepTogether>
                          <Paragraphs>
                            <Paragraph>
                              <TextRuns>
                                <TextRun>
                                  <Value>=First(Fields!PostingDateCaption.Value)</Value>
                                  <Style>
                                    <FontStyle>Normal</FontStyle>
                                    <FontFamily>Segoe UI</FontFamily>
                                    <FontSize>8pt</FontSize>
                                    <FontWeight>Bold</FontWeight>
                                  </Style>
                                </TextRun>
                              </TextRuns>
                              <Style>
                                <TextAlign>Left</TextAlign>
                              </Style>
                            </Paragraph>
                          </Paragraphs>
                          <ZIndex>55</ZIndex>
                          <Style>
                            <VerticalAlign>Bottom</VerticalAlign>
                            <PaddingRight>5pt</PaddingRight>
                          </Style>
                        </Textbox>
                      </CellContents>
                    </TablixCell>
                    <TablixCell>
                      <CellContents>
                        <Textbox Name="VATEntryDocTypeCaption">
                          <CanGrow>true</CanGrow>
                          <KeepTogether>true</KeepTogether>
                          <Paragraphs>
                            <Paragraph>
                              <TextRuns>
                                <TextRun>
                                  <Value>=First(Fields!DocumentTypeCaption.Value)</Value>
                                  <Style>
                                    <FontStyle>Normal</FontStyle>
                                    <FontFamily>Segoe UI</FontFamily>
                                    <FontSize>8pt</FontSize>
                                    <FontWeight>Bold</FontWeight>
                                  </Style>
                                </TextRun>
                              </TextRuns>
                              <Style>
                                <TextAlign>Left</TextAlign>
                              </Style>
                            </Paragraph>
                          </Paragraphs>
                          <ZIndex>54</ZIndex>
                          <Style>
                            <VerticalAlign>Bottom</VerticalAlign>
                            <PaddingLeft>5pt</PaddingLeft>
                            <PaddingRight>5pt</PaddingRight>
                          </Style>
                        </Textbox>
                      </CellContents>
                    </TablixCell>
                    <TablixCell>
                      <CellContents>
                        <Textbox Name="VATEntryDocNoCaption">
                          <CanGrow>true</CanGrow>
                          <KeepTogether>true</KeepTogether>
                          <Paragraphs>
                            <Paragraph>
                              <TextRuns>
                                <TextRun>
                                  <Value>=Parameters!DocumentNo_VatEntryCaption.Value</Value>
                                  <Style>
                                    <FontStyle>Normal</FontStyle>
                                    <FontFamily>Segoe UI</FontFamily>
                                    <FontSize>8pt</FontSize>
                                    <FontWeight>Bold</FontWeight>
                                  </Style>
                                </TextRun>
                              </TextRuns>
                              <Style>
                                <TextAlign>Left</TextAlign>
                              </Style>
                            </Paragraph>
                          </Paragraphs>
                          <ZIndex>53</ZIndex>
                          <Style>
                            <VerticalAlign>Bottom</VerticalAlign>
                            <PaddingLeft>5pt</PaddingLeft>
                            <PaddingRight>5pt</PaddingRight>
                          </Style>
                        </Textbox>
                      </CellContents>
                    </TablixCell>
                    <TablixCell>
                      <CellContents>
                        <Textbox Name="VATEntryTypeCaption">
                          <CanGrow>true</CanGrow>
                          <KeepTogether>true</KeepTogether>
                          <Paragraphs>
                            <Paragraph>
                              <TextRuns>
                                <TextRun>
                                  <Value>=Parameters!Type_VatEntryCaption.Value</Value>
                                  <Style>
                                    <FontStyle>Normal</FontStyle>
                                    <FontFamily>Segoe UI</FontFamily>
                                    <FontSize>8pt</FontSize>
                                    <FontWeight>Bold</FontWeight>
                                  </Style>
                                </TextRun>
                              </TextRuns>
                              <Style>
                                <TextAlign>Left</TextAlign>
                              </Style>
                            </Paragraph>
                          </Paragraphs>
                          <ZIndex>52</ZIndex>
                          <Style>
                            <VerticalAlign>Bottom</VerticalAlign>
                            <PaddingLeft>5pt</PaddingLeft>
                            <PaddingRight>5pt</PaddingRight>
                          </Style>
                        </Textbox>
                      </CellContents>
                    </TablixCell>
                    <TablixCell>
                      <CellContents>
                        <Textbox Name="GenBusPostGrpCap">
                          <CanGrow>true</CanGrow>
                          <KeepTogether>true</KeepTogether>
                          <Paragraphs>
                            <Paragraph>
                              <TextRuns>
                                <TextRun>
                                  <Value>=First(Fields!GenBusPostingGrpCaption.Value)</Value>
                                  <Style>
                                    <FontStyle>Normal</FontStyle>
                                    <FontFamily>Segoe UI</FontFamily>
                                    <FontSize>8pt</FontSize>
                                    <FontWeight>Bold</FontWeight>
                                  </Style>
                                </TextRun>
                              </TextRuns>
                              <Style>
                                <TextAlign>Left</TextAlign>
                              </Style>
                            </Paragraph>
                          </Paragraphs>
                          <ZIndex>51</ZIndex>
                          <Style>
                            <VerticalAlign>Bottom</VerticalAlign>
                            <PaddingLeft>5pt</PaddingLeft>
                            <PaddingRight>5pt</PaddingRight>
                          </Style>
                        </Textbox>
                      </CellContents>
                    </TablixCell>
                    <TablixCell>
                      <CellContents>
                        <Textbox Name="GenProdPostGrpCap">
                          <CanGrow>true</CanGrow>
                          <KeepTogether>true</KeepTogether>
                          <Paragraphs>
                            <Paragraph>
                              <TextRuns>
                                <TextRun>
                                  <Value>=First(Fields!GenProdPostingGrpCaption.Value)</Value>
                                  <Style>
                                    <FontStyle>Normal</FontStyle>
                                    <FontFamily>Segoe UI</FontFamily>
                                    <FontSize>8pt</FontSize>
                                    <FontWeight>Bold</FontWeight>
                                  </Style>
                                </TextRun>
                              </TextRuns>
                              <Style>
                                <TextAlign>Left</TextAlign>
                              </Style>
                            </Paragraph>
                          </Paragraphs>
                          <ZIndex>50</ZIndex>
                          <Style>
                            <VerticalAlign>Bottom</VerticalAlign>
                            <PaddingLeft>5pt</PaddingLeft>
                            <PaddingRight>5pt</PaddingRight>
                          </Style>
                        </Textbox>
                      </CellContents>
                    </TablixCell>
                    <TablixCell>
                      <CellContents>
                        <Textbox Name="VATEntryBaseCaption">
                          <CanGrow>true</CanGrow>
                          <KeepTogether>true</KeepTogether>
                          <Paragraphs>
                            <Paragraph>
                              <TextRuns>
                                <TextRun>
                                  <Value>=Parameters!Base_VatEntryCaption.Value</Value>
                                  <Style>
                                    <FontStyle>Normal</FontStyle>
                                    <FontFamily>Segoe UI</FontFamily>
                                    <FontSize>8pt</FontSize>
                                    <FontWeight>Bold</FontWeight>
                                  </Style>
                                </TextRun>
                              </TextRuns>
                              <Style>
                                <TextAlign>Right</TextAlign>
                              </Style>
                            </Paragraph>
                          </Paragraphs>
                          <ZIndex>49</ZIndex>
                          <Style>
                            <VerticalAlign>Bottom</VerticalAlign>
                            <PaddingLeft>5pt</PaddingLeft>
                            <PaddingRight>5pt</PaddingRight>
                          </Style>
                        </Textbox>
                      </CellContents>
                    </TablixCell>
                    <TablixCell>
                      <CellContents>
                        <Textbox Name="VATEntryAmountCaption">
                          <CanGrow>true</CanGrow>
                          <KeepTogether>true</KeepTogether>
                          <Paragraphs>
                            <Paragraph>
                              <TextRuns>
                                <TextRun>
                                  <Value>=Parameters!Amount_VatEntryCaption.Value</Value>
                                  <Style>
                                    <FontStyle>Normal</FontStyle>
                                    <FontFamily>Segoe UI</FontFamily>
                                    <FontSize>8pt</FontSize>
                                    <FontWeight>Bold</FontWeight>
                                  </Style>
                                </TextRun>
                              </TextRuns>
                              <Style>
                                <TextAlign>Right</TextAlign>
                              </Style>
                            </Paragraph>
                          </Paragraphs>
                          <ZIndex>48</ZIndex>
                          <Style>
                            <VerticalAlign>Bottom</VerticalAlign>
                            <PaddingLeft>5pt</PaddingLeft>
                            <PaddingRight>5pt</PaddingRight>
                          </Style>
                        </Textbox>
                      </CellContents>
                    </TablixCell>
                    <TablixCell>
                      <CellContents>
                        <Textbox Name="VATEntryVATDiffCap">
                          <CanGrow>true</CanGrow>
                          <KeepTogether>true</KeepTogether>
                          <Paragraphs>
                            <Paragraph>
                              <TextRuns>
                                <TextRun>
                                  <Value>=Parameters!VatDiff_VatEntryCaption.Value</Value>
                                  <Style>
                                    <FontStyle>Normal</FontStyle>
                                    <FontFamily>Segoe UI</FontFamily>
                                    <FontSize>8pt</FontSize>
                                    <FontWeight>Bold</FontWeight>
                                  </Style>
                                </TextRun>
                              </TextRuns>
                              <Style>
                                <TextAlign>Right</TextAlign>
                              </Style>
                            </Paragraph>
                          </Paragraphs>
                          <ZIndex>47</ZIndex>
                          <Style>
                            <VerticalAlign>Bottom</VerticalAlign>
                            <PaddingLeft>5pt</PaddingLeft>
                            <PaddingRight>5pt</PaddingRight>
                          </Style>
                        </Textbox>
                      </CellContents>
                    </TablixCell>
                    <TablixCell>
                      <CellContents>
                        <Textbox Name="VATEntVATCalcTypeCap">
                          <CanGrow>true</CanGrow>
                          <KeepTogether>true</KeepTogether>
                          <Paragraphs>
                            <Paragraph>
                              <TextRuns>
                                <TextRun>
                                  <Value>=First(Fields!VATEntryVATCalcTypeCap.Value)</Value>
                                  <Style>
                                    <FontStyle>Normal</FontStyle>
                                    <FontFamily>Segoe UI</FontFamily>
                                    <FontSize>8pt</FontSize>
                                    <FontWeight>Bold</FontWeight>
                                  </Style>
                                </TextRun>
                              </TextRuns>
                              <Style>
                                <TextAlign>Left</TextAlign>
                              </Style>
                            </Paragraph>
                          </Paragraphs>
                          <ZIndex>46</ZIndex>
                          <Style>
                            <VerticalAlign>Bottom</VerticalAlign>
                            <PaddingLeft>5pt</PaddingLeft>
                            <PaddingRight>5pt</PaddingRight>
                          </Style>
                        </Textbox>
                      </CellContents>
                    </TablixCell>
                    <TablixCell>
                      <CellContents>
                        <Textbox Name="VATEntryBilltoPaytoNoCap">
                          <CanGrow>true</CanGrow>
                          <KeepTogether>true</KeepTogether>
                          <Paragraphs>
                            <Paragraph>
                              <TextRuns>
                                <TextRun>
                                  <Value>=Parameters!BillToPay_VatEntryCaption.Value</Value>
                                  <Style>
                                    <FontStyle>Normal</FontStyle>
                                    <FontFamily>Segoe UI</FontFamily>
                                    <FontSize>8pt</FontSize>
                                    <FontWeight>Bold</FontWeight>
                                  </Style>
                                </TextRun>
                              </TextRuns>
                              <Style>
                                <TextAlign>Left</TextAlign>
                              </Style>
                            </Paragraph>
                          </Paragraphs>
                          <ZIndex>45</ZIndex>
                          <Style>
                            <VerticalAlign>Bottom</VerticalAlign>
                            <PaddingLeft>5pt</PaddingLeft>
                            <PaddingRight>5pt</PaddingRight>
                          </Style>
                        </Textbox>
                      </CellContents>
                    </TablixCell>
                    <TablixCell>
                      <CellContents>
                        <Textbox Name="FORMATEU3PartyTradeCap">
                          <CanGrow>true</CanGrow>
                          <KeepTogether>true</KeepTogether>
                          <Paragraphs>
                            <Paragraph>
                              <TextRuns>
                                <TextRun>
                                  <Value>=First(Fields!FORMATEU3PartyTradeCap.Value)</Value>
                                  <Style>
                                    <FontStyle>Normal</FontStyle>
                                    <FontFamily>Segoe UI</FontFamily>
                                    <FontSize>8pt</FontSize>
                                    <FontWeight>Bold</FontWeight>
                                  </Style>
                                </TextRun>
                              </TextRuns>
                              <Style>
                                <TextAlign>Left</TextAlign>
                              </Style>
                            </Paragraph>
                          </Paragraphs>
                          <ZIndex>44</ZIndex>
                          <Style>
                            <VerticalAlign>Bottom</VerticalAlign>
                            <PaddingLeft>5pt</PaddingLeft>
                            <PaddingRight>5pt</PaddingRight>
                          </Style>
                        </Textbox>
                      </CellContents>
                    </TablixCell>
                    <TablixCell>
                      <CellContents>
                        <Textbox Name="FORMATClosedCaption">
                          <CanGrow>true</CanGrow>
                          <KeepTogether>true</KeepTogether>
                          <Paragraphs>
                            <Paragraph>
                              <TextRuns>
                                <TextRun>
                                  <Value>=First(Fields!FORMATClosedCaption.Value)</Value>
                                  <Style>
                                    <FontStyle>Normal</FontStyle>
                                    <FontFamily>Segoe UI</FontFamily>
                                    <FontSize>8pt</FontSize>
                                    <FontWeight>Bold</FontWeight>
                                  </Style>
                                </TextRun>
                              </TextRuns>
                              <Style>
                                <TextAlign>Left</TextAlign>
                              </Style>
                            </Paragraph>
                          </Paragraphs>
                          <ZIndex>43</ZIndex>
                          <Style>
                            <VerticalAlign>Bottom</VerticalAlign>
                            <PaddingLeft>5pt</PaddingLeft>
                            <PaddingRight>5pt</PaddingRight>
                          </Style>
                        </Textbox>
                      </CellContents>
                    </TablixCell>
                    <TablixCell>
                      <CellContents>
                        <Textbox Name="VATEntryEntryNoCaption">
                          <CanGrow>true</CanGrow>
                          <KeepTogether>true</KeepTogether>
                          <Paragraphs>
                            <Paragraph>
                              <TextRuns>
                                <TextRun>
                                  <Value>=Parameters!EntrtyNo_VatEntryCaption.Value</Value>
                                  <Style>
                                    <FontStyle>Normal</FontStyle>
                                    <FontFamily>Segoe UI</FontFamily>
                                    <FontSize>8pt</FontSize>
                                    <FontWeight>Bold</FontWeight>
                                  </Style>
                                </TextRun>
                              </TextRuns>
                              <Style>
                                <TextAlign>Right</TextAlign>
                              </Style>
                            </Paragraph>
                          </Paragraphs>
                          <ZIndex>42</ZIndex>
                          <Style>
                            <VerticalAlign>Bottom</VerticalAlign>
                            <PaddingLeft>5pt</PaddingLeft>
                          </Style>
                        </Textbox>
                      </CellContents>
                    </TablixCell>
                  </TablixCells>
                </TablixRow>
                <TablixRow>
                  <Height>0.06944in</Height>
                  <TablixCells>
                    <TablixCell>
                      <CellContents>
                        <Textbox Name="Textbox15">
                          <CanGrow>true</CanGrow>
                          <KeepTogether>true</KeepTogether>
                          <Paragraphs>
                            <Paragraph>
                              <TextRuns>
                                <TextRun>
                                  <Value />
                                  <Style>
                                    <FontStyle>Normal</FontStyle>
                                    <FontFamily>Segoe UI</FontFamily>
                                    <FontSize>8pt</FontSize>
                                    <FontWeight>Bold</FontWeight>
                                  </Style>
                                </TextRun>
                              </TextRuns>
                              <Style />
                            </Paragraph>
                          </Paragraphs>
                          <rd:DefaultName>Textbox15</rd:DefaultName>
                          <Style>
                            <Border>
                              <Style>None</Style>
                            </Border>
                            <BottomBorder>
                              <Style>Solid</Style>
                            </BottomBorder>
                            <VerticalAlign>Top</VerticalAlign>
                            <PaddingRight>5pt</PaddingRight>
                          </Style>
                        </Textbox>
                        <ColSpan>14</ColSpan>
                      </CellContents>
                    </TablixCell>
                    <TablixCell />
                    <TablixCell />
                    <TablixCell />
                    <TablixCell />
                    <TablixCell />
                    <TablixCell />
                    <TablixCell />
                    <TablixCell />
                    <TablixCell />
                    <TablixCell />
                    <TablixCell />
                    <TablixCell />
                    <TablixCell />
                  </TablixCells>
                </TablixRow>
                <TablixRow>
                  <Height>0.06944in</Height>
                  <TablixCells>
                    <TablixCell>
                      <CellContents>
                        <Textbox Name="Textbox1">
                          <CanGrow>true</CanGrow>
                          <KeepTogether>true</KeepTogether>
                          <Paragraphs>
                            <Paragraph>
                              <TextRuns>
                                <TextRun>
                                  <Value />
                                  <Style>
                                    <FontStyle>Normal</FontStyle>
                                    <FontFamily>Segoe UI</FontFamily>
                                    <FontSize>8pt</FontSize>
                                    <FontWeight>Bold</FontWeight>
                                  </Style>
                                </TextRun>
                              </TextRuns>
                              <Style />
                            </Paragraph>
                          </Paragraphs>
                          <rd:DefaultName>Textbox1</rd:DefaultName>
                          <Style>
                            <VerticalAlign>Top</VerticalAlign>
                            <PaddingRight>5pt</PaddingRight>
                          </Style>
                        </Textbox>
                        <ColSpan>14</ColSpan>
                      </CellContents>
                    </TablixCell>
                    <TablixCell />
                    <TablixCell />
                    <TablixCell />
                    <TablixCell />
                    <TablixCell />
                    <TablixCell />
                    <TablixCell />
                    <TablixCell />
                    <TablixCell />
                    <TablixCell />
                    <TablixCell />
                    <TablixCell />
                    <TablixCell />
                  </TablixCells>
                </TablixRow>
                <TablixRow>
                  <Height>0.13889in</Height>
                  <TablixCells>
                    <TablixCell>
                      <CellContents>
                        <Textbox Name="VATEntryPostingDate">
                          <CanGrow>true</CanGrow>
                          <KeepTogether>true</KeepTogether>
                          <Paragraphs>
                            <Paragraph>
                              <TextRuns>
                                <TextRun>
                                  <Value>=Fields!PostingDate_VatEntry.Value</Value>
                                  <Style>
                                    <FontStyle>Normal</FontStyle>
                                    <FontFamily>Segoe UI</FontFamily>
                                    <FontSize>8pt</FontSize>
                                    <Format>d</Format>
                                  </Style>
                                </TextRun>
                              </TextRuns>
                              <Style>
                                <TextAlign>Left</TextAlign>
                              </Style>
                            </Paragraph>
                          </Paragraphs>
                          <ZIndex>13</ZIndex>
                          <Style>
                            <BackgroundColor>=Iif(RowNumber(Nothing) Mod 2,"#EFEFEF","white")</BackgroundColor>
                            <VerticalAlign>Top</VerticalAlign>
                            <PaddingRight>5pt</PaddingRight>
                          </Style>
                        </Textbox>
                      </CellContents>
                    </TablixCell>
                    <TablixCell>
                      <CellContents>
                        <Textbox Name="VATEntryDocumentType">
                          <CanGrow>true</CanGrow>
                          <KeepTogether>true</KeepTogether>
                          <Paragraphs>
                            <Paragraph>
                              <TextRuns>
                                <TextRun>
                                  <Value>=Fields!DocumentType_VatEntry.Value</Value>
                                  <Style>
                                    <FontStyle>Normal</FontStyle>
                                    <FontFamily>Segoe UI</FontFamily>
                                    <FontSize>8pt</FontSize>
                                  </Style>
                                </TextRun>
                              </TextRuns>
                              <Style>
                                <TextAlign>Left</TextAlign>
                              </Style>
                            </Paragraph>
                          </Paragraphs>
                          <ZIndex>12</ZIndex>
                          <Style>
                            <BackgroundColor>=Iif(RowNumber(Nothing) Mod 2,"#EFEFEF","white")</BackgroundColor>
                            <VerticalAlign>Top</VerticalAlign>
                            <PaddingLeft>5pt</PaddingLeft>
                            <PaddingRight>5pt</PaddingRight>
                          </Style>
                        </Textbox>
                      </CellContents>
                    </TablixCell>
                    <TablixCell>
                      <CellContents>
                        <Textbox Name="VATEntryDocumentNo">
                          <CanGrow>true</CanGrow>
                          <KeepTogether>true</KeepTogether>
                          <Paragraphs>
                            <Paragraph>
                              <TextRuns>
                                <TextRun>
                                  <Value>=Fields!DocumentNo_VatEntry.Value</Value>
                                  <Style>
                                    <FontStyle>Normal</FontStyle>
                                    <FontFamily>Segoe UI</FontFamily>
                                    <FontSize>8pt</FontSize>
                                  </Style>
                                </TextRun>
                              </TextRuns>
                              <Style>
                                <TextAlign>Left</TextAlign>
                              </Style>
                            </Paragraph>
                          </Paragraphs>
                          <ZIndex>11</ZIndex>
                          <Style>
                            <BackgroundColor>=Iif(RowNumber(Nothing) Mod 2,"#EFEFEF","white")</BackgroundColor>
                            <VerticalAlign>Top</VerticalAlign>
                            <PaddingLeft>5pt</PaddingLeft>
                            <PaddingRight>5pt</PaddingRight>
                          </Style>
                        </Textbox>
                      </CellContents>
                    </TablixCell>
                    <TablixCell>
                      <CellContents>
                        <Textbox Name="VATEntryType">
                          <CanGrow>true</CanGrow>
                          <KeepTogether>true</KeepTogether>
                          <Paragraphs>
                            <Paragraph>
                              <TextRuns>
                                <TextRun>
                                  <Value>=Fields!Type_VatEntry.Value</Value>
                                  <Style>
                                    <FontStyle>Normal</FontStyle>
                                    <FontFamily>Segoe UI</FontFamily>
                                    <FontSize>8pt</FontSize>
                                  </Style>
                                </TextRun>
                              </TextRuns>
                              <Style>
                                <TextAlign>Left</TextAlign>
                              </Style>
                            </Paragraph>
                          </Paragraphs>
                          <ZIndex>10</ZIndex>
                          <Style>
                            <BackgroundColor>=Iif(RowNumber(Nothing) Mod 2,"#EFEFEF","white")</BackgroundColor>
                            <VerticalAlign>Top</VerticalAlign>
                            <PaddingLeft>5pt</PaddingLeft>
                            <PaddingRight>5pt</PaddingRight>
                          </Style>
                        </Textbox>
                      </CellContents>
                    </TablixCell>
                    <TablixCell>
                      <CellContents>
                        <Textbox Name="VATEntryGenBusPostGrp">
                          <CanGrow>true</CanGrow>
                          <KeepTogether>true</KeepTogether>
                          <Paragraphs>
                            <Paragraph>
                              <TextRuns>
                                <TextRun>
                                  <Value>=Fields!GenBusPostGrp_VatEntry.Value</Value>
                                  <Style>
                                    <FontStyle>Normal</FontStyle>
                                    <FontFamily>Segoe UI</FontFamily>
                                    <FontSize>8pt</FontSize>
                                  </Style>
                                </TextRun>
                              </TextRuns>
                              <Style>
                                <TextAlign>Left</TextAlign>
                              </Style>
                            </Paragraph>
                          </Paragraphs>
                          <ZIndex>9</ZIndex>
                          <Style>
                            <BackgroundColor>=Iif(RowNumber(Nothing) Mod 2,"#EFEFEF","white")</BackgroundColor>
                            <VerticalAlign>Top</VerticalAlign>
                            <PaddingLeft>5pt</PaddingLeft>
                            <PaddingRight>5pt</PaddingRight>
                          </Style>
                        </Textbox>
                      </CellContents>
                    </TablixCell>
                    <TablixCell>
                      <CellContents>
                        <Textbox Name="VATEntryGenProdPostGrp">
                          <CanGrow>true</CanGrow>
                          <KeepTogether>true</KeepTogether>
                          <Paragraphs>
                            <Paragraph>
                              <TextRuns>
                                <TextRun>
                                  <Value>=Fields!GenProdPostGrp_VatEntry.Value</Value>
                                  <Style>
                                    <FontStyle>Normal</FontStyle>
                                    <FontFamily>Segoe UI</FontFamily>
                                    <FontSize>8pt</FontSize>
                                  </Style>
                                </TextRun>
                              </TextRuns>
                              <Style>
                                <TextAlign>Left</TextAlign>
                              </Style>
                            </Paragraph>
                          </Paragraphs>
                          <ZIndex>8</ZIndex>
                          <Style>
                            <BackgroundColor>=Iif(RowNumber(Nothing) Mod 2,"#EFEFEF","white")</BackgroundColor>
                            <VerticalAlign>Top</VerticalAlign>
                            <PaddingLeft>5pt</PaddingLeft>
                            <PaddingRight>5pt</PaddingRight>
                          </Style>
                        </Textbox>
                      </CellContents>
                    </TablixCell>
                    <TablixCell>
                      <CellContents>
                        <Textbox Name="VATEntryBase">
                          <CanGrow>true</CanGrow>
                          <KeepTogether>true</KeepTogether>
                          <Paragraphs>
                            <Paragraph>
                              <TextRuns>
                                <TextRun>
                                  <Value>=Fields!Base_VatEntry.Value</Value>
                                  <Style>
                                    <FontStyle>Normal</FontStyle>
                                    <FontFamily>Segoe UI</FontFamily>
                                    <FontSize>8pt</FontSize>
                                    <Format>=Fields!Base_VatEntryFormat.Value</Format>
                                  </Style>
                                </TextRun>
                              </TextRuns>
                              <Style>
                                <TextAlign>Right</TextAlign>
                              </Style>
                            </Paragraph>
                          </Paragraphs>
                          <ZIndex>7</ZIndex>
                          <Style>
                            <BackgroundColor>=Iif(RowNumber(Nothing) Mod 2,"#EFEFEF","white")</BackgroundColor>
                            <VerticalAlign>Top</VerticalAlign>
                            <PaddingLeft>5pt</PaddingLeft>
                            <PaddingRight>5pt</PaddingRight>
                          </Style>
                        </Textbox>
                      </CellContents>
                    </TablixCell>
                    <TablixCell>
                      <CellContents>
                        <Textbox Name="VATEntryAmount">
                          <CanGrow>true</CanGrow>
                          <KeepTogether>true</KeepTogether>
                          <Paragraphs>
                            <Paragraph>
                              <TextRuns>
                                <TextRun>
                                  <Value>=Fields!Amount_VatEntry.Value</Value>
                                  <Style>
                                    <FontStyle>Normal</FontStyle>
                                    <FontFamily>Segoe UI</FontFamily>
                                    <FontSize>8pt</FontSize>
                                    <Format>=Fields!Amount_VatEntryFormat.Value</Format>
                                  </Style>
                                </TextRun>
                              </TextRuns>
                              <Style>
                                <TextAlign>Right</TextAlign>
                              </Style>
                            </Paragraph>
                          </Paragraphs>
                          <ZIndex>6</ZIndex>
                          <Style>
                            <BackgroundColor>=Iif(RowNumber(Nothing) Mod 2,"#EFEFEF","white")</BackgroundColor>
                            <VerticalAlign>Top</VerticalAlign>
                            <PaddingLeft>5pt</PaddingLeft>
                            <PaddingRight>5pt</PaddingRight>
                          </Style>
                        </Textbox>
                      </CellContents>
                    </TablixCell>
                    <TablixCell>
                      <CellContents>
                        <Textbox Name="VATEntryVATDifference">
                          <CanGrow>true</CanGrow>
                          <KeepTogether>true</KeepTogether>
                          <Paragraphs>
                            <Paragraph>
                              <TextRuns>
                                <TextRun>
                                  <Value>=Fields!VatDiff_VatEntry.Value</Value>
                                  <Style>
                                    <FontStyle>Normal</FontStyle>
                                    <FontFamily>Segoe UI</FontFamily>
                                    <FontSize>8pt</FontSize>
                                    <Format>=Fields!VatDiff_VatEntryFormat.Value</Format>
                                  </Style>
                                </TextRun>
                              </TextRuns>
                              <Style>
                                <TextAlign>Right</TextAlign>
                              </Style>
                            </Paragraph>
                          </Paragraphs>
                          <ZIndex>5</ZIndex>
                          <Style>
                            <BackgroundColor>=Iif(RowNumber(Nothing) Mod 2,"#EFEFEF","white")</BackgroundColor>
                            <VerticalAlign>Top</VerticalAlign>
                            <PaddingLeft>5pt</PaddingLeft>
                            <PaddingRight>5pt</PaddingRight>
                          </Style>
                        </Textbox>
                      </CellContents>
                    </TablixCell>
                    <TablixCell>
                      <CellContents>
                        <Textbox Name="VATEntryVATCalcType">
                          <CanGrow>true</CanGrow>
                          <KeepTogether>true</KeepTogether>
                          <Paragraphs>
                            <Paragraph>
                              <TextRuns>
                                <TextRun>
                                  <Value>=Fields!VatCalType_VatEntry.Value</Value>
                                  <Style>
                                    <FontStyle>Normal</FontStyle>
                                    <FontFamily>Segoe UI</FontFamily>
                                    <FontSize>8pt</FontSize>
                                  </Style>
                                </TextRun>
                              </TextRuns>
                              <Style>
                                <TextAlign>Left</TextAlign>
                              </Style>
                            </Paragraph>
                          </Paragraphs>
                          <ZIndex>4</ZIndex>
                          <Style>
                            <BackgroundColor>=Iif(RowNumber(Nothing) Mod 2,"#EFEFEF","white")</BackgroundColor>
                            <VerticalAlign>Top</VerticalAlign>
                            <PaddingLeft>5pt</PaddingLeft>
                            <PaddingRight>5pt</PaddingRight>
                          </Style>
                        </Textbox>
                      </CellContents>
                    </TablixCell>
                    <TablixCell>
                      <CellContents>
                        <Textbox Name="VATEntryBilltoPaytoNo">
                          <CanGrow>true</CanGrow>
                          <KeepTogether>true</KeepTogether>
                          <Paragraphs>
                            <Paragraph>
                              <TextRuns>
                                <TextRun>
                                  <Value>=Fields!BillToPay_VatEntry.Value</Value>
                                  <Style>
                                    <FontStyle>Normal</FontStyle>
                                    <FontFamily>Segoe UI</FontFamily>
                                    <FontSize>8pt</FontSize>
                                  </Style>
                                </TextRun>
                              </TextRuns>
                              <Style>
                                <TextAlign>Left</TextAlign>
                              </Style>
                            </Paragraph>
                          </Paragraphs>
                          <ZIndex>3</ZIndex>
                          <Style>
                            <BackgroundColor>=Iif(RowNumber(Nothing) Mod 2,"#EFEFEF","white")</BackgroundColor>
                            <VerticalAlign>Top</VerticalAlign>
                            <PaddingLeft>5pt</PaddingLeft>
                            <PaddingRight>5pt</PaddingRight>
                          </Style>
                        </Textbox>
                      </CellContents>
                    </TablixCell>
                    <TablixCell>
                      <CellContents>
                        <Textbox Name="FORMATEU3PartyTrade">
                          <CanGrow>true</CanGrow>
                          <KeepTogether>true</KeepTogether>
                          <Paragraphs>
                            <Paragraph>
                              <TextRuns>
                                <TextRun>
                                  <Value>=Fields!Eu3PartyTrade_VatEntry.Value</Value>
                                  <Style>
                                    <FontStyle>Normal</FontStyle>
                                    <FontFamily>Segoe UI</FontFamily>
                                    <FontSize>8pt</FontSize>
                                  </Style>
                                </TextRun>
                              </TextRuns>
                              <Style>
                                <TextAlign>Left</TextAlign>
                              </Style>
                            </Paragraph>
                          </Paragraphs>
                          <ZIndex>2</ZIndex>
                          <Style>
                            <BackgroundColor>=Iif(RowNumber(Nothing) Mod 2,"#EFEFEF","white")</BackgroundColor>
                            <VerticalAlign>Top</VerticalAlign>
                            <PaddingLeft>5pt</PaddingLeft>
                            <PaddingRight>5pt</PaddingRight>
                          </Style>
                        </Textbox>
                      </CellContents>
                    </TablixCell>
                    <TablixCell>
                      <CellContents>
                        <Textbox Name="FORMATClosed">
                          <CanGrow>true</CanGrow>
                          <KeepTogether>true</KeepTogether>
                          <Paragraphs>
                            <Paragraph>
                              <TextRuns>
                                <TextRun>
                                  <Value>=Fields!FormatClosed.Value</Value>
                                  <Style>
                                    <FontStyle>Normal</FontStyle>
                                    <FontFamily>Segoe UI</FontFamily>
                                    <FontSize>8pt</FontSize>
                                  </Style>
                                </TextRun>
                              </TextRuns>
                              <Style>
                                <TextAlign>Left</TextAlign>
                              </Style>
                            </Paragraph>
                          </Paragraphs>
                          <ZIndex>1</ZIndex>
                          <Style>
                            <BackgroundColor>=Iif(RowNumber(Nothing) Mod 2,"#EFEFEF","white")</BackgroundColor>
                            <VerticalAlign>Top</VerticalAlign>
                            <PaddingLeft>5pt</PaddingLeft>
                            <PaddingRight>5pt</PaddingRight>
                          </Style>
                        </Textbox>
                      </CellContents>
                    </TablixCell>
                    <TablixCell>
                      <CellContents>
                        <Textbox Name="VATEntryEntryNo">
                          <CanGrow>true</CanGrow>
                          <KeepTogether>true</KeepTogether>
                          <Paragraphs>
                            <Paragraph>
                              <TextRuns>
                                <TextRun>
                                  <Value>=Fields!EntrtyNo_VatEntry.Value</Value>
                                  <Style>
                                    <FontStyle>Normal</FontStyle>
                                    <FontFamily>Segoe UI</FontFamily>
                                    <FontSize>8pt</FontSize>
                                  </Style>
                                </TextRun>
                              </TextRuns>
                              <Style>
                                <TextAlign>Right</TextAlign>
                              </Style>
                            </Paragraph>
                          </Paragraphs>
                          <Style>
                            <BackgroundColor>=Iif(RowNumber(Nothing) Mod 2,"#EFEFEF","white")</BackgroundColor>
                            <VerticalAlign>Top</VerticalAlign>
                            <PaddingLeft>5pt</PaddingLeft>
                          </Style>
                        </Textbox>
                      </CellContents>
                    </TablixCell>
                  </TablixCells>
                </TablixRow>
              </TablixRows>
            </TablixBody>
            <TablixColumnHierarchy>
              <TablixMembers>
                <TablixMember />
                <TablixMember />
                <TablixMember />
                <TablixMember />
                <TablixMember />
                <TablixMember />
                <TablixMember />
                <TablixMember />
                <TablixMember />
                <TablixMember />
                <TablixMember />
                <TablixMember />
                <TablixMember />
                <TablixMember />
              </TablixMembers>
            </TablixColumnHierarchy>
            <TablixRowHierarchy>
              <TablixMembers>
                <TablixMember>
                  <KeepWithGroup>After</KeepWithGroup>
                  <RepeatOnNewPage>true</RepeatOnNewPage>
                  <KeepTogether>true</KeepTogether>
                </TablixMember>
                <TablixMember>
                  <KeepWithGroup>After</KeepWithGroup>
                  <RepeatOnNewPage>true</RepeatOnNewPage>
                </TablixMember>
                <TablixMember>
                  <KeepWithGroup>After</KeepWithGroup>
                  <RepeatOnNewPage>true</RepeatOnNewPage>
                </TablixMember>
                <TablixMember>
                  <Group Name="Table1_Details_Group">
                    <DataElementName>Detail</DataElementName>
                  </Group>
                  <TablixMembers>
                    <TablixMember />
                  </TablixMembers>
                  <DataElementName>Detail_Collection</DataElementName>
                  <DataElementOutput>Output</DataElementOutput>
                  <KeepTogether>true</KeepTogether>
                </TablixMember>
              </TablixMembers>
            </TablixRowHierarchy>
            <DataSetName>DataSet_Result</DataSetName>
            <Top>1.05834cm</Top>
            <Left>0.00001cm</Left>
            <Height>1.05832cm</Height>
            <Width>25.12185cm</Width>
            <Style />
          </Tablix>
          <Textbox Name="AddCurrAmtTxt">
            <CanGrow>true</CanGrow>
            <KeepTogether>true</KeepTogether>
            <Paragraphs>
              <Paragraph>
                <TextRuns>
                  <TextRun>
                    <Value>=First(Fields!AddCurrAmt_VatEntry.Value)</Value>
                    <Style>
                      <FontFamily>Segoe UI</FontFamily>
                      <FontSize>8pt</FontSize>
                    </Style>
                  </TextRun>
                </TextRuns>
                <Style />
              </Paragraph>
            </Paragraphs>
            <Top>0.70556cm</Top>
            <Left>0.00001cm</Left>
            <Height>11pt</Height>
            <Width>25.12184cm</Width>
            <ZIndex>1</ZIndex>
            <Style>
              <VerticalAlign>Top</VerticalAlign>
            </Style>
          </Textbox>
          <Textbox Name="MinVATDiffText">
            <CanGrow>true</CanGrow>
            <KeepTogether>true</KeepTogether>
            <Paragraphs>
              <Paragraph>
                <TextRuns>
                  <TextRun>
                    <Value>=First(Fields!MinVatDiffText.Value)</Value>
                    <Style>
                      <FontFamily>Segoe UI</FontFamily>
                      <FontSize>8pt</FontSize>
                    </Style>
                  </TextRun>
                </TextRuns>
                <Style />
              </Paragraph>
            </Paragraphs>
            <Height>11pt</Height>
            <Width>7.58983cm</Width>
            <ZIndex>2</ZIndex>
            <Style>
              <VerticalAlign>Top</VerticalAlign>
            </Style>
          </Textbox>
          <Textbox Name="MinVATDifference">
            <CanGrow>true</CanGrow>
            <KeepTogether>true</KeepTogether>
            <Paragraphs>
              <Paragraph>
                <TextRuns>
                  <TextRun>
                    <Value>=First(Fields!MinVatDifference.Value)</Value>
                    <Style>
                      <FontFamily>Segoe UI</FontFamily>
                      <FontSize>8pt</FontSize>
                      <Format>=First(Fields!MinVatDifferenceFormat.Value)</Format>
                    </Style>
                  </TextRun>
                </TextRuns>
                <Style>
                  <TextAlign>Left</TextAlign>
                </Style>
              </Paragraph>
            </Paragraphs>
            <Left>7.58983cm</Left>
            <Height>11pt</Height>
            <Width>17.53202cm</Width>
            <ZIndex>3</ZIndex>
            <Style>
              <VerticalAlign>Top</VerticalAlign>
            </Style>
          </Textbox>
          <Textbox Name="VATEntryFilter">
            <CanGrow>true</CanGrow>
            <KeepTogether>true</KeepTogether>
            <Paragraphs>
              <Paragraph>
                <TextRuns>
                  <TextRun>
                    <Value>=First(Fields!Filter1_VatEntry.Value)</Value>
                    <Style>
                      <FontFamily>Segoe UI</FontFamily>
                      <FontSize>8pt</FontSize>
                    </Style>
                  </TextRun>
                </TextRuns>
                <Style />
              </Paragraph>
            </Paragraphs>
            <Top>0.35278cm</Top>
            <Height>11pt</Height>
            <Width>25.12185cm</Width>
            <ZIndex>4</ZIndex>
            <Style>
              <VerticalAlign>Top</VerticalAlign>
            </Style>
          </Textbox>
        </ReportItems>
        <Height>2.11666cm</Height>
        <Style />
      </Body>
      <Width>25.12186cm</Width>
      <Page>
        <PageHeader>
          <Height>1.81717cm</Height>
          <PrintOnFirstPage>true</PrintOnFirstPage>
          <PrintOnLastPage>true</PrintOnLastPage>
          <ReportItems>
            <Textbox Name="VATExceptionsCaption1">
              <CanGrow>true</CanGrow>
              <KeepTogether>true</KeepTogether>
              <Paragraphs>
                <Paragraph>
                  <TextRuns>
                    <TextRun>
                      <Value>=First(Fields!VATExceptionsCaption.Value, "DataSet_Result")</Value>
                      <Style>
                        <FontFamily>Segoe UI</FontFamily>
                        <FontSize>14pt</FontSize>
                        <FontWeight>Bold</FontWeight>
                      </Style>
                    </TextRun>
                  </TextRuns>
                  <Style />
                </Paragraph>
              </Paragraphs>
              <Height>20pt</Height>
              <Width>17.24408cm</Width>
              <Style>
                <VerticalAlign>Top</VerticalAlign>
              </Style>
            </Textbox>
            <Textbox Name="COMPANYNAME1">
              <CanGrow>true</CanGrow>
              <KeepTogether>true</KeepTogether>
              <Paragraphs>
                <Paragraph>
                  <TextRuns>
                    <TextRun>
                      <Value>=First(Fields!CompanyName.Value, "DataSet_Result")</Value>
                      <Style>
                        <FontFamily>Segoe UI</FontFamily>
                        <FontSize>8pt</FontSize>
                        <FontWeight>Normal</FontWeight>
                      </Style>
                    </TextRun>
                  </TextRuns>
                  <Style />
                </Paragraph>
              </Paragraphs>
              <Top>20pt</Top>
              <Height>11pt</Height>
              <Width>17.24408cm</Width>
              <ZIndex>1</ZIndex>
              <Style>
                <VerticalAlign>Top</VerticalAlign>
              </Style>
            </Textbox>
            <Textbox Name="ExecutionTimeTextBox">
              <CanGrow>true</CanGrow>
              <KeepTogether>true</KeepTogether>
              <Paragraphs>
                <Paragraph>
                  <TextRuns>
                    <TextRun>
                      <Value>=Globals!ExecutionTime</Value>
                      <Style>
                        <FontStyle>Normal</FontStyle>
                        <FontFamily>Segoe UI</FontFamily>
                        <FontSize>8pt</FontSize>
                        <Format>D</Format>
                      </Style>
                    </TextRun>
                  </TextRuns>
                  <Style>
                    <TextAlign>Right</TextAlign>
                  </Style>
                </Paragraph>
              </Paragraphs>
              <Left>17.24408cm</Left>
              <Height>11pt</Height>
              <Width>7.82868cm</Width>
              <ZIndex>2</ZIndex>
              <Style>
                <VerticalAlign>Top</VerticalAlign>
              </Style>
            </Textbox>
            <Textbox Name="UserIdTextBox">
              <CanGrow>true</CanGrow>
              <KeepTogether>true</KeepTogether>
              <Paragraphs>
                <Paragraph>
                  <TextRuns>
                    <TextRun>
                      <Value>=User!UserID</Value>
                      <Style>
                        <FontStyle>Normal</FontStyle>
                        <FontFamily>Segoe UI</FontFamily>
                        <FontSize>8pt</FontSize>
                      </Style>
                    </TextRun>
                  </TextRuns>
                  <Style>
                    <TextAlign>Right</TextAlign>
                  </Style>
                </Paragraph>
              </Paragraphs>
              <Top>0.70556cm</Top>
              <Left>17.24408cm</Left>
              <Height>11pt</Height>
              <Width>7.82868cm</Width>
              <ZIndex>3</ZIndex>
              <Style>
                <VerticalAlign>Top</VerticalAlign>
              </Style>
            </Textbox>
            <Textbox Name="PageNumberTextBox">
              <CanGrow>true</CanGrow>
              <KeepTogether>true</KeepTogether>
              <Paragraphs>
                <Paragraph>
                  <TextRuns>
                    <TextRun>
                      <Value>=First(Fields!CurrReportPageNoOCaption.Value, "DataSet_Result") &amp;" "&amp; Globals!PageNumber</Value>
                      <Style>
                        <FontStyle>Normal</FontStyle>
                        <FontFamily>Segoe UI</FontFamily>
                        <FontSize>8pt</FontSize>
                      </Style>
                    </TextRun>
                  </TextRuns>
                  <Style>
                    <TextAlign>Right</TextAlign>
                  </Style>
                </Paragraph>
              </Paragraphs>
              <Top>0.35278cm</Top>
              <Left>17.24408cm</Left>
              <Height>11pt</Height>
              <Width>7.82868cm</Width>
              <ZIndex>4</ZIndex>
              <Style>
                <VerticalAlign>Top</VerticalAlign>
              </Style>
            </Textbox>
          </ReportItems>
          <Style />
        </PageHeader>
        <PageHeight>21cm</PageHeight>
        <PageWidth>29.7cm</PageWidth>
        <InteractiveHeight>11in</InteractiveHeight>
        <InteractiveWidth>8.5in</InteractiveWidth>
        <LeftMargin>1.05834cm</LeftMargin>
        <RightMargin>1.05834cm</RightMargin>
        <TopMargin>1.05834cm</TopMargin>
        <BottomMargin>1.48166cm</BottomMargin>
        <ColumnSpacing>1.27cm</ColumnSpacing>
        <Style />
      </Page>
    </ReportSection>
  </ReportSections>
  <ReportParameters>
    <ReportParameter Name="DocumentNo_VatEntryCaption">
      <DataType>String</DataType>
      <DefaultValue>
        <Values>
          <Value>DocumentNo_VatEntryCaption</Value>
        </Values>
      </DefaultValue>
      <Prompt>DocumentNo_VatEntryCaption</Prompt>
    </ReportParameter>
    <ReportParameter Name="Type_VatEntryCaption">
      <DataType>String</DataType>
      <DefaultValue>
        <Values>
          <Value>Type_VatEntryCaption</Value>
        </Values>
      </DefaultValue>
      <Prompt>Type_VatEntryCaption</Prompt>
    </ReportParameter>
    <ReportParameter Name="Base_VatEntryCaption">
      <DataType>String</DataType>
      <DefaultValue>
        <Values>
          <Value>Base_VatEntryCaption</Value>
        </Values>
      </DefaultValue>
      <Prompt>Base_VatEntryCaption</Prompt>
    </ReportParameter>
    <ReportParameter Name="Amount_VatEntryCaption">
      <DataType>String</DataType>
      <DefaultValue>
        <Values>
          <Value>Amount_VatEntryCaption</Value>
        </Values>
      </DefaultValue>
      <Prompt>Amount_VatEntryCaption</Prompt>
    </ReportParameter>
    <ReportParameter Name="BillToPay_VatEntryCaption">
      <DataType>String</DataType>
      <DefaultValue>
        <Values>
          <Value>BillToPay_VatEntryCaption</Value>
        </Values>
      </DefaultValue>
      <Prompt>BillToPay_VatEntryCaption</Prompt>
    </ReportParameter>
    <ReportParameter Name="EntrtyNo_VatEntryCaption">
      <DataType>String</DataType>
      <DefaultValue>
        <Values>
          <Value>EntrtyNo_VatEntryCaption</Value>
        </Values>
      </DefaultValue>
      <Prompt>EntrtyNo_VatEntryCaption</Prompt>
    </ReportParameter>
    <ReportParameter Name="VatDiff_VatEntryCaption">
      <DataType>String</DataType>
      <DefaultValue>
        <Values>
          <Value>VatDiff_VatEntryCaption</Value>
        </Values>
      </DefaultValue>
      <Prompt>VatDiff_VatEntryCaption</Prompt>
    </ReportParameter>
  </ReportParameters>
  <Code>Public Function BlankZero(ByVal Value As Decimal)
    if Value = 0 then
        Return ""
    end if
    Return Value
End Function

Public Function BlankPos(ByVal Value As Decimal)
    if Value &gt; 0 then
        Return ""
    end if
    Return Value
End Function

Public Function BlankZeroAndPos(ByVal Value As Decimal)
    if Value &gt;= 0 then
        Return ""
    end if
    Return Value
End Function

Public Function BlankNeg(ByVal Value As Decimal)
    if Value &lt; 0 then
        Return ""
    end if
    Return Value
End Function

Public Function BlankNegAndZero(ByVal Value As Decimal)
    if Value &lt;= 0 then
        Return ""
    end if
    Return Value
End Function
</Code>
  <Language>=User!Language</Language>
  <ConsumeContainerWhitespace>true</ConsumeContainerWhitespace>
  <rd:ReportUnitType>Cm</rd:ReportUnitType>
  <rd:ReportID>1c2ee763-ff49-41a6-80de-01c2aa8ca52f</rd:ReportID>
</Report>
    END_OF_RDLDATA
  }
}

