OBJECT Report 493 Carry Out Action Msg. - Req.
{
  OBJECT-PROPERTIES
  {
    Date=07/09/12;
    Time=12:00:00;
    Version List=NAVW17.00;
  }
  PROPERTIES
  {
    CaptionML=ENU=Carry Out Action Msg. - Req.;
    ProcessingOnly=Yes;
    OnPreReport=BEGIN
                  UseOneJnl(ReqLine);
                END;

  }
  DATASET
  {
  }
  REQUESTPAGE
  {
    PROPERTIES
    {
      SaveValues=Yes;
      OnOpenPage=BEGIN
                   PurchOrderHeader."Order Date" := WORKDATE;
                   PurchOrderHeader."Posting Date" := WORKDATE;
                   PurchOrderHeader."Expected Receipt Date" := WORKDATE;
                   IF ReqWkshTmpl.Recurring THEN
                     EndOrderDate := WORKDATE
                   ELSE
                     EndOrderDate := 0D;
                 END;

    }
    CONTROLS
    {
      { 1900000001;0;Container;
                  ContainerType=ContentArea }

      { 1900000002;1;Group  ;
                  CaptionML=ENU=Options }

      { 6   ;2   ;Field     ;
                  CaptionML=ENU=Print Orders;
                  SourceExpr=PrintOrders }

    }
  }
  LABELS
  {
  }
  CODE
  {
    VAR
      Text000@1000 : TextConst 'ENU=cannot be filtered when you create orders';
      Text001@1001 : TextConst 'ENU=There is nothing to create.';
      Text003@1003 : TextConst 'ENU=You are now in worksheet %1.';
      ReqWkshTmpl@1007 : Record 244;
      ReqWkshName@1008 : Record 245;
      ReqLine@1009 : Record 246;
      PurchOrderHeader@1010 : Record 38;
      ReqWkshMakeOrders@1011 : Codeunit 333;
      EndOrderDate@1012 : Date;
      PrintOrders@1013 : Boolean;
      TempJnlBatchName@1014 : Code[10];
      HideDialog@1017 : Boolean;

    PROCEDURE SetReqWkshLine@1(VAR NewReqLine@1000 : Record 246);
    BEGIN
      ReqLine.COPY(NewReqLine);
      ReqWkshTmpl.GET(NewReqLine."Worksheet Template Name");
    END;

    PROCEDURE GetReqWkshLine@6(VAR NewReqLine@1000 : Record 246);
    BEGIN
      NewReqLine.COPY(ReqLine);
    END;

    PROCEDURE SetReqWkshName@2(VAR NewReqWkshName@1000 : Record 245);
    BEGIN
      ReqWkshName.COPY(NewReqWkshName);
      ReqWkshTmpl.GET(NewReqWkshName."Worksheet Template Name");
    END;

    LOCAL PROCEDURE UseOneJnl@3(VAR ReqLine@1000 : Record 246);
    BEGIN
      WITH ReqLine DO BEGIN
        ReqWkshTmpl.GET("Worksheet Template Name");
        IF ReqWkshTmpl.Recurring AND (GETFILTER("Order Date") <> '') THEN
          FIELDERROR("Order Date",Text000);
        TempJnlBatchName := "Journal Batch Name";
        ReqWkshMakeOrders.Set(PurchOrderHeader,EndOrderDate,PrintOrders);
        ReqWkshMakeOrders.CarryOutBatchAction(ReqLine);

        IF "Line No." = 0 THEN
          MESSAGE(Text001)
        ELSE
          IF NOT HideDialog THEN
            IF TempJnlBatchName <> "Journal Batch Name" THEN
              MESSAGE(
                Text003,
                "Journal Batch Name");

        IF NOT FIND('=><') OR (TempJnlBatchName <> "Journal Batch Name") THEN BEGIN
          RESET;
          FILTERGROUP := 2;
          SETRANGE("Worksheet Template Name","Worksheet Template Name");
          SETRANGE("Journal Batch Name","Journal Batch Name");
          FILTERGROUP := 0;
          "Line No." := 1;
        END;
      END;
    END;

    PROCEDURE InitializeRequest@5(ExpirationDate@1000 : Date;OrderDate@1001 : Date;PostingDate@1002 : Date;ExpectedReceiptDate@1003 : Date;YourRef@1004 : Text[50]);
    BEGIN
      EndOrderDate := ExpirationDate;
      PurchOrderHeader."Order Date" := OrderDate;
      PurchOrderHeader."Posting Date" := PostingDate;
      PurchOrderHeader."Expected Receipt Date" := ExpectedReceiptDate;
      PurchOrderHeader."Your Reference" := YourRef;
    END;

    PROCEDURE SetHideDialog@7(NewHideDialog@1000 : Boolean);
    BEGIN
      HideDialog := NewHideDialog;
    END;

    BEGIN
    END.
  }
  RDLDATA
  {
  }
}

