OBJECT Report 5067 Questionnaire - Test
{
  OBJECT-PROPERTIES
  {
    Date=23/09/13;
    Time=12:00:00;
    Version List=NAVW17.10;
  }
  PROPERTIES
  {
    CaptionML=ENU=Questionnaire - Test;
  }
  DATASET
  {
    { 1883;    ;DataItem;                    ;
               DataItemTable=Table5087;
               ReqFilterFields=Code }

    { 3   ;1   ;Column  ;COMPANYNAME         ;
               SourceExpr=COMPANYNAME }

    { 2   ;1   ;Column  ;FORMAT_TODAY_0_4_   ;
               SourceExpr=FORMAT(TODAY,0,4) }

    { 4   ;1   ;Column  ;CurrReport_PAGENO   ;
               SourceExpr=CurrReport.PAGENO }

    { 7507;1   ;Column  ;Profile_Questionnaire_Header_Code;
               SourceExpr=Code }

    { 1   ;1   ;Column  ;Profile_Questionnaire_LineCaption;
               SourceExpr=Profile_Questionnaire_LineCaptionLbl }

    { 5   ;1   ;Column  ;CurrReport_PAGENOCaption;
               SourceExpr=CurrReport_PAGENOCaptionLbl }

    { 15  ;1   ;Column  ;Profile_Questionnaire_Line_DescriptionCaption;
               SourceExpr="Profile Questionnaire Line".FIELDCAPTION(Description) }

    { 12  ;1   ;Column  ;Profile_Questionnaire_Line_TypeCaption;
               SourceExpr="Profile Questionnaire Line".FIELDCAPTION(Type) }

    { 9   ;1   ;Column  ;Profile_Questionnaire_Line__Line_No__Caption;
               SourceExpr="Profile Questionnaire Line".FIELDCAPTION("Line No.") }

    { 4858;1   ;DataItem;                    ;
               DataItemTable=Table5088;
               DataItemTableView=SORTING(Profile Questionnaire Code,Line No.);
               OnAfterGetRecord=BEGIN
                                  CASE Type OF
                                    Type::Question:
                                      TestQuestion;
                                    Type::Answer:
                                      TestAnswer;
                                  END;
                                END;

               DataItemLink=Profile Questionnaire Code=FIELD(Code) }

    { 8   ;2   ;Column  ;Profile_Questionnaire_Line__Line_No__;
               SourceExpr="Line No." }

    { 11  ;2   ;Column  ;Profile_Questionnaire_Line_Type;
               SourceExpr=Type }

    { 14  ;2   ;Column  ;Profile_Questionnaire_Line_Description;
               SourceExpr=Description }

    { 5444;2   ;DataItem;                    ;
               DataItemTable=Table2000000026;
               DataItemTableView=SORTING(Number);
               OnPreDataItem=BEGIN
                               SETRANGE(Number,1,ErrorCounter);
                             END;

               OnPostDataItem=BEGIN
                                ErrorCounter := 0;
                              END;
                               }

    { 10  ;3   ;Column  ;ErrorText_Number_   ;
               SourceExpr=ErrorText[Number] }

    { 7   ;3   ;Column  ;ErrorText_Number_Caption;
               SourceExpr=ErrorText_Number_CaptionLbl }

  }
  REQUESTPAGE
  {
    PROPERTIES
    {
    }
    CONTROLS
    {
    }
  }
  LABELS
  {
  }
  CODE
  {
    VAR
      Text000@1000 : TextConst 'ENU=You must specify the Class. Field when %1 is set.';
      Text002@1002 : TextConst 'ENU=%1 must be specified when %2 is set.';
      Text003@1003 : TextConst 'ENU="%1 must be specified when %2 = %3."';
      Text004@1004 : TextConst 'ENU=No Answer created.';
      Text005@1005 : TextConst 'ENU=%1 and/or %2 must be specified.';
      Text006@1006 : TextConst 'ENU=%1 cannot be %2 when %3 is %4.';
      Text007@1007 : TextConst 'ENU=No Question created.';
      ProfileQuestnLine@1008 : Record 5088;
      ProfileQuestnLine2@1009 : Record 5088;
      ErrorCounter@1010 : Integer;
      ErrorText@1011 : ARRAY [50] OF Text[250];
      Profile_Questionnaire_LineCaptionLbl@3238 : TextConst 'ENU=Profile Questionnaire Line';
      CurrReport_PAGENOCaptionLbl@8565 : TextConst 'ENU=Page';
      ErrorText_Number_CaptionLbl@5070 : TextConst 'ENU=Warning!';

    PROCEDURE TestQuestion@1();
    BEGIN
      ProfileQuestnLine.RESET;
      ProfileQuestnLine2.RESET;
      WITH "Profile Questionnaire Line" DO BEGIN
        IF "Auto Contact Classification" THEN BEGIN
          IF ("Customer Class. Field" = "Customer Class. Field"::" ") AND
             ("Vendor Class. Field" = "Vendor Class. Field"::" ") AND
             ("Contact Class. Field" = "Contact Class. Field"::" ")
          THEN
            AddError(STRSUBSTNO(Text000,FIELDCAPTION("Auto Contact Classification")));
          IF "Contact Class. Field" <> "Contact Class. Field"::Rating THEN BEGIN
            IF FORMAT("Starting Date Formula") = '' THEN
              AddError(STRSUBSTNO(
                  Text002,
                  FIELDCAPTION("Starting Date Formula"),FIELDCAPTION("Auto Contact Classification")));
            IF FORMAT("Ending Date Formula") = '' THEN
              AddError(STRSUBSTNO(
                  Text002,
                  FIELDCAPTION("Ending Date Formula"),FIELDCAPTION("Auto Contact Classification")));
          END;
          IF "Classification Method" = "Classification Method"::" " THEN
            AddError(STRSUBSTNO(
                Text002,
                FIELDCAPTION("Classification Method"),FIELDCAPTION("Auto Contact Classification")));
          IF ("Classification Method"
              IN ["Classification Method"::"Percentage of Value","Classification Method"::"Percentage of Contacts"]) AND
             ("Sorting Method" = "Sorting Method"::" ")
          THEN
            AddError(STRSUBSTNO(
                Text003,
                FIELDCAPTION("Sorting Method"),FIELDCAPTION("Classification Method"),"Classification Method"));
        END;
        ProfileQuestnLine := "Profile Questionnaire Line";
        ProfileQuestnLine.SETRANGE("Profile Questionnaire Code","Profile Questionnaire Code");
        ProfileQuestnLine.SETRANGE(Type,Type::Question);
        IF ProfileQuestnLine.FIND('>') THEN
          ProfileQuestnLine2.SETRANGE("Line No.","Line No.",ProfileQuestnLine."Line No.")
        ELSE
          ProfileQuestnLine2.SETFILTER("Line No.",'%1..',"Line No.");
        ProfileQuestnLine2.SETRANGE("Profile Questionnaire Code","Profile Questionnaire Code");
        ProfileQuestnLine2.SETRANGE(Type,Type::Answer);
        IF NOT ProfileQuestnLine2.FINDFIRST THEN
          AddError(Text004);
      END;
    END;

    PROCEDURE TestAnswer@3();
    BEGIN
      ProfileQuestnLine.RESET;
      ProfileQuestnLine2.RESET;
      WITH "Profile Questionnaire Line" DO BEGIN
        ProfileQuestnLine := "Profile Questionnaire Line";
        ProfileQuestnLine.SETRANGE("Profile Questionnaire Code","Profile Questionnaire Code");
        ProfileQuestnLine.SETRANGE(Type,Type::Question);
        IF ProfileQuestnLine.FIND('<') THEN BEGIN
          IF ProfileQuestnLine."Auto Contact Classification" AND
             ("From Value" = 0) AND ("To Value" = 0)
          THEN
            AddError(STRSUBSTNO(
                Text005,FIELDCAPTION("From Value"),FIELDCAPTION("To Value")));
          IF "From Value" <> ROUND("From Value",1 / POWER(10,ProfileQuestnLine."No. of Decimals")) THEN
            AddError(STRSUBSTNO(
                Text006,FIELDCAPTION("From Value"),"From Value",
                FIELDCAPTION("No. of Decimals"),ProfileQuestnLine."No. of Decimals"));
          IF "To Value" <> ROUND("To Value",1 / POWER(10,ProfileQuestnLine."No. of Decimals")) THEN
            AddError(STRSUBSTNO(
                Text006,FIELDCAPTION("To Value"),"To Value",
                FIELDCAPTION("No. of Decimals"),ProfileQuestnLine."No. of Decimals"));
        END ELSE
          AddError(Text007);
      END;
    END;

    LOCAL PROCEDURE AddError@2(Text@1000 : Text[250]);
    BEGIN
      ErrorCounter := ErrorCounter + 1;
      ErrorText[ErrorCounter] := Text;
    END;

    BEGIN
    END.
  }
  RDLDATA
  {
    <?xml version="1.0" encoding="utf-8"?>
<Report xmlns:rd="http://schemas.microsoft.com/SQLServer/reporting/reportdesigner" xmlns="http://schemas.microsoft.com/sqlserver/reporting/2010/01/reportdefinition">
  <AutoRefresh>0</AutoRefresh>
  <DataSources>
    <DataSource Name="DataSource">
      <ConnectionProperties>
        <DataProvider>SQL</DataProvider>
        <ConnectString />
      </ConnectionProperties>
      <rd:SecurityType>None</rd:SecurityType>
      <rd:DataSourceID>766ad3ca-af6b-431b-98d5-b9641aeb2165</rd:DataSourceID>
    </DataSource>
  </DataSources>
  <DataSets>
    <DataSet Name="DataSet_Result">
      <Query>
        <DataSourceName>DataSource</DataSourceName>
        <CommandText />
      </Query>
      <Fields>
        <Field Name="COMPANYNAME">
          <DataField>COMPANYNAME</DataField>
        </Field>
        <Field Name="FORMAT_TODAY_0_4_">
          <DataField>FORMAT_TODAY_0_4_</DataField>
        </Field>
        <Field Name="CurrReport_PAGENO">
          <DataField>CurrReport_PAGENO</DataField>
        </Field>
        <Field Name="Profile_Questionnaire_Header_Code">
          <DataField>Profile_Questionnaire_Header_Code</DataField>
        </Field>
        <Field Name="Profile_Questionnaire_LineCaption">
          <DataField>Profile_Questionnaire_LineCaption</DataField>
        </Field>
        <Field Name="CurrReport_PAGENOCaption">
          <DataField>CurrReport_PAGENOCaption</DataField>
        </Field>
        <Field Name="Profile_Questionnaire_Line_DescriptionCaption">
          <DataField>Profile_Questionnaire_Line_DescriptionCaption</DataField>
        </Field>
        <Field Name="Profile_Questionnaire_Line_TypeCaption">
          <DataField>Profile_Questionnaire_Line_TypeCaption</DataField>
        </Field>
        <Field Name="Profile_Questionnaire_Line__Line_No__Caption">
          <DataField>Profile_Questionnaire_Line__Line_No__Caption</DataField>
        </Field>
        <Field Name="Profile_Questionnaire_Line__Line_No__">
          <DataField>Profile_Questionnaire_Line__Line_No__</DataField>
        </Field>
        <Field Name="Profile_Questionnaire_Line_Type">
          <DataField>Profile_Questionnaire_Line_Type</DataField>
        </Field>
        <Field Name="Profile_Questionnaire_Line_Description">
          <DataField>Profile_Questionnaire_Line_Description</DataField>
        </Field>
        <Field Name="ErrorText_Number_">
          <DataField>ErrorText_Number_</DataField>
        </Field>
        <Field Name="ErrorText_Number_Caption">
          <DataField>ErrorText_Number_Caption</DataField>
        </Field>
      </Fields>
      <rd:DataSetInfo>
        <rd:DataSetName>DataSet</rd:DataSetName>
        <rd:SchemaPath>Report.xsd</rd:SchemaPath>
        <rd:TableName>Result</rd:TableName>
      </rd:DataSetInfo>
    </DataSet>
  </DataSets>
  <ReportSections>
    <ReportSection>
      <Body>
        <ReportItems>
          <Tablix Name="Table1">
            <TablixBody>
              <TablixColumns>
                <TablixColumn>
                  <Width>1.125cm</Width>
                </TablixColumn>
                <TablixColumn>
                  <Width>0.45cm</Width>
                </TablixColumn>
                <TablixColumn>
                  <Width>1.8cm</Width>
                </TablixColumn>
                <TablixColumn>
                  <Width>4.575cm</Width>
                </TablixColumn>
                <TablixColumn>
                  <Width>10.125cm</Width>
                </TablixColumn>
                <TablixColumn>
                  <Width>0.03125in</Width>
                </TablixColumn>
                <TablixColumn>
                  <Width>0.03125in</Width>
                </TablixColumn>
                <TablixColumn>
                  <Width>0.03125in</Width>
                </TablixColumn>
                <TablixColumn>
                  <Width>0.03125in</Width>
                </TablixColumn>
              </TablixColumns>
              <TablixRows>
                <TablixRow>
                  <Height>0.846cm</Height>
                  <TablixCells>
                    <TablixCell>
                      <CellContents>
                        <Textbox Name="Profile_Questionnaire_Line__Line_No__Caption">
                          <CanGrow>true</CanGrow>
                          <KeepTogether>true</KeepTogether>
                          <Paragraphs>
                            <Paragraph>
                              <TextRuns>
                                <TextRun>
                                  <Value>=First(Fields!Profile_Questionnaire_Line__Line_No__Caption.Value)</Value>
                                  <Style>
                                    <FontSize>7pt</FontSize>
                                    <FontWeight>Bold</FontWeight>
                                  </Style>
                                </TextRun>
                              </TextRuns>
                              <Style>
                                <TextAlign>Right</TextAlign>
                              </Style>
                            </Paragraph>
                          </Paragraphs>
                          <ZIndex>21</ZIndex>
                          <Style>
                            <VerticalAlign>Bottom</VerticalAlign>
                            <PaddingRight>0.075cm</PaddingRight>
                          </Style>
                        </Textbox>
                      </CellContents>
                    </TablixCell>
                    <TablixCell>
                      <CellContents>
                        <Textbox Name="Profile_Questionnaire_Line_TypeCaption">
                          <CanGrow>true</CanGrow>
                          <KeepTogether>true</KeepTogether>
                          <Paragraphs>
                            <Paragraph>
                              <TextRuns>
                                <TextRun>
                                  <Value>=First(Fields!Profile_Questionnaire_Line_TypeCaption.Value)</Value>
                                  <Style>
                                    <FontSize>7pt</FontSize>
                                    <FontWeight>Bold</FontWeight>
                                  </Style>
                                </TextRun>
                              </TextRuns>
                            </Paragraph>
                          </Paragraphs>
                          <ZIndex>20</ZIndex>
                          <Style>
                            <VerticalAlign>Bottom</VerticalAlign>
                            <PaddingLeft>0.075cm</PaddingLeft>
                            <PaddingRight>0.075cm</PaddingRight>
                          </Style>
                        </Textbox>
                        <ColSpan>2</ColSpan>
                      </CellContents>
                    </TablixCell>
                    <TablixCell />
                    <TablixCell>
                      <CellContents>
                        <Textbox Name="Profile_Questionnaire_Line_DescriptionCaption">
                          <CanGrow>true</CanGrow>
                          <KeepTogether>true</KeepTogether>
                          <Paragraphs>
                            <Paragraph>
                              <TextRuns>
                                <TextRun>
                                  <Value>=First(Fields!Profile_Questionnaire_Line_DescriptionCaption.Value)</Value>
                                  <Style>
                                    <FontSize>7pt</FontSize>
                                    <FontWeight>Bold</FontWeight>
                                  </Style>
                                </TextRun>
                              </TextRuns>
                            </Paragraph>
                          </Paragraphs>
                          <ZIndex>19</ZIndex>
                          <Style>
                            <VerticalAlign>Bottom</VerticalAlign>
                            <PaddingLeft>0.075cm</PaddingLeft>
                          </Style>
                        </Textbox>
                      </CellContents>
                    </TablixCell>
                    <TablixCell>
                      <CellContents>
                        <Textbox Name="textbox1">
                          <KeepTogether>true</KeepTogether>
                          <Paragraphs>
                            <Paragraph>
                              <TextRuns>
                                <TextRun>
                                  <Value />
                                  <Style>
                                    <FontSize>7pt</FontSize>
                                    <FontWeight>Bold</FontWeight>
                                  </Style>
                                </TextRun>
                              </TextRuns>
                            </Paragraph>
                          </Paragraphs>
                          <rd:DefaultName>textbox1</rd:DefaultName>
                          <ZIndex>18</ZIndex>
                          <Style>
                            <VerticalAlign>Bottom</VerticalAlign>
                            <PaddingLeft>0.075cm</PaddingLeft>
                          </Style>
                        </Textbox>
                      </CellContents>
                    </TablixCell>
                    <TablixCell>
                      <CellContents>
                        <Textbox Name="COMPANYNAME">
                          <KeepTogether>true</KeepTogether>
                          <Paragraphs>
                            <Paragraph>
                              <TextRuns>
                                <TextRun>
                                  <Value>=Fields!COMPANYNAME.Value</Value>
                                  <Style>
                                    <Color>#ff0000</Color>
                                  </Style>
                                </TextRun>
                              </TextRuns>
                            </Paragraph>
                          </Paragraphs>
                          <ZIndex>17</ZIndex>
                          <Visibility>
                            <Hidden>true</Hidden>
                          </Visibility>
                          <Style>
                            <VerticalAlign>Middle</VerticalAlign>
                            <PaddingLeft>2pt</PaddingLeft>
                            <PaddingRight>2pt</PaddingRight>
                          </Style>
                        </Textbox>
                      </CellContents>
                    </TablixCell>
                    <TablixCell>
                      <CellContents>
                        <Textbox Name="Profile_Questionnaire_LineCaption">
                          <CanGrow>true</CanGrow>
                          <KeepTogether>true</KeepTogether>
                          <Paragraphs>
                            <Paragraph>
                              <TextRuns>
                                <TextRun>
                                  <Value>=Fields!Profile_Questionnaire_LineCaption.Value</Value>
                                  <Style>
                                    <Color>#ff0000</Color>
                                  </Style>
                                </TextRun>
                              </TextRuns>
                            </Paragraph>
                          </Paragraphs>
                          <ZIndex>16</ZIndex>
                          <Visibility>
                            <Hidden>true</Hidden>
                          </Visibility>
                          <Style>
                            <VerticalAlign>Middle</VerticalAlign>
                            <PaddingLeft>2pt</PaddingLeft>
                            <PaddingRight>2pt</PaddingRight>
                          </Style>
                        </Textbox>
                      </CellContents>
                    </TablixCell>
                    <TablixCell>
                      <CellContents>
                        <Textbox Name="CurrReport_PAGENOCaption">
                          <CanGrow>true</CanGrow>
                          <KeepTogether>true</KeepTogether>
                          <Paragraphs>
                            <Paragraph>
                              <TextRuns>
                                <TextRun>
                                  <Value>=Fields!CurrReport_PAGENOCaption.Value</Value>
                                  <Style>
                                    <Color>#ff0000</Color>
                                  </Style>
                                </TextRun>
                              </TextRuns>
                            </Paragraph>
                          </Paragraphs>
                          <ZIndex>15</ZIndex>
                          <Visibility>
                            <Hidden>true</Hidden>
                          </Visibility>
                          <Style>
                            <VerticalAlign>Middle</VerticalAlign>
                            <PaddingLeft>2pt</PaddingLeft>
                            <PaddingRight>2pt</PaddingRight>
                          </Style>
                        </Textbox>
                      </CellContents>
                    </TablixCell>
                    <TablixCell>
                      <CellContents>
                        <Textbox Name="FORMAT_TODAY_0_4_">
                          <KeepTogether>true</KeepTogether>
                          <Paragraphs>
                            <Paragraph>
                              <TextRuns>
                                <TextRun>
                                  <Value>=Fields!FORMAT_TODAY_0_4_.Value</Value>
                                  <Style>
                                    <Color>#ff0000</Color>
                                  </Style>
                                </TextRun>
                              </TextRuns>
                            </Paragraph>
                          </Paragraphs>
                          <ZIndex>14</ZIndex>
                          <Visibility>
                            <Hidden>true</Hidden>
                          </Visibility>
                          <Style>
                            <VerticalAlign>Middle</VerticalAlign>
                            <PaddingLeft>2pt</PaddingLeft>
                            <PaddingRight>2pt</PaddingRight>
                          </Style>
                        </Textbox>
                      </CellContents>
                    </TablixCell>
                  </TablixCells>
                </TablixRow>
                <TablixRow>
                  <Height>0.423cm</Height>
                  <TablixCells>
                    <TablixCell>
                      <CellContents>
                        <Textbox Name="Profile_Questionnaire_Line__Line_No__">
                          <KeepTogether>true</KeepTogether>
                          <Paragraphs>
                            <Paragraph>
                              <TextRuns>
                                <TextRun>
                                  <Value>=Fields!Profile_Questionnaire_Line__Line_No__.Value</Value>
                                  <Style>
                                    <FontSize>7pt</FontSize>
                                  </Style>
                                </TextRun>
                              </TextRuns>
                              <Style>
                                <TextAlign>Right</TextAlign>
                              </Style>
                            </Paragraph>
                          </Paragraphs>
                          <ZIndex>13</ZIndex>
                          <Style>
                            <PaddingRight>0.075cm</PaddingRight>
                            <PaddingTop>2pt</PaddingTop>
                            <PaddingBottom>2pt</PaddingBottom>
                          </Style>
                        </Textbox>
                      </CellContents>
                    </TablixCell>
                    <TablixCell>
                      <CellContents>
                        <Textbox Name="Profile_Questionnaire_Line_Type">
                          <KeepTogether>true</KeepTogether>
                          <Paragraphs>
                            <Paragraph>
                              <TextRuns>
                                <TextRun>
                                  <Value>=Fields!Profile_Questionnaire_Line_Type.Value</Value>
                                  <Style>
                                    <FontSize>7pt</FontSize>
                                  </Style>
                                </TextRun>
                              </TextRuns>
                              <Style>
                                <TextAlign>Left</TextAlign>
                              </Style>
                            </Paragraph>
                          </Paragraphs>
                          <ZIndex>12</ZIndex>
                          <Style>
                            <PaddingLeft>0.075cm</PaddingLeft>
                            <PaddingRight>0.075cm</PaddingRight>
                            <PaddingTop>2pt</PaddingTop>
                            <PaddingBottom>2pt</PaddingBottom>
                          </Style>
                        </Textbox>
                        <ColSpan>2</ColSpan>
                      </CellContents>
                    </TablixCell>
                    <TablixCell />
                    <TablixCell>
                      <CellContents>
                        <Textbox Name="Profile_Questionnaire_Line_Description">
                          <KeepTogether>true</KeepTogether>
                          <Paragraphs>
                            <Paragraph>
                              <TextRuns>
                                <TextRun>
                                  <Value>=Fields!Profile_Questionnaire_Line_Description.Value</Value>
                                  <Style>
                                    <FontSize>7pt</FontSize>
                                  </Style>
                                </TextRun>
                              </TextRuns>
                              <Style>
                                <TextAlign>Left</TextAlign>
                              </Style>
                            </Paragraph>
                          </Paragraphs>
                          <ZIndex>11</ZIndex>
                          <Style>
                            <PaddingLeft>0.075cm</PaddingLeft>
                            <PaddingTop>2pt</PaddingTop>
                            <PaddingBottom>2pt</PaddingBottom>
                          </Style>
                        </Textbox>
                      </CellContents>
                    </TablixCell>
                    <TablixCell>
                      <CellContents>
                        <Textbox Name="textbox2">
                          <KeepTogether>true</KeepTogether>
                          <Paragraphs>
                            <Paragraph>
                              <TextRuns>
                                <TextRun>
                                  <Value />
                                  <Style>
                                    <FontSize>7pt</FontSize>
                                  </Style>
                                </TextRun>
                              </TextRuns>
                              <Style>
                                <TextAlign>Left</TextAlign>
                              </Style>
                            </Paragraph>
                          </Paragraphs>
                          <rd:DefaultName>textbox2</rd:DefaultName>
                          <ZIndex>10</ZIndex>
                          <Style>
                            <PaddingLeft>0.075cm</PaddingLeft>
                            <PaddingTop>2pt</PaddingTop>
                            <PaddingBottom>2pt</PaddingBottom>
                          </Style>
                        </Textbox>
                      </CellContents>
                    </TablixCell>
                    <TablixCell>
                      <CellContents>
                        <Textbox Name="textbox8">
                          <KeepTogether>true</KeepTogether>
                          <Paragraphs>
                            <Paragraph>
                              <TextRuns>
                                <TextRun>
                                  <Value />
                                  <Style />
                                </TextRun>
                              </TextRuns>
                            </Paragraph>
                          </Paragraphs>
                          <rd:DefaultName>textbox8</rd:DefaultName>
                          <ZIndex>9</ZIndex>
                          <Style>
                            <PaddingLeft>2pt</PaddingLeft>
                            <PaddingRight>2pt</PaddingRight>
                            <PaddingTop>2pt</PaddingTop>
                            <PaddingBottom>2pt</PaddingBottom>
                          </Style>
                        </Textbox>
                      </CellContents>
                    </TablixCell>
                    <TablixCell>
                      <CellContents>
                        <Textbox Name="textbox9">
                          <KeepTogether>true</KeepTogether>
                          <Paragraphs>
                            <Paragraph>
                              <TextRuns>
                                <TextRun>
                                  <Value />
                                  <Style />
                                </TextRun>
                              </TextRuns>
                            </Paragraph>
                          </Paragraphs>
                          <rd:DefaultName>textbox9</rd:DefaultName>
                          <ZIndex>8</ZIndex>
                          <Style>
                            <PaddingLeft>2pt</PaddingLeft>
                            <PaddingRight>2pt</PaddingRight>
                            <PaddingTop>2pt</PaddingTop>
                            <PaddingBottom>2pt</PaddingBottom>
                          </Style>
                        </Textbox>
                      </CellContents>
                    </TablixCell>
                    <TablixCell>
                      <CellContents>
                        <Textbox Name="textbox10">
                          <KeepTogether>true</KeepTogether>
                          <Paragraphs>
                            <Paragraph>
                              <TextRuns>
                                <TextRun>
                                  <Value />
                                  <Style />
                                </TextRun>
                              </TextRuns>
                            </Paragraph>
                          </Paragraphs>
                          <rd:DefaultName>textbox10</rd:DefaultName>
                          <ZIndex>7</ZIndex>
                          <Style>
                            <PaddingLeft>2pt</PaddingLeft>
                            <PaddingRight>2pt</PaddingRight>
                            <PaddingTop>2pt</PaddingTop>
                            <PaddingBottom>2pt</PaddingBottom>
                          </Style>
                        </Textbox>
                      </CellContents>
                    </TablixCell>
                    <TablixCell>
                      <CellContents>
                        <Textbox Name="textbox11">
                          <KeepTogether>true</KeepTogether>
                          <Paragraphs>
                            <Paragraph>
                              <TextRuns>
                                <TextRun>
                                  <Value />
                                  <Style />
                                </TextRun>
                              </TextRuns>
                            </Paragraph>
                          </Paragraphs>
                          <rd:DefaultName>textbox11</rd:DefaultName>
                          <ZIndex>6</ZIndex>
                          <Style>
                            <PaddingLeft>2pt</PaddingLeft>
                            <PaddingRight>2pt</PaddingRight>
                            <PaddingTop>2pt</PaddingTop>
                            <PaddingBottom>2pt</PaddingBottom>
                          </Style>
                        </Textbox>
                      </CellContents>
                    </TablixCell>
                  </TablixCells>
                </TablixRow>
                <TablixRow>
                  <Height>0.423cm</Height>
                  <TablixCells>
                    <TablixCell>
                      <CellContents>
                        <Textbox Name="ErrorText_Number_Caption">
                          <CanGrow>true</CanGrow>
                          <KeepTogether>true</KeepTogether>
                          <Paragraphs>
                            <Paragraph>
                              <TextRuns>
                                <TextRun>
                                  <Value>=Fields!ErrorText_Number_Caption.Value</Value>
                                  <Style>
                                    <FontSize>7pt</FontSize>
                                    <FontWeight>Bold</FontWeight>
                                  </Style>
                                </TextRun>
                              </TextRuns>
                            </Paragraph>
                          </Paragraphs>
                          <rd:DefaultName>ErrorText_Number_Caption</rd:DefaultName>
                          <ZIndex>5</ZIndex>
                          <Style>
                            <PaddingRight>0.075cm</PaddingRight>
                            <PaddingTop>2pt</PaddingTop>
                            <PaddingBottom>2pt</PaddingBottom>
                          </Style>
                        </Textbox>
                        <ColSpan>2</ColSpan>
                      </CellContents>
                    </TablixCell>
                    <TablixCell />
                    <TablixCell>
                      <CellContents>
                        <Textbox Name="ErrorText_Number_">
                          <KeepTogether>true</KeepTogether>
                          <Paragraphs>
                            <Paragraph>
                              <TextRuns>
                                <TextRun>
                                  <Value>=Fields!ErrorText_Number_.Value</Value>
                                  <Style>
                                    <FontSize>7pt</FontSize>
                                  </Style>
                                </TextRun>
                              </TextRuns>
                            </Paragraph>
                          </Paragraphs>
                          <rd:DefaultName>ErrorText_Number_</rd:DefaultName>
                          <ZIndex>4</ZIndex>
                          <Style>
                            <PaddingLeft>0.075cm</PaddingLeft>
                            <PaddingTop>2pt</PaddingTop>
                            <PaddingBottom>2pt</PaddingBottom>
                          </Style>
                        </Textbox>
                        <ColSpan>3</ColSpan>
                      </CellContents>
                    </TablixCell>
                    <TablixCell />
                    <TablixCell />
                    <TablixCell>
                      <CellContents>
                        <Textbox Name="textbox5">
                          <KeepTogether>true</KeepTogether>
                          <Paragraphs>
                            <Paragraph>
                              <TextRuns>
                                <TextRun>
                                  <Value />
                                  <Style />
                                </TextRun>
                              </TextRuns>
                            </Paragraph>
                          </Paragraphs>
                          <rd:DefaultName>textbox5</rd:DefaultName>
                          <ZIndex>3</ZIndex>
                          <Style>
                            <PaddingLeft>2pt</PaddingLeft>
                            <PaddingRight>2pt</PaddingRight>
                            <PaddingTop>2pt</PaddingTop>
                            <PaddingBottom>2pt</PaddingBottom>
                          </Style>
                        </Textbox>
                      </CellContents>
                    </TablixCell>
                    <TablixCell>
                      <CellContents>
                        <Textbox Name="textbox6">
                          <KeepTogether>true</KeepTogether>
                          <Paragraphs>
                            <Paragraph>
                              <TextRuns>
                                <TextRun>
                                  <Value />
                                  <Style />
                                </TextRun>
                              </TextRuns>
                            </Paragraph>
                          </Paragraphs>
                          <rd:DefaultName>textbox6</rd:DefaultName>
                          <ZIndex>2</ZIndex>
                          <Style>
                            <PaddingLeft>2pt</PaddingLeft>
                            <PaddingRight>2pt</PaddingRight>
                            <PaddingTop>2pt</PaddingTop>
                            <PaddingBottom>2pt</PaddingBottom>
                          </Style>
                        </Textbox>
                      </CellContents>
                    </TablixCell>
                    <TablixCell>
                      <CellContents>
                        <Textbox Name="textbox7">
                          <KeepTogether>true</KeepTogether>
                          <Paragraphs>
                            <Paragraph>
                              <TextRuns>
                                <TextRun>
                                  <Value />
                                  <Style />
                                </TextRun>
                              </TextRuns>
                            </Paragraph>
                          </Paragraphs>
                          <rd:DefaultName>textbox7</rd:DefaultName>
                          <ZIndex>1</ZIndex>
                          <Style>
                            <PaddingLeft>2pt</PaddingLeft>
                            <PaddingRight>2pt</PaddingRight>
                            <PaddingTop>2pt</PaddingTop>
                            <PaddingBottom>2pt</PaddingBottom>
                          </Style>
                        </Textbox>
                      </CellContents>
                    </TablixCell>
                    <TablixCell>
                      <CellContents>
                        <Textbox Name="textbox15">
                          <KeepTogether>true</KeepTogether>
                          <Paragraphs>
                            <Paragraph>
                              <TextRuns>
                                <TextRun>
                                  <Value />
                                  <Style />
                                </TextRun>
                              </TextRuns>
                            </Paragraph>
                          </Paragraphs>
                          <rd:DefaultName>textbox15</rd:DefaultName>
                          <Style>
                            <PaddingLeft>2pt</PaddingLeft>
                            <PaddingRight>2pt</PaddingRight>
                            <PaddingTop>2pt</PaddingTop>
                            <PaddingBottom>2pt</PaddingBottom>
                          </Style>
                        </Textbox>
                      </CellContents>
                    </TablixCell>
                  </TablixCells>
                </TablixRow>
              </TablixRows>
            </TablixBody>
            <TablixColumnHierarchy>
              <TablixMembers>
                <TablixMember />
                <TablixMember />
                <TablixMember />
                <TablixMember />
                <TablixMember />
                <TablixMember />
                <TablixMember />
                <TablixMember />
                <TablixMember />
              </TablixMembers>
            </TablixColumnHierarchy>
            <TablixRowHierarchy>
              <TablixMembers>
                <TablixMember>
                  <KeepWithGroup>After</KeepWithGroup>
                  <RepeatOnNewPage>true</RepeatOnNewPage>
                  <KeepTogether>true</KeepTogether>
                </TablixMember>
                <TablixMember>
                  <Group Name="Table1_Group1">
                    <GroupExpressions>
                      <GroupExpression>=Fields!Profile_Questionnaire_Header_Code.Value</GroupExpression>
                    </GroupExpressions>
                    <PageBreak>
                      <BreakLocation>Between</BreakLocation>
                    </PageBreak>
                  </Group>
                  <TablixMembers>
                    <TablixMember>
                      <Group Name="Table1_Group2">
                        <GroupExpressions>
                          <GroupExpression>=Fields!Profile_Questionnaire_Line__Line_No__.Value</GroupExpression>
                        </GroupExpressions>
                      </Group>
                      <TablixMembers>
                        <TablixMember>
                          <KeepWithGroup>After</KeepWithGroup>
                          <KeepTogether>true</KeepTogether>
                        </TablixMember>
                        <TablixMember>
                          <Group Name="Table1_Details_Group">
                            <DataElementName>Detail</DataElementName>
                          </Group>
                          <TablixMembers>
                            <TablixMember>
                              <Visibility>
                                <Hidden>=IIf(Fields!ErrorText_Number_.Value = "",True,False)</Hidden>
                              </Visibility>
                            </TablixMember>
                          </TablixMembers>
                          <DataElementName>Detail_Collection</DataElementName>
                          <DataElementOutput>Output</DataElementOutput>
                          <KeepTogether>true</KeepTogether>
                        </TablixMember>
                      </TablixMembers>
                    </TablixMember>
                  </TablixMembers>
                </TablixMember>
              </TablixMembers>
            </TablixRowHierarchy>
            <DataSetName>DataSet_Result</DataSetName>
            <PageBreak>
              <BreakLocation>End</BreakLocation>
            </PageBreak>
          </Tablix>
        </ReportItems>
        <Height>1.692cm</Height>
      </Body>
      <Width>18.39246cm</Width>
      <Page>
        <PageHeader>
          <Height>1.692cm</Height>
          <PrintOnFirstPage>true</PrintOnFirstPage>
          <PrintOnLastPage>true</PrintOnLastPage>
          <ReportItems>
            <Textbox Name="PageNumberTextBox">
              <KeepTogether>true</KeepTogether>
              <Paragraphs>
                <Paragraph>
                  <TextRuns>
                    <TextRun>
                      <Value>=Globals!PageNumber</Value>
                      <Style>
                        <FontSize>7pt</FontSize>
                      </Style>
                    </TextRun>
                  </TextRuns>
                  <Style>
                    <TextAlign>Right</TextAlign>
                  </Style>
                </Paragraph>
              </Paragraphs>
              <Top>0.423cm</Top>
              <Left>17.7cm</Left>
              <Height>0.423cm</Height>
              <Width>0.45cm</Width>
              <ZIndex>5</ZIndex>
              <Visibility>
                <Hidden>=IIf(ReportItems!CurrReport_PAGENOCaption.Value = "",True,False)</Hidden>
              </Visibility>
              <DataElementOutput>NoOutput</DataElementOutput>
              <Style>
                <VerticalAlign>Middle</VerticalAlign>
              </Style>
            </Textbox>
            <Textbox Name="UserIdTextBox">
              <KeepTogether>true</KeepTogether>
              <Paragraphs>
                <Paragraph>
                  <TextRuns>
                    <TextRun>
                      <Value>=User!UserID</Value>
                      <Style>
                        <FontSize>7pt</FontSize>
                      </Style>
                    </TextRun>
                  </TextRuns>
                  <Style>
                    <TextAlign>Right</TextAlign>
                  </Style>
                </Paragraph>
              </Paragraphs>
              <Top>0.846cm</Top>
              <Left>14.9cm</Left>
              <Height>0.423cm</Height>
              <Width>3.25cm</Width>
              <ZIndex>4</ZIndex>
              <Visibility>
                <Hidden>=IIf(ReportItems!CurrReport_PAGENOCaption.Value = "",True,False)</Hidden>
              </Visibility>
              <DataElementOutput>NoOutput</DataElementOutput>
              <Style>
                <VerticalAlign>Middle</VerticalAlign>
              </Style>
            </Textbox>
            <Textbox Name="ExecutionTimeTextBox">
              <KeepTogether>true</KeepTogether>
              <Paragraphs>
                <Paragraph>
                  <TextRuns>
                    <TextRun>
                      <Value>=ReportItems!FORMAT_TODAY_0_4_.Value</Value>
                      <Style>
                        <FontSize>7pt</FontSize>
                        <Format>g</Format>
                      </Style>
                    </TextRun>
                  </TextRuns>
                  <Style>
                    <TextAlign>Right</TextAlign>
                  </Style>
                </Paragraph>
              </Paragraphs>
              <Left>15cm</Left>
              <Height>0.423cm</Height>
              <Width>3.15cm</Width>
              <ZIndex>3</ZIndex>
              <Style>
                <VerticalAlign>Middle</VerticalAlign>
              </Style>
            </Textbox>
            <Textbox Name="COMPANYNAME1">
              <KeepTogether>true</KeepTogether>
              <Paragraphs>
                <Paragraph>
                  <TextRuns>
                    <TextRun>
                      <Value>=ReportItems!COMPANYNAME.Value</Value>
                      <Style>
                        <FontSize>7pt</FontSize>
                      </Style>
                    </TextRun>
                  </TextRuns>
                </Paragraph>
              </Paragraphs>
              <Top>0.423cm</Top>
              <Height>0.423cm</Height>
              <Width>7.5cm</Width>
              <ZIndex>2</ZIndex>
              <Style>
                <VerticalAlign>Middle</VerticalAlign>
              </Style>
            </Textbox>
            <Textbox Name="Profile_Questionnaire_LineCaption1">
              <KeepTogether>true</KeepTogether>
              <Paragraphs>
                <Paragraph>
                  <TextRuns>
                    <TextRun>
                      <Value>=ReportItems!Profile_Questionnaire_LineCaption.Value</Value>
                      <Style>
                        <FontSize>8pt</FontSize>
                        <FontWeight>Bold</FontWeight>
                      </Style>
                    </TextRun>
                  </TextRuns>
                </Paragraph>
              </Paragraphs>
              <Height>0.423cm</Height>
              <Width>7.5cm</Width>
              <ZIndex>1</ZIndex>
              <Style>
                <VerticalAlign>Middle</VerticalAlign>
              </Style>
            </Textbox>
            <Textbox Name="CurrReport_PAGENOCaption1">
              <KeepTogether>true</KeepTogether>
              <Paragraphs>
                <Paragraph>
                  <TextRuns>
                    <TextRun>
                      <Value>=ReportItems!CurrReport_PAGENOCaption.Value</Value>
                      <Style>
                        <FontSize>7pt</FontSize>
                      </Style>
                    </TextRun>
                  </TextRuns>
                </Paragraph>
              </Paragraphs>
              <Top>0.423cm</Top>
              <Left>16.95cm</Left>
              <Height>0.423cm</Height>
              <Width>0.75cm</Width>
              <Style>
                <VerticalAlign>Middle</VerticalAlign>
              </Style>
            </Textbox>
          </ReportItems>
        </PageHeader>
        <PageHeight>29.7cm</PageHeight>
        <PageWidth>21cm</PageWidth>
        <InteractiveHeight>11in</InteractiveHeight>
        <InteractiveWidth>8.5in</InteractiveWidth>
        <LeftMargin>1.5cm</LeftMargin>
        <TopMargin>2cm</TopMargin>
        <BottomMargin>2cm</BottomMargin>
      </Page>
    </ReportSection>
  </ReportSections>
  <Code>Public Function BlankZero(ByVal Value As Decimal)
    if Value = 0 then
        Return ""
    end if
    Return Value
End Function

Public Function BlankPos(ByVal Value As Decimal)
    if Value &gt; 0 then
        Return ""
    end if
    Return Value
End Function

Public Function BlankZeroAndPos(ByVal Value As Decimal)
    if Value &gt;= 0 then
        Return ""
    end if
    Return Value
End Function

Public Function BlankNeg(ByVal Value As Decimal)
    if Value &lt; 0 then
        Return ""
    end if
    Return Value
End Function

Public Function BlankNegAndZero(ByVal Value As Decimal)
    if Value &lt;= 0 then
        Return ""
    end if
    Return Value
End Function
</Code>
  <Language>=User!Language</Language>
  <ConsumeContainerWhitespace>true</ConsumeContainerWhitespace>
  <rd:ReportUnitType>Invalid</rd:ReportUnitType>
  <rd:ReportID>342f5127-a638-4304-87e4-75d5ba73be8b</rd:ReportID>
</Report>
    END_OF_RDLDATA
  }
}

