OBJECT Report 5635 Maintenance - Next Service
{
  OBJECT-PROPERTIES
  {
    Date=23/09/13;
    Time=12:00:00;
    Version List=NAVW17.10;
  }
  PROPERTIES
  {
    CaptionML=ENU=Maintenance - Next Service;
    OnPreReport=BEGIN
                  IF (EndingDate > 0D) AND (StartingDate > EndingDate) THEN
                    ERROR(Text000);

                  FAGenReport.AppendFAPostingFilter("Fixed Asset",StartingDate,EndingDate);
                  FAFilter := "Fixed Asset".GETFILTERS;
                END;

  }
  DATASET
  {
    { 3794;    ;DataItem;                    ;
               DataItemTable=Table5600;
               PrintOnlyIfDetail=No;
               OnAfterGetRecord=BEGIN
                                  IF "Budgeted Asset" OR Inactive OR ("Next Service Date" = 0D) THEN
                                    CurrReport.SKIP;
                                  IF (StartingDate > 0D) OR (EndingDate > 0D) THEN BEGIN
                                    IF (StartingDate > 0D) AND ("Next Service Date" < StartingDate) THEN
                                      CurrReport.SKIP;
                                    IF (EndingDate > 0D) AND ("Next Service Date" > EndingDate) THEN
                                      CurrReport.SKIP;
                                  END;
                                END;

               ReqFilterFields=No.,FA Class Code,FA Subclass Code }

    { 2   ;1   ;Column  ;FORMAT_TODAY_0_4_   ;
               SourceExpr=FORMAT(TODAY,0,4) }

    { 5   ;1   ;Column  ;CurrReport_PAGENO   ;
               SourceExpr=CurrReport.PAGENO }

    { 6   ;1   ;Column  ;COMPANYNAME         ;
               SourceExpr=COMPANYNAME }

    { 10  ;1   ;Column  ;Fixed_Asset__TABLECAPTION__________FAFilter;
               SourceExpr=TABLECAPTION + ': ' + FAFilter }

    { 1000000001;1;Column;FAFilter           ;
               SourceExpr=FAFilter }

    { 3   ;1   ;Column  ;Fixed_Asset__No__   ;
               SourceExpr="No." }

    { 9   ;1   ;Column  ;Fixed_Asset_Description;
               SourceExpr=Description }

    { 12  ;1   ;Column  ;Fixed_Asset__Next_Service_Date_;
               SourceExpr=FORMAT("Next Service Date") }

    { 1   ;1   ;Column  ;Maintenance___Next_ServiceCaption;
               SourceExpr=Maintenance___Next_ServiceCaptionLbl }

    { 4   ;1   ;Column  ;CurrReport_PAGENOCaption;
               SourceExpr=CurrReport_PAGENOCaptionLbl }

    { 8   ;1   ;Column  ;Fixed_Asset__No__Caption;
               SourceExpr=FIELDCAPTION("No.") }

    { 11  ;1   ;Column  ;Fixed_Asset_DescriptionCaption;
               SourceExpr=FIELDCAPTION(Description) }

    { 13  ;1   ;Column  ;Fixed_Asset__Next_Service_Date_Caption;
               SourceExpr=Fixed_Asset__Next_Service_Date_CaptionLbl }

  }
  REQUESTPAGE
  {
    PROPERTIES
    {
      SaveValues=Yes;
    }
    CONTROLS
    {
      { 1900000001;0;Container;
                  ContainerType=ContentArea }

      { 1900000002;1;Group  ;
                  CaptionML=ENU=Options }

      { 1   ;2   ;Field     ;
                  CaptionML=ENU=Starting Date;
                  SourceExpr=StartingDate }

      { 5   ;2   ;Field     ;
                  CaptionML=ENU=Ending Date;
                  SourceExpr=EndingDate }

    }
  }
  LABELS
  {
  }
  CODE
  {
    VAR
      Text000@1000 : TextConst 'ENU=The Starting Date is later than the Ending Date.';
      FAGenReport@1001 : Codeunit 5626;
      StartingDate@1002 : Date;
      EndingDate@1003 : Date;
      FAFilter@1004 : Text;
      Maintenance___Next_ServiceCaptionLbl@5566 : TextConst 'ENU=Maintenance - Next Service';
      CurrReport_PAGENOCaptionLbl@8565 : TextConst 'ENU=Page';
      Fixed_Asset__Next_Service_Date_CaptionLbl@8158 : TextConst 'ENU=Next Service Date';

    PROCEDURE InitializeRequest@1(StartingDateFrom@1001 : Date;EndingDateFrom@1000 : Date);
    BEGIN
      StartingDate := StartingDateFrom;
      EndingDate := EndingDateFrom;
    END;

    BEGIN
    END.
  }
  RDLDATA
  {
    <?xml version="1.0" encoding="utf-8"?>
<Report xmlns:rd="http://schemas.microsoft.com/SQLServer/reporting/reportdesigner" xmlns="http://schemas.microsoft.com/sqlserver/reporting/2010/01/reportdefinition">
  <AutoRefresh>0</AutoRefresh>
  <DataSources>
    <DataSource Name="DataSource">
      <ConnectionProperties>
        <DataProvider>SQL</DataProvider>
        <ConnectString />
      </ConnectionProperties>
      <rd:SecurityType>None</rd:SecurityType>
      <rd:DataSourceID>242af7ec-9a85-4ea2-819e-75a88cd9327a</rd:DataSourceID>
    </DataSource>
  </DataSources>
  <DataSets>
    <DataSet Name="DataSet_Result">
      <Query>
        <DataSourceName>DataSource</DataSourceName>
        <CommandText />
      </Query>
      <Fields>
        <Field Name="FORMAT_TODAY_0_4_">
          <DataField>FORMAT_TODAY_0_4_</DataField>
        </Field>
        <Field Name="CurrReport_PAGENO">
          <DataField>CurrReport_PAGENO</DataField>
        </Field>
        <Field Name="COMPANYNAME">
          <DataField>COMPANYNAME</DataField>
        </Field>
        <Field Name="Fixed_Asset__TABLECAPTION__________FAFilter">
          <DataField>Fixed_Asset__TABLECAPTION__________FAFilter</DataField>
        </Field>
        <Field Name="FAFilter">
          <DataField>FAFilter</DataField>
        </Field>
        <Field Name="Fixed_Asset__No__">
          <DataField>Fixed_Asset__No__</DataField>
        </Field>
        <Field Name="Fixed_Asset_Description">
          <DataField>Fixed_Asset_Description</DataField>
        </Field>
        <Field Name="Fixed_Asset__Next_Service_Date_">
          <DataField>Fixed_Asset__Next_Service_Date_</DataField>
        </Field>
        <Field Name="Maintenance___Next_ServiceCaption">
          <DataField>Maintenance___Next_ServiceCaption</DataField>
        </Field>
        <Field Name="CurrReport_PAGENOCaption">
          <DataField>CurrReport_PAGENOCaption</DataField>
        </Field>
        <Field Name="Fixed_Asset__No__Caption">
          <DataField>Fixed_Asset__No__Caption</DataField>
        </Field>
        <Field Name="Fixed_Asset_DescriptionCaption">
          <DataField>Fixed_Asset_DescriptionCaption</DataField>
        </Field>
        <Field Name="Fixed_Asset__Next_Service_Date_Caption">
          <DataField>Fixed_Asset__Next_Service_Date_Caption</DataField>
        </Field>
      </Fields>
      <rd:DataSetInfo>
        <rd:DataSetName>DataSet</rd:DataSetName>
        <rd:SchemaPath>Report.xsd</rd:SchemaPath>
        <rd:TableName>Result</rd:TableName>
      </rd:DataSetInfo>
    </DataSet>
  </DataSets>
  <ReportSections>
    <ReportSection>
      <Body>
        <ReportItems>
          <Textbox Name="Fixed_Asset__TABLECAPTION__________FAFilter">
            <KeepTogether>true</KeepTogether>
            <Paragraphs>
              <Paragraph>
                <TextRuns>
                  <TextRun>
                    <Value>=First(Fields!Fixed_Asset__TABLECAPTION__________FAFilter.Value)</Value>
                    <Style>
                      <FontSize>7pt</FontSize>
                    </Style>
                  </TextRun>
                </TextRuns>
              </Paragraph>
            </Paragraphs>
            <Height>0.63492cm</Height>
            <Width>18.09524cm</Width>
            <ZIndex>1</ZIndex>
            <Visibility>
              <Hidden>=iif(Fields!FAFilter.Value = "",true,false)</Hidden>
            </Visibility>
            <DataElementOutput>NoOutput</DataElementOutput>
            <Style>
              <VerticalAlign>Middle</VerticalAlign>
            </Style>
          </Textbox>
          <Tablix Name="Table1">
            <TablixBody>
              <TablixColumns>
                <TablixColumn>
                  <Width>1.575cm</Width>
                </TablixColumn>
                <TablixColumn>
                  <Width>4.65cm</Width>
                </TablixColumn>
                <TablixColumn>
                  <Width>1.875cm</Width>
                </TablixColumn>
                <TablixColumn>
                  <Width>0.2cm</Width>
                </TablixColumn>
                <TablixColumn>
                  <Width>0.2cm</Width>
                </TablixColumn>
                <TablixColumn>
                  <Width>0.2cm</Width>
                </TablixColumn>
                <TablixColumn>
                  <Width>0.2cm</Width>
                </TablixColumn>
              </TablixColumns>
              <TablixRows>
                <TablixRow>
                  <Height>1.26984cm</Height>
                  <TablixCells>
                    <TablixCell>
                      <CellContents>
                        <Textbox Name="Fixed_Asset__No__Caption">
                          <CanGrow>true</CanGrow>
                          <KeepTogether>true</KeepTogether>
                          <Paragraphs>
                            <Paragraph>
                              <TextRuns>
                                <TextRun>
                                  <Value>=First(Fields!Fixed_Asset__No__Caption.Value)</Value>
                                  <Style>
                                    <FontSize>7pt</FontSize>
                                    <FontWeight>Bold</FontWeight>
                                  </Style>
                                </TextRun>
                              </TextRuns>
                            </Paragraph>
                          </Paragraphs>
                          <ZIndex>20</ZIndex>
                          <Style>
                            <VerticalAlign>Bottom</VerticalAlign>
                            <PaddingLeft>2pt</PaddingLeft>
                            <PaddingRight>0.075cm</PaddingRight>
                            <PaddingTop>2pt</PaddingTop>
                            <PaddingBottom>2pt</PaddingBottom>
                          </Style>
                        </Textbox>
                      </CellContents>
                    </TablixCell>
                    <TablixCell>
                      <CellContents>
                        <Textbox Name="Fixed_Asset_DescriptionCaption">
                          <CanGrow>true</CanGrow>
                          <KeepTogether>true</KeepTogether>
                          <Paragraphs>
                            <Paragraph>
                              <TextRuns>
                                <TextRun>
                                  <Value>=First(Fields!Fixed_Asset_DescriptionCaption.Value)</Value>
                                  <Style>
                                    <FontSize>7pt</FontSize>
                                    <FontWeight>Bold</FontWeight>
                                  </Style>
                                </TextRun>
                              </TextRuns>
                            </Paragraph>
                          </Paragraphs>
                          <ZIndex>19</ZIndex>
                          <Style>
                            <VerticalAlign>Bottom</VerticalAlign>
                            <PaddingLeft>0.075cm</PaddingLeft>
                            <PaddingRight>0.075cm</PaddingRight>
                            <PaddingTop>2pt</PaddingTop>
                            <PaddingBottom>2pt</PaddingBottom>
                          </Style>
                        </Textbox>
                      </CellContents>
                    </TablixCell>
                    <TablixCell>
                      <CellContents>
                        <Textbox Name="Fixed_Asset__Next_Service_Date_Caption">
                          <CanGrow>true</CanGrow>
                          <KeepTogether>true</KeepTogether>
                          <Paragraphs>
                            <Paragraph>
                              <TextRuns>
                                <TextRun>
                                  <Value>=First(Fields!Fixed_Asset__Next_Service_Date_Caption.Value)</Value>
                                  <Style>
                                    <FontSize>7pt</FontSize>
                                    <FontWeight>Bold</FontWeight>
                                  </Style>
                                </TextRun>
                              </TextRuns>
                              <Style>
                                <TextAlign>Left</TextAlign>
                              </Style>
                            </Paragraph>
                          </Paragraphs>
                          <ZIndex>18</ZIndex>
                          <Style>
                            <VerticalAlign>Bottom</VerticalAlign>
                            <PaddingLeft>0.075cm</PaddingLeft>
                            <PaddingRight>2pt</PaddingRight>
                            <PaddingTop>2pt</PaddingTop>
                            <PaddingBottom>2pt</PaddingBottom>
                          </Style>
                        </Textbox>
                      </CellContents>
                    </TablixCell>
                    <TablixCell>
                      <CellContents>
                        <Textbox Name="TextBox1">
                          <KeepTogether>true</KeepTogether>
                          <Paragraphs>
                            <Paragraph>
                              <TextRuns>
                                <TextRun>
                                  <Value />
                                  <Style />
                                </TextRun>
                              </TextRuns>
                            </Paragraph>
                          </Paragraphs>
                          <ZIndex>17</ZIndex>
                          <Style>
                            <VerticalAlign>Middle</VerticalAlign>
                            <PaddingLeft>2pt</PaddingLeft>
                            <PaddingRight>2pt</PaddingRight>
                            <PaddingTop>2pt</PaddingTop>
                            <PaddingBottom>2pt</PaddingBottom>
                          </Style>
                        </Textbox>
                      </CellContents>
                    </TablixCell>
                    <TablixCell>
                      <CellContents>
                        <Textbox Name="textbox2">
                          <KeepTogether>true</KeepTogether>
                          <Paragraphs>
                            <Paragraph>
                              <TextRuns>
                                <TextRun>
                                  <Value />
                                  <Style />
                                </TextRun>
                              </TextRuns>
                            </Paragraph>
                          </Paragraphs>
                          <rd:DefaultName>textbox2</rd:DefaultName>
                          <ZIndex>16</ZIndex>
                          <Style>
                            <VerticalAlign>Middle</VerticalAlign>
                            <PaddingLeft>2pt</PaddingLeft>
                            <PaddingRight>2pt</PaddingRight>
                            <PaddingTop>2pt</PaddingTop>
                            <PaddingBottom>2pt</PaddingBottom>
                          </Style>
                        </Textbox>
                      </CellContents>
                    </TablixCell>
                    <TablixCell>
                      <CellContents>
                        <Textbox Name="textbox3">
                          <KeepTogether>true</KeepTogether>
                          <Paragraphs>
                            <Paragraph>
                              <TextRuns>
                                <TextRun>
                                  <Value />
                                  <Style />
                                </TextRun>
                              </TextRuns>
                            </Paragraph>
                          </Paragraphs>
                          <rd:DefaultName>textbox3</rd:DefaultName>
                          <ZIndex>15</ZIndex>
                          <Style>
                            <VerticalAlign>Middle</VerticalAlign>
                            <PaddingLeft>2pt</PaddingLeft>
                            <PaddingRight>2pt</PaddingRight>
                            <PaddingTop>2pt</PaddingTop>
                            <PaddingBottom>2pt</PaddingBottom>
                          </Style>
                        </Textbox>
                      </CellContents>
                    </TablixCell>
                    <TablixCell>
                      <CellContents>
                        <Textbox Name="textbox4">
                          <KeepTogether>true</KeepTogether>
                          <Paragraphs>
                            <Paragraph>
                              <TextRuns>
                                <TextRun>
                                  <Value />
                                  <Style />
                                </TextRun>
                              </TextRuns>
                            </Paragraph>
                          </Paragraphs>
                          <rd:DefaultName>textbox4</rd:DefaultName>
                          <ZIndex>14</ZIndex>
                          <Style>
                            <VerticalAlign>Middle</VerticalAlign>
                            <PaddingLeft>2pt</PaddingLeft>
                            <PaddingRight>2pt</PaddingRight>
                            <PaddingTop>2pt</PaddingTop>
                            <PaddingBottom>2pt</PaddingBottom>
                          </Style>
                        </Textbox>
                      </CellContents>
                    </TablixCell>
                  </TablixCells>
                </TablixRow>
                <TablixRow>
                  <Height>0.423cm</Height>
                  <TablixCells>
                    <TablixCell>
                      <CellContents>
                        <Textbox Name="textbox5">
                          <KeepTogether>true</KeepTogether>
                          <Paragraphs>
                            <Paragraph>
                              <TextRuns>
                                <TextRun>
                                  <Value />
                                  <Style>
                                    <FontSize>7pt</FontSize>
                                    <FontWeight>Bold</FontWeight>
                                  </Style>
                                </TextRun>
                              </TextRuns>
                            </Paragraph>
                          </Paragraphs>
                          <rd:DefaultName>textbox5</rd:DefaultName>
                          <ZIndex>13</ZIndex>
                          <Style>
                            <VerticalAlign>Bottom</VerticalAlign>
                            <PaddingLeft>2pt</PaddingLeft>
                            <PaddingRight>0.075cm</PaddingRight>
                            <PaddingTop>2pt</PaddingTop>
                            <PaddingBottom>2pt</PaddingBottom>
                          </Style>
                        </Textbox>
                      </CellContents>
                    </TablixCell>
                    <TablixCell>
                      <CellContents>
                        <Textbox Name="textbox6">
                          <KeepTogether>true</KeepTogether>
                          <Paragraphs>
                            <Paragraph>
                              <TextRuns>
                                <TextRun>
                                  <Value />
                                  <Style>
                                    <FontSize>7pt</FontSize>
                                    <FontWeight>Bold</FontWeight>
                                  </Style>
                                </TextRun>
                              </TextRuns>
                            </Paragraph>
                          </Paragraphs>
                          <rd:DefaultName>textbox6</rd:DefaultName>
                          <ZIndex>12</ZIndex>
                          <Style>
                            <VerticalAlign>Bottom</VerticalAlign>
                            <PaddingLeft>0.075cm</PaddingLeft>
                            <PaddingRight>0.075cm</PaddingRight>
                            <PaddingTop>2pt</PaddingTop>
                            <PaddingBottom>2pt</PaddingBottom>
                          </Style>
                        </Textbox>
                      </CellContents>
                    </TablixCell>
                    <TablixCell>
                      <CellContents>
                        <Textbox Name="textbox7">
                          <KeepTogether>true</KeepTogether>
                          <Paragraphs>
                            <Paragraph>
                              <TextRuns>
                                <TextRun>
                                  <Value />
                                  <Style>
                                    <FontSize>7pt</FontSize>
                                    <FontWeight>Bold</FontWeight>
                                  </Style>
                                </TextRun>
                              </TextRuns>
                              <Style>
                                <TextAlign>Left</TextAlign>
                              </Style>
                            </Paragraph>
                          </Paragraphs>
                          <rd:DefaultName>textbox7</rd:DefaultName>
                          <ZIndex>11</ZIndex>
                          <Style>
                            <VerticalAlign>Bottom</VerticalAlign>
                            <PaddingLeft>0.075cm</PaddingLeft>
                            <PaddingRight>2pt</PaddingRight>
                            <PaddingTop>2pt</PaddingTop>
                            <PaddingBottom>2pt</PaddingBottom>
                          </Style>
                        </Textbox>
                      </CellContents>
                    </TablixCell>
                    <TablixCell>
                      <CellContents>
                        <Textbox Name="textbox8">
                          <KeepTogether>true</KeepTogether>
                          <Paragraphs>
                            <Paragraph>
                              <TextRuns>
                                <TextRun>
                                  <Value />
                                  <Style />
                                </TextRun>
                              </TextRuns>
                            </Paragraph>
                          </Paragraphs>
                          <rd:DefaultName>textbox8</rd:DefaultName>
                          <ZIndex>10</ZIndex>
                          <Style>
                            <VerticalAlign>Middle</VerticalAlign>
                            <PaddingLeft>2pt</PaddingLeft>
                            <PaddingRight>2pt</PaddingRight>
                            <PaddingTop>2pt</PaddingTop>
                            <PaddingBottom>2pt</PaddingBottom>
                          </Style>
                        </Textbox>
                      </CellContents>
                    </TablixCell>
                    <TablixCell>
                      <CellContents>
                        <Textbox Name="textbox9">
                          <KeepTogether>true</KeepTogether>
                          <Paragraphs>
                            <Paragraph>
                              <TextRuns>
                                <TextRun>
                                  <Value />
                                  <Style />
                                </TextRun>
                              </TextRuns>
                            </Paragraph>
                          </Paragraphs>
                          <rd:DefaultName>textbox9</rd:DefaultName>
                          <ZIndex>9</ZIndex>
                          <Style>
                            <VerticalAlign>Middle</VerticalAlign>
                            <PaddingLeft>2pt</PaddingLeft>
                            <PaddingRight>2pt</PaddingRight>
                            <PaddingTop>2pt</PaddingTop>
                            <PaddingBottom>2pt</PaddingBottom>
                          </Style>
                        </Textbox>
                      </CellContents>
                    </TablixCell>
                    <TablixCell>
                      <CellContents>
                        <Textbox Name="textbox10">
                          <KeepTogether>true</KeepTogether>
                          <Paragraphs>
                            <Paragraph>
                              <TextRuns>
                                <TextRun>
                                  <Value />
                                  <Style />
                                </TextRun>
                              </TextRuns>
                            </Paragraph>
                          </Paragraphs>
                          <rd:DefaultName>textbox10</rd:DefaultName>
                          <ZIndex>8</ZIndex>
                          <Style>
                            <VerticalAlign>Middle</VerticalAlign>
                            <PaddingLeft>2pt</PaddingLeft>
                            <PaddingRight>2pt</PaddingRight>
                            <PaddingTop>2pt</PaddingTop>
                            <PaddingBottom>2pt</PaddingBottom>
                          </Style>
                        </Textbox>
                      </CellContents>
                    </TablixCell>
                    <TablixCell>
                      <CellContents>
                        <Textbox Name="textbox11">
                          <KeepTogether>true</KeepTogether>
                          <Paragraphs>
                            <Paragraph>
                              <TextRuns>
                                <TextRun>
                                  <Value />
                                  <Style />
                                </TextRun>
                              </TextRuns>
                            </Paragraph>
                          </Paragraphs>
                          <rd:DefaultName>textbox11</rd:DefaultName>
                          <ZIndex>7</ZIndex>
                          <Style>
                            <VerticalAlign>Middle</VerticalAlign>
                            <PaddingLeft>2pt</PaddingLeft>
                            <PaddingRight>2pt</PaddingRight>
                            <PaddingTop>2pt</PaddingTop>
                            <PaddingBottom>2pt</PaddingBottom>
                          </Style>
                        </Textbox>
                      </CellContents>
                    </TablixCell>
                  </TablixCells>
                </TablixRow>
                <TablixRow>
                  <Height>0.423cm</Height>
                  <TablixCells>
                    <TablixCell>
                      <CellContents>
                        <Textbox Name="Fixed_Asset__No__">
                          <KeepTogether>true</KeepTogether>
                          <Paragraphs>
                            <Paragraph>
                              <TextRuns>
                                <TextRun>
                                  <Value>=Fields!Fixed_Asset__No__.Value</Value>
                                  <Style>
                                    <FontSize>7pt</FontSize>
                                  </Style>
                                </TextRun>
                              </TextRuns>
                              <Style>
                                <TextAlign>Left</TextAlign>
                              </Style>
                            </Paragraph>
                          </Paragraphs>
                          <ZIndex>6</ZIndex>
                          <Style>
                            <VerticalAlign>Middle</VerticalAlign>
                            <PaddingLeft>2pt</PaddingLeft>
                            <PaddingRight>0.075cm</PaddingRight>
                            <PaddingTop>2pt</PaddingTop>
                            <PaddingBottom>2pt</PaddingBottom>
                          </Style>
                        </Textbox>
                      </CellContents>
                    </TablixCell>
                    <TablixCell>
                      <CellContents>
                        <Textbox Name="Fixed_Asset_Description">
                          <KeepTogether>true</KeepTogether>
                          <Paragraphs>
                            <Paragraph>
                              <TextRuns>
                                <TextRun>
                                  <Value>=Fields!Fixed_Asset_Description.Value</Value>
                                  <Style>
                                    <FontSize>7pt</FontSize>
                                  </Style>
                                </TextRun>
                              </TextRuns>
                            </Paragraph>
                          </Paragraphs>
                          <ZIndex>5</ZIndex>
                          <Style>
                            <VerticalAlign>Middle</VerticalAlign>
                            <PaddingLeft>0.075cm</PaddingLeft>
                            <PaddingRight>0.075cm</PaddingRight>
                            <PaddingTop>2pt</PaddingTop>
                            <PaddingBottom>2pt</PaddingBottom>
                          </Style>
                        </Textbox>
                      </CellContents>
                    </TablixCell>
                    <TablixCell>
                      <CellContents>
                        <Textbox Name="Fixed_Asset__Next_Service_Date_">
                          <CanGrow>true</CanGrow>
                          <KeepTogether>true</KeepTogether>
                          <Paragraphs>
                            <Paragraph>
                              <TextRuns>
                                <TextRun>
                                  <Value>=Fields!Fixed_Asset__Next_Service_Date_.Value</Value>
                                  <Style>
                                    <FontSize>7pt</FontSize>
                                    <Format>d</Format>
                                  </Style>
                                </TextRun>
                              </TextRuns>
                              <Style>
                                <TextAlign>Left</TextAlign>
                              </Style>
                            </Paragraph>
                          </Paragraphs>
                          <ZIndex>4</ZIndex>
                          <Style>
                            <VerticalAlign>Middle</VerticalAlign>
                            <PaddingLeft>0.075cm</PaddingLeft>
                            <PaddingRight>2pt</PaddingRight>
                            <PaddingTop>2pt</PaddingTop>
                            <PaddingBottom>2pt</PaddingBottom>
                          </Style>
                        </Textbox>
                      </CellContents>
                    </TablixCell>
                    <TablixCell>
                      <CellContents>
                        <Textbox Name="COMPANYNAME">
                          <KeepTogether>true</KeepTogether>
                          <Paragraphs>
                            <Paragraph>
                              <TextRuns>
                                <TextRun>
                                  <Value>=Fields!COMPANYNAME.Value</Value>
                                  <Style>
                                    <Color>#ff0000</Color>
                                  </Style>
                                </TextRun>
                              </TextRuns>
                            </Paragraph>
                          </Paragraphs>
                          <ZIndex>3</ZIndex>
                          <Visibility>
                            <Hidden>true</Hidden>
                          </Visibility>
                          <Style>
                            <VerticalAlign>Middle</VerticalAlign>
                            <PaddingLeft>2pt</PaddingLeft>
                            <PaddingRight>2pt</PaddingRight>
                            <PaddingTop>2pt</PaddingTop>
                            <PaddingBottom>2pt</PaddingBottom>
                          </Style>
                        </Textbox>
                      </CellContents>
                    </TablixCell>
                    <TablixCell>
                      <CellContents>
                        <Textbox Name="Maintenance___Next_ServiceCaption">
                          <CanGrow>true</CanGrow>
                          <KeepTogether>true</KeepTogether>
                          <Paragraphs>
                            <Paragraph>
                              <TextRuns>
                                <TextRun>
                                  <Value>=Fields!Maintenance___Next_ServiceCaption.Value</Value>
                                  <Style>
                                    <Color>#ff0000</Color>
                                  </Style>
                                </TextRun>
                              </TextRuns>
                            </Paragraph>
                          </Paragraphs>
                          <ZIndex>2</ZIndex>
                          <Visibility>
                            <Hidden>true</Hidden>
                          </Visibility>
                          <Style>
                            <VerticalAlign>Middle</VerticalAlign>
                            <PaddingLeft>2pt</PaddingLeft>
                            <PaddingRight>2pt</PaddingRight>
                            <PaddingTop>2pt</PaddingTop>
                            <PaddingBottom>2pt</PaddingBottom>
                          </Style>
                        </Textbox>
                      </CellContents>
                    </TablixCell>
                    <TablixCell>
                      <CellContents>
                        <Textbox Name="CurrReport_PAGENOCaption">
                          <CanGrow>true</CanGrow>
                          <KeepTogether>true</KeepTogether>
                          <Paragraphs>
                            <Paragraph>
                              <TextRuns>
                                <TextRun>
                                  <Value>=Fields!CurrReport_PAGENOCaption.Value</Value>
                                  <Style>
                                    <Color>#ff0000</Color>
                                  </Style>
                                </TextRun>
                              </TextRuns>
                            </Paragraph>
                          </Paragraphs>
                          <ZIndex>1</ZIndex>
                          <Visibility>
                            <Hidden>true</Hidden>
                          </Visibility>
                          <Style>
                            <VerticalAlign>Middle</VerticalAlign>
                            <PaddingLeft>2pt</PaddingLeft>
                            <PaddingRight>2pt</PaddingRight>
                            <PaddingTop>2pt</PaddingTop>
                            <PaddingBottom>2pt</PaddingBottom>
                          </Style>
                        </Textbox>
                      </CellContents>
                    </TablixCell>
                    <TablixCell>
                      <CellContents>
                        <Textbox Name="date">
                          <KeepTogether>true</KeepTogether>
                          <Paragraphs>
                            <Paragraph>
                              <TextRuns>
                                <TextRun>
                                  <Value>=Fields!FORMAT_TODAY_0_4_.Value</Value>
                                  <Style>
                                    <Color>#ff0000</Color>
                                  </Style>
                                </TextRun>
                              </TextRuns>
                            </Paragraph>
                          </Paragraphs>
                          <Visibility>
                            <Hidden>true</Hidden>
                          </Visibility>
                          <Style>
                            <VerticalAlign>Middle</VerticalAlign>
                            <PaddingLeft>2pt</PaddingLeft>
                            <PaddingRight>2pt</PaddingRight>
                            <PaddingTop>2pt</PaddingTop>
                            <PaddingBottom>2pt</PaddingBottom>
                          </Style>
                        </Textbox>
                      </CellContents>
                    </TablixCell>
                  </TablixCells>
                </TablixRow>
              </TablixRows>
            </TablixBody>
            <TablixColumnHierarchy>
              <TablixMembers>
                <TablixMember />
                <TablixMember />
                <TablixMember />
                <TablixMember />
                <TablixMember />
                <TablixMember />
                <TablixMember />
              </TablixMembers>
            </TablixColumnHierarchy>
            <TablixRowHierarchy>
              <TablixMembers>
                <TablixMember>
                  <KeepWithGroup>After</KeepWithGroup>
                  <RepeatOnNewPage>true</RepeatOnNewPage>
                  <KeepTogether>true</KeepTogether>
                </TablixMember>
                <TablixMember>
                  <KeepWithGroup>After</KeepWithGroup>
                  <RepeatOnNewPage>true</RepeatOnNewPage>
                  <KeepTogether>true</KeepTogether>
                </TablixMember>
                <TablixMember>
                  <Group Name="Table1_Details_Group">
                    <DataElementName>Detail</DataElementName>
                  </Group>
                  <TablixMembers>
                    <TablixMember />
                  </TablixMembers>
                  <DataElementName>Detail_Collection</DataElementName>
                  <DataElementOutput>Output</DataElementOutput>
                  <KeepTogether>true</KeepTogether>
                </TablixMember>
              </TablixMembers>
            </TablixRowHierarchy>
            <DataSetName>DataSet_Result</DataSetName>
            <Top>0.63492cm</Top>
            <Width>8.9cm</Width>
          </Tablix>
        </ReportItems>
        <Height>2.75076cm</Height>
      </Body>
      <Width>18.15cm</Width>
      <Page>
        <PageHeader>
          <Height>1.5873cm</Height>
          <PrintOnFirstPage>true</PrintOnFirstPage>
          <PrintOnLastPage>true</PrintOnLastPage>
          <ReportItems>
            <Textbox Name="PageNumberTextBox">
              <KeepTogether>true</KeepTogether>
              <Paragraphs>
                <Paragraph>
                  <TextRuns>
                    <TextRun>
                      <Value>=Globals!PageNumber</Value>
                      <Style>
                        <FontSize>7pt</FontSize>
                      </Style>
                    </TextRun>
                  </TextRuns>
                  <Style>
                    <TextAlign>Right</TextAlign>
                  </Style>
                </Paragraph>
              </Paragraphs>
              <Top>0.423cm</Top>
              <Left>17.7cm</Left>
              <Height>0.423cm</Height>
              <ZIndex>5</ZIndex>
              <Visibility>
                <Hidden>=iif(ReportItems!Maintenance___Next_ServiceCaption.Value = "",true,false)</Hidden>
              </Visibility>
              <DataElementOutput>NoOutput</DataElementOutput>
              <Style>
                <VerticalAlign>Middle</VerticalAlign>
              </Style>
            </Textbox>
            <Textbox Name="UserIdTextBox">
              <KeepTogether>true</KeepTogether>
              <Paragraphs>
                <Paragraph>
                  <TextRuns>
                    <TextRun>
                      <Value>=User!UserID</Value>
                      <Style>
                        <FontSize>7pt</FontSize>
                      </Style>
                    </TextRun>
                  </TextRuns>
                  <Style>
                    <TextAlign>Right</TextAlign>
                  </Style>
                </Paragraph>
              </Paragraphs>
              <Top>0.846cm</Top>
              <Left>14.9cm</Left>
              <Height>0.423cm</Height>
              <ZIndex>4</ZIndex>
              <Visibility>
                <Hidden>=iif(ReportItems!Maintenance___Next_ServiceCaption.Value = "",true,false)</Hidden>
              </Visibility>
              <DataElementOutput>NoOutput</DataElementOutput>
              <Style>
                <VerticalAlign>Middle</VerticalAlign>
              </Style>
            </Textbox>
            <Textbox Name="ExecutionTimeTextBox">
              <KeepTogether>true</KeepTogether>
              <Paragraphs>
                <Paragraph>
                  <TextRuns>
                    <TextRun>
                      <Value>=ReportItems!date.Value</Value>
                      <Style>
                        <FontSize>7pt</FontSize>
                        <Format>g</Format>
                      </Style>
                    </TextRun>
                  </TextRuns>
                  <Style>
                    <TextAlign>Right</TextAlign>
                  </Style>
                </Paragraph>
              </Paragraphs>
              <Left>15cm</Left>
              <Height>0.423cm</Height>
              <ZIndex>3</ZIndex>
              <Style>
                <VerticalAlign>Middle</VerticalAlign>
              </Style>
            </Textbox>
            <Textbox Name="COMPANYNAME1">
              <KeepTogether>true</KeepTogether>
              <Paragraphs>
                <Paragraph>
                  <TextRuns>
                    <TextRun>
                      <Value>=ReportItems!COMPANYNAME.Value</Value>
                      <Style>
                        <FontSize>7pt</FontSize>
                      </Style>
                    </TextRun>
                  </TextRuns>
                </Paragraph>
              </Paragraphs>
              <Top>0.423cm</Top>
              <Height>0.423cm</Height>
              <Width>7.5cm</Width>
              <ZIndex>2</ZIndex>
              <Style>
                <VerticalAlign>Middle</VerticalAlign>
              </Style>
            </Textbox>
            <Textbox Name="Maintenance___Next_ServiceCaption1">
              <KeepTogether>true</KeepTogether>
              <Paragraphs>
                <Paragraph>
                  <TextRuns>
                    <TextRun>
                      <Value>=ReportItems!Maintenance___Next_ServiceCaption.Value</Value>
                      <Style>
                        <FontSize>8pt</FontSize>
                        <FontWeight>Bold</FontWeight>
                      </Style>
                    </TextRun>
                  </TextRuns>
                </Paragraph>
              </Paragraphs>
              <Height>0.423cm</Height>
              <Width>7.5cm</Width>
              <ZIndex>1</ZIndex>
              <Style>
                <VerticalAlign>Middle</VerticalAlign>
              </Style>
            </Textbox>
            <Textbox Name="CurrReport_PAGENOCaption1">
              <KeepTogether>true</KeepTogether>
              <Paragraphs>
                <Paragraph>
                  <TextRuns>
                    <TextRun>
                      <Value>=ReportItems!CurrReport_PAGENOCaption.Value</Value>
                      <Style>
                        <FontSize>7pt</FontSize>
                      </Style>
                    </TextRun>
                  </TextRuns>
                </Paragraph>
              </Paragraphs>
              <Top>0.423cm</Top>
              <Left>16.95cm</Left>
              <Height>0.423cm</Height>
              <Width>0.75cm</Width>
              <Style>
                <VerticalAlign>Middle</VerticalAlign>
              </Style>
            </Textbox>
          </ReportItems>
        </PageHeader>
        <PageHeight>29.7cm</PageHeight>
        <PageWidth>21cm</PageWidth>
        <InteractiveHeight>11in</InteractiveHeight>
        <InteractiveWidth>8.5in</InteractiveWidth>
        <LeftMargin>1.5cm</LeftMargin>
        <TopMargin>2cm</TopMargin>
        <BottomMargin>2cm</BottomMargin>
      </Page>
    </ReportSection>
  </ReportSections>
  <Code>Public Function BlankZero(ByVal Value As Decimal)
    if Value = 0 then
        Return ""
    end if
    Return Value
End Function

Public Function BlankPos(ByVal Value As Decimal)
    if Value &gt; 0 then
        Return ""
    end if
    Return Value
End Function

Public Function BlankZeroAndPos(ByVal Value As Decimal)
    if Value &gt;= 0 then
        Return ""
    end if
    Return Value
End Function

Public Function BlankNeg(ByVal Value As Decimal)
    if Value &lt; 0 then
        Return ""
    end if
    Return Value
End Function

Public Function BlankNegAndZero(ByVal Value As Decimal)
    if Value &lt;= 0 then
        Return ""
    end if
    Return Value
End Function
</Code>
  <Language>=User!Language</Language>
  <ConsumeContainerWhitespace>true</ConsumeContainerWhitespace>
  <rd:ReportUnitType>Invalid</rd:ReportUnitType>
  <rd:ReportID>1f0a3d2b-50bf-47cd-8788-5d56ecfcfb4f</rd:ReportID>
</Report>
    END_OF_RDLDATA
  }
}

