OBJECT Report 5196 Remove Contacts - Refine
{
  OBJECT-PROPERTIES
  {
    Date=07/09/12;
    Time=12:00:00;
    Version List=NAVW17.00;
  }
  PROPERTIES
  {
    CaptionML=ENU=Remove Contacts - Refine;
    ProcessingOnly=Yes;
    OnPreReport=BEGIN
                  CLEAR(ReduceRefineSegment);
                  ReduceRefineSegment.SETTABLEVIEW("Segment Header");
                  ReduceRefineSegment.SETTABLEVIEW(Contact);
                  ReduceRefineSegment.SETTABLEVIEW("Contact Profile Answer");
                  ReduceRefineSegment.SETTABLEVIEW("Contact Mailing Group");
                  ReduceRefineSegment.SETTABLEVIEW("Interaction Log Entry");
                  ReduceRefineSegment.SETTABLEVIEW("Contact Job Responsibility");
                  ReduceRefineSegment.SETTABLEVIEW("Contact Industry Group");
                  ReduceRefineSegment.SETTABLEVIEW("Contact Business Relation");
                  ReduceRefineSegment.SETTABLEVIEW("Value Entry");
                  ReduceRefineSegment.SetOptions(REPORT::"Remove Contacts - Refine",EntireCompanies);
                  ReduceRefineSegment.RUNMODAL;
                END;

  }
  DATASET
  {
    { 7133;    ;DataItem;                    ;
               DataItemTable=Table5076;
               DataItemTableView=SORTING(No.);
               OnPreDataItem=BEGIN
                               CurrReport.BREAK;
                             END;
                              }

    { 6698;    ;DataItem;                    ;
               DataItemTable=Table5050;
               DataItemTableView=SORTING(No.);
               OnPreDataItem=BEGIN
                               CurrReport.BREAK;
                             END;

               ReqFilterFields=No.,Search Name,Type,Salesperson Code,Post Code,Country/Region Code,Territory Code }

    { 3762;    ;DataItem;                    ;
               DataItemTable=Table5089;
               DataItemTableView=SORTING(Contact No.,Profile Questionnaire Code,Line No.);
               ReqFilterHeadingML=ENU=Profile;
               OnPreDataItem=BEGIN
                               CurrReport.BREAK;
                             END;

               ReqFilterFields=Profile Questionnaire Code,Line No. }

    { 6043;    ;DataItem;                    ;
               DataItemTable=Table5056;
               DataItemTableView=SORTING(Contact No.,Mailing Group Code);
               OnPreDataItem=BEGIN
                               CurrReport.BREAK;
                             END;

               ReqFilterFields=Mailing Group Code }

    { 3056;    ;DataItem;                    ;
               DataItemTable=Table5065;
               DataItemTableView=SORTING(Entry No.);
               OnPreDataItem=BEGIN
                               CurrReport.BREAK;
                             END;

               ReqFilterFields=Date,Segment No.,Campaign No.,Evaluation,Interaction Template Code,Salesperson Code }

    { 6030;    ;DataItem;                    ;
               DataItemTable=Table5067;
               DataItemTableView=SORTING(Contact No.,Job Responsibility Code);
               OnPreDataItem=BEGIN
                               CurrReport.BREAK;
                             END;

               ReqFilterFields=Job Responsibility Code }

    { 4008;    ;DataItem;                    ;
               DataItemTable=Table5058;
               DataItemTableView=SORTING(Contact No.,Industry Group Code);
               OnPreDataItem=BEGIN
                               CurrReport.BREAK;
                             END;

               ReqFilterFields=Industry Group Code }

    { 8768;    ;DataItem;                    ;
               DataItemTable=Table5054;
               DataItemTableView=SORTING(Contact No.,Business Relation Code);
               OnPreDataItem=BEGIN
                               CurrReport.BREAK;
                             END;

               ReqFilterFields=Business Relation Code }

    { 8894;    ;DataItem;                    ;
               DataItemTable=Table5802;
               DataItemTableView=SORTING(Source Type,Source No.,Item No.,Posting Date);
               OnPreDataItem=BEGIN
                               CurrReport.BREAK;
                             END;

               ReqFilterFields=Item No.,Variant Code,Posting Date,Inventory Posting Group }

  }
  REQUESTPAGE
  {
    PROPERTIES
    {
      SaveValues=Yes;
    }
    CONTROLS
    {
      { 1900000001;0;Container;
                  ContainerType=ContentArea }

      { 1900000002;1;Group  ;
                  CaptionML=ENU=Options }

      { 1   ;2   ;Field     ;
                  CaptionML=ENU=Entire Companies;
                  SourceExpr=EntireCompanies }

    }
  }
  LABELS
  {
  }
  CODE
  {
    VAR
      ReduceRefineSegment@1000 : Report 5186;
      EntireCompanies@1001 : Boolean;

    BEGIN
    END.
  }
  RDLDATA
  {
  }
}

