OBJECT Report 509 Change Log Entries
{
  OBJECT-PROPERTIES
  {
    Date=23/09/13;
    Time=12:00:00;
    Version List=NAVW17.10;
  }
  PROPERTIES
  {
    CaptionML=ENU=Change Log Entries;
  }
  DATASET
  {
    { 1204;    ;DataItem;                    ;
               DataItemTable=Table405;
               OnPreDataItem=BEGIN
                               LastFieldNo := FIELDNO("Date and Time");
                             END;

               OnAfterGetRecord=BEGIN
                                  CALCFIELDS("Table Caption","Field Caption");
                                  "Primary Key" := GetPrimaryKeyFriendlyName;
                                END;

               ReqFilterFields=Date and Time }

    { 4   ;1   ;Column  ;COMPANYNAME         ;
               SourceExpr=COMPANYNAME }

    { 5   ;1   ;Column  ;CurrReport_PAGENO   ;
               SourceExpr=CurrReport.PAGENO }

    { 8   ;1   ;Column  ;Change_Log_Entry__GETFILTERS;
               SourceExpr=GETFILTERS }

    { 15  ;1   ;Column  ;Change_Log_Entry__Table_Name_;
               SourceExpr="Table Caption" }

    { 18  ;1   ;Column  ;Change_Log_Entry__Primary_Key_;
               SourceExpr="Primary Key" }

    { 24  ;1   ;Column  ;Change_Log_Entry__Field_Name_;
               SourceExpr="Field Caption" }

    { 27  ;1   ;Column  ;Change_Log_Entry__Type_of_Change_;
               SourceExpr="Type of Change" }

    { 30  ;1   ;Column  ;Change_Log_Entry__Old_Value_;
               SourceExpr=GetLocalOldValue }

    { 33  ;1   ;Column  ;Change_Log_Entry__New_Value_;
               SourceExpr=GetLocalNewValue }

    { 36  ;1   ;Column  ;Change_Log_Entry__User_ID_;
               SourceExpr="User ID" }

    { 39  ;1   ;Column  ;DT2DATE__Date_and_Time__;
               SourceExpr=FORMAT(DT2DATE("Date and Time")) }

    { 42  ;1   ;Column  ;Change_Log_Entry_Time;
               SourceExpr=Time }

    { 11  ;1   ;Column  ;Change_Log_Entry_Date_and_Time;
               SourceExpr="Date and Time" }

    { 2   ;1   ;Column  ;Change_Log_EntriesCaption;
               SourceExpr=Change_Log_EntriesCaptionLbl }

    { 6   ;1   ;Column  ;CurrReport_PAGENOCaption;
               SourceExpr=CurrReport_PAGENOCaptionLbl }

    { 1   ;1   ;Column  ;FiltersCaption      ;
               SourceExpr=FiltersCaptionLbl }

    { 16  ;1   ;Column  ;Change_Log_Entry__Table_Name_Caption;
               SourceExpr=FIELDCAPTION("Table Caption") }

    { 19  ;1   ;Column  ;Change_Log_Entry__Primary_Key_Caption;
               SourceExpr=FIELDCAPTION("Primary Key") }

    { 25  ;1   ;Column  ;Change_Log_Entry__Field_Name_Caption;
               SourceExpr=FIELDCAPTION("Field Caption") }

    { 28  ;1   ;Column  ;Change_Log_Entry__Type_of_Change_Caption;
               SourceExpr=FIELDCAPTION("Type of Change") }

    { 31  ;1   ;Column  ;Change_Log_Entry__Old_Value_Caption;
               SourceExpr=FIELDCAPTION("Old Value") }

    { 34  ;1   ;Column  ;Change_Log_Entry__New_Value_Caption;
               SourceExpr=FIELDCAPTION("New Value") }

    { 37  ;1   ;Column  ;Change_Log_Entry__User_ID_Caption;
               SourceExpr=FIELDCAPTION("User ID") }

    { 40  ;1   ;Column  ;DT2DATE__Date_and_Time__Caption;
               SourceExpr=DT2DATE__Date_and_Time__CaptionLbl }

    { 43  ;1   ;Column  ;Change_Log_Entry_TimeCaption;
               SourceExpr=FIELDCAPTION(Time) }

  }
  REQUESTPAGE
  {
    PROPERTIES
    {
    }
    CONTROLS
    {
    }
  }
  LABELS
  {
  }
  CODE
  {
    VAR
      LastFieldNo@1000 : Integer;
      Change_Log_EntriesCaptionLbl@9294 : TextConst 'ENU=Change Log Entries';
      CurrReport_PAGENOCaptionLbl@8565 : TextConst 'ENU=Page';
      FiltersCaptionLbl@8600 : TextConst 'ENU=Filters';
      DT2DATE__Date_and_Time__CaptionLbl@9182 : TextConst 'ENU=Date';

    BEGIN
    END.
  }
  RDLDATA
  {
    <?xml version="1.0" encoding="utf-8"?>
<Report xmlns:rd="http://schemas.microsoft.com/SQLServer/reporting/reportdesigner" xmlns="http://schemas.microsoft.com/sqlserver/reporting/2010/01/reportdefinition">
  <AutoRefresh>0</AutoRefresh>
  <DataSources>
    <DataSource Name="DataSource">
      <ConnectionProperties>
        <DataProvider>SQL</DataProvider>
        <ConnectString />
      </ConnectionProperties>
      <rd:SecurityType>None</rd:SecurityType>
      <rd:DataSourceID>392955f4-a0ac-49eb-baed-223a7f1a56fa</rd:DataSourceID>
    </DataSource>
  </DataSources>
  <DataSets>
    <DataSet Name="DataSet_Result">
      <Query>
        <DataSourceName>DataSource</DataSourceName>
        <CommandText />
      </Query>
      <Fields>
        <Field Name="COMPANYNAME">
          <DataField>COMPANYNAME</DataField>
        </Field>
        <Field Name="CurrReport_PAGENO">
          <DataField>CurrReport_PAGENO</DataField>
        </Field>
        <Field Name="Change_Log_Entry__GETFILTERS">
          <DataField>Change_Log_Entry__GETFILTERS</DataField>
        </Field>
        <Field Name="Change_Log_Entry__Table_Name_">
          <DataField>Change_Log_Entry__Table_Name_</DataField>
        </Field>
        <Field Name="Change_Log_Entry__Primary_Key_">
          <DataField>Change_Log_Entry__Primary_Key_</DataField>
        </Field>
        <Field Name="Change_Log_Entry__Field_Name_">
          <DataField>Change_Log_Entry__Field_Name_</DataField>
        </Field>
        <Field Name="Change_Log_Entry__Type_of_Change_">
          <DataField>Change_Log_Entry__Type_of_Change_</DataField>
        </Field>
        <Field Name="Change_Log_Entry__Old_Value_">
          <DataField>Change_Log_Entry__Old_Value_</DataField>
        </Field>
        <Field Name="Change_Log_Entry__New_Value_">
          <DataField>Change_Log_Entry__New_Value_</DataField>
        </Field>
        <Field Name="Change_Log_Entry__User_ID_">
          <DataField>Change_Log_Entry__User_ID_</DataField>
        </Field>
        <Field Name="DT2DATE__Date_and_Time__">
          <DataField>DT2DATE__Date_and_Time__</DataField>
        </Field>
        <Field Name="Change_Log_Entry_Time">
          <DataField>Change_Log_Entry_Time</DataField>
        </Field>
        <Field Name="Change_Log_Entry_Date_and_Time">
          <DataField>Change_Log_Entry_Date_and_Time</DataField>
        </Field>
        <Field Name="Change_Log_EntriesCaption">
          <DataField>Change_Log_EntriesCaption</DataField>
        </Field>
        <Field Name="CurrReport_PAGENOCaption">
          <DataField>CurrReport_PAGENOCaption</DataField>
        </Field>
        <Field Name="FiltersCaption">
          <DataField>FiltersCaption</DataField>
        </Field>
        <Field Name="Change_Log_Entry__Table_Name_Caption">
          <DataField>Change_Log_Entry__Table_Name_Caption</DataField>
        </Field>
        <Field Name="Change_Log_Entry__Primary_Key_Caption">
          <DataField>Change_Log_Entry__Primary_Key_Caption</DataField>
        </Field>
        <Field Name="Change_Log_Entry__Field_Name_Caption">
          <DataField>Change_Log_Entry__Field_Name_Caption</DataField>
        </Field>
        <Field Name="Change_Log_Entry__Type_of_Change_Caption">
          <DataField>Change_Log_Entry__Type_of_Change_Caption</DataField>
        </Field>
        <Field Name="Change_Log_Entry__Old_Value_Caption">
          <DataField>Change_Log_Entry__Old_Value_Caption</DataField>
        </Field>
        <Field Name="Change_Log_Entry__New_Value_Caption">
          <DataField>Change_Log_Entry__New_Value_Caption</DataField>
        </Field>
        <Field Name="Change_Log_Entry__User_ID_Caption">
          <DataField>Change_Log_Entry__User_ID_Caption</DataField>
        </Field>
        <Field Name="DT2DATE__Date_and_Time__Caption">
          <DataField>DT2DATE__Date_and_Time__Caption</DataField>
        </Field>
        <Field Name="Change_Log_Entry_TimeCaption">
          <DataField>Change_Log_Entry_TimeCaption</DataField>
        </Field>
      </Fields>
      <rd:DataSetInfo>
        <rd:DataSetName>DataSet</rd:DataSetName>
        <rd:SchemaPath>Report.xsd</rd:SchemaPath>
        <rd:TableName>Result</rd:TableName>
      </rd:DataSetInfo>
    </DataSet>
  </DataSets>
  <ReportSections>
    <ReportSection>
      <Body>
        <ReportItems>
          <Tablix Name="Table1">
            <TablixBody>
              <TablixColumns>
                <TablixColumn>
                  <Width>2.25cm</Width>
                </TablixColumn>
                <TablixColumn>
                  <Width>3.1746cm</Width>
                </TablixColumn>
                <TablixColumn>
                  <Width>1.5cm</Width>
                </TablixColumn>
                <TablixColumn>
                  <Width>2.53968cm</Width>
                </TablixColumn>
                <TablixColumn>
                  <Width>5.7cm</Width>
                </TablixColumn>
                <TablixColumn>
                  <Width>1.35cm</Width>
                </TablixColumn>
                <TablixColumn>
                  <Width>1.5873cm</Width>
                </TablixColumn>
              </TablixColumns>
              <TablixRows>
                <TablixRow>
                  <Height>0.846cm</Height>
                  <TablixCells>
                    <TablixCell>
                      <CellContents>
                        <Textbox Name="textbox15">
                          <KeepTogether>true</KeepTogether>
                          <Paragraphs>
                            <Paragraph>
                              <TextRuns>
                                <TextRun>
                                  <Value />
                                  <Style />
                                </TextRun>
                              </TextRuns>
                            </Paragraph>
                          </Paragraphs>
                          <rd:DefaultName>textbox15</rd:DefaultName>
                          <ZIndex>34</ZIndex>
                          <Style>
                            <PaddingLeft>2pt</PaddingLeft>
                            <PaddingRight>2pt</PaddingRight>
                            <PaddingTop>2pt</PaddingTop>
                            <PaddingBottom>2pt</PaddingBottom>
                          </Style>
                        </Textbox>
                      </CellContents>
                    </TablixCell>
                    <TablixCell>
                      <CellContents>
                        <Textbox Name="textbox16">
                          <KeepTogether>true</KeepTogether>
                          <Paragraphs>
                            <Paragraph>
                              <TextRuns>
                                <TextRun>
                                  <Value />
                                  <Style />
                                </TextRun>
                              </TextRuns>
                            </Paragraph>
                          </Paragraphs>
                          <rd:DefaultName>textbox16</rd:DefaultName>
                          <ZIndex>33</ZIndex>
                          <Style>
                            <PaddingLeft>2pt</PaddingLeft>
                            <PaddingRight>2pt</PaddingRight>
                            <PaddingTop>2pt</PaddingTop>
                            <PaddingBottom>2pt</PaddingBottom>
                          </Style>
                        </Textbox>
                      </CellContents>
                    </TablixCell>
                    <TablixCell>
                      <CellContents>
                        <Textbox Name="textbox17">
                          <KeepTogether>true</KeepTogether>
                          <Paragraphs>
                            <Paragraph>
                              <TextRuns>
                                <TextRun>
                                  <Value />
                                  <Style />
                                </TextRun>
                              </TextRuns>
                            </Paragraph>
                          </Paragraphs>
                          <rd:DefaultName>textbox17</rd:DefaultName>
                          <ZIndex>32</ZIndex>
                          <Style>
                            <PaddingLeft>2pt</PaddingLeft>
                            <PaddingRight>2pt</PaddingRight>
                            <PaddingTop>2pt</PaddingTop>
                            <PaddingBottom>2pt</PaddingBottom>
                          </Style>
                        </Textbox>
                      </CellContents>
                    </TablixCell>
                    <TablixCell>
                      <CellContents>
                        <Textbox Name="textbox18">
                          <KeepTogether>true</KeepTogether>
                          <Paragraphs>
                            <Paragraph>
                              <TextRuns>
                                <TextRun>
                                  <Value />
                                  <Style />
                                </TextRun>
                              </TextRuns>
                            </Paragraph>
                          </Paragraphs>
                          <rd:DefaultName>textbox18</rd:DefaultName>
                          <ZIndex>31</ZIndex>
                          <Style>
                            <PaddingLeft>2pt</PaddingLeft>
                            <PaddingRight>2pt</PaddingRight>
                            <PaddingTop>2pt</PaddingTop>
                            <PaddingBottom>2pt</PaddingBottom>
                          </Style>
                        </Textbox>
                      </CellContents>
                    </TablixCell>
                    <TablixCell>
                      <CellContents>
                        <Textbox Name="Change_Log_Entry__Old_Value_Caption">
                          <CanGrow>true</CanGrow>
                          <KeepTogether>true</KeepTogether>
                          <Paragraphs>
                            <Paragraph>
                              <TextRuns>
                                <TextRun>
                                  <Value>=First(Fields!Change_Log_Entry__Old_Value_Caption.Value)</Value>
                                  <Style>
                                    <FontSize>7pt</FontSize>
                                    <FontWeight>Bold</FontWeight>
                                  </Style>
                                </TextRun>
                              </TextRuns>
                            </Paragraph>
                          </Paragraphs>
                          <ZIndex>30</ZIndex>
                          <Style>
                            <VerticalAlign>Bottom</VerticalAlign>
                            <PaddingLeft>2pt</PaddingLeft>
                            <PaddingRight>2pt</PaddingRight>
                            <PaddingTop>2pt</PaddingTop>
                            <PaddingBottom>2pt</PaddingBottom>
                          </Style>
                        </Textbox>
                      </CellContents>
                    </TablixCell>
                    <TablixCell>
                      <CellContents>
                        <Textbox Name="textbox19">
                          <KeepTogether>true</KeepTogether>
                          <Paragraphs>
                            <Paragraph>
                              <TextRuns>
                                <TextRun>
                                  <Value />
                                  <Style />
                                </TextRun>
                              </TextRuns>
                            </Paragraph>
                          </Paragraphs>
                          <rd:DefaultName>textbox19</rd:DefaultName>
                          <ZIndex>29</ZIndex>
                          <Style>
                            <PaddingLeft>2pt</PaddingLeft>
                            <PaddingRight>2pt</PaddingRight>
                            <PaddingTop>2pt</PaddingTop>
                            <PaddingBottom>2pt</PaddingBottom>
                          </Style>
                        </Textbox>
                      </CellContents>
                    </TablixCell>
                    <TablixCell>
                      <CellContents>
                        <Textbox Name="DT2DATE__Date_and_Time__Caption">
                          <CanGrow>true</CanGrow>
                          <KeepTogether>true</KeepTogether>
                          <Paragraphs>
                            <Paragraph>
                              <TextRuns>
                                <TextRun>
                                  <Value>=First(Fields!DT2DATE__Date_and_Time__Caption.Value)</Value>
                                  <Style>
                                    <FontSize>7pt</FontSize>
                                    <FontWeight>Bold</FontWeight>
                                  </Style>
                                </TextRun>
                              </TextRuns>
                            </Paragraph>
                          </Paragraphs>
                          <ZIndex>28</ZIndex>
                          <Style>
                            <VerticalAlign>Bottom</VerticalAlign>
                            <PaddingLeft>2pt</PaddingLeft>
                            <PaddingRight>2pt</PaddingRight>
                            <PaddingTop>2pt</PaddingTop>
                            <PaddingBottom>2pt</PaddingBottom>
                          </Style>
                        </Textbox>
                      </CellContents>
                    </TablixCell>
                  </TablixCells>
                </TablixRow>
                <TablixRow>
                  <Height>0.1cm</Height>
                  <TablixCells>
                    <TablixCell>
                      <CellContents>
                        <Textbox Name="COMPANYNAME">
                          <KeepTogether>true</KeepTogether>
                          <Paragraphs>
                            <Paragraph>
                              <TextRuns>
                                <TextRun>
                                  <Value>=Fields!COMPANYNAME.Value</Value>
                                  <Style>
                                    <Color>#ff0000</Color>
                                  </Style>
                                </TextRun>
                              </TextRuns>
                            </Paragraph>
                          </Paragraphs>
                          <ZIndex>27</ZIndex>
                          <Visibility>
                            <Hidden>true</Hidden>
                          </Visibility>
                          <Style>
                            <VerticalAlign>Middle</VerticalAlign>
                            <PaddingLeft>2pt</PaddingLeft>
                            <PaddingRight>2pt</PaddingRight>
                            <PaddingTop>2pt</PaddingTop>
                            <PaddingBottom>2pt</PaddingBottom>
                          </Style>
                        </Textbox>
                      </CellContents>
                    </TablixCell>
                    <TablixCell>
                      <CellContents>
                        <Textbox Name="Change_Log_Entry__GETFILTERS">
                          <KeepTogether>true</KeepTogether>
                          <Paragraphs>
                            <Paragraph>
                              <TextRuns>
                                <TextRun>
                                  <Value>=Fields!Change_Log_Entry__GETFILTERS.Value</Value>
                                  <Style>
                                    <Color>#ff0000</Color>
                                  </Style>
                                </TextRun>
                              </TextRuns>
                            </Paragraph>
                          </Paragraphs>
                          <ZIndex>26</ZIndex>
                          <Visibility>
                            <Hidden>true</Hidden>
                          </Visibility>
                          <Style>
                            <VerticalAlign>Middle</VerticalAlign>
                            <PaddingLeft>2pt</PaddingLeft>
                            <PaddingRight>2pt</PaddingRight>
                            <PaddingTop>2pt</PaddingTop>
                            <PaddingBottom>2pt</PaddingBottom>
                          </Style>
                        </Textbox>
                      </CellContents>
                    </TablixCell>
                    <TablixCell>
                      <CellContents>
                        <Textbox Name="Change_Log_EntriesCaption">
                          <CanGrow>true</CanGrow>
                          <KeepTogether>true</KeepTogether>
                          <Paragraphs>
                            <Paragraph>
                              <TextRuns>
                                <TextRun>
                                  <Value>=Fields!Change_Log_EntriesCaption.Value</Value>
                                  <Style>
                                    <Color>#ff0000</Color>
                                  </Style>
                                </TextRun>
                              </TextRuns>
                            </Paragraph>
                          </Paragraphs>
                          <ZIndex>25</ZIndex>
                          <Visibility>
                            <Hidden>true</Hidden>
                          </Visibility>
                          <Style>
                            <VerticalAlign>Middle</VerticalAlign>
                            <PaddingLeft>2pt</PaddingLeft>
                            <PaddingRight>2pt</PaddingRight>
                            <PaddingTop>2pt</PaddingTop>
                            <PaddingBottom>2pt</PaddingBottom>
                          </Style>
                        </Textbox>
                      </CellContents>
                    </TablixCell>
                    <TablixCell>
                      <CellContents>
                        <Textbox Name="CurrReport_PAGENOCaption">
                          <CanGrow>true</CanGrow>
                          <KeepTogether>true</KeepTogether>
                          <Paragraphs>
                            <Paragraph>
                              <TextRuns>
                                <TextRun>
                                  <Value>=Fields!CurrReport_PAGENOCaption.Value</Value>
                                  <Style>
                                    <Color>#ff0000</Color>
                                  </Style>
                                </TextRun>
                              </TextRuns>
                            </Paragraph>
                          </Paragraphs>
                          <ZIndex>24</ZIndex>
                          <Visibility>
                            <Hidden>true</Hidden>
                          </Visibility>
                          <Style>
                            <VerticalAlign>Middle</VerticalAlign>
                            <PaddingLeft>2pt</PaddingLeft>
                            <PaddingRight>2pt</PaddingRight>
                            <PaddingTop>2pt</PaddingTop>
                            <PaddingBottom>2pt</PaddingBottom>
                          </Style>
                        </Textbox>
                      </CellContents>
                    </TablixCell>
                    <TablixCell>
                      <CellContents>
                        <Textbox Name="FiltersCaption">
                          <CanGrow>true</CanGrow>
                          <KeepTogether>true</KeepTogether>
                          <Paragraphs>
                            <Paragraph>
                              <TextRuns>
                                <TextRun>
                                  <Value>=Fields!FiltersCaption.Value</Value>
                                  <Style>
                                    <Color>#ff0000</Color>
                                  </Style>
                                </TextRun>
                              </TextRuns>
                            </Paragraph>
                          </Paragraphs>
                          <ZIndex>23</ZIndex>
                          <Visibility>
                            <Hidden>true</Hidden>
                          </Visibility>
                          <Style>
                            <VerticalAlign>Middle</VerticalAlign>
                            <PaddingLeft>2pt</PaddingLeft>
                            <PaddingRight>2pt</PaddingRight>
                            <PaddingTop>2pt</PaddingTop>
                            <PaddingBottom>2pt</PaddingBottom>
                          </Style>
                        </Textbox>
                      </CellContents>
                    </TablixCell>
                    <TablixCell>
                      <CellContents>
                        <Textbox Name="textbox7">
                          <KeepTogether>true</KeepTogether>
                          <Paragraphs>
                            <Paragraph>
                              <TextRuns>
                                <TextRun>
                                  <Value />
                                  <Style>
                                    <FontSize>7pt</FontSize>
                                    <FontWeight>Bold</FontWeight>
                                  </Style>
                                </TextRun>
                              </TextRuns>
                            </Paragraph>
                          </Paragraphs>
                          <rd:DefaultName>textbox7</rd:DefaultName>
                          <ZIndex>22</ZIndex>
                          <Style>
                            <VerticalAlign>Bottom</VerticalAlign>
                            <PaddingLeft>2pt</PaddingLeft>
                            <PaddingRight>2pt</PaddingRight>
                            <PaddingTop>2pt</PaddingTop>
                            <PaddingBottom>2pt</PaddingBottom>
                          </Style>
                        </Textbox>
                      </CellContents>
                    </TablixCell>
                    <TablixCell>
                      <CellContents>
                        <Textbox Name="textbox8">
                          <KeepTogether>true</KeepTogether>
                          <Paragraphs>
                            <Paragraph>
                              <TextRuns>
                                <TextRun>
                                  <Value />
                                  <Style>
                                    <FontSize>7pt</FontSize>
                                    <FontWeight>Bold</FontWeight>
                                  </Style>
                                </TextRun>
                              </TextRuns>
                            </Paragraph>
                          </Paragraphs>
                          <rd:DefaultName>textbox8</rd:DefaultName>
                          <ZIndex>21</ZIndex>
                          <Style>
                            <VerticalAlign>Bottom</VerticalAlign>
                            <PaddingLeft>2pt</PaddingLeft>
                            <PaddingRight>2pt</PaddingRight>
                            <PaddingTop>2pt</PaddingTop>
                            <PaddingBottom>2pt</PaddingBottom>
                          </Style>
                        </Textbox>
                      </CellContents>
                    </TablixCell>
                  </TablixCells>
                </TablixRow>
                <TablixRow>
                  <Height>0.423cm</Height>
                  <TablixCells>
                    <TablixCell>
                      <CellContents>
                        <Textbox Name="Change_Log_Entry__Table_Name_Caption">
                          <CanGrow>true</CanGrow>
                          <KeepTogether>true</KeepTogether>
                          <Paragraphs>
                            <Paragraph>
                              <TextRuns>
                                <TextRun>
                                  <Value>=First(Fields!Change_Log_Entry__Table_Name_Caption.Value)</Value>
                                  <Style>
                                    <FontSize>7pt</FontSize>
                                    <FontWeight>Bold</FontWeight>
                                  </Style>
                                </TextRun>
                              </TextRuns>
                            </Paragraph>
                          </Paragraphs>
                          <ZIndex>20</ZIndex>
                          <Style>
                            <BottomBorder>
                              <Style>Solid</Style>
                            </BottomBorder>
                            <VerticalAlign>Bottom</VerticalAlign>
                            <PaddingLeft>2pt</PaddingLeft>
                            <PaddingRight>2pt</PaddingRight>
                            <PaddingTop>2pt</PaddingTop>
                            <PaddingBottom>2pt</PaddingBottom>
                          </Style>
                        </Textbox>
                      </CellContents>
                    </TablixCell>
                    <TablixCell>
                      <CellContents>
                        <Textbox Name="Change_Log_Entry__Primary_Key_Caption">
                          <CanGrow>true</CanGrow>
                          <KeepTogether>true</KeepTogether>
                          <Paragraphs>
                            <Paragraph>
                              <TextRuns>
                                <TextRun>
                                  <Value>=First(Fields!Change_Log_Entry__Primary_Key_Caption.Value)</Value>
                                  <Style>
                                    <FontSize>7pt</FontSize>
                                    <FontWeight>Bold</FontWeight>
                                  </Style>
                                </TextRun>
                              </TextRuns>
                            </Paragraph>
                          </Paragraphs>
                          <ZIndex>19</ZIndex>
                          <Style>
                            <BottomBorder>
                              <Style>Solid</Style>
                            </BottomBorder>
                            <VerticalAlign>Bottom</VerticalAlign>
                            <PaddingLeft>2pt</PaddingLeft>
                            <PaddingRight>0.075cm</PaddingRight>
                            <PaddingTop>2pt</PaddingTop>
                            <PaddingBottom>2pt</PaddingBottom>
                          </Style>
                        </Textbox>
                      </CellContents>
                    </TablixCell>
                    <TablixCell>
                      <CellContents>
                        <Textbox Name="Change_Log_Entry__Type_of_Change_Caption">
                          <CanGrow>true</CanGrow>
                          <KeepTogether>true</KeepTogether>
                          <Paragraphs>
                            <Paragraph>
                              <TextRuns>
                                <TextRun>
                                  <Value>=First(Fields!Change_Log_Entry__Type_of_Change_Caption.Value)</Value>
                                  <Style>
                                    <FontSize>7pt</FontSize>
                                    <FontWeight>Bold</FontWeight>
                                  </Style>
                                </TextRun>
                              </TextRuns>
                            </Paragraph>
                          </Paragraphs>
                          <ZIndex>18</ZIndex>
                          <Style>
                            <BottomBorder>
                              <Style>Solid</Style>
                            </BottomBorder>
                            <VerticalAlign>Bottom</VerticalAlign>
                            <PaddingLeft>2pt</PaddingLeft>
                            <PaddingRight>0.075cm</PaddingRight>
                            <PaddingTop>2pt</PaddingTop>
                            <PaddingBottom>2pt</PaddingBottom>
                          </Style>
                        </Textbox>
                      </CellContents>
                    </TablixCell>
                    <TablixCell>
                      <CellContents>
                        <Textbox Name="Change_Log_Entry__Field_Name_Caption">
                          <CanGrow>true</CanGrow>
                          <KeepTogether>true</KeepTogether>
                          <Paragraphs>
                            <Paragraph>
                              <TextRuns>
                                <TextRun>
                                  <Value>=First(Fields!Change_Log_Entry__Field_Name_Caption.Value)</Value>
                                  <Style>
                                    <FontSize>7pt</FontSize>
                                    <FontWeight>Bold</FontWeight>
                                  </Style>
                                </TextRun>
                              </TextRuns>
                            </Paragraph>
                          </Paragraphs>
                          <ZIndex>17</ZIndex>
                          <Style>
                            <BottomBorder>
                              <Style>Solid</Style>
                            </BottomBorder>
                            <VerticalAlign>Bottom</VerticalAlign>
                            <PaddingLeft>2pt</PaddingLeft>
                            <PaddingRight>2pt</PaddingRight>
                            <PaddingTop>2pt</PaddingTop>
                            <PaddingBottom>2pt</PaddingBottom>
                          </Style>
                        </Textbox>
                      </CellContents>
                    </TablixCell>
                    <TablixCell>
                      <CellContents>
                        <Textbox Name="Change_Log_Entry__New_Value_Caption">
                          <CanGrow>true</CanGrow>
                          <KeepTogether>true</KeepTogether>
                          <Paragraphs>
                            <Paragraph>
                              <TextRuns>
                                <TextRun>
                                  <Value>=First(Fields!Change_Log_Entry__New_Value_Caption.Value)</Value>
                                  <Style>
                                    <FontSize>7pt</FontSize>
                                    <FontWeight>Bold</FontWeight>
                                  </Style>
                                </TextRun>
                              </TextRuns>
                            </Paragraph>
                          </Paragraphs>
                          <ZIndex>16</ZIndex>
                          <Style>
                            <BottomBorder>
                              <Style>Solid</Style>
                            </BottomBorder>
                            <VerticalAlign>Bottom</VerticalAlign>
                            <PaddingLeft>2pt</PaddingLeft>
                            <PaddingRight>2pt</PaddingRight>
                            <PaddingTop>2pt</PaddingTop>
                            <PaddingBottom>2pt</PaddingBottom>
                          </Style>
                        </Textbox>
                      </CellContents>
                    </TablixCell>
                    <TablixCell>
                      <CellContents>
                        <Textbox Name="Change_Log_Entry__User_ID_Caption">
                          <CanGrow>true</CanGrow>
                          <KeepTogether>true</KeepTogether>
                          <Paragraphs>
                            <Paragraph>
                              <TextRuns>
                                <TextRun>
                                  <Value>=First(Fields!Change_Log_Entry__User_ID_Caption.Value)</Value>
                                  <Style>
                                    <FontSize>7pt</FontSize>
                                    <FontWeight>Bold</FontWeight>
                                  </Style>
                                </TextRun>
                              </TextRuns>
                            </Paragraph>
                          </Paragraphs>
                          <ZIndex>15</ZIndex>
                          <Style>
                            <BottomBorder>
                              <Style>Solid</Style>
                            </BottomBorder>
                            <VerticalAlign>Bottom</VerticalAlign>
                            <PaddingLeft>2pt</PaddingLeft>
                            <PaddingRight>2pt</PaddingRight>
                            <PaddingTop>2pt</PaddingTop>
                            <PaddingBottom>2pt</PaddingBottom>
                          </Style>
                        </Textbox>
                      </CellContents>
                    </TablixCell>
                    <TablixCell>
                      <CellContents>
                        <Textbox Name="Change_Log_Entry_TimeCaption">
                          <CanGrow>true</CanGrow>
                          <KeepTogether>true</KeepTogether>
                          <Paragraphs>
                            <Paragraph>
                              <TextRuns>
                                <TextRun>
                                  <Value>=First(Fields!Change_Log_Entry_TimeCaption.Value)</Value>
                                  <Style>
                                    <FontSize>7pt</FontSize>
                                    <FontWeight>Bold</FontWeight>
                                  </Style>
                                </TextRun>
                              </TextRuns>
                            </Paragraph>
                          </Paragraphs>
                          <ZIndex>14</ZIndex>
                          <Style>
                            <BottomBorder>
                              <Style>Solid</Style>
                            </BottomBorder>
                            <VerticalAlign>Bottom</VerticalAlign>
                            <PaddingLeft>2pt</PaddingLeft>
                            <PaddingRight>2pt</PaddingRight>
                            <PaddingTop>2pt</PaddingTop>
                            <PaddingBottom>2pt</PaddingBottom>
                          </Style>
                        </Textbox>
                      </CellContents>
                    </TablixCell>
                  </TablixCells>
                </TablixRow>
                <TablixRow>
                  <Height>0.453cm</Height>
                  <TablixCells>
                    <TablixCell>
                      <CellContents>
                        <Textbox Name="Change_Log_Entry__Table_Name_">
                          <CanGrow>true</CanGrow>
                          <KeepTogether>true</KeepTogether>
                          <Paragraphs>
                            <Paragraph>
                              <TextRuns>
                                <TextRun>
                                  <Value>=Fields!Change_Log_Entry__Table_Name_.Value</Value>
                                  <Style>
                                    <FontSize>7pt</FontSize>
                                  </Style>
                                </TextRun>
                              </TextRuns>
                              <Style>
                                <TextAlign>Left</TextAlign>
                              </Style>
                            </Paragraph>
                          </Paragraphs>
                          <ZIndex>13</ZIndex>
                          <Style>
                            <PaddingLeft>2pt</PaddingLeft>
                            <PaddingRight>2pt</PaddingRight>
                            <PaddingTop>4pt</PaddingTop>
                            <PaddingBottom>2pt</PaddingBottom>
                          </Style>
                        </Textbox>
                      </CellContents>
                    </TablixCell>
                    <TablixCell>
                      <CellContents>
                        <Textbox Name="Change_Log_Entry__Primary_Key_">
                          <CanGrow>true</CanGrow>
                          <KeepTogether>true</KeepTogether>
                          <Paragraphs>
                            <Paragraph>
                              <TextRuns>
                                <TextRun>
                                  <Value>=Fields!Change_Log_Entry__Primary_Key_.Value</Value>
                                  <Style>
                                    <FontSize>7pt</FontSize>
                                  </Style>
                                </TextRun>
                              </TextRuns>
                              <Style>
                                <TextAlign>Left</TextAlign>
                              </Style>
                            </Paragraph>
                          </Paragraphs>
                          <ZIndex>12</ZIndex>
                          <Style>
                            <PaddingLeft>2pt</PaddingLeft>
                            <PaddingRight>0.075cm</PaddingRight>
                            <PaddingTop>4pt</PaddingTop>
                            <PaddingBottom>2pt</PaddingBottom>
                          </Style>
                        </Textbox>
                      </CellContents>
                    </TablixCell>
                    <TablixCell>
                      <CellContents>
                        <Textbox Name="Change_Log_Entry__Type_of_Change_">
                          <CanGrow>true</CanGrow>
                          <KeepTogether>true</KeepTogether>
                          <Paragraphs>
                            <Paragraph>
                              <TextRuns>
                                <TextRun>
                                  <Value>=Fields!Change_Log_Entry__Type_of_Change_.Value</Value>
                                  <Style>
                                    <FontSize>7pt</FontSize>
                                  </Style>
                                </TextRun>
                              </TextRuns>
                              <Style>
                                <TextAlign>Left</TextAlign>
                              </Style>
                            </Paragraph>
                          </Paragraphs>
                          <ZIndex>11</ZIndex>
                          <Style>
                            <PaddingLeft>0.075cm</PaddingLeft>
                            <PaddingRight>0.075cm</PaddingRight>
                            <PaddingTop>4pt</PaddingTop>
                            <PaddingBottom>2pt</PaddingBottom>
                          </Style>
                        </Textbox>
                      </CellContents>
                    </TablixCell>
                    <TablixCell>
                      <CellContents>
                        <Textbox Name="Change_Log_Entry__Field_Name_">
                          <CanGrow>true</CanGrow>
                          <KeepTogether>true</KeepTogether>
                          <Paragraphs>
                            <Paragraph>
                              <TextRuns>
                                <TextRun>
                                  <Value>=Fields!Change_Log_Entry__Field_Name_.Value</Value>
                                  <Style>
                                    <FontSize>7pt</FontSize>
                                  </Style>
                                </TextRun>
                              </TextRuns>
                              <Style>
                                <TextAlign>Left</TextAlign>
                              </Style>
                            </Paragraph>
                          </Paragraphs>
                          <ZIndex>10</ZIndex>
                          <Style>
                            <PaddingLeft>0.075cm</PaddingLeft>
                            <PaddingRight>2pt</PaddingRight>
                            <PaddingTop>4pt</PaddingTop>
                            <PaddingBottom>2pt</PaddingBottom>
                          </Style>
                        </Textbox>
                      </CellContents>
                    </TablixCell>
                    <TablixCell>
                      <CellContents>
                        <Textbox Name="Change_Log_Entry__Old_Value_">
                          <CanGrow>true</CanGrow>
                          <KeepTogether>true</KeepTogether>
                          <Paragraphs>
                            <Paragraph>
                              <TextRuns>
                                <TextRun>
                                  <Value>=Fields!Change_Log_Entry__Old_Value_.Value</Value>
                                  <Style>
                                    <FontSize>7pt</FontSize>
                                  </Style>
                                </TextRun>
                              </TextRuns>
                              <Style>
                                <TextAlign>Left</TextAlign>
                              </Style>
                            </Paragraph>
                          </Paragraphs>
                          <ZIndex>9</ZIndex>
                          <Style>
                            <PaddingLeft>2pt</PaddingLeft>
                            <PaddingRight>2pt</PaddingRight>
                            <PaddingTop>4pt</PaddingTop>
                            <PaddingBottom>2pt</PaddingBottom>
                          </Style>
                        </Textbox>
                      </CellContents>
                    </TablixCell>
                    <TablixCell>
                      <CellContents>
                        <Textbox Name="Change_Log_Entry__User_ID_">
                          <CanGrow>true</CanGrow>
                          <KeepTogether>true</KeepTogether>
                          <Paragraphs>
                            <Paragraph>
                              <TextRuns>
                                <TextRun>
                                  <Value>=Fields!Change_Log_Entry__User_ID_.Value</Value>
                                  <Style>
                                    <FontSize>7pt</FontSize>
                                  </Style>
                                </TextRun>
                              </TextRuns>
                              <Style>
                                <TextAlign>Left</TextAlign>
                              </Style>
                            </Paragraph>
                          </Paragraphs>
                          <ZIndex>8</ZIndex>
                          <Style>
                            <PaddingLeft>2pt</PaddingLeft>
                            <PaddingRight>2pt</PaddingRight>
                            <PaddingTop>4pt</PaddingTop>
                            <PaddingBottom>2pt</PaddingBottom>
                          </Style>
                        </Textbox>
                      </CellContents>
                    </TablixCell>
                    <TablixCell>
                      <CellContents>
                        <Textbox Name="DT2DATE__Date_and_Time__">
                          <CanGrow>true</CanGrow>
                          <KeepTogether>true</KeepTogether>
                          <Paragraphs>
                            <Paragraph>
                              <TextRuns>
                                <TextRun>
                                  <Value>=Fields!DT2DATE__Date_and_Time__.Value</Value>
                                  <Style>
                                    <FontSize>7pt</FontSize>
                                    <Format>d</Format>
                                  </Style>
                                </TextRun>
                              </TextRuns>
                              <Style>
                                <TextAlign>Left</TextAlign>
                              </Style>
                            </Paragraph>
                          </Paragraphs>
                          <ZIndex>7</ZIndex>
                          <Style>
                            <PaddingLeft>2pt</PaddingLeft>
                            <PaddingRight>2pt</PaddingRight>
                            <PaddingTop>4pt</PaddingTop>
                            <PaddingBottom>2pt</PaddingBottom>
                          </Style>
                        </Textbox>
                      </CellContents>
                    </TablixCell>
                  </TablixCells>
                </TablixRow>
                <TablixRow>
                  <Height>0.423cm</Height>
                  <TablixCells>
                    <TablixCell>
                      <CellContents>
                        <Textbox Name="TextBox1">
                          <KeepTogether>true</KeepTogether>
                          <Paragraphs>
                            <Paragraph>
                              <TextRuns>
                                <TextRun>
                                  <Value />
                                  <Style />
                                </TextRun>
                              </TextRuns>
                            </Paragraph>
                          </Paragraphs>
                          <ZIndex>6</ZIndex>
                          <Style>
                            <BottomBorder>
                              <Style>Solid</Style>
                            </BottomBorder>
                            <VerticalAlign>Middle</VerticalAlign>
                            <PaddingLeft>2pt</PaddingLeft>
                            <PaddingRight>2pt</PaddingRight>
                            <PaddingTop>2pt</PaddingTop>
                            <PaddingBottom>2pt</PaddingBottom>
                          </Style>
                        </Textbox>
                      </CellContents>
                    </TablixCell>
                    <TablixCell>
                      <CellContents>
                        <Textbox Name="TextBox11">
                          <KeepTogether>true</KeepTogether>
                          <Paragraphs>
                            <Paragraph>
                              <TextRuns>
                                <TextRun>
                                  <Value />
                                  <Style />
                                </TextRun>
                              </TextRuns>
                            </Paragraph>
                          </Paragraphs>
                          <ZIndex>5</ZIndex>
                          <Style>
                            <BottomBorder>
                              <Style>Solid</Style>
                            </BottomBorder>
                            <VerticalAlign>Middle</VerticalAlign>
                            <PaddingLeft>2pt</PaddingLeft>
                            <PaddingRight>2pt</PaddingRight>
                            <PaddingTop>2pt</PaddingTop>
                            <PaddingBottom>2pt</PaddingBottom>
                          </Style>
                        </Textbox>
                      </CellContents>
                    </TablixCell>
                    <TablixCell>
                      <CellContents>
                        <Textbox Name="TextBox12">
                          <KeepTogether>true</KeepTogether>
                          <Paragraphs>
                            <Paragraph>
                              <TextRuns>
                                <TextRun>
                                  <Value />
                                  <Style />
                                </TextRun>
                              </TextRuns>
                            </Paragraph>
                          </Paragraphs>
                          <ZIndex>4</ZIndex>
                          <Style>
                            <BottomBorder>
                              <Style>Solid</Style>
                            </BottomBorder>
                            <VerticalAlign>Middle</VerticalAlign>
                            <PaddingLeft>2pt</PaddingLeft>
                            <PaddingRight>2pt</PaddingRight>
                            <PaddingTop>2pt</PaddingTop>
                            <PaddingBottom>2pt</PaddingBottom>
                          </Style>
                        </Textbox>
                      </CellContents>
                    </TablixCell>
                    <TablixCell>
                      <CellContents>
                        <Textbox Name="TextBox13">
                          <KeepTogether>true</KeepTogether>
                          <Paragraphs>
                            <Paragraph>
                              <TextRuns>
                                <TextRun>
                                  <Value />
                                  <Style />
                                </TextRun>
                              </TextRuns>
                            </Paragraph>
                          </Paragraphs>
                          <ZIndex>3</ZIndex>
                          <Style>
                            <BottomBorder>
                              <Style>Solid</Style>
                            </BottomBorder>
                            <VerticalAlign>Middle</VerticalAlign>
                            <PaddingLeft>2pt</PaddingLeft>
                            <PaddingRight>2pt</PaddingRight>
                            <PaddingTop>2pt</PaddingTop>
                            <PaddingBottom>2pt</PaddingBottom>
                          </Style>
                        </Textbox>
                      </CellContents>
                    </TablixCell>
                    <TablixCell>
                      <CellContents>
                        <Textbox Name="Change_Log_Entry__New_Value_">
                          <CanGrow>true</CanGrow>
                          <KeepTogether>true</KeepTogether>
                          <Paragraphs>
                            <Paragraph>
                              <TextRuns>
                                <TextRun>
                                  <Value>=Fields!Change_Log_Entry__New_Value_.Value</Value>
                                  <Style>
                                    <FontSize>7pt</FontSize>
                                  </Style>
                                </TextRun>
                              </TextRuns>
                              <Style>
                                <TextAlign>Left</TextAlign>
                              </Style>
                            </Paragraph>
                          </Paragraphs>
                          <ZIndex>2</ZIndex>
                          <Style>
                            <BottomBorder>
                              <Style>Solid</Style>
                            </BottomBorder>
                            <PaddingLeft>2pt</PaddingLeft>
                            <PaddingRight>2pt</PaddingRight>
                            <PaddingTop>2pt</PaddingTop>
                            <PaddingBottom>2pt</PaddingBottom>
                          </Style>
                        </Textbox>
                      </CellContents>
                    </TablixCell>
                    <TablixCell>
                      <CellContents>
                        <Textbox Name="TextBox14">
                          <KeepTogether>true</KeepTogether>
                          <Paragraphs>
                            <Paragraph>
                              <TextRuns>
                                <TextRun>
                                  <Value />
                                  <Style />
                                </TextRun>
                              </TextRuns>
                            </Paragraph>
                          </Paragraphs>
                          <ZIndex>1</ZIndex>
                          <Style>
                            <BottomBorder>
                              <Style>Solid</Style>
                            </BottomBorder>
                            <VerticalAlign>Middle</VerticalAlign>
                            <PaddingLeft>2pt</PaddingLeft>
                            <PaddingRight>2pt</PaddingRight>
                            <PaddingTop>2pt</PaddingTop>
                            <PaddingBottom>2pt</PaddingBottom>
                          </Style>
                        </Textbox>
                      </CellContents>
                    </TablixCell>
                    <TablixCell>
                      <CellContents>
                        <Textbox Name="Change_Log_Entry_Time">
                          <CanGrow>true</CanGrow>
                          <KeepTogether>true</KeepTogether>
                          <Paragraphs>
                            <Paragraph>
                              <TextRuns>
                                <TextRun>
                                  <Value>=Fields!Change_Log_Entry_Time.Value</Value>
                                  <Style>
                                    <FontSize>7pt</FontSize>
                                    <Format>T</Format>
                                  </Style>
                                </TextRun>
                              </TextRuns>
                              <Style>
                                <TextAlign>Left</TextAlign>
                              </Style>
                            </Paragraph>
                          </Paragraphs>
                          <Style>
                            <BottomBorder>
                              <Style>Solid</Style>
                            </BottomBorder>
                            <VerticalAlign>Middle</VerticalAlign>
                            <PaddingLeft>2pt</PaddingLeft>
                            <PaddingRight>2pt</PaddingRight>
                            <PaddingTop>2pt</PaddingTop>
                            <PaddingBottom>2pt</PaddingBottom>
                          </Style>
                        </Textbox>
                      </CellContents>
                    </TablixCell>
                  </TablixCells>
                </TablixRow>
              </TablixRows>
            </TablixBody>
            <TablixColumnHierarchy>
              <TablixMembers>
                <TablixMember />
                <TablixMember />
                <TablixMember />
                <TablixMember />
                <TablixMember />
                <TablixMember />
                <TablixMember />
              </TablixMembers>
            </TablixColumnHierarchy>
            <TablixRowHierarchy>
              <TablixMembers>
                <TablixMember>
                  <KeepWithGroup>After</KeepWithGroup>
                  <RepeatOnNewPage>true</RepeatOnNewPage>
                  <KeepTogether>true</KeepTogether>
                </TablixMember>
                <TablixMember>
                  <KeepWithGroup>After</KeepWithGroup>
                  <RepeatOnNewPage>true</RepeatOnNewPage>
                  <KeepTogether>true</KeepTogether>
                </TablixMember>
                <TablixMember>
                  <Visibility>
                    <Hidden>=IIF(First(Fields!COMPANYNAME.Value)="",True,False)</Hidden>
                  </Visibility>
                  <KeepWithGroup>After</KeepWithGroup>
                  <RepeatOnNewPage>true</RepeatOnNewPage>
                  <KeepTogether>true</KeepTogether>
                </TablixMember>
                <TablixMember>
                  <Group Name="Table1_Group1">
                    <GroupExpressions>
                      <GroupExpression>=Fields!Change_Log_Entry_Date_and_Time.Value</GroupExpression>
                    </GroupExpressions>
                  </Group>
                  <TablixMembers>
                    <TablixMember>
                      <Group Name="Table1_Details_Group">
                        <DataElementName>Detail</DataElementName>
                      </Group>
                      <TablixMembers>
                        <TablixMember />
                        <TablixMember />
                      </TablixMembers>
                      <DataElementName>Detail_Collection</DataElementName>
                      <DataElementOutput>Output</DataElementOutput>
                      <KeepTogether>true</KeepTogether>
                    </TablixMember>
                  </TablixMembers>
                </TablixMember>
              </TablixMembers>
            </TablixRowHierarchy>
            <DataSetName>DataSet_Result</DataSetName>
          </Tablix>
        </ReportItems>
        <Height>2.245cm</Height>
      </Body>
      <Width>18.10158cm</Width>
      <Page>
        <PageHeader>
          <Height>1.692cm</Height>
          <PrintOnFirstPage>true</PrintOnFirstPage>
          <PrintOnLastPage>true</PrintOnLastPage>
          <ReportItems>
            <Textbox Name="PageNumberTextBox">
              <KeepTogether>true</KeepTogether>
              <Paragraphs>
                <Paragraph>
                  <TextRuns>
                    <TextRun>
                      <Value>=Globals!PageNumber</Value>
                      <Style>
                        <FontSize>7pt</FontSize>
                      </Style>
                    </TextRun>
                  </TextRuns>
                  <Style>
                    <TextAlign>Right</TextAlign>
                  </Style>
                </Paragraph>
              </Paragraphs>
              <Top>0.42356cm</Top>
              <Left>17.64127cm</Left>
              <Height>0.423cm</Height>
              <ZIndex>7</ZIndex>
              <Style>
                <VerticalAlign>Middle</VerticalAlign>
              </Style>
            </Textbox>
            <Textbox Name="UserIdTextBox">
              <KeepTogether>true</KeepTogether>
              <Paragraphs>
                <Paragraph>
                  <TextRuns>
                    <TextRun>
                      <Value>=User!UserID</Value>
                      <Style>
                        <FontSize>7pt</FontSize>
                      </Style>
                    </TextRun>
                  </TextRuns>
                  <Style>
                    <TextAlign>Right</TextAlign>
                  </Style>
                </Paragraph>
              </Paragraphs>
              <Top>0.84656cm</Top>
              <Left>14.84127cm</Left>
              <Height>0.423cm</Height>
              <ZIndex>6</ZIndex>
              <Style>
                <VerticalAlign>Middle</VerticalAlign>
              </Style>
            </Textbox>
            <Textbox Name="ExecutionTimeTextBox">
              <KeepTogether>true</KeepTogether>
              <Paragraphs>
                <Paragraph>
                  <TextRuns>
                    <TextRun>
                      <Value>=Globals!ExecutionTime</Value>
                      <Style>
                        <FontSize>7pt</FontSize>
                        <Format>D</Format>
                      </Style>
                    </TextRun>
                  </TextRuns>
                  <Style>
                    <TextAlign>Right</TextAlign>
                  </Style>
                </Paragraph>
              </Paragraphs>
              <Top>0.00056cm</Top>
              <Left>12.63968cm</Left>
              <Height>0.423cm</Height>
              <ZIndex>5</ZIndex>
              <Style>
                <VerticalAlign>Middle</VerticalAlign>
              </Style>
            </Textbox>
            <Textbox Name="COMPANYNAME1">
              <KeepTogether>true</KeepTogether>
              <Paragraphs>
                <Paragraph>
                  <TextRuns>
                    <TextRun>
                      <Value>=ReportItems!COMPANYNAME.Value</Value>
                      <Style>
                        <FontSize>7pt</FontSize>
                      </Style>
                    </TextRun>
                  </TextRuns>
                </Paragraph>
              </Paragraphs>
              <Top>0.423cm</Top>
              <Height>0.423cm</Height>
              <Width>7.5cm</Width>
              <ZIndex>4</ZIndex>
              <Style>
                <VerticalAlign>Middle</VerticalAlign>
              </Style>
            </Textbox>
            <Textbox Name="Change_Log_Entry__GETFILTERS1">
              <KeepTogether>true</KeepTogether>
              <Paragraphs>
                <Paragraph>
                  <TextRuns>
                    <TextRun>
                      <Value>=ReportItems!Change_Log_Entry__GETFILTERS.Value</Value>
                      <Style>
                        <FontSize>7pt</FontSize>
                      </Style>
                    </TextRun>
                  </TextRuns>
                </Paragraph>
              </Paragraphs>
              <Top>1.269cm</Top>
              <Left>2.7cm</Left>
              <Width>12cm</Width>
              <ZIndex>3</ZIndex>
              <Style>
                <VerticalAlign>Middle</VerticalAlign>
              </Style>
            </Textbox>
            <Textbox Name="Change_Log_EntriesCaption1">
              <KeepTogether>true</KeepTogether>
              <Paragraphs>
                <Paragraph>
                  <TextRuns>
                    <TextRun>
                      <Value>=ReportItems!Change_Log_EntriesCaption.Value</Value>
                      <Style>
                        <FontSize>8pt</FontSize>
                        <FontWeight>Bold</FontWeight>
                      </Style>
                    </TextRun>
                  </TextRuns>
                </Paragraph>
              </Paragraphs>
              <Height>0.423cm</Height>
              <Width>7.5cm</Width>
              <ZIndex>2</ZIndex>
              <Style>
                <VerticalAlign>Middle</VerticalAlign>
              </Style>
            </Textbox>
            <Textbox Name="CurrReport_PAGENOCaption1">
              <KeepTogether>true</KeepTogether>
              <Paragraphs>
                <Paragraph>
                  <TextRuns>
                    <TextRun>
                      <Value>=ReportItems!CurrReport_PAGENOCaption.Value</Value>
                      <Style>
                        <FontSize>7pt</FontSize>
                      </Style>
                    </TextRun>
                  </TextRuns>
                </Paragraph>
              </Paragraphs>
              <Top>0.42356cm</Top>
              <Left>16.89127cm</Left>
              <Height>0.423cm</Height>
              <Width>0.75cm</Width>
              <ZIndex>1</ZIndex>
              <Style>
                <VerticalAlign>Middle</VerticalAlign>
              </Style>
            </Textbox>
            <Textbox Name="FiltersCaption1">
              <KeepTogether>true</KeepTogether>
              <Paragraphs>
                <Paragraph>
                  <TextRuns>
                    <TextRun>
                      <Value>=ReportItems!FiltersCaption.Value</Value>
                      <Style>
                        <FontSize>7pt</FontSize>
                      </Style>
                    </TextRun>
                  </TextRuns>
                </Paragraph>
              </Paragraphs>
              <Top>1.269cm</Top>
              <Width>2.55cm</Width>
              <Style>
                <VerticalAlign>Middle</VerticalAlign>
              </Style>
            </Textbox>
          </ReportItems>
        </PageHeader>
        <PageHeight>29.7cm</PageHeight>
        <PageWidth>21cm</PageWidth>
        <InteractiveHeight>11in</InteractiveHeight>
        <InteractiveWidth>8.5in</InteractiveWidth>
        <LeftMargin>1.5cm</LeftMargin>
        <TopMargin>2cm</TopMargin>
        <BottomMargin>2cm</BottomMargin>
      </Page>
    </ReportSection>
  </ReportSections>
  <Code>Public Function BlankZero(ByVal Value As Decimal)
    if Value = 0 then
        Return ""
    end if
    Return Value
End Function

Public Function BlankPos(ByVal Value As Decimal)
    if Value &gt; 0 then
        Return ""
    end if
    Return Value
End Function

Public Function BlankZeroAndPos(ByVal Value As Decimal)
    if Value &gt;= 0 then
        Return ""
    end if
    Return Value
End Function

Public Function BlankNeg(ByVal Value As Decimal)
    if Value &lt; 0 then
        Return ""
    end if
    Return Value
End Function

Public Function BlankNegAndZero(ByVal Value As Decimal)
    if Value &lt;= 0 then
        Return ""
    end if
    Return Value
End Function
</Code>
  <Language>=User!Language</Language>
  <ConsumeContainerWhitespace>true</ConsumeContainerWhitespace>
  <rd:ReportUnitType>Invalid</rd:ReportUnitType>
  <rd:ReportID>d265ac88-35c0-4d77-8f65-25405afd8b1a</rd:ReportID>
</Report>
    END_OF_RDLDATA
  }
}

