OBJECT Report 5061 Opportunity - List
{
  OBJECT-PROPERTIES
  {
    Date=23/09/13;
    Time=12:00:00;
    Version List=NAVW17.10;
  }
  PROPERTIES
  {
    CaptionML=ENU=Opportunity - List;
    OnPreReport=BEGIN
                  OpportunityFilter := Opportunity.GETFILTERS;
                END;

  }
  DATASET
  {
    { 9773;    ;DataItem;                    ;
               DataItemTable=Table5092;
               DataItemTableView=;
               ReqFilterFields=No.,Salesperson Code,Campaign No.,Contact No.,Sales Cycle Code,Creation Date,Closed }

    { 3   ;1   ;Column  ;COMPANYNAME         ;
               SourceExpr=COMPANYNAME }

    { 2   ;1   ;Column  ;FORMAT_TODAY_0_4_   ;
               SourceExpr=FORMAT(TODAY,0,4) }

    { 4   ;1   ;Column  ;CurrReport_PAGENO   ;
               SourceExpr=CurrReport.PAGENO }

    { 7   ;1   ;Column  ;Opportunity_TABLECAPTION__________OpportunityFilter;
               SourceExpr=TABLECAPTION + ': ' + OpportunityFilter }

    { 1102601000;1;Column;OpportunityFilter  ;
               SourceExpr=OpportunityFilter }

    { 8   ;1   ;Column  ;Opportunity__No__   ;
               SourceExpr="No." }

    { 10  ;1   ;Column  ;Opportunity_Description;
               SourceExpr=Description }

    { 12  ;1   ;Column  ;Opportunity__Sales_Cycle_Code_;
               SourceExpr="Sales Cycle Code" }

    { 14  ;1   ;Column  ;Opportunity__Current_Sales_Cycle_Stage_;
               SourceExpr="Current Sales Cycle Stage" }

    { 16  ;1   ;Column  ;Opportunity__Salesperson_Code_;
               SourceExpr="Salesperson Code" }

    { 18  ;1   ;Column  ;Opportunity__Campaign_No__;
               SourceExpr="Campaign No." }

    { 20  ;1   ;Column  ;Opportunity__Contact_No__;
               SourceExpr="Contact No." }

    { 22  ;1   ;Column  ;Opportunity__Probability___;
               SourceExpr="Probability %" }

    { 24  ;1   ;Column  ;Opportunity__Completed___;
               SourceExpr="Completed %" }

    { 26  ;1   ;Column  ;Opportunity_Status  ;
               SourceExpr=Status }

    { 1   ;1   ;Column  ;Opportunity___ListCaption;
               SourceExpr=Opportunity___ListCaptionLbl }

    { 5   ;1   ;Column  ;CurrReport_PAGENOCaption;
               SourceExpr=CurrReport_PAGENOCaptionLbl }

    { 9   ;1   ;Column  ;Opportunity__No__Caption;
               SourceExpr=FIELDCAPTION("No.") }

    { 11  ;1   ;Column  ;Opportunity_DescriptionCaption;
               SourceExpr=FIELDCAPTION(Description) }

    { 13  ;1   ;Column  ;Opportunity__Sales_Cycle_Code_Caption;
               SourceExpr=FIELDCAPTION("Sales Cycle Code") }

    { 15  ;1   ;Column  ;Opportunity__Current_Sales_Cycle_Stage_Caption;
               SourceExpr=FIELDCAPTION("Current Sales Cycle Stage") }

    { 17  ;1   ;Column  ;Opportunity__Salesperson_Code_Caption;
               SourceExpr=FIELDCAPTION("Salesperson Code") }

    { 19  ;1   ;Column  ;Opportunity__Campaign_No__Caption;
               SourceExpr=FIELDCAPTION("Campaign No.") }

    { 21  ;1   ;Column  ;Opportunity__Contact_No__Caption;
               SourceExpr=FIELDCAPTION("Contact No.") }

    { 23  ;1   ;Column  ;Opportunity__Probability___Caption;
               SourceExpr=FIELDCAPTION("Probability %") }

    { 25  ;1   ;Column  ;Opportunity__Completed___Caption;
               SourceExpr=FIELDCAPTION("Completed %") }

    { 27  ;1   ;Column  ;Opportunity_StatusCaption;
               SourceExpr=FIELDCAPTION(Status) }

  }
  REQUESTPAGE
  {
    PROPERTIES
    {
    }
    CONTROLS
    {
    }
  }
  LABELS
  {
  }
  CODE
  {
    VAR
      OpportunityFilter@1000 : Text;
      Opportunity___ListCaptionLbl@7885 : TextConst 'ENU=Opportunity - List';
      CurrReport_PAGENOCaptionLbl@8565 : TextConst 'ENU=Page';

    BEGIN
    END.
  }
  RDLDATA
  {
    <?xml version="1.0" encoding="utf-8"?>
<Report xmlns:rd="http://schemas.microsoft.com/SQLServer/reporting/reportdesigner" xmlns="http://schemas.microsoft.com/sqlserver/reporting/2010/01/reportdefinition">
  <AutoRefresh>0</AutoRefresh>
  <DataSources>
    <DataSource Name="DataSource">
      <ConnectionProperties>
        <DataProvider>SQL</DataProvider>
        <ConnectString />
      </ConnectionProperties>
      <rd:SecurityType>None</rd:SecurityType>
      <rd:DataSourceID>78f094ac-96f6-45bb-be73-5aa7c3dbf0ee</rd:DataSourceID>
    </DataSource>
  </DataSources>
  <DataSets>
    <DataSet Name="DataSet_Result">
      <Query>
        <DataSourceName>DataSource</DataSourceName>
        <CommandText />
      </Query>
      <Fields>
        <Field Name="COMPANYNAME">
          <DataField>COMPANYNAME</DataField>
        </Field>
        <Field Name="FORMAT_TODAY_0_4_">
          <DataField>FORMAT_TODAY_0_4_</DataField>
        </Field>
        <Field Name="CurrReport_PAGENO">
          <DataField>CurrReport_PAGENO</DataField>
        </Field>
        <Field Name="Opportunity_TABLECAPTION__________OpportunityFilter">
          <DataField>Opportunity_TABLECAPTION__________OpportunityFilter</DataField>
        </Field>
        <Field Name="OpportunityFilter">
          <DataField>OpportunityFilter</DataField>
        </Field>
        <Field Name="Opportunity__No__">
          <DataField>Opportunity__No__</DataField>
        </Field>
        <Field Name="Opportunity_Description">
          <DataField>Opportunity_Description</DataField>
        </Field>
        <Field Name="Opportunity__Sales_Cycle_Code_">
          <DataField>Opportunity__Sales_Cycle_Code_</DataField>
        </Field>
        <Field Name="Opportunity__Current_Sales_Cycle_Stage_">
          <DataField>Opportunity__Current_Sales_Cycle_Stage_</DataField>
        </Field>
        <Field Name="Opportunity__Salesperson_Code_">
          <DataField>Opportunity__Salesperson_Code_</DataField>
        </Field>
        <Field Name="Opportunity__Campaign_No__">
          <DataField>Opportunity__Campaign_No__</DataField>
        </Field>
        <Field Name="Opportunity__Contact_No__">
          <DataField>Opportunity__Contact_No__</DataField>
        </Field>
        <Field Name="Opportunity__Probability___">
          <DataField>Opportunity__Probability___</DataField>
        </Field>
        <Field Name="Opportunity__Probability___Format">
          <DataField>Opportunity__Probability___Format</DataField>
        </Field>
        <Field Name="Opportunity__Completed___">
          <DataField>Opportunity__Completed___</DataField>
        </Field>
        <Field Name="Opportunity__Completed___Format">
          <DataField>Opportunity__Completed___Format</DataField>
        </Field>
        <Field Name="Opportunity_Status">
          <DataField>Opportunity_Status</DataField>
        </Field>
        <Field Name="Opportunity___ListCaption">
          <DataField>Opportunity___ListCaption</DataField>
        </Field>
        <Field Name="CurrReport_PAGENOCaption">
          <DataField>CurrReport_PAGENOCaption</DataField>
        </Field>
        <Field Name="Opportunity__No__Caption">
          <DataField>Opportunity__No__Caption</DataField>
        </Field>
        <Field Name="Opportunity_DescriptionCaption">
          <DataField>Opportunity_DescriptionCaption</DataField>
        </Field>
        <Field Name="Opportunity__Sales_Cycle_Code_Caption">
          <DataField>Opportunity__Sales_Cycle_Code_Caption</DataField>
        </Field>
        <Field Name="Opportunity__Current_Sales_Cycle_Stage_Caption">
          <DataField>Opportunity__Current_Sales_Cycle_Stage_Caption</DataField>
        </Field>
        <Field Name="Opportunity__Salesperson_Code_Caption">
          <DataField>Opportunity__Salesperson_Code_Caption</DataField>
        </Field>
        <Field Name="Opportunity__Campaign_No__Caption">
          <DataField>Opportunity__Campaign_No__Caption</DataField>
        </Field>
        <Field Name="Opportunity__Contact_No__Caption">
          <DataField>Opportunity__Contact_No__Caption</DataField>
        </Field>
        <Field Name="Opportunity__Probability___Caption">
          <DataField>Opportunity__Probability___Caption</DataField>
        </Field>
        <Field Name="Opportunity__Completed___Caption">
          <DataField>Opportunity__Completed___Caption</DataField>
        </Field>
        <Field Name="Opportunity_StatusCaption">
          <DataField>Opportunity_StatusCaption</DataField>
        </Field>
      </Fields>
      <rd:DataSetInfo>
        <rd:DataSetName>DataSet</rd:DataSetName>
        <rd:SchemaPath>Report.xsd</rd:SchemaPath>
        <rd:TableName>Result</rd:TableName>
      </rd:DataSetInfo>
    </DataSet>
  </DataSets>
  <ReportSections>
    <ReportSection>
      <Body>
        <ReportItems>
          <Tablix Name="Table1">
            <TablixBody>
              <TablixColumns>
                <TablixColumn>
                  <Width>1.5cm</Width>
                </TablixColumn>
                <TablixColumn>
                  <Width>3.85cm</Width>
                </TablixColumn>
                <TablixColumn>
                  <Width>1.65cm</Width>
                </TablixColumn>
                <TablixColumn>
                  <Width>1.8cm</Width>
                </TablixColumn>
                <TablixColumn>
                  <Width>1.65cm</Width>
                </TablixColumn>
                <TablixColumn>
                  <Width>1.5cm</Width>
                </TablixColumn>
                <TablixColumn>
                  <Width>1.75cm</Width>
                </TablixColumn>
                <TablixColumn>
                  <Width>1.7cm</Width>
                </TablixColumn>
                <TablixColumn>
                  <Width>1.5cm</Width>
                </TablixColumn>
                <TablixColumn>
                  <Width>1.6cm</Width>
                </TablixColumn>
              </TablixColumns>
              <TablixRows>
                <TablixRow>
                  <Height>0.423cm</Height>
                  <TablixCells>
                    <TablixCell>
                      <CellContents>
                        <Textbox Name="Opportunity_TABLECAPTION__________OpportunityFilter">
                          <KeepTogether>true</KeepTogether>
                          <Paragraphs>
                            <Paragraph>
                              <TextRuns>
                                <TextRun>
                                  <Value>=First(Fields!Opportunity_TABLECAPTION__________OpportunityFilter.Value)</Value>
                                  <Style>
                                    <FontSize>7pt</FontSize>
                                  </Style>
                                </TextRun>
                              </TextRuns>
                            </Paragraph>
                          </Paragraphs>
                          <ZIndex>31</ZIndex>
                          <Visibility>
                            <Hidden>=iif(Fields!OpportunityFilter.Value = "", True, False)</Hidden>
                          </Visibility>
                          <DataElementOutput>NoOutput</DataElementOutput>
                          <Style>
                            <PaddingTop>2pt</PaddingTop>
                            <PaddingBottom>2pt</PaddingBottom>
                          </Style>
                        </Textbox>
                        <ColSpan>10</ColSpan>
                      </CellContents>
                    </TablixCell>
                    <TablixCell />
                    <TablixCell />
                    <TablixCell />
                    <TablixCell />
                    <TablixCell />
                    <TablixCell />
                    <TablixCell />
                    <TablixCell />
                    <TablixCell />
                  </TablixCells>
                </TablixRow>
                <TablixRow>
                  <Height>0.423cm</Height>
                  <TablixCells>
                    <TablixCell>
                      <CellContents>
                        <Textbox Name="textbox1">
                          <KeepTogether>true</KeepTogether>
                          <Paragraphs>
                            <Paragraph>
                              <TextRuns>
                                <TextRun>
                                  <Value />
                                  <Style>
                                    <FontSize>7pt</FontSize>
                                  </Style>
                                </TextRun>
                              </TextRuns>
                            </Paragraph>
                          </Paragraphs>
                          <rd:DefaultName>textbox1</rd:DefaultName>
                          <ZIndex>30</ZIndex>
                          <Style>
                            <VerticalAlign>Middle</VerticalAlign>
                          </Style>
                        </Textbox>
                        <ColSpan>10</ColSpan>
                      </CellContents>
                    </TablixCell>
                    <TablixCell />
                    <TablixCell />
                    <TablixCell />
                    <TablixCell />
                    <TablixCell />
                    <TablixCell />
                    <TablixCell />
                    <TablixCell />
                    <TablixCell />
                  </TablixCells>
                </TablixRow>
                <TablixRow>
                  <Height>0.846cm</Height>
                  <TablixCells>
                    <TablixCell>
                      <CellContents>
                        <Textbox Name="Opportunity__No__Caption">
                          <CanGrow>true</CanGrow>
                          <KeepTogether>true</KeepTogether>
                          <Paragraphs>
                            <Paragraph>
                              <TextRuns>
                                <TextRun>
                                  <Value>=First(Fields!Opportunity__No__Caption.Value)</Value>
                                  <Style>
                                    <FontSize>7pt</FontSize>
                                    <FontWeight>Bold</FontWeight>
                                  </Style>
                                </TextRun>
                              </TextRuns>
                            </Paragraph>
                          </Paragraphs>
                          <ZIndex>29</ZIndex>
                          <Style>
                            <VerticalAlign>Bottom</VerticalAlign>
                            <PaddingTop>0.423cm</PaddingTop>
                          </Style>
                        </Textbox>
                      </CellContents>
                    </TablixCell>
                    <TablixCell>
                      <CellContents>
                        <Textbox Name="Opportunity_DescriptionCaption">
                          <CanGrow>true</CanGrow>
                          <KeepTogether>true</KeepTogether>
                          <Paragraphs>
                            <Paragraph>
                              <TextRuns>
                                <TextRun>
                                  <Value>=First(Fields!Opportunity_DescriptionCaption.Value)</Value>
                                  <Style>
                                    <FontSize>7pt</FontSize>
                                    <FontWeight>Bold</FontWeight>
                                  </Style>
                                </TextRun>
                              </TextRuns>
                            </Paragraph>
                          </Paragraphs>
                          <ZIndex>28</ZIndex>
                          <Style>
                            <VerticalAlign>Bottom</VerticalAlign>
                            <PaddingLeft>0.075cm</PaddingLeft>
                            <PaddingRight>0.075cm</PaddingRight>
                            <PaddingTop>0.5cm</PaddingTop>
                          </Style>
                        </Textbox>
                      </CellContents>
                    </TablixCell>
                    <TablixCell>
                      <CellContents>
                        <Textbox Name="Opportunity__Sales_Cycle_Code_Caption">
                          <CanGrow>true</CanGrow>
                          <KeepTogether>true</KeepTogether>
                          <Paragraphs>
                            <Paragraph>
                              <TextRuns>
                                <TextRun>
                                  <Value>=First(Fields!Opportunity__Sales_Cycle_Code_Caption.Value)</Value>
                                  <Style>
                                    <FontSize>7pt</FontSize>
                                    <FontWeight>Bold</FontWeight>
                                  </Style>
                                </TextRun>
                              </TextRuns>
                            </Paragraph>
                          </Paragraphs>
                          <ZIndex>27</ZIndex>
                          <Style>
                            <VerticalAlign>Bottom</VerticalAlign>
                            <PaddingLeft>0.1cm</PaddingLeft>
                          </Style>
                        </Textbox>
                      </CellContents>
                    </TablixCell>
                    <TablixCell>
                      <CellContents>
                        <Textbox Name="Opportunity__Current_Sales_Cycle_Stage_Caption">
                          <CanGrow>true</CanGrow>
                          <KeepTogether>true</KeepTogether>
                          <Paragraphs>
                            <Paragraph>
                              <TextRuns>
                                <TextRun>
                                  <Value>=First(Fields!Opportunity__Current_Sales_Cycle_Stage_Caption.Value)</Value>
                                  <Style>
                                    <FontSize>7pt</FontSize>
                                    <FontWeight>Bold</FontWeight>
                                  </Style>
                                </TextRun>
                              </TextRuns>
                              <Style>
                                <TextAlign>Right</TextAlign>
                              </Style>
                            </Paragraph>
                          </Paragraphs>
                          <ZIndex>26</ZIndex>
                          <Style>
                            <VerticalAlign>Bottom</VerticalAlign>
                            <PaddingLeft>0.15cm</PaddingLeft>
                          </Style>
                        </Textbox>
                      </CellContents>
                    </TablixCell>
                    <TablixCell>
                      <CellContents>
                        <Textbox Name="Opportunity__Salesperson_Code_Caption">
                          <CanGrow>true</CanGrow>
                          <KeepTogether>true</KeepTogether>
                          <Paragraphs>
                            <Paragraph>
                              <TextRuns>
                                <TextRun>
                                  <Value>=First(Fields!Opportunity__Salesperson_Code_Caption.Value)</Value>
                                  <Style>
                                    <FontSize>7pt</FontSize>
                                    <FontWeight>Bold</FontWeight>
                                  </Style>
                                </TextRun>
                              </TextRuns>
                            </Paragraph>
                          </Paragraphs>
                          <ZIndex>25</ZIndex>
                          <Style>
                            <VerticalAlign>Bottom</VerticalAlign>
                            <PaddingLeft>0.15cm</PaddingLeft>
                          </Style>
                        </Textbox>
                      </CellContents>
                    </TablixCell>
                    <TablixCell>
                      <CellContents>
                        <Textbox Name="Opportunity__Campaign_No__Caption">
                          <CanGrow>true</CanGrow>
                          <KeepTogether>true</KeepTogether>
                          <Paragraphs>
                            <Paragraph>
                              <TextRuns>
                                <TextRun>
                                  <Value>=First(Fields!Opportunity__Campaign_No__Caption.Value)</Value>
                                  <Style>
                                    <FontSize>7pt</FontSize>
                                    <FontWeight>Bold</FontWeight>
                                  </Style>
                                </TextRun>
                              </TextRuns>
                            </Paragraph>
                          </Paragraphs>
                          <ZIndex>24</ZIndex>
                          <Style>
                            <VerticalAlign>Bottom</VerticalAlign>
                            <PaddingLeft>0.15cm</PaddingLeft>
                          </Style>
                        </Textbox>
                      </CellContents>
                    </TablixCell>
                    <TablixCell>
                      <CellContents>
                        <Textbox Name="Opportunity__Contact_No__Caption">
                          <CanGrow>true</CanGrow>
                          <KeepTogether>true</KeepTogether>
                          <Paragraphs>
                            <Paragraph>
                              <TextRuns>
                                <TextRun>
                                  <Value>=First(Fields!Opportunity__Contact_No__Caption.Value)</Value>
                                  <Style>
                                    <FontSize>7pt</FontSize>
                                    <FontWeight>Bold</FontWeight>
                                  </Style>
                                </TextRun>
                              </TextRuns>
                            </Paragraph>
                          </Paragraphs>
                          <ZIndex>23</ZIndex>
                          <Style>
                            <VerticalAlign>Bottom</VerticalAlign>
                            <PaddingLeft>0.1cm</PaddingLeft>
                            <PaddingTop>0.423cm</PaddingTop>
                          </Style>
                        </Textbox>
                      </CellContents>
                    </TablixCell>
                    <TablixCell>
                      <CellContents>
                        <Textbox Name="Opportunity_StatusCaption">
                          <CanGrow>true</CanGrow>
                          <KeepTogether>true</KeepTogether>
                          <Paragraphs>
                            <Paragraph>
                              <TextRuns>
                                <TextRun>
                                  <Value>=First(Fields!Opportunity_StatusCaption.Value)</Value>
                                  <Style>
                                    <FontSize>7pt</FontSize>
                                    <FontWeight>Bold</FontWeight>
                                  </Style>
                                </TextRun>
                              </TextRuns>
                            </Paragraph>
                          </Paragraphs>
                          <ZIndex>22</ZIndex>
                          <Style>
                            <VerticalAlign>Bottom</VerticalAlign>
                            <PaddingLeft>0.1cm</PaddingLeft>
                            <PaddingTop>0.423cm</PaddingTop>
                          </Style>
                        </Textbox>
                      </CellContents>
                    </TablixCell>
                    <TablixCell>
                      <CellContents>
                        <Textbox Name="Opportunity__Probability___Caption">
                          <CanGrow>true</CanGrow>
                          <KeepTogether>true</KeepTogether>
                          <Paragraphs>
                            <Paragraph>
                              <TextRuns>
                                <TextRun>
                                  <Value>=First(Fields!Opportunity__Probability___Caption.Value)</Value>
                                  <Style>
                                    <FontSize>7pt</FontSize>
                                    <FontWeight>Bold</FontWeight>
                                  </Style>
                                </TextRun>
                              </TextRuns>
                              <Style>
                                <TextAlign>Right</TextAlign>
                              </Style>
                            </Paragraph>
                          </Paragraphs>
                          <ZIndex>21</ZIndex>
                          <Style>
                            <VerticalAlign>Bottom</VerticalAlign>
                            <PaddingLeft>0.15cm</PaddingLeft>
                          </Style>
                        </Textbox>
                      </CellContents>
                    </TablixCell>
                    <TablixCell>
                      <CellContents>
                        <Textbox Name="Opportunity__Completed___Caption">
                          <CanGrow>true</CanGrow>
                          <KeepTogether>true</KeepTogether>
                          <Paragraphs>
                            <Paragraph>
                              <TextRuns>
                                <TextRun>
                                  <Value>=First(Fields!Opportunity__Completed___Caption.Value)</Value>
                                  <Style>
                                    <FontSize>7pt</FontSize>
                                    <FontWeight>Bold</FontWeight>
                                  </Style>
                                </TextRun>
                              </TextRuns>
                              <Style>
                                <TextAlign>Right</TextAlign>
                              </Style>
                            </Paragraph>
                          </Paragraphs>
                          <ZIndex>20</ZIndex>
                          <Style>
                            <VerticalAlign>Bottom</VerticalAlign>
                            <PaddingLeft>0.15cm</PaddingLeft>
                          </Style>
                        </Textbox>
                      </CellContents>
                    </TablixCell>
                  </TablixCells>
                </TablixRow>
                <TablixRow>
                  <Height>0.423cm</Height>
                  <TablixCells>
                    <TablixCell>
                      <CellContents>
                        <Textbox Name="textbox2">
                          <KeepTogether>true</KeepTogether>
                          <Paragraphs>
                            <Paragraph>
                              <TextRuns>
                                <TextRun>
                                  <Value />
                                  <Style>
                                    <FontSize>7pt</FontSize>
                                    <FontWeight>Bold</FontWeight>
                                  </Style>
                                </TextRun>
                              </TextRuns>
                            </Paragraph>
                          </Paragraphs>
                          <rd:DefaultName>textbox2</rd:DefaultName>
                          <ZIndex>19</ZIndex>
                          <Style>
                            <VerticalAlign>Bottom</VerticalAlign>
                            <PaddingRight>0.075cm</PaddingRight>
                          </Style>
                        </Textbox>
                      </CellContents>
                    </TablixCell>
                    <TablixCell>
                      <CellContents>
                        <Textbox Name="textbox3">
                          <KeepTogether>true</KeepTogether>
                          <Paragraphs>
                            <Paragraph>
                              <TextRuns>
                                <TextRun>
                                  <Value />
                                  <Style>
                                    <FontSize>7pt</FontSize>
                                    <FontWeight>Bold</FontWeight>
                                  </Style>
                                </TextRun>
                              </TextRuns>
                            </Paragraph>
                          </Paragraphs>
                          <rd:DefaultName>textbox3</rd:DefaultName>
                          <ZIndex>18</ZIndex>
                          <Style>
                            <VerticalAlign>Bottom</VerticalAlign>
                            <PaddingLeft>0.075cm</PaddingLeft>
                            <PaddingRight>0.075cm</PaddingRight>
                          </Style>
                        </Textbox>
                      </CellContents>
                    </TablixCell>
                    <TablixCell>
                      <CellContents>
                        <Textbox Name="textbox4">
                          <KeepTogether>true</KeepTogether>
                          <Paragraphs>
                            <Paragraph>
                              <TextRuns>
                                <TextRun>
                                  <Value />
                                  <Style>
                                    <FontSize>7pt</FontSize>
                                    <FontWeight>Bold</FontWeight>
                                  </Style>
                                </TextRun>
                              </TextRuns>
                            </Paragraph>
                          </Paragraphs>
                          <rd:DefaultName>textbox4</rd:DefaultName>
                          <ZIndex>17</ZIndex>
                          <Style>
                            <VerticalAlign>Bottom</VerticalAlign>
                            <PaddingLeft>0.075cm</PaddingLeft>
                            <PaddingRight>0.075cm</PaddingRight>
                          </Style>
                        </Textbox>
                      </CellContents>
                    </TablixCell>
                    <TablixCell>
                      <CellContents>
                        <Textbox Name="textbox5">
                          <KeepTogether>true</KeepTogether>
                          <Paragraphs>
                            <Paragraph>
                              <TextRuns>
                                <TextRun>
                                  <Value />
                                  <Style>
                                    <FontSize>7pt</FontSize>
                                    <FontWeight>Bold</FontWeight>
                                  </Style>
                                </TextRun>
                              </TextRuns>
                              <Style>
                                <TextAlign>Right</TextAlign>
                              </Style>
                            </Paragraph>
                          </Paragraphs>
                          <rd:DefaultName>textbox5</rd:DefaultName>
                          <ZIndex>16</ZIndex>
                          <Style>
                            <VerticalAlign>Bottom</VerticalAlign>
                            <PaddingLeft>0.075cm</PaddingLeft>
                            <PaddingRight>0.075cm</PaddingRight>
                          </Style>
                        </Textbox>
                      </CellContents>
                    </TablixCell>
                    <TablixCell>
                      <CellContents>
                        <Textbox Name="textbox6">
                          <KeepTogether>true</KeepTogether>
                          <Paragraphs>
                            <Paragraph>
                              <TextRuns>
                                <TextRun>
                                  <Value />
                                  <Style>
                                    <FontSize>7pt</FontSize>
                                    <FontWeight>Bold</FontWeight>
                                  </Style>
                                </TextRun>
                              </TextRuns>
                            </Paragraph>
                          </Paragraphs>
                          <rd:DefaultName>textbox6</rd:DefaultName>
                          <ZIndex>15</ZIndex>
                          <Style>
                            <VerticalAlign>Bottom</VerticalAlign>
                            <PaddingLeft>0.075cm</PaddingLeft>
                            <PaddingRight>0.075cm</PaddingRight>
                          </Style>
                        </Textbox>
                      </CellContents>
                    </TablixCell>
                    <TablixCell>
                      <CellContents>
                        <Textbox Name="textbox7">
                          <KeepTogether>true</KeepTogether>
                          <Paragraphs>
                            <Paragraph>
                              <TextRuns>
                                <TextRun>
                                  <Value />
                                  <Style>
                                    <FontSize>7pt</FontSize>
                                    <FontWeight>Bold</FontWeight>
                                  </Style>
                                </TextRun>
                              </TextRuns>
                            </Paragraph>
                          </Paragraphs>
                          <rd:DefaultName>textbox7</rd:DefaultName>
                          <ZIndex>14</ZIndex>
                          <Style>
                            <VerticalAlign>Bottom</VerticalAlign>
                            <PaddingLeft>0.075cm</PaddingLeft>
                            <PaddingRight>0.075cm</PaddingRight>
                          </Style>
                        </Textbox>
                      </CellContents>
                    </TablixCell>
                    <TablixCell>
                      <CellContents>
                        <Textbox Name="textbox8">
                          <KeepTogether>true</KeepTogether>
                          <Paragraphs>
                            <Paragraph>
                              <TextRuns>
                                <TextRun>
                                  <Value />
                                  <Style>
                                    <FontSize>7pt</FontSize>
                                    <FontWeight>Bold</FontWeight>
                                  </Style>
                                </TextRun>
                              </TextRuns>
                            </Paragraph>
                          </Paragraphs>
                          <rd:DefaultName>textbox8</rd:DefaultName>
                          <ZIndex>13</ZIndex>
                          <Style>
                            <VerticalAlign>Bottom</VerticalAlign>
                            <PaddingLeft>0.075cm</PaddingLeft>
                            <PaddingRight>0.075cm</PaddingRight>
                          </Style>
                        </Textbox>
                      </CellContents>
                    </TablixCell>
                    <TablixCell>
                      <CellContents>
                        <Textbox Name="textbox9">
                          <KeepTogether>true</KeepTogether>
                          <Paragraphs>
                            <Paragraph>
                              <TextRuns>
                                <TextRun>
                                  <Value />
                                  <Style>
                                    <FontSize>7pt</FontSize>
                                    <FontWeight>Bold</FontWeight>
                                  </Style>
                                </TextRun>
                              </TextRuns>
                            </Paragraph>
                          </Paragraphs>
                          <rd:DefaultName>textbox9</rd:DefaultName>
                          <ZIndex>12</ZIndex>
                          <Style>
                            <VerticalAlign>Bottom</VerticalAlign>
                            <PaddingLeft>0.075cm</PaddingLeft>
                            <PaddingRight>0.075cm</PaddingRight>
                          </Style>
                        </Textbox>
                      </CellContents>
                    </TablixCell>
                    <TablixCell>
                      <CellContents>
                        <Textbox Name="textbox10">
                          <KeepTogether>true</KeepTogether>
                          <Paragraphs>
                            <Paragraph>
                              <TextRuns>
                                <TextRun>
                                  <Value />
                                  <Style>
                                    <FontSize>7pt</FontSize>
                                    <FontWeight>Bold</FontWeight>
                                  </Style>
                                </TextRun>
                              </TextRuns>
                              <Style>
                                <TextAlign>Right</TextAlign>
                              </Style>
                            </Paragraph>
                          </Paragraphs>
                          <rd:DefaultName>textbox10</rd:DefaultName>
                          <ZIndex>11</ZIndex>
                          <Style>
                            <VerticalAlign>Bottom</VerticalAlign>
                            <PaddingLeft>0.075cm</PaddingLeft>
                            <PaddingRight>0.075cm</PaddingRight>
                          </Style>
                        </Textbox>
                      </CellContents>
                    </TablixCell>
                    <TablixCell>
                      <CellContents>
                        <Textbox Name="textbox11">
                          <KeepTogether>true</KeepTogether>
                          <Paragraphs>
                            <Paragraph>
                              <TextRuns>
                                <TextRun>
                                  <Value />
                                  <Style>
                                    <FontSize>7pt</FontSize>
                                    <FontWeight>Bold</FontWeight>
                                  </Style>
                                </TextRun>
                              </TextRuns>
                              <Style>
                                <TextAlign>Right</TextAlign>
                              </Style>
                            </Paragraph>
                          </Paragraphs>
                          <rd:DefaultName>textbox11</rd:DefaultName>
                          <ZIndex>10</ZIndex>
                          <Style>
                            <VerticalAlign>Bottom</VerticalAlign>
                            <PaddingLeft>0.075cm</PaddingLeft>
                          </Style>
                        </Textbox>
                      </CellContents>
                    </TablixCell>
                  </TablixCells>
                </TablixRow>
                <TablixRow>
                  <Height>0.423cm</Height>
                  <TablixCells>
                    <TablixCell>
                      <CellContents>
                        <Textbox Name="Opportunity__No__">
                          <KeepTogether>true</KeepTogether>
                          <Paragraphs>
                            <Paragraph>
                              <TextRuns>
                                <TextRun>
                                  <Value>=Fields!Opportunity__No__.Value</Value>
                                  <Style>
                                    <FontSize>7pt</FontSize>
                                  </Style>
                                </TextRun>
                              </TextRuns>
                              <Style>
                                <TextAlign>Left</TextAlign>
                              </Style>
                            </Paragraph>
                          </Paragraphs>
                          <ZIndex>9</ZIndex>
                          <Style>
                            <PaddingTop>2pt</PaddingTop>
                            <PaddingBottom>2pt</PaddingBottom>
                          </Style>
                        </Textbox>
                      </CellContents>
                    </TablixCell>
                    <TablixCell>
                      <CellContents>
                        <Textbox Name="Opportunity_Description">
                          <KeepTogether>true</KeepTogether>
                          <Paragraphs>
                            <Paragraph>
                              <TextRuns>
                                <TextRun>
                                  <Value>=Fields!Opportunity_Description.Value</Value>
                                  <Style>
                                    <FontSize>7pt</FontSize>
                                  </Style>
                                </TextRun>
                              </TextRuns>
                            </Paragraph>
                          </Paragraphs>
                          <ZIndex>8</ZIndex>
                          <Style>
                            <PaddingLeft>0.15cm</PaddingLeft>
                            <PaddingTop>2pt</PaddingTop>
                            <PaddingBottom>2pt</PaddingBottom>
                          </Style>
                        </Textbox>
                      </CellContents>
                    </TablixCell>
                    <TablixCell>
                      <CellContents>
                        <Textbox Name="Opportunity__Sales_Cycle_Code_">
                          <KeepTogether>true</KeepTogether>
                          <Paragraphs>
                            <Paragraph>
                              <TextRuns>
                                <TextRun>
                                  <Value>=Fields!Opportunity__Sales_Cycle_Code_.Value</Value>
                                  <Style>
                                    <FontSize>7pt</FontSize>
                                  </Style>
                                </TextRun>
                              </TextRuns>
                              <Style>
                                <TextAlign>=IIf(IsNumeric(ReportItems!Opportunity__Sales_Cycle_Code_.Value),"Right","Left")</TextAlign>
                              </Style>
                            </Paragraph>
                          </Paragraphs>
                          <ZIndex>7</ZIndex>
                          <Style>
                            <PaddingLeft>0.1cm</PaddingLeft>
                            <PaddingTop>2pt</PaddingTop>
                            <PaddingBottom>2pt</PaddingBottom>
                          </Style>
                        </Textbox>
                      </CellContents>
                    </TablixCell>
                    <TablixCell>
                      <CellContents>
                        <Textbox Name="Opportunity__Current_Sales_Cycle_Stage_">
                          <KeepTogether>true</KeepTogether>
                          <Paragraphs>
                            <Paragraph>
                              <TextRuns>
                                <TextRun>
                                  <Value>=Code.BlankZero(Fields!Opportunity__Current_Sales_Cycle_Stage_.Value)</Value>
                                  <Style>
                                    <FontSize>7pt</FontSize>
                                  </Style>
                                </TextRun>
                              </TextRuns>
                              <Style>
                                <TextAlign>=IIf(IsNumeric(ReportItems!Opportunity__Current_Sales_Cycle_Stage_.Value),"Right","Left")</TextAlign>
                              </Style>
                            </Paragraph>
                          </Paragraphs>
                          <ZIndex>6</ZIndex>
                          <Style>
                            <PaddingLeft>0.15cm</PaddingLeft>
                            <PaddingTop>2pt</PaddingTop>
                            <PaddingBottom>2pt</PaddingBottom>
                          </Style>
                        </Textbox>
                      </CellContents>
                    </TablixCell>
                    <TablixCell>
                      <CellContents>
                        <Textbox Name="Opportunity__Salesperson_Code_">
                          <KeepTogether>true</KeepTogether>
                          <Paragraphs>
                            <Paragraph>
                              <TextRuns>
                                <TextRun>
                                  <Value>=Fields!Opportunity__Salesperson_Code_.Value</Value>
                                  <Style>
                                    <FontSize>7pt</FontSize>
                                  </Style>
                                </TextRun>
                              </TextRuns>
                              <Style>
                                <TextAlign>=IIf(IsNumeric(ReportItems!Opportunity__Salesperson_Code_.Value),"Right","Left")</TextAlign>
                              </Style>
                            </Paragraph>
                          </Paragraphs>
                          <ZIndex>5</ZIndex>
                          <Style>
                            <PaddingLeft>0.15cm</PaddingLeft>
                            <PaddingTop>2pt</PaddingTop>
                            <PaddingBottom>2pt</PaddingBottom>
                          </Style>
                        </Textbox>
                      </CellContents>
                    </TablixCell>
                    <TablixCell>
                      <CellContents>
                        <Textbox Name="Opportunity__Campaign_No__">
                          <KeepTogether>true</KeepTogether>
                          <Paragraphs>
                            <Paragraph>
                              <TextRuns>
                                <TextRun>
                                  <Value>=Fields!Opportunity__Campaign_No__.Value</Value>
                                  <Style>
                                    <FontSize>7pt</FontSize>
                                  </Style>
                                </TextRun>
                              </TextRuns>
                              <Style>
                                <TextAlign>=IIf(IsNumeric(ReportItems!Opportunity__Campaign_No__.Value),"Right","Left")</TextAlign>
                              </Style>
                            </Paragraph>
                          </Paragraphs>
                          <ZIndex>4</ZIndex>
                          <Style>
                            <PaddingLeft>0.15cm</PaddingLeft>
                            <PaddingTop>2pt</PaddingTop>
                            <PaddingBottom>2pt</PaddingBottom>
                          </Style>
                        </Textbox>
                      </CellContents>
                    </TablixCell>
                    <TablixCell>
                      <CellContents>
                        <Textbox Name="Opportunity__Contact_No__">
                          <KeepTogether>true</KeepTogether>
                          <Paragraphs>
                            <Paragraph>
                              <TextRuns>
                                <TextRun>
                                  <Value>=Fields!Opportunity__Contact_No__.Value</Value>
                                  <Style>
                                    <FontSize>7pt</FontSize>
                                  </Style>
                                </TextRun>
                              </TextRuns>
                              <Style>
                                <TextAlign>=IIf(IsNumeric(ReportItems!Opportunity__Contact_No__.Value),"Right","Left")</TextAlign>
                              </Style>
                            </Paragraph>
                          </Paragraphs>
                          <ZIndex>3</ZIndex>
                          <Style>
                            <PaddingLeft>0.1cm</PaddingLeft>
                            <PaddingTop>2pt</PaddingTop>
                            <PaddingBottom>2pt</PaddingBottom>
                          </Style>
                        </Textbox>
                      </CellContents>
                    </TablixCell>
                    <TablixCell>
                      <CellContents>
                        <Textbox Name="Opportunity_Status">
                          <KeepTogether>true</KeepTogether>
                          <Paragraphs>
                            <Paragraph>
                              <TextRuns>
                                <TextRun>
                                  <Value>=Fields!Opportunity_Status.Value</Value>
                                  <Style>
                                    <FontSize>7pt</FontSize>
                                  </Style>
                                </TextRun>
                              </TextRuns>
                            </Paragraph>
                          </Paragraphs>
                          <ZIndex>2</ZIndex>
                          <Style>
                            <PaddingLeft>0.1cm</PaddingLeft>
                            <PaddingTop>2pt</PaddingTop>
                            <PaddingBottom>2pt</PaddingBottom>
                          </Style>
                        </Textbox>
                      </CellContents>
                    </TablixCell>
                    <TablixCell>
                      <CellContents>
                        <Textbox Name="Opportunity__Probability___">
                          <CanGrow>true</CanGrow>
                          <KeepTogether>true</KeepTogether>
                          <Paragraphs>
                            <Paragraph>
                              <TextRuns>
                                <TextRun>
                                  <Value>=Fields!Opportunity__Probability___.Value</Value>
                                  <Style>
                                    <FontSize>7pt</FontSize>
                                    <Format>=Fields!Opportunity__Probability___Format.Value</Format>
                                  </Style>
                                </TextRun>
                              </TextRuns>
                            </Paragraph>
                          </Paragraphs>
                          <ZIndex>1</ZIndex>
                          <Style>
                            <PaddingLeft>0.15cm</PaddingLeft>
                            <PaddingTop>2pt</PaddingTop>
                            <PaddingBottom>2pt</PaddingBottom>
                          </Style>
                        </Textbox>
                      </CellContents>
                    </TablixCell>
                    <TablixCell>
                      <CellContents>
                        <Textbox Name="Opportunity__Completed___">
                          <CanGrow>true</CanGrow>
                          <KeepTogether>true</KeepTogether>
                          <Paragraphs>
                            <Paragraph>
                              <TextRuns>
                                <TextRun>
                                  <Value>=Fields!Opportunity__Completed___.Value</Value>
                                  <Style>
                                    <FontSize>7pt</FontSize>
                                    <Format>=Fields!Opportunity__Completed___Format.Value</Format>
                                  </Style>
                                </TextRun>
                              </TextRuns>
                            </Paragraph>
                          </Paragraphs>
                          <Style>
                            <PaddingLeft>0.15cm</PaddingLeft>
                            <PaddingTop>2pt</PaddingTop>
                            <PaddingBottom>2pt</PaddingBottom>
                          </Style>
                        </Textbox>
                      </CellContents>
                    </TablixCell>
                  </TablixCells>
                </TablixRow>
              </TablixRows>
            </TablixBody>
            <TablixColumnHierarchy>
              <TablixMembers>
                <TablixMember />
                <TablixMember />
                <TablixMember />
                <TablixMember />
                <TablixMember />
                <TablixMember />
                <TablixMember />
                <TablixMember />
                <TablixMember />
                <TablixMember />
              </TablixMembers>
            </TablixColumnHierarchy>
            <TablixRowHierarchy>
              <TablixMembers>
                <TablixMember>
                  <Visibility>
                    <Hidden>=IIf(Fields!OpportunityFilter.Value = "",True,False)</Hidden>
                  </Visibility>
                  <KeepWithGroup>After</KeepWithGroup>
                  <KeepTogether>true</KeepTogether>
                </TablixMember>
                <TablixMember>
                  <Visibility>
                    <Hidden>=IIf(Fields!OpportunityFilter.Value = "",True,False)</Hidden>
                  </Visibility>
                  <KeepWithGroup>After</KeepWithGroup>
                  <KeepTogether>true</KeepTogether>
                </TablixMember>
                <TablixMember>
                  <KeepWithGroup>After</KeepWithGroup>
                  <KeepTogether>true</KeepTogether>
                </TablixMember>
                <TablixMember>
                  <KeepWithGroup>After</KeepWithGroup>
                  <KeepTogether>true</KeepTogether>
                </TablixMember>
                <TablixMember>
                  <Group Name="Table1_Details_Group">
                    <DataElementName>Detail</DataElementName>
                  </Group>
                  <TablixMembers>
                    <TablixMember />
                  </TablixMembers>
                  <DataElementName>Detail_Collection</DataElementName>
                  <DataElementOutput>Output</DataElementOutput>
                  <KeepTogether>true</KeepTogether>
                </TablixMember>
              </TablixMembers>
            </TablixRowHierarchy>
            <DataSetName>DataSet_Result</DataSetName>
            <Top>1.692cm</Top>
            <ZIndex>6</ZIndex>
          </Tablix>
          <Textbox Name="COMPANYNAME1">
            <KeepTogether>true</KeepTogether>
            <Paragraphs>
              <Paragraph>
                <TextRuns>
                  <TextRun>
                    <Value>=Fields!COMPANYNAME.Value</Value>
                    <Style>
                      <FontSize>7pt</FontSize>
                    </Style>
                  </TextRun>
                </TextRuns>
              </Paragraph>
            </Paragraphs>
            <Top>0.423cm</Top>
            <Height>0.423cm</Height>
            <Width>7.5cm</Width>
            <ZIndex>5</ZIndex>
            <Style>
              <VerticalAlign>Middle</VerticalAlign>
            </Style>
          </Textbox>
          <Textbox Name="UserIdTextBox">
            <KeepTogether>true</KeepTogether>
            <Paragraphs>
              <Paragraph>
                <TextRuns>
                  <TextRun>
                    <Value>=User!UserID</Value>
                    <Style>
                      <FontSize>7pt</FontSize>
                    </Style>
                  </TextRun>
                </TextRuns>
                <Style>
                  <TextAlign>Right</TextAlign>
                </Style>
              </Paragraph>
            </Paragraphs>
            <Top>0.846cm</Top>
            <Left>14.9cm</Left>
            <Height>0.423cm</Height>
            <Width>3.25cm</Width>
            <ZIndex>4</ZIndex>
            <Visibility>
              <Hidden>=IIf(ReportItems!CurrReport_PAGENOCaption1.Value = "",True,False)</Hidden>
            </Visibility>
            <DataElementOutput>NoOutput</DataElementOutput>
            <Style>
              <VerticalAlign>Middle</VerticalAlign>
            </Style>
          </Textbox>
          <Textbox Name="ExecutionTimeTextBox">
            <KeepTogether>true</KeepTogether>
            <Paragraphs>
              <Paragraph>
                <TextRuns>
                  <TextRun>
                    <Value>=Fields!FORMAT_TODAY_0_4_.Value</Value>
                    <Style>
                      <FontSize>7pt</FontSize>
                      <Format>g</Format>
                    </Style>
                  </TextRun>
                </TextRuns>
                <Style>
                  <TextAlign>Right</TextAlign>
                </Style>
              </Paragraph>
            </Paragraphs>
            <Left>15cm</Left>
            <Height>0.423cm</Height>
            <Width>3.15cm</Width>
            <ZIndex>3</ZIndex>
            <Style>
              <VerticalAlign>Middle</VerticalAlign>
            </Style>
          </Textbox>
          <Textbox Name="PageNumberTextBox">
            <KeepTogether>true</KeepTogether>
            <Paragraphs>
              <Paragraph>
                <TextRuns>
                  <TextRun>
                    <Value>=Fields!CurrReport_PAGENO.Value</Value>
                    <Style>
                      <FontSize>7pt</FontSize>
                    </Style>
                  </TextRun>
                </TextRuns>
                <Style>
                  <TextAlign>Right</TextAlign>
                </Style>
              </Paragraph>
            </Paragraphs>
            <Top>0.423cm</Top>
            <Left>17.7cm</Left>
            <Height>0.423cm</Height>
            <Width>0.45cm</Width>
            <ZIndex>2</ZIndex>
            <Visibility>
              <Hidden>=IIf(ReportItems!CurrReport_PAGENOCaption1.Value = "",True,False)</Hidden>
            </Visibility>
            <DataElementOutput>NoOutput</DataElementOutput>
            <Style>
              <VerticalAlign>Middle</VerticalAlign>
            </Style>
          </Textbox>
          <Textbox Name="Opportunity___ListCaption1">
            <KeepTogether>true</KeepTogether>
            <Paragraphs>
              <Paragraph>
                <TextRuns>
                  <TextRun>
                    <Value>=Fields!Opportunity___ListCaption.Value</Value>
                    <Style>
                      <FontSize>8pt</FontSize>
                      <FontWeight>Bold</FontWeight>
                    </Style>
                  </TextRun>
                </TextRuns>
              </Paragraph>
            </Paragraphs>
            <Height>0.423cm</Height>
            <Width>7.5cm</Width>
            <ZIndex>1</ZIndex>
            <Style>
              <VerticalAlign>Middle</VerticalAlign>
            </Style>
          </Textbox>
          <Textbox Name="CurrReport_PAGENOCaption1">
            <KeepTogether>true</KeepTogether>
            <Paragraphs>
              <Paragraph>
                <TextRuns>
                  <TextRun>
                    <Value>=Fields!CurrReport_PAGENOCaption.Value</Value>
                    <Style>
                      <FontSize>7pt</FontSize>
                    </Style>
                  </TextRun>
                </TextRuns>
              </Paragraph>
            </Paragraphs>
            <Top>0.423cm</Top>
            <Left>16.95cm</Left>
            <Height>0.423cm</Height>
            <Width>0.75cm</Width>
            <Style>
              <VerticalAlign>Middle</VerticalAlign>
            </Style>
          </Textbox>
        </ReportItems>
        <Height>4.23cm</Height>
      </Body>
      <Width>18.5cm</Width>
      <Page>
        <PageHeight>29.7cm</PageHeight>
        <PageWidth>21cm</PageWidth>
        <InteractiveHeight>11in</InteractiveHeight>
        <InteractiveWidth>8.5in</InteractiveWidth>
        <LeftMargin>1.5cm</LeftMargin>
        <TopMargin>2cm</TopMargin>
        <BottomMargin>2cm</BottomMargin>
      </Page>
    </ReportSection>
  </ReportSections>
  <Code>Public Function BlankZero(ByVal Value As Decimal)
    if Value = 0 then
        Return ""
    end if
    Return Value
End Function

Public Function BlankPos(ByVal Value As Decimal)
    if Value &gt; 0 then
        Return ""
    end if
    Return Value
End Function

Public Function BlankZeroAndPos(ByVal Value As Decimal)
    if Value &gt;= 0 then
        Return ""
    end if
    Return Value
End Function

Public Function BlankNeg(ByVal Value As Decimal)
    if Value &lt; 0 then
        Return ""
    end if
    Return Value
End Function

Public Function BlankNegAndZero(ByVal Value As Decimal)
    if Value &lt;= 0 then
        Return ""
    end if
    Return Value
End Function
</Code>
  <Language>=User!Language</Language>
  <ConsumeContainerWhitespace>true</ConsumeContainerWhitespace>
  <rd:ReportUnitType>Invalid</rd:ReportUnitType>
  <rd:ReportID>31b6ac4c-67db-4d45-8af5-06fe78e2da84</rd:ReportID>
</Report>
    END_OF_RDLDATA
  }
}

