OBJECT Report 5178 Delete Purchase Order Versions
{
  OBJECT-PROPERTIES
  {
    Date=07/09/12;
    Time=12:00:00;
    Version List=NAVW17.00;
  }
  PROPERTIES
  {
    CaptionML=ENU=Delete Archived Purchase Order Versions;
    ProcessingOnly=Yes;
    OnPostReport=BEGIN
                   MESSAGE(Text000);
                 END;

  }
  DATASET
  {
    { 6075;    ;DataItem;                    ;
               DataItemTable=Table5109;
               DataItemTableView=SORTING(Document Type,No.,Doc. No. Occurrence,Version No.)
                                 WHERE(Document Type=CONST(Order),
                                       Interaction Exist=CONST(No));
               OnAfterGetRecord=VAR
                                  PurchHeader@1000 : Record 38;
                                BEGIN
                                  PurchHeader.SETRANGE("Document Type",PurchHeader."Document Type"::Order);
                                  PurchHeader.SETRANGE("No.","No.");
                                  PurchHeader.SETRANGE("Doc. No. Occurrence","Doc. No. Occurrence");
                                  IF NOT PurchHeader.FINDFIRST THEN
                                    DELETE(TRUE);
                                END;

               ReqFilterFields=No.,Date Archived,Buy-from Vendor No. }

  }
  REQUESTPAGE
  {
    PROPERTIES
    {
    }
    CONTROLS
    {
    }
  }
  LABELS
  {
  }
  CODE
  {
    VAR
      Text000@1000 : TextConst 'ENU=Archived versions deleted.';

    BEGIN
    END.
  }
  RDLDATA
  {
  }
}

