OBJECT Report 5190 Delete Interaction Log Entries
{
  OBJECT-PROPERTIES
  {
    Date=07/09/12;
    Time=12:00:00;
    Version List=NAVW17.00;
  }
  PROPERTIES
  {
    CaptionML=ENU=Delete Interaction Log Entries;
    ProcessingOnly=Yes;
    OnPostReport=BEGIN
                   MESSAGE(Text000,NoOfInteractions,"Interaction Log Entry".TABLECAPTION);
                 END;

  }
  DATASET
  {
    { 3056;    ;DataItem;                    ;
               DataItemTable=Table5065;
               DataItemTableView=SORTING(Canceled,Campaign No.,Campaign Entry No.,Date)
                                 WHERE(Canceled=CONST(Yes));
               OnAfterGetRecord=VAR
                                  SalesHeader@1000 : Record 36;
                                  SalesHeaderArchive@1001 : Record 5107;
                                  PurchHeader@1002 : Record 38;
                                  PurchHeaderArchive@1003 : Record 5109;
                                BEGIN
                                  IF UniqueAttachment THEN BEGIN
                                    Attachment.GET("Attachment No.");
                                    Attachment.DELETE(TRUE);
                                  END;
                                  NoOfInteractions := NoOfInteractions + 1;

                                  IF "Version No." <> 0 THEN
                                    CASE "Document Type" OF
                                      "Document Type"::"Sales Qte.":
                                        BEGIN
                                          SalesHeaderArchive.GET(
                                            SalesHeaderArchive."Document Type"::Quote,"Document No.",
                                            "Doc. No. Occurrence","Version No.");
                                          SalesHeader.SETRANGE("Document Type",SalesHeader."Document Type"::Quote);
                                          SalesHeader.SETRANGE("No.","Document No.");
                                          SalesHeader.SETRANGE("Doc. No. Occurrence","Doc. No. Occurrence");
                                          IF SalesHeader.FINDFIRST THEN BEGIN
                                            SalesHeaderArchive."Interaction Exist" := FALSE;
                                            SalesHeaderArchive.MODIFY;
                                          END ELSE
                                            SalesHeaderArchive.DELETE(TRUE);
                                        END;
                                      "Document Type"::"Sales Ord. Cnfrmn.":
                                        BEGIN
                                          SalesHeaderArchive.GET(
                                            SalesHeaderArchive."Document Type"::Order,"Document No.",
                                            "Doc. No. Occurrence","Version No.");
                                          SalesHeader.SETRANGE("Document Type",SalesHeader."Document Type"::Order);
                                          SalesHeader.SETRANGE("No.","Document No.");
                                          SalesHeader.SETRANGE("Doc. No. Occurrence","Doc. No. Occurrence");
                                          IF SalesHeader.FINDFIRST THEN BEGIN
                                            SalesHeaderArchive."Interaction Exist" := FALSE;
                                            SalesHeaderArchive.MODIFY;
                                          END ELSE
                                            SalesHeaderArchive.DELETE(TRUE);
                                        END;
                                      "Document Type"::"Purch.Qte.":
                                        BEGIN
                                          PurchHeaderArchive.GET(
                                            PurchHeaderArchive."Document Type"::Quote,"Document No.",
                                            "Doc. No. Occurrence","Version No.");
                                          PurchHeader.SETRANGE("Document Type",PurchHeader."Document Type"::Quote);
                                          PurchHeader.SETRANGE("No.","Document No.");
                                          PurchHeader.SETRANGE("Doc. No. Occurrence","Doc. No. Occurrence");
                                          IF PurchHeader.FINDFIRST THEN BEGIN
                                            PurchHeaderArchive."Interaction Exist" := FALSE;
                                            PurchHeaderArchive.MODIFY;
                                          END ELSE
                                            PurchHeaderArchive.DELETE(TRUE);
                                        END;
                                      "Document Type"::"Purch. Ord.":
                                        BEGIN
                                          PurchHeaderArchive.GET(
                                            PurchHeaderArchive."Document Type"::Order,"Document No.",
                                            "Doc. No. Occurrence","Version No.");
                                          PurchHeader.SETRANGE("Document Type",PurchHeader."Document Type"::Order);
                                          PurchHeader.SETRANGE("No.","Document No.");
                                          PurchHeader.SETRANGE("Doc. No. Occurrence","Doc. No. Occurrence");
                                          IF PurchHeader.FINDFIRST THEN BEGIN
                                            PurchHeaderArchive."Interaction Exist" := FALSE;
                                            PurchHeaderArchive.MODIFY;
                                          END ELSE
                                            PurchHeaderArchive.DELETE(TRUE);
                                        END;
                                    END;
                                  DELETE(TRUE);
                                END;

               ReqFilterFields=Entry No.,Contact No.,Date,Campaign No.,Interaction Group Code,Interaction Template Code,Salesperson Code }

  }
  REQUESTPAGE
  {
    PROPERTIES
    {
    }
    CONTROLS
    {
    }
  }
  LABELS
  {
  }
  CODE
  {
    VAR
      Text000@1000 : TextConst 'ENU=%1 %2 has been deleted.';
      Attachment@1002 : Record 5062;
      NoOfInteractions@1003 : Integer;

    BEGIN
    END.
  }
  RDLDATA
  {
  }
}

