OBJECT Report 5188 Delete To-dos
{
  OBJECT-PROPERTIES
  {
    Date=07/09/12;
    Time=12:00:00;
    Version List=NAVW17.00;
  }
  PROPERTIES
  {
    CaptionML=ENU=Delete To-dos;
    ProcessingOnly=Yes;
  }
  DATASET
  {
    { 6499;    ;DataItem;                    ;
               DataItemTable=Table5080;
               DataItemTableView=WHERE(Canceled=CONST(Yes),
                                       System To-do Type=FILTER(Organizer|Team));
               OnAfterGetRecord=BEGIN
                                  IF ("Team Code" = '') OR ("System To-do Type" = "System To-do Type"::Team) THEN
                                    DELETE(TRUE)
                                END;

               ReqFilterFields=No.,Date,Salesperson Code,Team Code,Campaign No.,Contact No. }

  }
  REQUESTPAGE
  {
    PROPERTIES
    {
    }
    CONTROLS
    {
    }
  }
  LABELS
  {
  }
  CODE
  {

    BEGIN
    END.
  }
  RDLDATA
  {
  }
}

