OBJECT Report 5700 Nonstock Item Sales
{
  OBJECT-PROPERTIES
  {
    Date=23/09/13;
    Time=12:00:00;
    Version List=NAVW17.10;
  }
  PROPERTIES
  {
    CaptionML=ENU=Nonstock Item Sales;
    OnPreReport=BEGIN
                  ItemLedgerFilter := "Item Ledger Entry".GETFILTERS;
                END;

  }
  DATASET
  {
    { 7209;    ;DataItem;                    ;
               DataItemTable=Table32;
               DataItemTableView=SORTING(Item No.,Entry Type);
               OnPreDataItem=BEGIN
                               CurrReport.CREATETOTALS("Value Entry"."Invoiced Quantity","Value Entry"."Sales Amount (Actual)");
                             END;

               OnAfterGetRecord=BEGIN
                                  IF "Entry Type" <> "Entry Type"::Sale THEN BEGIN
                                    SETRANGE("Item No.","Item No.");
                                    SETRANGE("Entry Type","Entry Type");
                                    FIND('+');
                                    SETRANGE("Item No.");
                                    SETRANGE("Entry Type");
                                  END;

                                  IF NOT Nonstock THEN
                                    CurrReport.SKIP;

                                  IF NOT Item.GET("Item No.") THEN
                                    Item.Description := '';
                                END;

               ReqFilterFields=Item No.,Location Code,Posting Date }

    { 1   ;1   ;Column  ;CompanyName         ;
               SourceExpr=COMPANYNAME }

    { 3   ;1   ;Column  ;TodayFormatted      ;
               SourceExpr=FORMAT(TODAY,0,4) }

    { 2   ;1   ;Column  ;CaptionLedgFilter   ;
               SourceExpr=TABLECAPTION + ': ' + ItemLedgerFilter }

    { 4   ;1   ;Column  ;ItemLedgerFilter    ;
               SourceExpr=ItemLedgerFilter }

    { 32  ;1   ;Column  ;ValueEntryInvoicedQty;
               DecimalPlaces=0:5;
               SourceExpr=-"Value Entry"."Invoiced Quantity" }

    { 33  ;1   ;Column  ;SalesAmtAct_ValueEntry;
               SourceExpr="Value Entry"."Sales Amount (Actual)" }

    { 30  ;1   ;Column  ;ItemDescription     ;
               SourceExpr=Item.Description }

    { 34  ;1   ;Column  ;ItemLedgerEntryItemNo;
               SourceExpr="Item No." }

    { 5   ;1   ;Column  ;CurrReportPageNoCaption;
               SourceExpr=CurrReportPageNoCaptionLbl }

    { 26  ;1   ;Column  ;NonstockItemSalesCaption;
               SourceExpr=NonstockItemSalesCaptionLbl }

    { 12  ;1   ;Column  ;ItemNoCaption       ;
               SourceExpr=ItemNoCaptionLbl }

    { 18  ;1   ;Column  ;QuantityCaption     ;
               SourceExpr=QuantityCaptionLbl }

    { 20  ;1   ;Column  ;AmountCaption       ;
               SourceExpr=AmountCaptionLbl }

    { 22  ;1   ;Column  ;ValueEntryDocDateCaption;
               SourceExpr=ValueEntryDocDateCaptionLbl }

    { 25  ;1   ;Column  ;ValueEntryPostingDateCaption;
               SourceExpr=ValueEntryPostingDateCaptionLbl }

    { 27  ;1   ;Column  ;TotalSalesCaption   ;
               SourceExpr=TotalSalesCaptionLbl }

    { 8894;1   ;DataItem;                    ;
               DataItemTable=Table5802;
               DataItemTableView=SORTING(Item Ledger Entry No.);
               OnPreDataItem=BEGIN
                               CurrReport.CREATETOTALS("Invoiced Quantity","Sales Amount (Actual)");
                             END;

               OnAfterGetRecord=BEGIN
                                  IF "Expected Cost" THEN
                                    CurrReport.SKIP;
                                END;

               DataItemLink=Item Ledger Entry No.=FIELD(Entry No.) }

    { 9   ;2   ;Column  ;ValueEntryDocumentNo;
               IncludeCaption=Yes;
               SourceExpr="Document No." }

    { 21  ;2   ;Column  ;ValueEntryDocDate   ;
               SourceExpr=FORMAT("Document Date") }

    { 24  ;2   ;Column  ;ValueEntryPostingDate;
               SourceExpr=FORMAT("Posting Date") }

    { 14  ;2   ;Column  ;LocCode_ValueEntry  ;
               IncludeCaption=Yes;
               SourceExpr="Location Code" }

    { 13  ;2   ;Column  ;ItemLedrEntryPurCode;
               IncludeCaption=Yes;
               SourceExpr="Item Ledger Entry"."Purchasing Code" }

    { 8   ;2   ;Column  ;DropShip_ValueEntry ;
               IncludeCaption=Yes;
               SourceExpr="Drop Shipment" }

    { 17  ;2   ;Column  ;InvoicedQuantity    ;
               DecimalPlaces=0:5;
               SourceExpr=-"Invoiced Quantity" }

    { 7   ;2   ;Column  ;ValueEntryItemNo    ;
               SourceExpr="Item No." }

    { 6   ;2   ;Column  ;FormatDropShipment  ;
               SourceExpr=FORMAT("Drop Shipment") }

  }
  REQUESTPAGE
  {
    PROPERTIES
    {
    }
    CONTROLS
    {
    }
  }
  LABELS
  {
  }
  CODE
  {
    VAR
      Item@1000 : Record 27;
      ItemLedgerFilter@1001 : Text;
      CurrReportPageNoCaptionLbl@2595 : TextConst 'ENU=Page';
      NonstockItemSalesCaptionLbl@6844 : TextConst 'ENU=Nonstock Item - Sales';
      ItemNoCaptionLbl@7986 : TextConst 'ENU=Item No.';
      QuantityCaptionLbl@7263 : TextConst 'ENU=Quantity';
      AmountCaptionLbl@7794 : TextConst 'ENU=Amount';
      ValueEntryDocDateCaptionLbl@6133 : TextConst 'ENU=Document Date';
      ValueEntryPostingDateCaptionLbl@9427 : TextConst 'ENU=Posting Date';
      TotalSalesCaptionLbl@1450 : TextConst 'ENU=Total Sales';

    BEGIN
    END.
  }
  RDLDATA
  {
    <?xml version="1.0" encoding="utf-8"?>
<Report xmlns:rd="http://schemas.microsoft.com/SQLServer/reporting/reportdesigner" xmlns="http://schemas.microsoft.com/sqlserver/reporting/2010/01/reportdefinition">
  <AutoRefresh>0</AutoRefresh>
  <DataSources>
    <DataSource Name="DataSource">
      <ConnectionProperties>
        <DataProvider>SQL</DataProvider>
        <ConnectString />
      </ConnectionProperties>
      <rd:SecurityType>None</rd:SecurityType>
      <rd:DataSourceID>bef07a9f-d855-4e4b-a8a1-312e9ed2a39c</rd:DataSourceID>
    </DataSource>
  </DataSources>
  <DataSets>
    <DataSet Name="DataSet_Result">
      <Query>
        <DataSourceName>DataSource</DataSourceName>
        <CommandText />
      </Query>
      <Fields>
        <Field Name="CompanyName">
          <DataField>CompanyName</DataField>
        </Field>
        <Field Name="TodayFormatted">
          <DataField>TodayFormatted</DataField>
        </Field>
        <Field Name="CaptionLedgFilter">
          <DataField>CaptionLedgFilter</DataField>
        </Field>
        <Field Name="ItemLedgerFilter">
          <DataField>ItemLedgerFilter</DataField>
        </Field>
        <Field Name="ValueEntryInvoicedQty">
          <DataField>ValueEntryInvoicedQty</DataField>
        </Field>
        <Field Name="ValueEntryInvoicedQtyFormat">
          <DataField>ValueEntryInvoicedQtyFormat</DataField>
        </Field>
        <Field Name="SalesAmtAct_ValueEntry">
          <DataField>SalesAmtAct_ValueEntry</DataField>
        </Field>
        <Field Name="SalesAmtAct_ValueEntryFormat">
          <DataField>SalesAmtAct_ValueEntryFormat</DataField>
        </Field>
        <Field Name="ItemDescription">
          <DataField>ItemDescription</DataField>
        </Field>
        <Field Name="ItemLedgerEntryItemNo">
          <DataField>ItemLedgerEntryItemNo</DataField>
        </Field>
        <Field Name="CurrReportPageNoCaption">
          <DataField>CurrReportPageNoCaption</DataField>
        </Field>
        <Field Name="NonstockItemSalesCaption">
          <DataField>NonstockItemSalesCaption</DataField>
        </Field>
        <Field Name="ItemNoCaption">
          <DataField>ItemNoCaption</DataField>
        </Field>
        <Field Name="QuantityCaption">
          <DataField>QuantityCaption</DataField>
        </Field>
        <Field Name="AmountCaption">
          <DataField>AmountCaption</DataField>
        </Field>
        <Field Name="ValueEntryDocDateCaption">
          <DataField>ValueEntryDocDateCaption</DataField>
        </Field>
        <Field Name="ValueEntryPostingDateCaption">
          <DataField>ValueEntryPostingDateCaption</DataField>
        </Field>
        <Field Name="TotalSalesCaption">
          <DataField>TotalSalesCaption</DataField>
        </Field>
        <Field Name="ValueEntryDocumentNo">
          <DataField>ValueEntryDocumentNo</DataField>
        </Field>
        <Field Name="ValueEntryDocDate">
          <DataField>ValueEntryDocDate</DataField>
        </Field>
        <Field Name="ValueEntryPostingDate">
          <DataField>ValueEntryPostingDate</DataField>
        </Field>
        <Field Name="LocCode_ValueEntry">
          <DataField>LocCode_ValueEntry</DataField>
        </Field>
        <Field Name="ItemLedrEntryPurCode">
          <DataField>ItemLedrEntryPurCode</DataField>
        </Field>
        <Field Name="DropShip_ValueEntry">
          <DataField>DropShip_ValueEntry</DataField>
        </Field>
        <Field Name="InvoicedQuantity">
          <DataField>InvoicedQuantity</DataField>
        </Field>
        <Field Name="InvoicedQuantityFormat">
          <DataField>InvoicedQuantityFormat</DataField>
        </Field>
        <Field Name="ValueEntryItemNo">
          <DataField>ValueEntryItemNo</DataField>
        </Field>
        <Field Name="FormatDropShipment">
          <DataField>FormatDropShipment</DataField>
        </Field>
      </Fields>
      <rd:DataSetInfo>
        <rd:DataSetName>DataSet</rd:DataSetName>
        <rd:SchemaPath>Report.xsd</rd:SchemaPath>
        <rd:TableName>Result</rd:TableName>
      </rd:DataSetInfo>
    </DataSet>
  </DataSets>
  <ReportSections>
    <ReportSection>
      <Body>
        <ReportItems>
          <Tablix Name="NonStockItemTable">
            <TablixBody>
              <TablixColumns>
                <TablixColumn>
                  <Width>0.79724in</Width>
                </TablixColumn>
                <TablixColumn>
                  <Width>0.82677in</Width>
                </TablixColumn>
                <TablixColumn>
                  <Width>0.82677in</Width>
                </TablixColumn>
                <TablixColumn>
                  <Width>1.00296in</Width>
                </TablixColumn>
                <TablixColumn>
                  <Width>0.87885in</Width>
                </TablixColumn>
                <TablixColumn>
                  <Width>0.86664in</Width>
                </TablixColumn>
                <TablixColumn>
                  <Width>0.74852in</Width>
                </TablixColumn>
                <TablixColumn>
                  <Width>0.65994in</Width>
                </TablixColumn>
                <TablixColumn>
                  <Width>0.81497in</Width>
                </TablixColumn>
              </TablixColumns>
              <TablixRows>
                <TablixRow>
                  <Height>0.13889in</Height>
                  <TablixCells>
                    <TablixCell>
                      <CellContents>
                        <Textbox Name="ItemNoCaption">
                          <CanGrow>true</CanGrow>
                          <KeepTogether>true</KeepTogether>
                          <Paragraphs>
                            <Paragraph>
                              <TextRuns>
                                <TextRun>
                                  <Value>=First(Fields!ItemNoCaption.Value)</Value>
                                  <Style>
                                    <FontFamily>Segoe UI</FontFamily>
                                    <FontSize>8pt</FontSize>
                                    <FontWeight>Bold</FontWeight>
                                  </Style>
                                </TextRun>
                              </TextRuns>
                              <Style />
                            </Paragraph>
                          </Paragraphs>
                          <ZIndex>44</ZIndex>
                          <Style>
                            <VerticalAlign>Bottom</VerticalAlign>
                            <PaddingRight>5pt</PaddingRight>
                          </Style>
                        </Textbox>
                      </CellContents>
                    </TablixCell>
                    <TablixCell>
                      <CellContents>
                        <Textbox Name="ValueEntryDocumentNoCaption">
                          <CanGrow>true</CanGrow>
                          <KeepTogether>true</KeepTogether>
                          <Paragraphs>
                            <Paragraph>
                              <TextRuns>
                                <TextRun>
                                  <Value>=Parameters!ValueEntryDocumentNoCaption.Value</Value>
                                  <Style>
                                    <FontFamily>Segoe UI</FontFamily>
                                    <FontSize>8pt</FontSize>
                                    <FontWeight>Bold</FontWeight>
                                  </Style>
                                </TextRun>
                              </TextRuns>
                              <Style>
                                <TextAlign>Left</TextAlign>
                              </Style>
                            </Paragraph>
                          </Paragraphs>
                          <ZIndex>43</ZIndex>
                          <Style>
                            <VerticalAlign>Bottom</VerticalAlign>
                            <PaddingLeft>5pt</PaddingLeft>
                            <PaddingRight>5pt</PaddingRight>
                          </Style>
                        </Textbox>
                      </CellContents>
                    </TablixCell>
                    <TablixCell>
                      <CellContents>
                        <Textbox Name="ValueEntryDocDateCaption">
                          <CanGrow>true</CanGrow>
                          <KeepTogether>true</KeepTogether>
                          <Paragraphs>
                            <Paragraph>
                              <TextRuns>
                                <TextRun>
                                  <Value>=First(Fields!ValueEntryDocDateCaption.Value)</Value>
                                  <Style>
                                    <FontFamily>Segoe UI</FontFamily>
                                    <FontSize>8pt</FontSize>
                                    <FontWeight>Bold</FontWeight>
                                  </Style>
                                </TextRun>
                              </TextRuns>
                              <Style>
                                <TextAlign>Left</TextAlign>
                              </Style>
                            </Paragraph>
                          </Paragraphs>
                          <ZIndex>42</ZIndex>
                          <Style>
                            <VerticalAlign>Bottom</VerticalAlign>
                            <PaddingLeft>5pt</PaddingLeft>
                            <PaddingRight>5pt</PaddingRight>
                          </Style>
                        </Textbox>
                      </CellContents>
                    </TablixCell>
                    <TablixCell>
                      <CellContents>
                        <Textbox Name="ValueEntryPostingDateCaption">
                          <CanGrow>true</CanGrow>
                          <KeepTogether>true</KeepTogether>
                          <Paragraphs>
                            <Paragraph>
                              <TextRuns>
                                <TextRun>
                                  <Value>=First(Fields!ValueEntryPostingDateCaption.Value)</Value>
                                  <Style>
                                    <FontFamily>Segoe UI</FontFamily>
                                    <FontSize>8pt</FontSize>
                                    <FontWeight>Bold</FontWeight>
                                  </Style>
                                </TextRun>
                              </TextRuns>
                              <Style>
                                <TextAlign>Left</TextAlign>
                              </Style>
                            </Paragraph>
                          </Paragraphs>
                          <ZIndex>41</ZIndex>
                          <Style>
                            <VerticalAlign>Bottom</VerticalAlign>
                            <PaddingLeft>5pt</PaddingLeft>
                            <PaddingRight>5pt</PaddingRight>
                          </Style>
                        </Textbox>
                      </CellContents>
                    </TablixCell>
                    <TablixCell>
                      <CellContents>
                        <Textbox Name="ValueEntryLocationCodeCaption">
                          <CanGrow>true</CanGrow>
                          <KeepTogether>true</KeepTogether>
                          <Paragraphs>
                            <Paragraph>
                              <TextRuns>
                                <TextRun>
                                  <Value>=Parameters!LocCode_ValueEntryCaption.Value</Value>
                                  <Style>
                                    <FontFamily>Segoe UI</FontFamily>
                                    <FontSize>8pt</FontSize>
                                    <FontWeight>Bold</FontWeight>
                                  </Style>
                                </TextRun>
                              </TextRuns>
                              <Style>
                                <TextAlign>Left</TextAlign>
                              </Style>
                            </Paragraph>
                          </Paragraphs>
                          <ZIndex>40</ZIndex>
                          <Style>
                            <VerticalAlign>Bottom</VerticalAlign>
                            <PaddingLeft>5pt</PaddingLeft>
                            <PaddingRight>5pt</PaddingRight>
                          </Style>
                        </Textbox>
                      </CellContents>
                    </TablixCell>
                    <TablixCell>
                      <CellContents>
                        <Textbox Name="ItemLedrEntryPurchCodeCaption">
                          <CanGrow>true</CanGrow>
                          <KeepTogether>true</KeepTogether>
                          <Paragraphs>
                            <Paragraph>
                              <TextRuns>
                                <TextRun>
                                  <Value>=Parameters!ItemLedrEntryPurCodeCaption.Value</Value>
                                  <Style>
                                    <FontFamily>Segoe UI</FontFamily>
                                    <FontSize>8pt</FontSize>
                                    <FontWeight>Bold</FontWeight>
                                  </Style>
                                </TextRun>
                              </TextRuns>
                              <Style />
                            </Paragraph>
                          </Paragraphs>
                          <ZIndex>39</ZIndex>
                          <Style>
                            <VerticalAlign>Bottom</VerticalAlign>
                            <PaddingLeft>5pt</PaddingLeft>
                            <PaddingRight>5pt</PaddingRight>
                          </Style>
                        </Textbox>
                      </CellContents>
                    </TablixCell>
                    <TablixCell>
                      <CellContents>
                        <Textbox Name="ValueEntryDropShipmentCaption">
                          <CanGrow>true</CanGrow>
                          <KeepTogether>true</KeepTogether>
                          <Paragraphs>
                            <Paragraph>
                              <TextRuns>
                                <TextRun>
                                  <Value>=Parameters!DropShip_ValueEntryCaption.Value</Value>
                                  <Style>
                                    <FontFamily>Segoe UI</FontFamily>
                                    <FontSize>8pt</FontSize>
                                    <FontWeight>Bold</FontWeight>
                                  </Style>
                                </TextRun>
                              </TextRuns>
                              <Style />
                            </Paragraph>
                          </Paragraphs>
                          <ZIndex>38</ZIndex>
                          <Style>
                            <VerticalAlign>Bottom</VerticalAlign>
                            <PaddingLeft>5pt</PaddingLeft>
                            <PaddingRight>5pt</PaddingRight>
                          </Style>
                        </Textbox>
                      </CellContents>
                    </TablixCell>
                    <TablixCell>
                      <CellContents>
                        <Textbox Name="QuantityCaption">
                          <CanGrow>true</CanGrow>
                          <KeepTogether>true</KeepTogether>
                          <Paragraphs>
                            <Paragraph>
                              <TextRuns>
                                <TextRun>
                                  <Value>=First(Fields!QuantityCaption.Value)</Value>
                                  <Style>
                                    <FontFamily>Segoe UI</FontFamily>
                                    <FontSize>8pt</FontSize>
                                    <FontWeight>Bold</FontWeight>
                                  </Style>
                                </TextRun>
                              </TextRuns>
                              <Style>
                                <TextAlign>Right</TextAlign>
                              </Style>
                            </Paragraph>
                          </Paragraphs>
                          <ZIndex>37</ZIndex>
                          <Style>
                            <VerticalAlign>Bottom</VerticalAlign>
                            <PaddingLeft>5pt</PaddingLeft>
                            <PaddingRight>5pt</PaddingRight>
                          </Style>
                        </Textbox>
                      </CellContents>
                    </TablixCell>
                    <TablixCell>
                      <CellContents>
                        <Textbox Name="AmountCaption">
                          <CanGrow>true</CanGrow>
                          <KeepTogether>true</KeepTogether>
                          <Paragraphs>
                            <Paragraph>
                              <TextRuns>
                                <TextRun>
                                  <Value>=First(Fields!AmountCaption.Value)</Value>
                                  <Style>
                                    <FontFamily>Segoe UI</FontFamily>
                                    <FontSize>8pt</FontSize>
                                    <FontWeight>Bold</FontWeight>
                                  </Style>
                                </TextRun>
                              </TextRuns>
                              <Style>
                                <TextAlign>Right</TextAlign>
                              </Style>
                            </Paragraph>
                          </Paragraphs>
                          <ZIndex>36</ZIndex>
                          <Style>
                            <VerticalAlign>Bottom</VerticalAlign>
                            <PaddingLeft>5pt</PaddingLeft>
                          </Style>
                        </Textbox>
                      </CellContents>
                    </TablixCell>
                  </TablixCells>
                </TablixRow>
                <TablixRow>
                  <Height>0.06944in</Height>
                  <TablixCells>
                    <TablixCell>
                      <CellContents>
                        <Textbox Name="Textbox3">
                          <CanGrow>true</CanGrow>
                          <KeepTogether>true</KeepTogether>
                          <Paragraphs>
                            <Paragraph>
                              <TextRuns>
                                <TextRun>
                                  <Value />
                                  <Style>
                                    <FontFamily>Segoe UI</FontFamily>
                                    <FontSize>8pt</FontSize>
                                    <FontWeight>Bold</FontWeight>
                                  </Style>
                                </TextRun>
                              </TextRuns>
                              <Style />
                            </Paragraph>
                          </Paragraphs>
                          <rd:DefaultName>Textbox3</rd:DefaultName>
                          <Style>
                            <VerticalAlign>Bottom</VerticalAlign>
                          </Style>
                        </Textbox>
                        <ColSpan>9</ColSpan>
                      </CellContents>
                    </TablixCell>
                    <TablixCell />
                    <TablixCell />
                    <TablixCell />
                    <TablixCell />
                    <TablixCell />
                    <TablixCell />
                    <TablixCell />
                    <TablixCell />
                  </TablixCells>
                </TablixRow>
                <TablixRow>
                  <Height>0.06944in</Height>
                  <TablixCells>
                    <TablixCell>
                      <CellContents>
                        <Textbox Name="Textbox12">
                          <CanGrow>true</CanGrow>
                          <KeepTogether>true</KeepTogether>
                          <Paragraphs>
                            <Paragraph>
                              <TextRuns>
                                <TextRun>
                                  <Value />
                                  <Style>
                                    <FontFamily>Segoe UI</FontFamily>
                                    <FontSize>8pt</FontSize>
                                    <FontWeight>Bold</FontWeight>
                                  </Style>
                                </TextRun>
                              </TextRuns>
                              <Style />
                            </Paragraph>
                          </Paragraphs>
                          <rd:DefaultName>Textbox12</rd:DefaultName>
                          <Style>
                            <Border>
                              <Style>None</Style>
                            </Border>
                            <TopBorder>
                              <Style>Solid</Style>
                            </TopBorder>
                            <VerticalAlign>Bottom</VerticalAlign>
                          </Style>
                        </Textbox>
                        <ColSpan>9</ColSpan>
                      </CellContents>
                    </TablixCell>
                    <TablixCell />
                    <TablixCell />
                    <TablixCell />
                    <TablixCell />
                    <TablixCell />
                    <TablixCell />
                    <TablixCell />
                    <TablixCell />
                  </TablixCells>
                </TablixRow>
                <TablixRow>
                  <Height>0.13889in</Height>
                  <TablixCells>
                    <TablixCell>
                      <CellContents>
                        <Textbox Name="ValueEntryItemNo">
                          <KeepTogether>true</KeepTogether>
                          <Paragraphs>
                            <Paragraph>
                              <TextRuns>
                                <TextRun>
                                  <Value>=Fields!ValueEntryItemNo.Value</Value>
                                  <Style>
                                    <FontFamily>Segoe UI</FontFamily>
                                    <FontSize>8pt</FontSize>
                                  </Style>
                                </TextRun>
                              </TextRuns>
                              <Style>
                                <TextAlign>Left</TextAlign>
                              </Style>
                            </Paragraph>
                          </Paragraphs>
                          <ZIndex>9</ZIndex>
                          <Style>
                            <BackgroundColor>#efefef</BackgroundColor>
                            <VerticalAlign>Top</VerticalAlign>
                            <PaddingRight>5pt</PaddingRight>
                          </Style>
                        </Textbox>
                      </CellContents>
                    </TablixCell>
                    <TablixCell>
                      <CellContents>
                        <Textbox Name="ValueEntryDocumentNo">
                          <KeepTogether>true</KeepTogether>
                          <Paragraphs>
                            <Paragraph>
                              <TextRuns>
                                <TextRun>
                                  <Value>=Fields!ValueEntryDocumentNo.Value</Value>
                                  <Style>
                                    <FontFamily>Segoe UI</FontFamily>
                                    <FontSize>8pt</FontSize>
                                  </Style>
                                </TextRun>
                              </TextRuns>
                              <Style>
                                <TextAlign>Left</TextAlign>
                              </Style>
                            </Paragraph>
                          </Paragraphs>
                          <ZIndex>8</ZIndex>
                          <Style>
                            <BackgroundColor>#efefef</BackgroundColor>
                            <VerticalAlign>Top</VerticalAlign>
                            <PaddingLeft>5pt</PaddingLeft>
                            <PaddingRight>5pt</PaddingRight>
                          </Style>
                        </Textbox>
                      </CellContents>
                    </TablixCell>
                    <TablixCell>
                      <CellContents>
                        <Textbox Name="ValueEntryDocDate">
                          <CanGrow>true</CanGrow>
                          <KeepTogether>true</KeepTogether>
                          <Paragraphs>
                            <Paragraph>
                              <TextRuns>
                                <TextRun>
                                  <Value>=Fields!ValueEntryDocDate.Value</Value>
                                  <Style>
                                    <FontFamily>Segoe UI</FontFamily>
                                    <FontSize>8pt</FontSize>
                                    <Format>d</Format>
                                  </Style>
                                </TextRun>
                              </TextRuns>
                              <Style />
                            </Paragraph>
                          </Paragraphs>
                          <ZIndex>7</ZIndex>
                          <Style>
                            <BackgroundColor>#efefef</BackgroundColor>
                            <VerticalAlign>Top</VerticalAlign>
                            <PaddingLeft>5pt</PaddingLeft>
                            <PaddingRight>5pt</PaddingRight>
                          </Style>
                        </Textbox>
                      </CellContents>
                    </TablixCell>
                    <TablixCell>
                      <CellContents>
                        <Textbox Name="ValueEntryPostingDate">
                          <CanGrow>true</CanGrow>
                          <KeepTogether>true</KeepTogether>
                          <Paragraphs>
                            <Paragraph>
                              <TextRuns>
                                <TextRun>
                                  <Value>=Fields!ValueEntryPostingDate.Value</Value>
                                  <Style>
                                    <FontFamily>Segoe UI</FontFamily>
                                    <FontSize>8pt</FontSize>
                                  </Style>
                                </TextRun>
                              </TextRuns>
                              <Style />
                            </Paragraph>
                          </Paragraphs>
                          <ZIndex>6</ZIndex>
                          <Style>
                            <BackgroundColor>#efefef</BackgroundColor>
                            <VerticalAlign>Top</VerticalAlign>
                            <PaddingLeft>5pt</PaddingLeft>
                            <PaddingRight>5pt</PaddingRight>
                          </Style>
                        </Textbox>
                      </CellContents>
                    </TablixCell>
                    <TablixCell>
                      <CellContents>
                        <Textbox Name="ValueEntryLocationCode">
                          <KeepTogether>true</KeepTogether>
                          <Paragraphs>
                            <Paragraph>
                              <TextRuns>
                                <TextRun>
                                  <Value>=Fields!LocCode_ValueEntry.Value</Value>
                                  <Style>
                                    <FontFamily>Segoe UI</FontFamily>
                                    <FontSize>8pt</FontSize>
                                  </Style>
                                </TextRun>
                              </TextRuns>
                              <Style>
                                <TextAlign>Left</TextAlign>
                              </Style>
                            </Paragraph>
                          </Paragraphs>
                          <ZIndex>5</ZIndex>
                          <Style>
                            <BackgroundColor>#efefef</BackgroundColor>
                            <VerticalAlign>Top</VerticalAlign>
                            <PaddingLeft>5pt</PaddingLeft>
                            <PaddingRight>5pt</PaddingRight>
                          </Style>
                        </Textbox>
                      </CellContents>
                    </TablixCell>
                    <TablixCell>
                      <CellContents>
                        <Textbox Name="ItemLedrEntryPurchCode">
                          <KeepTogether>true</KeepTogether>
                          <Paragraphs>
                            <Paragraph>
                              <TextRuns>
                                <TextRun>
                                  <Value>=Fields!ItemLedrEntryPurCode.Value</Value>
                                  <Style>
                                    <FontFamily>Segoe UI</FontFamily>
                                    <FontSize>8pt</FontSize>
                                  </Style>
                                </TextRun>
                              </TextRuns>
                              <Style>
                                <TextAlign>=IIf(IsNumeric(Fields!ItemLedrEntryPurCode.Value),"Right","Left")</TextAlign>
                              </Style>
                            </Paragraph>
                          </Paragraphs>
                          <ZIndex>4</ZIndex>
                          <Style>
                            <BackgroundColor>#efefef</BackgroundColor>
                            <VerticalAlign>Top</VerticalAlign>
                            <PaddingLeft>5pt</PaddingLeft>
                            <PaddingRight>5pt</PaddingRight>
                          </Style>
                        </Textbox>
                      </CellContents>
                    </TablixCell>
                    <TablixCell>
                      <CellContents>
                        <Textbox Name="ValueEntryDropShipment">
                          <KeepTogether>true</KeepTogether>
                          <Paragraphs>
                            <Paragraph>
                              <TextRuns>
                                <TextRun>
                                  <Value>=Fields!FormatDropShipment.Value</Value>
                                  <Style>
                                    <FontFamily>Segoe UI</FontFamily>
                                    <FontSize>8pt</FontSize>
                                  </Style>
                                </TextRun>
                              </TextRuns>
                              <Style />
                            </Paragraph>
                          </Paragraphs>
                          <ZIndex>3</ZIndex>
                          <Style>
                            <BackgroundColor>#efefef</BackgroundColor>
                            <VerticalAlign>Top</VerticalAlign>
                            <PaddingLeft>5pt</PaddingLeft>
                            <PaddingRight>5pt</PaddingRight>
                          </Style>
                        </Textbox>
                      </CellContents>
                    </TablixCell>
                    <TablixCell>
                      <CellContents>
                        <Textbox Name="InvoicedQuantity">
                          <CanGrow>true</CanGrow>
                          <KeepTogether>true</KeepTogether>
                          <Paragraphs>
                            <Paragraph>
                              <TextRuns>
                                <TextRun>
                                  <Value>=Fields!InvoicedQuantity.Value</Value>
                                  <Style>
                                    <FontFamily>Segoe UI</FontFamily>
                                    <FontSize>8pt</FontSize>
                                    <Format>=Fields!InvoicedQuantityFormat.Value</Format>
                                  </Style>
                                </TextRun>
                              </TextRuns>
                              <Style>
                                <TextAlign>Right</TextAlign>
                              </Style>
                            </Paragraph>
                          </Paragraphs>
                          <ZIndex>2</ZIndex>
                          <Style>
                            <BackgroundColor>#efefef</BackgroundColor>
                            <VerticalAlign>Top</VerticalAlign>
                            <PaddingLeft>5pt</PaddingLeft>
                            <PaddingRight>5pt</PaddingRight>
                          </Style>
                        </Textbox>
                      </CellContents>
                    </TablixCell>
                    <TablixCell>
                      <CellContents>
                        <Textbox Name="ValueEntrySalesAmtActual">
                          <CanGrow>true</CanGrow>
                          <KeepTogether>true</KeepTogether>
                          <Paragraphs>
                            <Paragraph>
                              <TextRuns>
                                <TextRun>
                                  <Value>=Fields!SalesAmtAct_ValueEntry.Value</Value>
                                  <Style>
                                    <FontFamily>Segoe UI</FontFamily>
                                    <FontSize>8pt</FontSize>
                                    <Format>=Fields!SalesAmtAct_ValueEntryFormat.Value</Format>
                                  </Style>
                                </TextRun>
                              </TextRuns>
                              <Style>
                                <TextAlign>Right</TextAlign>
                              </Style>
                            </Paragraph>
                          </Paragraphs>
                          <ZIndex>1</ZIndex>
                          <Style>
                            <BackgroundColor>#efefef</BackgroundColor>
                            <VerticalAlign>Top</VerticalAlign>
                            <PaddingLeft>5pt</PaddingLeft>
                          </Style>
                        </Textbox>
                      </CellContents>
                    </TablixCell>
                  </TablixCells>
                </TablixRow>
                <TablixRow>
                  <Height>0.13889in</Height>
                  <TablixCells>
                    <TablixCell>
                      <CellContents>
                        <Textbox Name="TextBox1">
                          <KeepTogether>true</KeepTogether>
                          <Paragraphs>
                            <Paragraph>
                              <TextRuns>
                                <TextRun>
                                  <Value />
                                  <Style />
                                </TextRun>
                              </TextRuns>
                              <Style />
                            </Paragraph>
                          </Paragraphs>
                          <ZIndex>14</ZIndex>
                          <Style>
                            <Border>
                              <Style>None</Style>
                            </Border>
                            <TopBorder>
                              <Color>#cccccc</Color>
                              <Style>Solid</Style>
                            </TopBorder>
                            <PaddingLeft>5pt</PaddingLeft>
                            <PaddingRight>5pt</PaddingRight>
                          </Style>
                        </Textbox>
                      </CellContents>
                    </TablixCell>
                    <TablixCell>
                      <CellContents>
                        <Textbox Name="ItemDescription">
                          <KeepTogether>true</KeepTogether>
                          <Paragraphs>
                            <Paragraph>
                              <TextRuns>
                                <TextRun>
                                  <Value>=Fields!ItemDescription.Value</Value>
                                  <Style>
                                    <FontFamily>Segoe UI</FontFamily>
                                    <FontSize>8pt</FontSize>
                                    <FontWeight>Bold</FontWeight>
                                  </Style>
                                </TextRun>
                              </TextRuns>
                              <Style />
                            </Paragraph>
                          </Paragraphs>
                          <ZIndex>13</ZIndex>
                          <Style>
                            <Border>
                              <Style>None</Style>
                            </Border>
                            <TopBorder>
                              <Color>#cccccc</Color>
                              <Style>Solid</Style>
                            </TopBorder>
                          </Style>
                        </Textbox>
                        <ColSpan>6</ColSpan>
                      </CellContents>
                    </TablixCell>
                    <TablixCell />
                    <TablixCell />
                    <TablixCell />
                    <TablixCell />
                    <TablixCell />
                    <TablixCell>
                      <CellContents>
                        <Textbox Name="ValueEntryInvoicedQty">
                          <CanGrow>true</CanGrow>
                          <KeepTogether>true</KeepTogether>
                          <Paragraphs>
                            <Paragraph>
                              <TextRuns>
                                <TextRun>
                                  <Value>=Sum(Fields!ValueEntryInvoicedQty.Value)</Value>
                                  <Style>
                                    <FontFamily>Segoe UI</FontFamily>
                                    <FontSize>8pt</FontSize>
                                    <FontWeight>Bold</FontWeight>
                                    <Format>=First(Fields!ValueEntryInvoicedQtyFormat.Value)</Format>
                                  </Style>
                                </TextRun>
                              </TextRuns>
                              <Style>
                                <TextAlign>Right</TextAlign>
                              </Style>
                            </Paragraph>
                          </Paragraphs>
                          <ZIndex>12</ZIndex>
                          <Style>
                            <Border>
                              <Style>None</Style>
                            </Border>
                            <TopBorder>
                              <Color>#cccccc</Color>
                              <Style>Solid</Style>
                            </TopBorder>
                            <VerticalAlign>Top</VerticalAlign>
                            <PaddingLeft>5pt</PaddingLeft>
                            <PaddingRight>5pt</PaddingRight>
                          </Style>
                        </Textbox>
                      </CellContents>
                    </TablixCell>
                    <TablixCell>
                      <CellContents>
                        <Textbox Name="ValueEntrySalesAmtActual1">
                          <CanGrow>true</CanGrow>
                          <KeepTogether>true</KeepTogether>
                          <Paragraphs>
                            <Paragraph>
                              <TextRuns>
                                <TextRun>
                                  <Value>=Sum(Fields!SalesAmtAct_ValueEntry.Value)</Value>
                                  <Style>
                                    <FontFamily>Segoe UI</FontFamily>
                                    <FontSize>8pt</FontSize>
                                    <FontWeight>Bold</FontWeight>
                                    <Format>=First(Fields!SalesAmtAct_ValueEntryFormat.Value)</Format>
                                  </Style>
                                </TextRun>
                              </TextRuns>
                              <Style>
                                <TextAlign>Right</TextAlign>
                              </Style>
                            </Paragraph>
                          </Paragraphs>
                          <ZIndex>11</ZIndex>
                          <Style>
                            <Border>
                              <Style>None</Style>
                            </Border>
                            <TopBorder>
                              <Color>#cccccc</Color>
                              <Style>Solid</Style>
                            </TopBorder>
                            <VerticalAlign>Top</VerticalAlign>
                            <PaddingLeft>5pt</PaddingLeft>
                          </Style>
                        </Textbox>
                      </CellContents>
                    </TablixCell>
                  </TablixCells>
                </TablixRow>
                <TablixRow>
                  <Height>0.13889in</Height>
                  <TablixCells>
                    <TablixCell>
                      <CellContents>
                        <Textbox Name="TextBox112">
                          <KeepTogether>true</KeepTogether>
                          <Paragraphs>
                            <Paragraph>
                              <TextRuns>
                                <TextRun>
                                  <Value />
                                  <Style />
                                </TextRun>
                              </TextRuns>
                              <Style />
                            </Paragraph>
                          </Paragraphs>
                          <ZIndex>17</ZIndex>
                          <Style />
                        </Textbox>
                        <ColSpan>9</ColSpan>
                      </CellContents>
                    </TablixCell>
                    <TablixCell />
                    <TablixCell />
                    <TablixCell />
                    <TablixCell />
                    <TablixCell />
                    <TablixCell />
                    <TablixCell />
                    <TablixCell />
                  </TablixCells>
                </TablixRow>
                <TablixRow>
                  <Height>0.13889in</Height>
                  <TablixCells>
                    <TablixCell>
                      <CellContents>
                        <Textbox Name="TextBox16">
                          <KeepTogether>true</KeepTogether>
                          <Paragraphs>
                            <Paragraph>
                              <TextRuns>
                                <TextRun>
                                  <Value />
                                  <Style />
                                </TextRun>
                              </TextRuns>
                              <Style />
                            </Paragraph>
                          </Paragraphs>
                          <ZIndex>24</ZIndex>
                          <Style />
                        </Textbox>
                        <ColSpan>6</ColSpan>
                      </CellContents>
                    </TablixCell>
                    <TablixCell />
                    <TablixCell />
                    <TablixCell />
                    <TablixCell />
                    <TablixCell />
                    <TablixCell>
                      <CellContents>
                        <Textbox Name="TotalSalesCaption">
                          <CanGrow>true</CanGrow>
                          <KeepTogether>true</KeepTogether>
                          <Paragraphs>
                            <Paragraph>
                              <TextRuns>
                                <TextRun>
                                  <Value>=First(Fields!TotalSalesCaption.Value)</Value>
                                  <Style>
                                    <FontFamily>Segoe UI</FontFamily>
                                    <FontSize>8pt</FontSize>
                                    <FontWeight>Bold</FontWeight>
                                  </Style>
                                </TextRun>
                              </TextRuns>
                              <Style>
                                <TextAlign>Right</TextAlign>
                              </Style>
                            </Paragraph>
                          </Paragraphs>
                          <ZIndex>18</ZIndex>
                          <Style>
                            <PaddingLeft>5pt</PaddingLeft>
                            <PaddingRight>5pt</PaddingRight>
                          </Style>
                        </Textbox>
                        <ColSpan>2</ColSpan>
                      </CellContents>
                    </TablixCell>
                    <TablixCell />
                    <TablixCell>
                      <CellContents>
                        <Textbox Name="ValueEntrySalesAmtActualControl29">
                          <CanGrow>true</CanGrow>
                          <KeepTogether>true</KeepTogether>
                          <Paragraphs>
                            <Paragraph>
                              <TextRuns>
                                <TextRun>
                                  <Value>=Sum(Fields!SalesAmtAct_ValueEntry.Value)</Value>
                                  <Style>
                                    <FontFamily>Segoe UI</FontFamily>
                                    <FontSize>8pt</FontSize>
                                    <FontWeight>Bold</FontWeight>
                                    <Format>=First(Fields!SalesAmtAct_ValueEntryFormat.Value)</Format>
                                  </Style>
                                </TextRun>
                              </TextRuns>
                              <Style>
                                <TextAlign>Right</TextAlign>
                              </Style>
                            </Paragraph>
                          </Paragraphs>
                          <ZIndex>16</ZIndex>
                          <Style>
                            <Border>
                              <Style>None</Style>
                            </Border>
                            <TopBorder>
                              <Style>Solid</Style>
                            </TopBorder>
                            <PaddingLeft>5pt</PaddingLeft>
                          </Style>
                        </Textbox>
                      </CellContents>
                    </TablixCell>
                  </TablixCells>
                </TablixRow>
              </TablixRows>
            </TablixBody>
            <TablixColumnHierarchy>
              <TablixMembers>
                <TablixMember />
                <TablixMember />
                <TablixMember />
                <TablixMember />
                <TablixMember />
                <TablixMember />
                <TablixMember />
                <TablixMember />
                <TablixMember />
              </TablixMembers>
            </TablixColumnHierarchy>
            <TablixRowHierarchy>
              <TablixMembers>
                <TablixMember>
                  <KeepWithGroup>After</KeepWithGroup>
                  <RepeatOnNewPage>true</RepeatOnNewPage>
                  <KeepTogether>true</KeepTogether>
                </TablixMember>
                <TablixMember>
                  <KeepWithGroup>After</KeepWithGroup>
                  <RepeatOnNewPage>true</RepeatOnNewPage>
                </TablixMember>
                <TablixMember>
                  <KeepWithGroup>After</KeepWithGroup>
                  <RepeatOnNewPage>true</RepeatOnNewPage>
                </TablixMember>
                <TablixMember>
                  <Group Name="Table1_Group1">
                    <GroupExpressions>
                      <GroupExpression>=Fields!ItemLedgerEntryItemNo.Value</GroupExpression>
                    </GroupExpressions>
                  </Group>
                  <TablixMembers>
                    <TablixMember>
                      <Group Name="Table1_Details_Group">
                        <DataElementName>Detail</DataElementName>
                      </Group>
                      <TablixMembers>
                        <TablixMember>
                          <Visibility>
                            <Hidden>=IIf(Fields!ValueEntryItemNo.Value = "",True,False)</Hidden>
                          </Visibility>
                        </TablixMember>
                      </TablixMembers>
                      <DataElementName>Detail_Collection</DataElementName>
                      <DataElementOutput>Output</DataElementOutput>
                      <KeepTogether>true</KeepTogether>
                    </TablixMember>
                    <TablixMember>
                      <KeepWithGroup>Before</KeepWithGroup>
                      <KeepTogether>true</KeepTogether>
                    </TablixMember>
                  </TablixMembers>
                </TablixMember>
                <TablixMember>
                  <KeepWithGroup>Before</KeepWithGroup>
                </TablixMember>
                <TablixMember>
                  <KeepWithGroup>Before</KeepWithGroup>
                  <KeepTogether>true</KeepTogether>
                </TablixMember>
              </TablixMembers>
            </TablixRowHierarchy>
            <DataSetName>DataSet_Result</DataSetName>
            <Filters>
              <Filter>
                <FilterExpression>=Cstr(Fields!ItemLedgerEntryItemNo.Value)</FilterExpression>
                <Operator>GreaterThan</Operator>
                <FilterValues>
                  <FilterValue>=""</FilterValue>
                </FilterValues>
              </Filter>
            </Filters>
            <Top>0.44913cm</Top>
            <Height>2.11666cm</Height>
            <Width>18.85356cm</Width>
            <Style />
          </Tablix>
          <Tablix Name="FilterTable">
            <TablixBody>
              <TablixColumns>
                <TablixColumn>
                  <Width>7.42267in</Width>
                </TablixColumn>
              </TablixColumns>
              <TablixRows>
                <TablixRow>
                  <Height>0.13889in</Height>
                  <TablixCells>
                    <TablixCell>
                      <CellContents>
                        <Textbox Name="CAPTIONItemLedgerFilter">
                          <KeepTogether>true</KeepTogether>
                          <Paragraphs>
                            <Paragraph>
                              <TextRuns>
                                <TextRun>
                                  <Value>=First(Fields!CaptionLedgFilter.Value)</Value>
                                  <Style>
                                    <FontFamily>Segoe UI</FontFamily>
                                    <FontSize>8pt</FontSize>
                                  </Style>
                                </TextRun>
                              </TextRuns>
                              <Style />
                            </Paragraph>
                          </Paragraphs>
                          <ZIndex>1</ZIndex>
                          <Style>
                            <VerticalAlign>Top</VerticalAlign>
                          </Style>
                        </Textbox>
                      </CellContents>
                    </TablixCell>
                  </TablixCells>
                </TablixRow>
              </TablixRows>
            </TablixBody>
            <TablixColumnHierarchy>
              <TablixMembers>
                <TablixMember />
              </TablixMembers>
            </TablixColumnHierarchy>
            <TablixRowHierarchy>
              <TablixMembers>
                <TablixMember>
                  <Visibility>
                    <Hidden>=IIf(Fields!ItemLedgerFilter.Value = "",True,False)</Hidden>
                  </Visibility>
                  <KeepTogether>true</KeepTogether>
                </TablixMember>
              </TablixMembers>
            </TablixRowHierarchy>
            <Height>0.35278cm</Height>
            <Width>18.85358cm</Width>
            <ZIndex>1</ZIndex>
            <Visibility>
              <Hidden>=IIf(Fields!ItemLedgerFilter.Value = "",True,False)</Hidden>
            </Visibility>
            <DataElementOutput>NoOutput</DataElementOutput>
            <Style />
          </Tablix>
        </ReportItems>
        <Height>2.81301cm</Height>
        <Style />
      </Body>
      <Width>18.85358cm</Width>
      <Page>
        <PageHeader>
          <Height>1.98304cm</Height>
          <PrintOnFirstPage>true</PrintOnFirstPage>
          <PrintOnLastPage>true</PrintOnLastPage>
          <ReportItems>
            <Textbox Name="NonstockItemSalesCaption1">
              <KeepTogether>true</KeepTogether>
              <Paragraphs>
                <Paragraph>
                  <TextRuns>
                    <TextRun>
                      <Value>=First(Fields!NonstockItemSalesCaption.Value, "DataSet_Result")</Value>
                      <Style>
                        <FontFamily>Segoe UI</FontFamily>
                        <FontSize>14pt</FontSize>
                        <FontWeight>Bold</FontWeight>
                      </Style>
                    </TextRun>
                  </TextRuns>
                  <Style />
                </Paragraph>
              </Paragraphs>
              <Height>20pt</Height>
              <Width>15.56675cm</Width>
              <Style>
                <VerticalAlign>Top</VerticalAlign>
              </Style>
            </Textbox>
            <Textbox Name="CurrReportPAGENOCaption1">
              <KeepTogether>true</KeepTogether>
              <Paragraphs>
                <Paragraph>
                  <TextRuns>
                    <TextRun>
                      <Value>=First(Fields!CurrReportPageNoCaption.Value, "DataSet_Result") &amp;" "&amp;Globals!PageNumber</Value>
                      <Style>
                        <FontFamily>Segoe UI</FontFamily>
                        <FontSize>8pt</FontSize>
                      </Style>
                    </TextRun>
                  </TextRuns>
                  <Style>
                    <TextAlign>Right</TextAlign>
                  </Style>
                </Paragraph>
              </Paragraphs>
              <Top>0.423cm</Top>
              <Left>15.56675cm</Left>
              <Height>11pt</Height>
              <Width>3.21275cm</Width>
              <ZIndex>1</ZIndex>
              <Style>
                <VerticalAlign>Top</VerticalAlign>
              </Style>
            </Textbox>
            <Textbox Name="COMPANYNAME1">
              <KeepTogether>true</KeepTogether>
              <Paragraphs>
                <Paragraph>
                  <TextRuns>
                    <TextRun>
                      <Value>=First(Fields!CompanyName.Value, "DataSet_Result")</Value>
                      <Style>
                        <FontFamily>Segoe UI</FontFamily>
                        <FontSize>8pt</FontSize>
                      </Style>
                    </TextRun>
                  </TextRuns>
                  <Style />
                </Paragraph>
              </Paragraphs>
              <Top>0.77225cm</Top>
              <Height>11pt</Height>
              <Width>15.56675cm</Width>
              <ZIndex>2</ZIndex>
              <Style>
                <VerticalAlign>Top</VerticalAlign>
              </Style>
            </Textbox>
            <Textbox Name="ExecutionTimeTextBox">
              <KeepTogether>true</KeepTogether>
              <Paragraphs>
                <Paragraph>
                  <TextRuns>
                    <TextRun>
                      <Value>= First(Fields!TodayFormatted.Value, "DataSet_Result")</Value>
                      <Style>
                        <FontFamily>Segoe UI</FontFamily>
                        <FontSize>8pt</FontSize>
                        <Format>D</Format>
                      </Style>
                    </TextRun>
                  </TextRuns>
                  <Style>
                    <TextAlign>Right</TextAlign>
                  </Style>
                </Paragraph>
              </Paragraphs>
              <Left>15.56675cm</Left>
              <Height>11pt</Height>
              <Width>3.21275cm</Width>
              <ZIndex>3</ZIndex>
              <Style>
                <Border />
                <VerticalAlign>Top</VerticalAlign>
              </Style>
            </Textbox>
            <Textbox Name="UserIdTextBox">
              <KeepTogether>true</KeepTogether>
              <Paragraphs>
                <Paragraph>
                  <TextRuns>
                    <TextRun>
                      <Value>=User!UserID</Value>
                      <Style>
                        <FontFamily>Segoe UI</FontFamily>
                        <FontSize>8pt</FontSize>
                      </Style>
                    </TextRun>
                  </TextRuns>
                  <Style>
                    <TextAlign>Right</TextAlign>
                  </Style>
                </Paragraph>
              </Paragraphs>
              <Top>0.846cm</Top>
              <Left>15.56675cm</Left>
              <Height>11pt</Height>
              <Width>3.2445cm</Width>
              <ZIndex>4</ZIndex>
              <DataElementOutput>NoOutput</DataElementOutput>
              <Style>
                <VerticalAlign>Top</VerticalAlign>
              </Style>
            </Textbox>
          </ReportItems>
          <Style />
        </PageHeader>
        <PageHeight>29.7cm</PageHeight>
        <PageWidth>21cm</PageWidth>
        <InteractiveHeight>11in</InteractiveHeight>
        <InteractiveWidth>8.5in</InteractiveWidth>
        <LeftMargin>1.5cm</LeftMargin>
        <TopMargin>2cm</TopMargin>
        <BottomMargin>2cm</BottomMargin>
        <Style />
      </Page>
    </ReportSection>
  </ReportSections>
  <ReportParameters>
    <ReportParameter Name="ValueEntryDocumentNoCaption">
      <DataType>String</DataType>
      <DefaultValue>
        <Values>
          <Value>ValueEntryDocumentNoCaption</Value>
        </Values>
      </DefaultValue>
      <Prompt>ValueEntryDocumentNoCaption</Prompt>
    </ReportParameter>
    <ReportParameter Name="LocCode_ValueEntryCaption">
      <DataType>String</DataType>
      <DefaultValue>
        <Values>
          <Value>LocCode_ValueEntryCaption</Value>
        </Values>
      </DefaultValue>
      <Prompt>LocCode_ValueEntryCaption</Prompt>
    </ReportParameter>
    <ReportParameter Name="ItemLedrEntryPurCodeCaption">
      <DataType>String</DataType>
      <DefaultValue>
        <Values>
          <Value>ItemLedrEntryPurCodeCaption</Value>
        </Values>
      </DefaultValue>
      <Prompt>ItemLedrEntryPurCodeCaption</Prompt>
    </ReportParameter>
    <ReportParameter Name="DropShip_ValueEntryCaption">
      <DataType>String</DataType>
      <DefaultValue>
        <Values>
          <Value>DropShip_ValueEntryCaption</Value>
        </Values>
      </DefaultValue>
      <Prompt>DropShip_ValueEntryCaption</Prompt>
    </ReportParameter>
  </ReportParameters>
  <Code>Public Function BlankZero(ByVal Value As Decimal)
    if Value = 0 then
        Return ""
    end if
    Return Value
End Function

Public Function BlankPos(ByVal Value As Decimal)
    if Value &gt; 0 then
        Return ""
    end if
    Return Value
End Function

Public Function BlankZeroAndPos(ByVal Value As Decimal)
    if Value &gt;= 0 then
        Return ""
    end if
    Return Value
End Function

Public Function BlankNeg(ByVal Value As Decimal)
    if Value &lt; 0 then
        Return ""
    end if
    Return Value
End Function

Public Function BlankNegAndZero(ByVal Value As Decimal)
    if Value &lt;= 0 then
        Return ""
    end if
    Return Value
End Function

Shared HeaderData As Object

Public Function GetData(Num As Integer) As Object
   Return Cstr(Choose(Num, Split(Cstr(HeaderData),Chr(177))))
End Function

Public Function SetData(NewData As Object)
    If NewData &lt;&gt; "" Then
        HeaderData = NewData
    End If

  Return True
End Function</Code>
  <Language>=User!Language</Language>
  <ConsumeContainerWhitespace>true</ConsumeContainerWhitespace>
  <rd:ReportUnitType>Cm</rd:ReportUnitType>
  <rd:ReportID>5e5b6b7e-78f6-4fde-89f8-5de80f363d7b</rd:ReportID>
</Report>
    END_OF_RDLDATA
  }
}

