OBJECT Report 5988 Contr. Serv. Orders - Test
{
  OBJECT-PROPERTIES
  {
    Date=23/09/13;
    Time=12:00:00;
    Version List=NAVW17.10;
  }
  PROPERTIES
  {
    CaptionML=ENU=Contr. Serv. Orders - Test;
    OnInitReport=BEGIN
                   ServMgtSetup.GET;
                   IF StartDate = 0D THEN
                     IF ServMgtSetup."Last Contract Service Date" <> 0D THEN
                       StartDate := ServMgtSetup."Last Contract Service Date" + 1;
                 END;

    OnPreReport=BEGIN
                  ServContractFilters := "Service Contract Header".GETFILTERS;
                END;

  }
  DATASET
  {
    { 9952;    ;DataItem;                    ;
               DataItemTable=Table5965;
               DataItemTableView=WHERE(Contract Type=CONST(Contract),
                                       Change Status=CONST(Locked),
                                       Status=CONST(Signed));
               PrintOnlyIfDetail=Yes;
               ReqFilterFields=Contract No. }

    { 1   ;1   ;Column  ;FORMAT_TODAY_0_4_   ;
               SourceExpr=FORMAT(TODAY,0,4) }

    { 2   ;1   ;Column  ;CurrReport_PAGENO   ;
               SourceExpr=CurrReport.PAGENO }

    { 3   ;1   ;Column  ;USERID              ;
               SourceExpr=USERID }

    { 27  ;1   ;Column  ;COMPANYNAME         ;
               SourceExpr=COMPANYNAME }

    { 7   ;1   ;Column  ;StartDate           ;
               SourceExpr=FORMAT(StartDate) }

    { 8   ;1   ;Column  ;EndDate             ;
               SourceExpr=FORMAT(EndDate) }

    { 5   ;1   ;Column  ;Service_Contract_Header__TABLECAPTION__________ServContractFilters;
               SourceExpr=TABLECAPTION + ': ' + ServContractFilters }

    { 33  ;1   ;Column  ;ShowServContractFilters;
               SourceExpr=ServContractFilters }

    { 34  ;1   ;Column  ;ShowFullBody        ;
               SourceExpr=ShowFullBody }

    { 4   ;1   ;Column  ;CurrReport_PAGENOCaption;
               SourceExpr=CurrReport_PAGENOCaptionLbl }

    { 6   ;1   ;Column  ;Contract_Service_Orders___TestCaption;
               SourceExpr=Contract_Service_Orders___TestCaptionLbl }

    { 14  ;1   ;Column  ;StartDateCaption    ;
               SourceExpr=StartDateCaptionLbl }

    { 11  ;1   ;Column  ;EndDateCaption      ;
               SourceExpr=EndDateCaptionLbl }

    { 20  ;1   ;Column  ;Service_Contract_Line__Next_Planned_Service_Date_Caption;
               SourceExpr=Service_Contract_Line__Next_Planned_Service_Date_CaptionLbl }

    { 22  ;1   ;Column  ;Service_Contract_Line__Last_Service_Date_Caption;
               SourceExpr=Service_Contract_Line__Last_Service_Date_CaptionLbl }

    { 18  ;1   ;Column  ;Service_Contract_Line__Last_Planned_Service_Date_Caption;
               SourceExpr=Service_Contract_Line__Last_Planned_Service_Date_CaptionLbl }

    { 24  ;1   ;Column  ;Service_Contract_Line_DescriptionCaption;
               SourceExpr="Service Contract Line".FIELDCAPTION(Description) }

    { 16  ;1   ;Column  ;Service_Contract_Line__Serial_No__Caption;
               SourceExpr="Service Contract Line".FIELDCAPTION("Serial No.") }

    { 29  ;1   ;Column  ;Service_Contract_Line__Contract_No__Caption;
               SourceExpr="Service Contract Line".FIELDCAPTION("Contract No.") }

    { 10  ;1   ;Column  ;Customer_No_Caption ;
               SourceExpr=Customer_No_CaptionLbl }

    { 26  ;1   ;Column  ;Customer_NameCaption;
               SourceExpr=Customer_NameCaptionLbl }

    { 6062;1   ;DataItem;                    ;
               DataItemTable=Table5964;
               DataItemTableView=SORTING(Contract Type,Contract No.,Line No.)
                                 ORDER(Ascending)
                                 WHERE(Service Period=FILTER(<>''));
               OnPreDataItem=BEGIN
                               IF EndDate = 0D THEN
                                 ERROR(Text000);
                               IF EndDate < StartDate THEN
                                 ERROR(Text001);

                               IF StartDate <> 0D THEN BEGIN
                                 IF EndDate - StartDate + 1 > ServMgtSetup."Contract Serv. Ord.  Max. Days" THEN
                                   ERROR(
                                     Text002,
                                     ServMgtSetup.TABLECAPTION);
                               END;

                               IF GETFILTER("Contract No.") = '' THEN
                                 SETFILTER("Contract No.",'<>%1','');
                               SETRANGE("Next Planned Service Date",StartDate,EndDate);
                             END;

               OnAfterGetRecord=BEGIN
                                  IF "Contract Expiration Date" <> 0D THEN BEGIN
                                    IF "Contract Expiration Date" <= "Next Planned Service Date" THEN
                                      CurrReport.SKIP;
                                  END ELSE
                                    IF ("Service Contract Header"."Expiration Date" <> 0D) AND
                                       ("Service Contract Header"."Expiration Date" <= "Next Planned Service Date")
                                    THEN
                                      CurrReport.SKIP;

                                  Cust.GET("Service Contract Header"."Bill-to Customer No.");
                                  IF Cust.Blocked = Cust.Blocked::All THEN
                                    CurrReport.SKIP;

                                  ServHeader.SETCURRENTKEY("Contract No.",Status,"Posting Date");
                                  ServHeader.SETRANGE("Contract No.","Contract No.");
                                  ServHeader.SETRANGE(Status,ServHeader.Status::Pending);

                                  IF ServHeader.FINDFIRST THEN BEGIN
                                    ServItemLine.SETCURRENTKEY("Document Type","Document No.","Service Item No.");
                                    ServItemLine.SETRANGE("Document Type",ServHeader."Document Type");
                                    ServItemLine.SETRANGE("Document No.",ServHeader."No.");
                                    ServItemLine.SETRANGE("Contract No.","Contract No.");
                                    ServItemLine.SETRANGE("Contract Line No.","Line No.");
                                    IF ServItemLine.FINDFIRST THEN
                                      CurrReport.SKIP;
                                  END;

                                  IF LastContractNo <> "Contract No." THEN BEGIN
                                    LastContractNo := "Contract No.";
                                    ShowFullBody := TRUE;
                                  END ELSE
                                    ShowFullBody := FALSE;
                                END;

               DataItemLink=Contract Type=FIELD(Contract Type),
                            Contract No.=FIELD(Contract No.) }

    { 15  ;2   ;Column  ;Service_Contract_Line__Serial_No__;
               SourceExpr="Serial No." }

    { 17  ;2   ;Column  ;Service_Contract_Line__Last_Planned_Service_Date_;
               SourceExpr=FORMAT("Last Planned Service Date") }

    { 19  ;2   ;Column  ;Service_Contract_Line__Next_Planned_Service_Date_;
               SourceExpr=FORMAT("Next Planned Service Date") }

    { 21  ;2   ;Column  ;Service_Contract_Line__Last_Service_Date_;
               SourceExpr=FORMAT("Last Service Date") }

    { 23  ;2   ;Column  ;Service_Contract_Line_Description;
               SourceExpr=Description }

    { 28  ;2   ;Column  ;Service_Contract_Line__Contract_No__;
               SourceExpr="Contract No." }

    { 9   ;2   ;Column  ;Cust__No__          ;
               SourceExpr=Cust."No." }

    { 25  ;2   ;Column  ;Cust_Name           ;
               SourceExpr=Cust.Name }

  }
  REQUESTPAGE
  {
    PROPERTIES
    {
    }
    CONTROLS
    {
      { 1900000001;0;Container;
                  ContainerType=ContentArea }

      { 1900000002;1;Group  ;
                  CaptionML=ENU=Options }

      { 5   ;2   ;Field     ;
                  CaptionML=ENU=Starting Date;
                  SourceExpr=StartDate }

      { 1   ;2   ;Field     ;
                  Name=EndingDate;
                  CaptionML=ENU=Ending Date;
                  SourceExpr=EndDate;
                  OnValidate=BEGIN
                               IF EndDate < StartDate THEN
                                 ERROR(Text001);
                             END;
                              }

    }
  }
  LABELS
  {
  }
  CODE
  {
    VAR
      Text000@1002 : TextConst 'ENU=You must fill in the ending date field.';
      Text001@1000 : TextConst 'ENU=Starting Date is greater than Ending Date.';
      Text002@1004 : TextConst 'ENU=The date range you have entered is a longer period than is allowed in the %1 table.';
      ServMgtSetup@1006 : Record 5911;
      ServHeader@1007 : Record 5900;
      Cust@1010 : Record 18;
      ServItemLine@1005 : Record 5901;
      LastContractNo@1003 : Code[20];
      StartDate@1014 : Date;
      EndDate@1015 : Date;
      ServContractFilters@1019 : Text;
      ShowFullBody@1001 : Boolean;
      CurrReport_PAGENOCaptionLbl@8565 : TextConst 'ENU=Page';
      Contract_Service_Orders___TestCaptionLbl@1607 : TextConst 'ENU=Contract Service Orders - Test';
      StartDateCaptionLbl@9565 : TextConst 'ENU=Starting Date';
      EndDateCaptionLbl@4843 : TextConst 'ENU=Ending Date';
      Service_Contract_Line__Next_Planned_Service_Date_CaptionLbl@3870 : TextConst 'ENU=Next Planned Service Date';
      Service_Contract_Line__Last_Service_Date_CaptionLbl@9079 : TextConst 'ENU=Last Service Date';
      Service_Contract_Line__Last_Planned_Service_Date_CaptionLbl@9711 : TextConst 'ENU=Last Planned Service Date';
      Customer_No_CaptionLbl@6073 : TextConst 'ENU=Customer No.';
      Customer_NameCaptionLbl@2383 : TextConst 'ENU=Customer Name';

    PROCEDURE InitVariables@1(LocalStartDate@1000 : Date;LocalEndDate@1001 : Date);
    BEGIN
      StartDate := LocalStartDate;
      EndDate := LocalEndDate;
    END;

    BEGIN
    END.
  }
  RDLDATA
  {
    <?xml version="1.0" encoding="utf-8"?>
<Report xmlns:rd="http://schemas.microsoft.com/SQLServer/reporting/reportdesigner" xmlns="http://schemas.microsoft.com/sqlserver/reporting/2010/01/reportdefinition">
  <AutoRefresh>0</AutoRefresh>
  <DataSources>
    <DataSource Name="DataSource">
      <ConnectionProperties>
        <DataProvider>SQL</DataProvider>
        <ConnectString />
      </ConnectionProperties>
      <rd:SecurityType>None</rd:SecurityType>
      <rd:DataSourceID>2dcae62a-7e9f-4604-84d6-f89f7890d44f</rd:DataSourceID>
    </DataSource>
  </DataSources>
  <DataSets>
    <DataSet Name="DataSet_Result">
      <Query>
        <DataSourceName>DataSource</DataSourceName>
        <CommandText />
      </Query>
      <Fields>
        <Field Name="FORMAT_TODAY_0_4_">
          <DataField>FORMAT_TODAY_0_4_</DataField>
        </Field>
        <Field Name="CurrReport_PAGENO">
          <DataField>CurrReport_PAGENO</DataField>
        </Field>
        <Field Name="USERID">
          <DataField>USERID</DataField>
        </Field>
        <Field Name="COMPANYNAME">
          <DataField>COMPANYNAME</DataField>
        </Field>
        <Field Name="StartDate">
          <DataField>StartDate</DataField>
        </Field>
        <Field Name="EndDate">
          <DataField>EndDate</DataField>
        </Field>
        <Field Name="Service_Contract_Header__TABLECAPTION__________ServContractFilters">
          <DataField>Service_Contract_Header__TABLECAPTION__________ServContractFilters</DataField>
        </Field>
        <Field Name="ShowServContractFilters">
          <DataField>ShowServContractFilters</DataField>
        </Field>
        <Field Name="ShowFullBody">
          <DataField>ShowFullBody</DataField>
        </Field>
        <Field Name="CurrReport_PAGENOCaption">
          <DataField>CurrReport_PAGENOCaption</DataField>
        </Field>
        <Field Name="Contract_Service_Orders___TestCaption">
          <DataField>Contract_Service_Orders___TestCaption</DataField>
        </Field>
        <Field Name="StartDateCaption">
          <DataField>StartDateCaption</DataField>
        </Field>
        <Field Name="EndDateCaption">
          <DataField>EndDateCaption</DataField>
        </Field>
        <Field Name="Service_Contract_Line__Next_Planned_Service_Date_Caption">
          <DataField>Service_Contract_Line__Next_Planned_Service_Date_Caption</DataField>
        </Field>
        <Field Name="Service_Contract_Line__Last_Service_Date_Caption">
          <DataField>Service_Contract_Line__Last_Service_Date_Caption</DataField>
        </Field>
        <Field Name="Service_Contract_Line__Last_Planned_Service_Date_Caption">
          <DataField>Service_Contract_Line__Last_Planned_Service_Date_Caption</DataField>
        </Field>
        <Field Name="Service_Contract_Line_DescriptionCaption">
          <DataField>Service_Contract_Line_DescriptionCaption</DataField>
        </Field>
        <Field Name="Service_Contract_Line__Serial_No__Caption">
          <DataField>Service_Contract_Line__Serial_No__Caption</DataField>
        </Field>
        <Field Name="Service_Contract_Line__Contract_No__Caption">
          <DataField>Service_Contract_Line__Contract_No__Caption</DataField>
        </Field>
        <Field Name="Customer_No_Caption">
          <DataField>Customer_No_Caption</DataField>
        </Field>
        <Field Name="Customer_NameCaption">
          <DataField>Customer_NameCaption</DataField>
        </Field>
        <Field Name="Service_Contract_Line__Serial_No__">
          <DataField>Service_Contract_Line__Serial_No__</DataField>
        </Field>
        <Field Name="Service_Contract_Line__Last_Planned_Service_Date_">
          <DataField>Service_Contract_Line__Last_Planned_Service_Date_</DataField>
        </Field>
        <Field Name="Service_Contract_Line__Next_Planned_Service_Date_">
          <DataField>Service_Contract_Line__Next_Planned_Service_Date_</DataField>
        </Field>
        <Field Name="Service_Contract_Line__Last_Service_Date_">
          <DataField>Service_Contract_Line__Last_Service_Date_</DataField>
        </Field>
        <Field Name="Service_Contract_Line_Description">
          <DataField>Service_Contract_Line_Description</DataField>
        </Field>
        <Field Name="Service_Contract_Line__Contract_No__">
          <DataField>Service_Contract_Line__Contract_No__</DataField>
        </Field>
        <Field Name="Cust__No__">
          <DataField>Cust__No__</DataField>
        </Field>
        <Field Name="Cust_Name">
          <DataField>Cust_Name</DataField>
        </Field>
      </Fields>
      <rd:DataSetInfo>
        <rd:DataSetName>DataSet</rd:DataSetName>
        <rd:SchemaPath>Report.xsd</rd:SchemaPath>
        <rd:TableName>Result</rd:TableName>
      </rd:DataSetInfo>
    </DataSet>
  </DataSets>
  <ReportSections>
    <ReportSection>
      <Body>
        <ReportItems>
          <Textbox Name="textbox37">
            <KeepTogether>true</KeepTogether>
            <Paragraphs>
              <Paragraph>
                <TextRuns>
                  <TextRun>
                    <Value />
                    <Style>
                      <FontSize>7pt</FontSize>
                    </Style>
                  </TextRun>
                </TextRuns>
              </Paragraph>
            </Paragraphs>
            <Top>3.1746cm</Top>
            <Height>0.423cm</Height>
            <Width>18.15cm</Width>
            <ZIndex>12</ZIndex>
            <Visibility>
              <Hidden>=iif(Fields!ShowServContractFilters.Value="",true,false)</Hidden>
            </Visibility>
            <DataElementOutput>NoOutput</DataElementOutput>
            <Style>
              <VerticalAlign>Middle</VerticalAlign>
            </Style>
          </Textbox>
          <Textbox Name="StartDate">
            <KeepTogether>true</KeepTogether>
            <Paragraphs>
              <Paragraph>
                <TextRuns>
                  <TextRun>
                    <Value>=First(Fields!StartDate.Value)</Value>
                    <Style>
                      <FontSize>7pt</FontSize>
                      <Format>d</Format>
                    </Style>
                  </TextRun>
                </TextRuns>
                <Style>
                  <TextAlign>Left</TextAlign>
                </Style>
              </Paragraph>
            </Paragraphs>
            <Top>1.4826cm</Top>
            <Left>3cm</Left>
            <Height>0.423cm</Height>
            <Width>4.35cm</Width>
            <ZIndex>11</ZIndex>
            <Style>
              <VerticalAlign>Middle</VerticalAlign>
            </Style>
          </Textbox>
          <Textbox Name="StartDateCaption">
            <KeepTogether>true</KeepTogether>
            <Paragraphs>
              <Paragraph>
                <TextRuns>
                  <TextRun>
                    <Value>=First(Fields!StartDateCaption.Value)</Value>
                    <Style>
                      <FontSize>7pt</FontSize>
                      <FontWeight>Bold</FontWeight>
                    </Style>
                  </TextRun>
                </TextRuns>
              </Paragraph>
            </Paragraphs>
            <Top>1.4826cm</Top>
            <Height>0.423cm</Height>
            <Width>2.85cm</Width>
            <ZIndex>10</ZIndex>
            <Style>
              <VerticalAlign>Middle</VerticalAlign>
            </Style>
          </Textbox>
          <Textbox Name="EndDate">
            <KeepTogether>true</KeepTogether>
            <Paragraphs>
              <Paragraph>
                <TextRuns>
                  <TextRun>
                    <Value>=First(Fields!EndDate.Value)</Value>
                    <Style>
                      <FontSize>7pt</FontSize>
                      <Format>d</Format>
                    </Style>
                  </TextRun>
                </TextRuns>
                <Style>
                  <TextAlign>Left</TextAlign>
                </Style>
              </Paragraph>
            </Paragraphs>
            <Top>1.9056cm</Top>
            <Left>3cm</Left>
            <Height>0.423cm</Height>
            <Width>4.35cm</Width>
            <ZIndex>9</ZIndex>
            <Style>
              <VerticalAlign>Middle</VerticalAlign>
            </Style>
          </Textbox>
          <Textbox Name="EndDateCaption">
            <KeepTogether>true</KeepTogether>
            <Paragraphs>
              <Paragraph>
                <TextRuns>
                  <TextRun>
                    <Value>=First(Fields!EndDateCaption.Value)</Value>
                    <Style>
                      <FontSize>7pt</FontSize>
                      <FontWeight>Bold</FontWeight>
                    </Style>
                  </TextRun>
                </TextRuns>
              </Paragraph>
            </Paragraphs>
            <Top>1.9056cm</Top>
            <Height>0.423cm</Height>
            <Width>2.85cm</Width>
            <ZIndex>8</ZIndex>
            <Style>
              <VerticalAlign>Middle</VerticalAlign>
            </Style>
          </Textbox>
          <Textbox Name="Service_Contract_Header__TABLECAPTION__________ServContractFilters">
            <KeepTogether>true</KeepTogether>
            <Paragraphs>
              <Paragraph>
                <TextRuns>
                  <TextRun>
                    <Value>=First(Fields!Service_Contract_Header__TABLECAPTION__________ServContractFilters.Value)</Value>
                    <Style>
                      <FontSize>7pt</FontSize>
                    </Style>
                  </TextRun>
                </TextRuns>
              </Paragraph>
            </Paragraphs>
            <Top>2.7516cm</Top>
            <Height>0.423cm</Height>
            <Width>18.15cm</Width>
            <ZIndex>7</ZIndex>
            <Visibility>
              <Hidden>=iif(Fields!ShowServContractFilters.Value="",true,false)</Hidden>
            </Visibility>
            <DataElementOutput>NoOutput</DataElementOutput>
            <Style>
              <VerticalAlign>Middle</VerticalAlign>
            </Style>
          </Textbox>
          <Tablix Name="Table1">
            <TablixBody>
              <TablixColumns>
                <TablixColumn>
                  <Width>1.65cm</Width>
                </TablixColumn>
                <TablixColumn>
                  <Width>1.65cm</Width>
                </TablixColumn>
                <TablixColumn>
                  <Width>3.5cm</Width>
                </TablixColumn>
                <TablixColumn>
                  <Width>1.65cm</Width>
                </TablixColumn>
                <TablixColumn>
                  <Width>4cm</Width>
                </TablixColumn>
                <TablixColumn>
                  <Width>1.9cm</Width>
                </TablixColumn>
                <TablixColumn>
                  <Width>1.9cm</Width>
                </TablixColumn>
                <TablixColumn>
                  <Width>1.9cm</Width>
                </TablixColumn>
              </TablixColumns>
              <TablixRows>
                <TablixRow>
                  <Height>0.846cm</Height>
                  <TablixCells>
                    <TablixCell>
                      <CellContents>
                        <Textbox Name="Service_Contract_Line__Contract_No__Caption">
                          <CanGrow>true</CanGrow>
                          <KeepTogether>true</KeepTogether>
                          <Paragraphs>
                            <Paragraph>
                              <TextRuns>
                                <TextRun>
                                  <Value>=First(Fields!Service_Contract_Line__Contract_No__Caption.Value)</Value>
                                  <Style>
                                    <FontSize>7pt</FontSize>
                                    <FontWeight>Bold</FontWeight>
                                  </Style>
                                </TextRun>
                              </TextRuns>
                            </Paragraph>
                          </Paragraphs>
                          <ZIndex>31</ZIndex>
                          <Style>
                            <VerticalAlign>Bottom</VerticalAlign>
                            <PaddingLeft>2pt</PaddingLeft>
                            <PaddingRight>0.075cm</PaddingRight>
                            <PaddingTop>2pt</PaddingTop>
                            <PaddingBottom>2pt</PaddingBottom>
                          </Style>
                        </Textbox>
                      </CellContents>
                    </TablixCell>
                    <TablixCell>
                      <CellContents>
                        <Textbox Name="Customer_No_Caption">
                          <CanGrow>true</CanGrow>
                          <KeepTogether>true</KeepTogether>
                          <Paragraphs>
                            <Paragraph>
                              <TextRuns>
                                <TextRun>
                                  <Value>=First(Fields!Customer_No_Caption.Value)</Value>
                                  <Style>
                                    <FontSize>7pt</FontSize>
                                    <FontWeight>Bold</FontWeight>
                                  </Style>
                                </TextRun>
                              </TextRuns>
                            </Paragraph>
                          </Paragraphs>
                          <ZIndex>30</ZIndex>
                          <Style>
                            <VerticalAlign>Bottom</VerticalAlign>
                            <PaddingLeft>0.075cm</PaddingLeft>
                            <PaddingRight>0.075cm</PaddingRight>
                            <PaddingTop>2pt</PaddingTop>
                            <PaddingBottom>2pt</PaddingBottom>
                          </Style>
                        </Textbox>
                      </CellContents>
                    </TablixCell>
                    <TablixCell>
                      <CellContents>
                        <Textbox Name="Customer_NameCaption">
                          <CanGrow>true</CanGrow>
                          <KeepTogether>true</KeepTogether>
                          <Paragraphs>
                            <Paragraph>
                              <TextRuns>
                                <TextRun>
                                  <Value>=First(Fields!Customer_NameCaption.Value)</Value>
                                  <Style>
                                    <FontSize>7pt</FontSize>
                                    <FontWeight>Bold</FontWeight>
                                  </Style>
                                </TextRun>
                              </TextRuns>
                            </Paragraph>
                          </Paragraphs>
                          <ZIndex>29</ZIndex>
                          <Style>
                            <VerticalAlign>Bottom</VerticalAlign>
                            <PaddingLeft>0.075cm</PaddingLeft>
                            <PaddingRight>0.075cm</PaddingRight>
                            <PaddingTop>2pt</PaddingTop>
                            <PaddingBottom>2pt</PaddingBottom>
                          </Style>
                        </Textbox>
                      </CellContents>
                    </TablixCell>
                    <TablixCell>
                      <CellContents>
                        <Textbox Name="Service_Contract_Line__Serial_No__Caption">
                          <CanGrow>true</CanGrow>
                          <KeepTogether>true</KeepTogether>
                          <Paragraphs>
                            <Paragraph>
                              <TextRuns>
                                <TextRun>
                                  <Value>=First(Fields!Service_Contract_Line__Serial_No__Caption.Value)</Value>
                                  <Style>
                                    <FontSize>7pt</FontSize>
                                    <FontWeight>Bold</FontWeight>
                                  </Style>
                                </TextRun>
                              </TextRuns>
                            </Paragraph>
                          </Paragraphs>
                          <ZIndex>28</ZIndex>
                          <Style>
                            <VerticalAlign>Bottom</VerticalAlign>
                            <PaddingLeft>0.075cm</PaddingLeft>
                            <PaddingRight>0.075cm</PaddingRight>
                            <PaddingTop>2pt</PaddingTop>
                            <PaddingBottom>2pt</PaddingBottom>
                          </Style>
                        </Textbox>
                      </CellContents>
                    </TablixCell>
                    <TablixCell>
                      <CellContents>
                        <Textbox Name="Service_Contract_Line_DescriptionCaption">
                          <CanGrow>true</CanGrow>
                          <KeepTogether>true</KeepTogether>
                          <Paragraphs>
                            <Paragraph>
                              <TextRuns>
                                <TextRun>
                                  <Value>=First(Fields!Service_Contract_Line_DescriptionCaption.Value)</Value>
                                  <Style>
                                    <FontSize>7pt</FontSize>
                                    <FontWeight>Bold</FontWeight>
                                  </Style>
                                </TextRun>
                              </TextRuns>
                            </Paragraph>
                          </Paragraphs>
                          <ZIndex>27</ZIndex>
                          <Style>
                            <VerticalAlign>Bottom</VerticalAlign>
                            <PaddingLeft>0.075cm</PaddingLeft>
                            <PaddingRight>0.075cm</PaddingRight>
                            <PaddingTop>2pt</PaddingTop>
                            <PaddingBottom>2pt</PaddingBottom>
                          </Style>
                        </Textbox>
                      </CellContents>
                    </TablixCell>
                    <TablixCell>
                      <CellContents>
                        <Textbox Name="Service_Contract_Line__Last_Planned_Service_Date_Caption">
                          <CanGrow>true</CanGrow>
                          <KeepTogether>true</KeepTogether>
                          <Paragraphs>
                            <Paragraph>
                              <TextRuns>
                                <TextRun>
                                  <Value>=First(Fields!Service_Contract_Line__Last_Planned_Service_Date_Caption.Value)</Value>
                                  <Style>
                                    <FontSize>7pt</FontSize>
                                    <FontWeight>Bold</FontWeight>
                                  </Style>
                                </TextRun>
                              </TextRuns>
                              <Style>
                                <TextAlign>Right</TextAlign>
                              </Style>
                            </Paragraph>
                          </Paragraphs>
                          <ZIndex>26</ZIndex>
                          <Style>
                            <VerticalAlign>Bottom</VerticalAlign>
                            <PaddingLeft>0.075cm</PaddingLeft>
                            <PaddingRight>0.075cm</PaddingRight>
                            <PaddingTop>2pt</PaddingTop>
                            <PaddingBottom>2pt</PaddingBottom>
                          </Style>
                        </Textbox>
                      </CellContents>
                    </TablixCell>
                    <TablixCell>
                      <CellContents>
                        <Textbox Name="Service_Contract_Line__Last_Service_Date_Caption">
                          <CanGrow>true</CanGrow>
                          <KeepTogether>true</KeepTogether>
                          <Paragraphs>
                            <Paragraph>
                              <TextRuns>
                                <TextRun>
                                  <Value>=First(Fields!Service_Contract_Line__Last_Service_Date_Caption.Value)</Value>
                                  <Style>
                                    <FontSize>7pt</FontSize>
                                    <FontWeight>Bold</FontWeight>
                                  </Style>
                                </TextRun>
                              </TextRuns>
                              <Style>
                                <TextAlign>Right</TextAlign>
                              </Style>
                            </Paragraph>
                          </Paragraphs>
                          <ZIndex>25</ZIndex>
                          <Style>
                            <VerticalAlign>Bottom</VerticalAlign>
                            <PaddingLeft>0.075cm</PaddingLeft>
                            <PaddingRight>0.075cm</PaddingRight>
                            <PaddingTop>2pt</PaddingTop>
                            <PaddingBottom>2pt</PaddingBottom>
                          </Style>
                        </Textbox>
                      </CellContents>
                    </TablixCell>
                    <TablixCell>
                      <CellContents>
                        <Textbox Name="Service_Contract_Line__Next_Planned_Service_Date_Caption">
                          <CanGrow>true</CanGrow>
                          <KeepTogether>true</KeepTogether>
                          <Paragraphs>
                            <Paragraph>
                              <TextRuns>
                                <TextRun>
                                  <Value>=First(Fields!Service_Contract_Line__Next_Planned_Service_Date_Caption.Value)</Value>
                                  <Style>
                                    <FontSize>7pt</FontSize>
                                    <FontWeight>Bold</FontWeight>
                                  </Style>
                                </TextRun>
                              </TextRuns>
                              <Style>
                                <TextAlign>Right</TextAlign>
                              </Style>
                            </Paragraph>
                          </Paragraphs>
                          <ZIndex>24</ZIndex>
                          <Style>
                            <VerticalAlign>Bottom</VerticalAlign>
                            <PaddingLeft>0.075cm</PaddingLeft>
                            <PaddingRight>2pt</PaddingRight>
                            <PaddingTop>2pt</PaddingTop>
                            <PaddingBottom>2pt</PaddingBottom>
                          </Style>
                        </Textbox>
                      </CellContents>
                    </TablixCell>
                  </TablixCells>
                </TablixRow>
                <TablixRow>
                  <Height>0.423cm</Height>
                  <TablixCells>
                    <TablixCell>
                      <CellContents>
                        <Textbox Name="textbox8">
                          <KeepTogether>true</KeepTogether>
                          <Paragraphs>
                            <Paragraph>
                              <TextRuns>
                                <TextRun>
                                  <Value />
                                  <Style>
                                    <FontSize>7pt</FontSize>
                                    <FontWeight>Bold</FontWeight>
                                  </Style>
                                </TextRun>
                              </TextRuns>
                            </Paragraph>
                          </Paragraphs>
                          <rd:DefaultName>textbox8</rd:DefaultName>
                          <ZIndex>23</ZIndex>
                          <Style>
                            <VerticalAlign>Bottom</VerticalAlign>
                            <PaddingLeft>2pt</PaddingLeft>
                            <PaddingRight>0.075cm</PaddingRight>
                            <PaddingTop>2pt</PaddingTop>
                            <PaddingBottom>2pt</PaddingBottom>
                          </Style>
                        </Textbox>
                      </CellContents>
                    </TablixCell>
                    <TablixCell>
                      <CellContents>
                        <Textbox Name="textbox9">
                          <KeepTogether>true</KeepTogether>
                          <Paragraphs>
                            <Paragraph>
                              <TextRuns>
                                <TextRun>
                                  <Value />
                                  <Style>
                                    <FontSize>7pt</FontSize>
                                    <FontWeight>Bold</FontWeight>
                                  </Style>
                                </TextRun>
                              </TextRuns>
                            </Paragraph>
                          </Paragraphs>
                          <rd:DefaultName>textbox9</rd:DefaultName>
                          <ZIndex>22</ZIndex>
                          <Style>
                            <VerticalAlign>Bottom</VerticalAlign>
                            <PaddingLeft>0.075cm</PaddingLeft>
                            <PaddingRight>0.075cm</PaddingRight>
                            <PaddingTop>2pt</PaddingTop>
                            <PaddingBottom>2pt</PaddingBottom>
                          </Style>
                        </Textbox>
                      </CellContents>
                    </TablixCell>
                    <TablixCell>
                      <CellContents>
                        <Textbox Name="textbox10">
                          <KeepTogether>true</KeepTogether>
                          <Paragraphs>
                            <Paragraph>
                              <TextRuns>
                                <TextRun>
                                  <Value />
                                  <Style>
                                    <FontSize>7pt</FontSize>
                                    <FontWeight>Bold</FontWeight>
                                  </Style>
                                </TextRun>
                              </TextRuns>
                            </Paragraph>
                          </Paragraphs>
                          <rd:DefaultName>textbox10</rd:DefaultName>
                          <ZIndex>21</ZIndex>
                          <Style>
                            <VerticalAlign>Bottom</VerticalAlign>
                            <PaddingLeft>0.075cm</PaddingLeft>
                            <PaddingRight>0.075cm</PaddingRight>
                            <PaddingTop>2pt</PaddingTop>
                            <PaddingBottom>2pt</PaddingBottom>
                          </Style>
                        </Textbox>
                      </CellContents>
                    </TablixCell>
                    <TablixCell>
                      <CellContents>
                        <Textbox Name="textbox11">
                          <KeepTogether>true</KeepTogether>
                          <Paragraphs>
                            <Paragraph>
                              <TextRuns>
                                <TextRun>
                                  <Value />
                                  <Style>
                                    <FontSize>7pt</FontSize>
                                    <FontWeight>Bold</FontWeight>
                                  </Style>
                                </TextRun>
                              </TextRuns>
                            </Paragraph>
                          </Paragraphs>
                          <rd:DefaultName>textbox11</rd:DefaultName>
                          <ZIndex>20</ZIndex>
                          <Style>
                            <VerticalAlign>Bottom</VerticalAlign>
                            <PaddingLeft>0.075cm</PaddingLeft>
                            <PaddingRight>0.075cm</PaddingRight>
                            <PaddingTop>2pt</PaddingTop>
                            <PaddingBottom>2pt</PaddingBottom>
                          </Style>
                        </Textbox>
                      </CellContents>
                    </TablixCell>
                    <TablixCell>
                      <CellContents>
                        <Textbox Name="textbox12">
                          <KeepTogether>true</KeepTogether>
                          <Paragraphs>
                            <Paragraph>
                              <TextRuns>
                                <TextRun>
                                  <Value />
                                  <Style>
                                    <FontSize>7pt</FontSize>
                                    <FontWeight>Bold</FontWeight>
                                  </Style>
                                </TextRun>
                              </TextRuns>
                            </Paragraph>
                          </Paragraphs>
                          <rd:DefaultName>textbox12</rd:DefaultName>
                          <ZIndex>19</ZIndex>
                          <Style>
                            <VerticalAlign>Bottom</VerticalAlign>
                            <PaddingLeft>0.075cm</PaddingLeft>
                            <PaddingRight>0.075cm</PaddingRight>
                            <PaddingTop>2pt</PaddingTop>
                            <PaddingBottom>2pt</PaddingBottom>
                          </Style>
                        </Textbox>
                      </CellContents>
                    </TablixCell>
                    <TablixCell>
                      <CellContents>
                        <Textbox Name="textbox22">
                          <KeepTogether>true</KeepTogether>
                          <Paragraphs>
                            <Paragraph>
                              <TextRuns>
                                <TextRun>
                                  <Value />
                                  <Style>
                                    <FontSize>7pt</FontSize>
                                    <FontWeight>Bold</FontWeight>
                                  </Style>
                                </TextRun>
                              </TextRuns>
                              <Style>
                                <TextAlign>Right</TextAlign>
                              </Style>
                            </Paragraph>
                          </Paragraphs>
                          <rd:DefaultName>textbox22</rd:DefaultName>
                          <ZIndex>18</ZIndex>
                          <Style>
                            <VerticalAlign>Bottom</VerticalAlign>
                            <PaddingLeft>0.075cm</PaddingLeft>
                            <PaddingRight>0.075cm</PaddingRight>
                            <PaddingTop>2pt</PaddingTop>
                            <PaddingBottom>2pt</PaddingBottom>
                          </Style>
                        </Textbox>
                      </CellContents>
                    </TablixCell>
                    <TablixCell>
                      <CellContents>
                        <Textbox Name="textbox23">
                          <KeepTogether>true</KeepTogether>
                          <Paragraphs>
                            <Paragraph>
                              <TextRuns>
                                <TextRun>
                                  <Value />
                                  <Style>
                                    <FontSize>7pt</FontSize>
                                    <FontWeight>Bold</FontWeight>
                                  </Style>
                                </TextRun>
                              </TextRuns>
                              <Style>
                                <TextAlign>Right</TextAlign>
                              </Style>
                            </Paragraph>
                          </Paragraphs>
                          <rd:DefaultName>textbox23</rd:DefaultName>
                          <ZIndex>17</ZIndex>
                          <Style>
                            <VerticalAlign>Bottom</VerticalAlign>
                            <PaddingLeft>0.075cm</PaddingLeft>
                            <PaddingRight>0.075cm</PaddingRight>
                            <PaddingTop>2pt</PaddingTop>
                            <PaddingBottom>2pt</PaddingBottom>
                          </Style>
                        </Textbox>
                      </CellContents>
                    </TablixCell>
                    <TablixCell>
                      <CellContents>
                        <Textbox Name="textbox24">
                          <KeepTogether>true</KeepTogether>
                          <Paragraphs>
                            <Paragraph>
                              <TextRuns>
                                <TextRun>
                                  <Value />
                                  <Style>
                                    <FontSize>7pt</FontSize>
                                    <FontWeight>Bold</FontWeight>
                                  </Style>
                                </TextRun>
                              </TextRuns>
                              <Style>
                                <TextAlign>Right</TextAlign>
                              </Style>
                            </Paragraph>
                          </Paragraphs>
                          <rd:DefaultName>textbox24</rd:DefaultName>
                          <ZIndex>16</ZIndex>
                          <Style>
                            <VerticalAlign>Bottom</VerticalAlign>
                            <PaddingLeft>0.075cm</PaddingLeft>
                            <PaddingRight>2pt</PaddingRight>
                            <PaddingTop>2pt</PaddingTop>
                            <PaddingBottom>2pt</PaddingBottom>
                          </Style>
                        </Textbox>
                      </CellContents>
                    </TablixCell>
                  </TablixCells>
                </TablixRow>
                <TablixRow>
                  <Height>0.423cm</Height>
                  <TablixCells>
                    <TablixCell>
                      <CellContents>
                        <Textbox Name="Service_Contract_Line__Contract_No__">
                          <KeepTogether>true</KeepTogether>
                          <Paragraphs>
                            <Paragraph>
                              <TextRuns>
                                <TextRun>
                                  <Value>=Fields!Service_Contract_Line__Contract_No__.Value</Value>
                                  <Style>
                                    <FontSize>7pt</FontSize>
                                  </Style>
                                </TextRun>
                              </TextRuns>
                              <Style>
                                <TextAlign>Left</TextAlign>
                              </Style>
                            </Paragraph>
                          </Paragraphs>
                          <ZIndex>15</ZIndex>
                          <Style>
                            <VerticalAlign>Middle</VerticalAlign>
                            <PaddingLeft>2pt</PaddingLeft>
                            <PaddingRight>0.075cm</PaddingRight>
                            <PaddingTop>2pt</PaddingTop>
                            <PaddingBottom>2pt</PaddingBottom>
                          </Style>
                        </Textbox>
                      </CellContents>
                    </TablixCell>
                    <TablixCell>
                      <CellContents>
                        <Textbox Name="Cust__No__">
                          <KeepTogether>true</KeepTogether>
                          <Paragraphs>
                            <Paragraph>
                              <TextRuns>
                                <TextRun>
                                  <Value>=Fields!Cust__No__.Value</Value>
                                  <Style>
                                    <FontSize>7pt</FontSize>
                                  </Style>
                                </TextRun>
                              </TextRuns>
                              <Style>
                                <TextAlign>Left</TextAlign>
                              </Style>
                            </Paragraph>
                          </Paragraphs>
                          <ZIndex>14</ZIndex>
                          <Style>
                            <VerticalAlign>Middle</VerticalAlign>
                            <PaddingLeft>0.075cm</PaddingLeft>
                            <PaddingRight>0.075cm</PaddingRight>
                            <PaddingTop>2pt</PaddingTop>
                            <PaddingBottom>2pt</PaddingBottom>
                          </Style>
                        </Textbox>
                      </CellContents>
                    </TablixCell>
                    <TablixCell>
                      <CellContents>
                        <Textbox Name="Cust_Name">
                          <KeepTogether>true</KeepTogether>
                          <Paragraphs>
                            <Paragraph>
                              <TextRuns>
                                <TextRun>
                                  <Value>=Fields!Cust_Name.Value</Value>
                                  <Style>
                                    <FontSize>7pt</FontSize>
                                  </Style>
                                </TextRun>
                              </TextRuns>
                              <Style>
                                <TextAlign>Left</TextAlign>
                              </Style>
                            </Paragraph>
                          </Paragraphs>
                          <ZIndex>13</ZIndex>
                          <Style>
                            <VerticalAlign>Middle</VerticalAlign>
                            <PaddingLeft>0.075cm</PaddingLeft>
                            <PaddingRight>0.075cm</PaddingRight>
                            <PaddingTop>2pt</PaddingTop>
                            <PaddingBottom>2pt</PaddingBottom>
                          </Style>
                        </Textbox>
                      </CellContents>
                    </TablixCell>
                    <TablixCell>
                      <CellContents>
                        <Textbox Name="Service_Contract_Line__Serial_No__">
                          <KeepTogether>true</KeepTogether>
                          <Paragraphs>
                            <Paragraph>
                              <TextRuns>
                                <TextRun>
                                  <Value>=Fields!Service_Contract_Line__Serial_No__.Value</Value>
                                  <Style>
                                    <FontSize>7pt</FontSize>
                                  </Style>
                                </TextRun>
                              </TextRuns>
                              <Style>
                                <TextAlign>Left</TextAlign>
                              </Style>
                            </Paragraph>
                          </Paragraphs>
                          <ZIndex>12</ZIndex>
                          <Style>
                            <VerticalAlign>Middle</VerticalAlign>
                            <PaddingLeft>0.075cm</PaddingLeft>
                            <PaddingRight>0.075cm</PaddingRight>
                            <PaddingTop>2pt</PaddingTop>
                            <PaddingBottom>2pt</PaddingBottom>
                          </Style>
                        </Textbox>
                      </CellContents>
                    </TablixCell>
                    <TablixCell>
                      <CellContents>
                        <Textbox Name="Service_Contract_Line_Description">
                          <KeepTogether>true</KeepTogether>
                          <Paragraphs>
                            <Paragraph>
                              <TextRuns>
                                <TextRun>
                                  <Value>=Fields!Service_Contract_Line_Description.Value</Value>
                                  <Style>
                                    <FontSize>7pt</FontSize>
                                  </Style>
                                </TextRun>
                              </TextRuns>
                            </Paragraph>
                          </Paragraphs>
                          <ZIndex>11</ZIndex>
                          <Style>
                            <VerticalAlign>Middle</VerticalAlign>
                            <PaddingLeft>0.075cm</PaddingLeft>
                            <PaddingRight>0.075cm</PaddingRight>
                            <PaddingTop>2pt</PaddingTop>
                            <PaddingBottom>2pt</PaddingBottom>
                          </Style>
                        </Textbox>
                      </CellContents>
                    </TablixCell>
                    <TablixCell>
                      <CellContents>
                        <Textbox Name="Service_Contract_Line__Last_Planned_Service_Date_">
                          <CanGrow>true</CanGrow>
                          <KeepTogether>true</KeepTogether>
                          <Paragraphs>
                            <Paragraph>
                              <TextRuns>
                                <TextRun>
                                  <Value>=Fields!Service_Contract_Line__Last_Planned_Service_Date_.Value</Value>
                                  <Style>
                                    <FontSize>7pt</FontSize>
                                    <Format>d</Format>
                                  </Style>
                                </TextRun>
                              </TextRuns>
                              <Style>
                                <TextAlign>Right</TextAlign>
                              </Style>
                            </Paragraph>
                          </Paragraphs>
                          <ZIndex>10</ZIndex>
                          <Style>
                            <VerticalAlign>Middle</VerticalAlign>
                            <PaddingLeft>0.075cm</PaddingLeft>
                            <PaddingRight>0.075cm</PaddingRight>
                            <PaddingTop>2pt</PaddingTop>
                            <PaddingBottom>2pt</PaddingBottom>
                          </Style>
                        </Textbox>
                      </CellContents>
                    </TablixCell>
                    <TablixCell>
                      <CellContents>
                        <Textbox Name="Service_Contract_Line__Last_Service_Date_">
                          <CanGrow>true</CanGrow>
                          <KeepTogether>true</KeepTogether>
                          <Paragraphs>
                            <Paragraph>
                              <TextRuns>
                                <TextRun>
                                  <Value>=Fields!Service_Contract_Line__Last_Service_Date_.Value</Value>
                                  <Style>
                                    <FontSize>7pt</FontSize>
                                    <Format>d</Format>
                                  </Style>
                                </TextRun>
                              </TextRuns>
                              <Style>
                                <TextAlign>Right</TextAlign>
                              </Style>
                            </Paragraph>
                          </Paragraphs>
                          <ZIndex>9</ZIndex>
                          <Style>
                            <VerticalAlign>Middle</VerticalAlign>
                            <PaddingLeft>0.075cm</PaddingLeft>
                            <PaddingRight>0.075cm</PaddingRight>
                            <PaddingTop>2pt</PaddingTop>
                            <PaddingBottom>2pt</PaddingBottom>
                          </Style>
                        </Textbox>
                      </CellContents>
                    </TablixCell>
                    <TablixCell>
                      <CellContents>
                        <Textbox Name="Service_Contract_Line__Next_Planned_Service_Date_">
                          <CanGrow>true</CanGrow>
                          <KeepTogether>true</KeepTogether>
                          <Paragraphs>
                            <Paragraph>
                              <TextRuns>
                                <TextRun>
                                  <Value>=Fields!Service_Contract_Line__Next_Planned_Service_Date_.Value</Value>
                                  <Style>
                                    <FontSize>7pt</FontSize>
                                    <Format>d</Format>
                                  </Style>
                                </TextRun>
                              </TextRuns>
                              <Style>
                                <TextAlign>Right</TextAlign>
                              </Style>
                            </Paragraph>
                          </Paragraphs>
                          <ZIndex>8</ZIndex>
                          <Style>
                            <VerticalAlign>Middle</VerticalAlign>
                            <PaddingLeft>0.075cm</PaddingLeft>
                            <PaddingRight>2pt</PaddingRight>
                            <PaddingTop>2pt</PaddingTop>
                            <PaddingBottom>2pt</PaddingBottom>
                          </Style>
                        </Textbox>
                      </CellContents>
                    </TablixCell>
                  </TablixCells>
                </TablixRow>
                <TablixRow>
                  <Height>0.423cm</Height>
                  <TablixCells>
                    <TablixCell>
                      <CellContents>
                        <Textbox Name="textbox5">
                          <KeepTogether>true</KeepTogether>
                          <Paragraphs>
                            <Paragraph>
                              <TextRuns>
                                <TextRun>
                                  <Value />
                                  <Style>
                                    <FontSize>7pt</FontSize>
                                  </Style>
                                </TextRun>
                              </TextRuns>
                              <Style>
                                <TextAlign>Left</TextAlign>
                              </Style>
                            </Paragraph>
                          </Paragraphs>
                          <rd:DefaultName>textbox5</rd:DefaultName>
                          <ZIndex>7</ZIndex>
                          <Style>
                            <VerticalAlign>Middle</VerticalAlign>
                            <PaddingLeft>2pt</PaddingLeft>
                            <PaddingRight>0.075cm</PaddingRight>
                            <PaddingTop>2pt</PaddingTop>
                            <PaddingBottom>2pt</PaddingBottom>
                          </Style>
                        </Textbox>
                      </CellContents>
                    </TablixCell>
                    <TablixCell>
                      <CellContents>
                        <Textbox Name="textbox6">
                          <KeepTogether>true</KeepTogether>
                          <Paragraphs>
                            <Paragraph>
                              <TextRuns>
                                <TextRun>
                                  <Value />
                                  <Style>
                                    <FontSize>7pt</FontSize>
                                  </Style>
                                </TextRun>
                              </TextRuns>
                              <Style>
                                <TextAlign>Left</TextAlign>
                              </Style>
                            </Paragraph>
                          </Paragraphs>
                          <rd:DefaultName>textbox6</rd:DefaultName>
                          <ZIndex>6</ZIndex>
                          <Style>
                            <VerticalAlign>Middle</VerticalAlign>
                            <PaddingLeft>0.075cm</PaddingLeft>
                            <PaddingRight>0.075cm</PaddingRight>
                            <PaddingTop>2pt</PaddingTop>
                            <PaddingBottom>2pt</PaddingBottom>
                          </Style>
                        </Textbox>
                      </CellContents>
                    </TablixCell>
                    <TablixCell>
                      <CellContents>
                        <Textbox Name="textbox7">
                          <KeepTogether>true</KeepTogether>
                          <Paragraphs>
                            <Paragraph>
                              <TextRuns>
                                <TextRun>
                                  <Value />
                                  <Style>
                                    <FontSize>7pt</FontSize>
                                  </Style>
                                </TextRun>
                              </TextRuns>
                              <Style>
                                <TextAlign>Left</TextAlign>
                              </Style>
                            </Paragraph>
                          </Paragraphs>
                          <rd:DefaultName>textbox7</rd:DefaultName>
                          <ZIndex>5</ZIndex>
                          <Style>
                            <VerticalAlign>Middle</VerticalAlign>
                            <PaddingLeft>0.075cm</PaddingLeft>
                            <PaddingRight>0.075cm</PaddingRight>
                            <PaddingTop>2pt</PaddingTop>
                            <PaddingBottom>2pt</PaddingBottom>
                          </Style>
                        </Textbox>
                      </CellContents>
                    </TablixCell>
                    <TablixCell>
                      <CellContents>
                        <Textbox Name="textbox17">
                          <KeepTogether>true</KeepTogether>
                          <Paragraphs>
                            <Paragraph>
                              <TextRuns>
                                <TextRun>
                                  <Value>=Fields!Service_Contract_Line__Serial_No__.Value</Value>
                                  <Style>
                                    <FontSize>7pt</FontSize>
                                  </Style>
                                </TextRun>
                              </TextRuns>
                              <Style>
                                <TextAlign>Left</TextAlign>
                              </Style>
                            </Paragraph>
                          </Paragraphs>
                          <ZIndex>4</ZIndex>
                          <Style>
                            <VerticalAlign>Middle</VerticalAlign>
                            <PaddingLeft>0.075cm</PaddingLeft>
                            <PaddingRight>0.075cm</PaddingRight>
                            <PaddingTop>2pt</PaddingTop>
                            <PaddingBottom>2pt</PaddingBottom>
                          </Style>
                        </Textbox>
                      </CellContents>
                    </TablixCell>
                    <TablixCell>
                      <CellContents>
                        <Textbox Name="textbox18">
                          <KeepTogether>true</KeepTogether>
                          <Paragraphs>
                            <Paragraph>
                              <TextRuns>
                                <TextRun>
                                  <Value>=Fields!Service_Contract_Line_Description.Value</Value>
                                  <Style>
                                    <FontSize>7pt</FontSize>
                                  </Style>
                                </TextRun>
                              </TextRuns>
                            </Paragraph>
                          </Paragraphs>
                          <ZIndex>3</ZIndex>
                          <Style>
                            <VerticalAlign>Middle</VerticalAlign>
                            <PaddingLeft>0.075cm</PaddingLeft>
                            <PaddingRight>0.075cm</PaddingRight>
                            <PaddingTop>2pt</PaddingTop>
                            <PaddingBottom>2pt</PaddingBottom>
                          </Style>
                        </Textbox>
                      </CellContents>
                    </TablixCell>
                    <TablixCell>
                      <CellContents>
                        <Textbox Name="textbox19">
                          <CanGrow>true</CanGrow>
                          <KeepTogether>true</KeepTogether>
                          <Paragraphs>
                            <Paragraph>
                              <TextRuns>
                                <TextRun>
                                  <Value>=Fields!Service_Contract_Line__Last_Planned_Service_Date_.Value</Value>
                                  <Style>
                                    <FontSize>7pt</FontSize>
                                    <Format>d</Format>
                                  </Style>
                                </TextRun>
                              </TextRuns>
                              <Style>
                                <TextAlign>Right</TextAlign>
                              </Style>
                            </Paragraph>
                          </Paragraphs>
                          <ZIndex>2</ZIndex>
                          <Style>
                            <VerticalAlign>Middle</VerticalAlign>
                            <PaddingLeft>0.075cm</PaddingLeft>
                            <PaddingRight>0.075cm</PaddingRight>
                            <PaddingTop>2pt</PaddingTop>
                            <PaddingBottom>2pt</PaddingBottom>
                          </Style>
                        </Textbox>
                      </CellContents>
                    </TablixCell>
                    <TablixCell>
                      <CellContents>
                        <Textbox Name="textbox20">
                          <CanGrow>true</CanGrow>
                          <KeepTogether>true</KeepTogether>
                          <Paragraphs>
                            <Paragraph>
                              <TextRuns>
                                <TextRun>
                                  <Value>=Fields!Service_Contract_Line__Last_Service_Date_.Value</Value>
                                  <Style>
                                    <FontSize>7pt</FontSize>
                                    <Format>d</Format>
                                  </Style>
                                </TextRun>
                              </TextRuns>
                              <Style>
                                <TextAlign>Right</TextAlign>
                              </Style>
                            </Paragraph>
                          </Paragraphs>
                          <ZIndex>1</ZIndex>
                          <Style>
                            <VerticalAlign>Middle</VerticalAlign>
                            <PaddingLeft>0.075cm</PaddingLeft>
                            <PaddingRight>0.075cm</PaddingRight>
                            <PaddingTop>2pt</PaddingTop>
                            <PaddingBottom>2pt</PaddingBottom>
                          </Style>
                        </Textbox>
                      </CellContents>
                    </TablixCell>
                    <TablixCell>
                      <CellContents>
                        <Textbox Name="textbox21">
                          <CanGrow>true</CanGrow>
                          <KeepTogether>true</KeepTogether>
                          <Paragraphs>
                            <Paragraph>
                              <TextRuns>
                                <TextRun>
                                  <Value>=Fields!Service_Contract_Line__Next_Planned_Service_Date_.Value</Value>
                                  <Style>
                                    <FontSize>7pt</FontSize>
                                    <Format>d</Format>
                                  </Style>
                                </TextRun>
                              </TextRuns>
                              <Style>
                                <TextAlign>Right</TextAlign>
                              </Style>
                            </Paragraph>
                          </Paragraphs>
                          <Style>
                            <VerticalAlign>Middle</VerticalAlign>
                            <PaddingLeft>0.075cm</PaddingLeft>
                            <PaddingRight>2pt</PaddingRight>
                            <PaddingTop>2pt</PaddingTop>
                            <PaddingBottom>2pt</PaddingBottom>
                          </Style>
                        </Textbox>
                      </CellContents>
                    </TablixCell>
                  </TablixCells>
                </TablixRow>
              </TablixRows>
            </TablixBody>
            <TablixColumnHierarchy>
              <TablixMembers>
                <TablixMember />
                <TablixMember />
                <TablixMember />
                <TablixMember />
                <TablixMember />
                <TablixMember />
                <TablixMember />
                <TablixMember />
              </TablixMembers>
            </TablixColumnHierarchy>
            <TablixRowHierarchy>
              <TablixMembers>
                <TablixMember>
                  <KeepWithGroup>After</KeepWithGroup>
                  <KeepTogether>true</KeepTogether>
                </TablixMember>
                <TablixMember>
                  <KeepWithGroup>After</KeepWithGroup>
                  <KeepTogether>true</KeepTogether>
                </TablixMember>
                <TablixMember>
                  <Group Name="Table1_Details_Group">
                    <DataElementName>Detail</DataElementName>
                  </Group>
                  <TablixMembers>
                    <TablixMember>
                      <Visibility>
                        <Hidden>=iif(Fields!ShowFullBody.Value,false,true)</Hidden>
                      </Visibility>
                    </TablixMember>
                    <TablixMember>
                      <Visibility>
                        <Hidden>=iif(Fields!ShowFullBody.Value,true,false)</Hidden>
                      </Visibility>
                    </TablixMember>
                  </TablixMembers>
                  <DataElementName>Detail_Collection</DataElementName>
                  <DataElementOutput>Output</DataElementOutput>
                  <KeepTogether>true</KeepTogether>
                </TablixMember>
              </TablixMembers>
            </TablixRowHierarchy>
            <DataSetName>DataSet_Result</DataSetName>
            <Top>3.70483cm</Top>
            <Width>18.15cm</Width>
            <ZIndex>6</ZIndex>
          </Tablix>
          <Textbox Name="COMPANYNAME1">
            <KeepTogether>true</KeepTogether>
            <Paragraphs>
              <Paragraph>
                <TextRuns>
                  <TextRun>
                    <Value>=Fields!COMPANYNAME.Value</Value>
                    <Style>
                      <FontSize>7pt</FontSize>
                    </Style>
                  </TextRun>
                </TextRuns>
              </Paragraph>
            </Paragraphs>
            <Top>0.423cm</Top>
            <Height>0.423cm</Height>
            <Width>7.5cm</Width>
            <ZIndex>5</ZIndex>
            <Style>
              <VerticalAlign>Middle</VerticalAlign>
            </Style>
          </Textbox>
          <Textbox Name="UserIdTextBox">
            <KeepTogether>true</KeepTogether>
            <Paragraphs>
              <Paragraph>
                <TextRuns>
                  <TextRun>
                    <Value>=Fields!USERID.Value</Value>
                    <Style>
                      <FontSize>7pt</FontSize>
                    </Style>
                  </TextRun>
                </TextRuns>
                <Style>
                  <TextAlign>Right</TextAlign>
                </Style>
              </Paragraph>
            </Paragraphs>
            <Top>0.846cm</Top>
            <Left>14.9cm</Left>
            <Height>0.423cm</Height>
            <Width>3.25cm</Width>
            <ZIndex>4</ZIndex>
            <Style>
              <VerticalAlign>Middle</VerticalAlign>
            </Style>
          </Textbox>
          <Textbox Name="ExecutionTimeTextBox">
            <KeepTogether>true</KeepTogether>
            <Paragraphs>
              <Paragraph>
                <TextRuns>
                  <TextRun>
                    <Value>=Fields!FORMAT_TODAY_0_4_.Value</Value>
                    <Style>
                      <FontSize>7pt</FontSize>
                      <Format>g</Format>
                    </Style>
                  </TextRun>
                </TextRuns>
                <Style>
                  <TextAlign>Right</TextAlign>
                </Style>
              </Paragraph>
            </Paragraphs>
            <Left>12.38095cm</Left>
            <Height>0.423cm</Height>
            <Width>5.76905cm</Width>
            <ZIndex>3</ZIndex>
            <Style>
              <VerticalAlign>Middle</VerticalAlign>
            </Style>
          </Textbox>
          <Textbox Name="PageNumberTextBox">
            <KeepTogether>true</KeepTogether>
            <Paragraphs>
              <Paragraph>
                <TextRuns>
                  <TextRun>
                    <Value>=Fields!CurrReport_PAGENO.Value</Value>
                    <Style>
                      <FontSize>7pt</FontSize>
                    </Style>
                  </TextRun>
                </TextRuns>
                <Style>
                  <TextAlign>Right</TextAlign>
                </Style>
              </Paragraph>
            </Paragraphs>
            <Top>0.423cm</Top>
            <Left>17.7cm</Left>
            <Height>0.423cm</Height>
            <Width>0.45cm</Width>
            <ZIndex>2</ZIndex>
            <Style>
              <VerticalAlign>Middle</VerticalAlign>
            </Style>
          </Textbox>
          <Textbox Name="CurrReport_PAGENOCaption1">
            <KeepTogether>true</KeepTogether>
            <Paragraphs>
              <Paragraph>
                <TextRuns>
                  <TextRun>
                    <Value>=Fields!CurrReport_PAGENOCaption.Value</Value>
                    <Style>
                      <FontSize>7pt</FontSize>
                    </Style>
                  </TextRun>
                </TextRuns>
              </Paragraph>
            </Paragraphs>
            <Top>0.423cm</Top>
            <Left>16.95cm</Left>
            <Height>0.423cm</Height>
            <Width>0.75cm</Width>
            <ZIndex>1</ZIndex>
            <Style>
              <VerticalAlign>Middle</VerticalAlign>
            </Style>
          </Textbox>
          <Textbox Name="Contract_Service_Orders___TestCaption1">
            <KeepTogether>true</KeepTogether>
            <Paragraphs>
              <Paragraph>
                <TextRuns>
                  <TextRun>
                    <Value>=Fields!Contract_Service_Orders___TestCaption.Value</Value>
                    <Style>
                      <FontSize>9pt</FontSize>
                      <FontWeight>Bold</FontWeight>
                    </Style>
                  </TextRun>
                </TextRuns>
              </Paragraph>
            </Paragraphs>
            <Height>0.423cm</Height>
            <Width>7.5cm</Width>
            <Style>
              <VerticalAlign>Middle</VerticalAlign>
            </Style>
          </Textbox>
        </ReportItems>
        <Height>5.81983cm</Height>
      </Body>
      <Width>18.5cm</Width>
      <Page>
        <PageHeight>29.7cm</PageHeight>
        <PageWidth>21cm</PageWidth>
        <InteractiveHeight>11in</InteractiveHeight>
        <InteractiveWidth>8.5in</InteractiveWidth>
        <LeftMargin>1.5cm</LeftMargin>
        <TopMargin>2cm</TopMargin>
        <BottomMargin>2cm</BottomMargin>
      </Page>
    </ReportSection>
  </ReportSections>
  <Code>Public Function BlankZero(ByVal Value As Decimal)
    if Value = 0 then
        Return ""
    end if
    Return Value
End Function

Public Function BlankPos(ByVal Value As Decimal)
    if Value &gt; 0 then
        Return ""
    end if
    Return Value
End Function

Public Function BlankZeroAndPos(ByVal Value As Decimal)
    if Value &gt;= 0 then
        Return ""
    end if
    Return Value
End Function

Public Function BlankNeg(ByVal Value As Decimal)
    if Value &lt; 0 then
        Return ""
    end if
    Return Value
End Function

Public Function BlankNegAndZero(ByVal Value As Decimal)
    if Value &lt;= 0 then
        Return ""
    end if
    Return Value
End Function
</Code>
  <Language>=User!Language</Language>
  <ConsumeContainerWhitespace>true</ConsumeContainerWhitespace>
  <rd:ReportUnitType>Invalid</rd:ReportUnitType>
  <rd:ReportID>b19659e7-b1c3-47c0-a8f7-f5fae8a792db</rd:ReportID>
</Report>
    END_OF_RDLDATA
  }
}

