OBJECT Report 5901 Service Item Line Labels
{
  OBJECT-PROPERTIES
  {
    Date=23/09/13;
    Time=12:00:00;
    Version List=NAVW17.10;
  }
  PROPERTIES
  {
    CaptionML=ENU=Service Item Line Labels;
  }
  DATASET
  {
    { 6416;    ;DataItem;                    ;
               DataItemTable=Table5901;
               DataItemTableView=SORTING(Document Type,Document No.,Line No.);
               OnPreDataItem=BEGIN
                               NoOfRecords := COUNT;
                               NoOfColumns := 3;
                             END;

               OnAfterGetRecord=BEGIN
                                  RecordNo := RecordNo + 1;
                                  ColumnNo := ColumnNo + 1;

                                  Addr[ColumnNo][1] := STRSUBSTNO('%1 %2',FIELDCAPTION("Document No."),FORMAT("Document No."));
                                  Addr[ColumnNo][2] := STRSUBSTNO('%1 %2',FIELDCAPTION("Service Item No."),FORMAT("Service Item No."));
                                  Addr[ColumnNo][3] := STRSUBSTNO('%1 %2',FIELDCAPTION("Serial No."),FORMAT("Serial No."));
                                  Addr[ColumnNo][4] := FORMAT(Description);

                                  COMPRESSARRAY(Addr[ColumnNo]);

                                  IF RecordNo = NoOfRecords THEN BEGIN
                                    FOR i := ColumnNo + 1 TO NoOfColumns DO
                                      CLEAR(Addr[i]);
                                    ColumnNo := 0;
                                  END ELSE BEGIN
                                    IF ColumnNo = NoOfColumns THEN
                                      ColumnNo := 0;
                                  END;
                                END;

               ReqFilterFields=Document Type,Document No.,Line No. }

    { 1   ;1   ;Column  ;Addr11              ;
               SourceExpr=Addr[1][1] }

    { 2   ;1   ;Column  ;Addr12              ;
               SourceExpr=Addr[1][2] }

    { 3   ;1   ;Column  ;Addr13              ;
               SourceExpr=Addr[1][3] }

    { 4   ;1   ;Column  ;Addr14              ;
               SourceExpr=Addr[1][4] }

    { 5   ;1   ;Column  ;Addr21              ;
               SourceExpr=Addr[2][1] }

    { 6   ;1   ;Column  ;Addr22              ;
               SourceExpr=Addr[2][2] }

    { 7   ;1   ;Column  ;Addr23              ;
               SourceExpr=Addr[2][3] }

    { 8   ;1   ;Column  ;Addr24              ;
               SourceExpr=Addr[2][4] }

    { 9   ;1   ;Column  ;Addr31              ;
               SourceExpr=Addr[3][1] }

    { 10  ;1   ;Column  ;Addr32              ;
               SourceExpr=Addr[3][2] }

    { 11  ;1   ;Column  ;Addr33              ;
               SourceExpr=Addr[3][3] }

    { 12  ;1   ;Column  ;Addr34              ;
               SourceExpr=Addr[3][4] }

    { 13  ;1   ;Column  ;ShowSection         ;
               SourceExpr=ColumnNo = 0 }

  }
  REQUESTPAGE
  {
    PROPERTIES
    {
    }
    CONTROLS
    {
    }
  }
  LABELS
  {
  }
  CODE
  {
    VAR
      Addr@1000 : ARRAY [3,4] OF Text[250];
      NoOfRecords@1001 : Integer;
      RecordNo@1002 : Integer;
      NoOfColumns@1003 : Integer;
      ColumnNo@1004 : Integer;
      i@1005 : Integer;

    BEGIN
    END.
  }
  RDLDATA
  {
    <?xml version="1.0" encoding="utf-8"?>
<Report xmlns:rd="http://schemas.microsoft.com/SQLServer/reporting/reportdesigner" xmlns="http://schemas.microsoft.com/sqlserver/reporting/2010/01/reportdefinition">
  <AutoRefresh>0</AutoRefresh>
  <DataSources>
    <DataSource Name="DataSource">
      <ConnectionProperties>
        <DataProvider>SQL</DataProvider>
        <ConnectString />
      </ConnectionProperties>
      <rd:SecurityType>None</rd:SecurityType>
      <rd:DataSourceID>ca72ab00-2915-4e8e-b2df-8374f4225cd2</rd:DataSourceID>
    </DataSource>
  </DataSources>
  <DataSets>
    <DataSet Name="DataSet_Result">
      <Query>
        <DataSourceName>DataSource</DataSourceName>
        <CommandText />
      </Query>
      <Fields>
        <Field Name="Addr11">
          <DataField>Addr11</DataField>
        </Field>
        <Field Name="Addr12">
          <DataField>Addr12</DataField>
        </Field>
        <Field Name="Addr13">
          <DataField>Addr13</DataField>
        </Field>
        <Field Name="Addr14">
          <DataField>Addr14</DataField>
        </Field>
        <Field Name="Addr21">
          <DataField>Addr21</DataField>
        </Field>
        <Field Name="Addr22">
          <DataField>Addr22</DataField>
        </Field>
        <Field Name="Addr23">
          <DataField>Addr23</DataField>
        </Field>
        <Field Name="Addr24">
          <DataField>Addr24</DataField>
        </Field>
        <Field Name="Addr31">
          <DataField>Addr31</DataField>
        </Field>
        <Field Name="Addr32">
          <DataField>Addr32</DataField>
        </Field>
        <Field Name="Addr33">
          <DataField>Addr33</DataField>
        </Field>
        <Field Name="Addr34">
          <DataField>Addr34</DataField>
        </Field>
        <Field Name="ShowSection">
          <DataField>ShowSection</DataField>
        </Field>
      </Fields>
      <rd:DataSetInfo>
        <rd:DataSetName>DataSet</rd:DataSetName>
        <rd:SchemaPath>Report.xsd</rd:SchemaPath>
        <rd:TableName>Result</rd:TableName>
      </rd:DataSetInfo>
    </DataSet>
  </DataSets>
  <ReportSections>
    <ReportSection>
      <Body>
        <ReportItems>
          <Tablix Name="ServItemLine">
            <TablixBody>
              <TablixColumns>
                <TablixColumn>
                  <Width>2.42126in</Width>
                </TablixColumn>
                <TablixColumn>
                  <Width>2.42126in</Width>
                </TablixColumn>
                <TablixColumn>
                  <Width>2.42126in</Width>
                </TablixColumn>
              </TablixColumns>
              <TablixRows>
                <TablixRow>
                  <Height>0.19291in</Height>
                  <TablixCells>
                    <TablixCell>
                      <CellContents>
                        <Textbox Name="Addr1">
                          <KeepTogether>true</KeepTogether>
                          <Paragraphs>
                            <Paragraph>
                              <TextRuns>
                                <TextRun>
                                  <Value>=Fields!Addr11.Value</Value>
                                  <Style>
                                    <FontSize>9pt</FontSize>
                                  </Style>
                                </TextRun>
                              </TextRuns>
                              <Style />
                            </Paragraph>
                          </Paragraphs>
                          <ZIndex>14</ZIndex>
                          <Style>
                            <VerticalAlign>Middle</VerticalAlign>
                            <PaddingRight>5pt</PaddingRight>
                          </Style>
                        </Textbox>
                      </CellContents>
                    </TablixCell>
                    <TablixCell>
                      <CellContents>
                        <Textbox Name="Addr21">
                          <KeepTogether>true</KeepTogether>
                          <Paragraphs>
                            <Paragraph>
                              <TextRuns>
                                <TextRun>
                                  <Value>=Fields!Addr21.Value</Value>
                                  <Style>
                                    <FontSize>9pt</FontSize>
                                  </Style>
                                </TextRun>
                              </TextRuns>
                              <Style />
                            </Paragraph>
                          </Paragraphs>
                          <ZIndex>13</ZIndex>
                          <Style>
                            <VerticalAlign>Middle</VerticalAlign>
                            <PaddingLeft>5pt</PaddingLeft>
                            <PaddingRight>5pt</PaddingRight>
                          </Style>
                        </Textbox>
                      </CellContents>
                    </TablixCell>
                    <TablixCell>
                      <CellContents>
                        <Textbox Name="Addr31">
                          <KeepTogether>true</KeepTogether>
                          <Paragraphs>
                            <Paragraph>
                              <TextRuns>
                                <TextRun>
                                  <Value>=Fields!Addr31.Value</Value>
                                  <Style>
                                    <FontSize>9pt</FontSize>
                                  </Style>
                                </TextRun>
                              </TextRuns>
                              <Style />
                            </Paragraph>
                          </Paragraphs>
                          <ZIndex>12</ZIndex>
                          <Style>
                            <VerticalAlign>Middle</VerticalAlign>
                            <PaddingLeft>5pt</PaddingLeft>
                          </Style>
                        </Textbox>
                      </CellContents>
                    </TablixCell>
                  </TablixCells>
                </TablixRow>
                <TablixRow>
                  <Height>0.19291in</Height>
                  <TablixCells>
                    <TablixCell>
                      <CellContents>
                        <Textbox Name="Addr12">
                          <KeepTogether>true</KeepTogether>
                          <Paragraphs>
                            <Paragraph>
                              <TextRuns>
                                <TextRun>
                                  <Value>=Fields!Addr12.Value</Value>
                                  <Style>
                                    <FontSize>9pt</FontSize>
                                  </Style>
                                </TextRun>
                              </TextRuns>
                              <Style />
                            </Paragraph>
                          </Paragraphs>
                          <ZIndex>11</ZIndex>
                          <Style>
                            <VerticalAlign>Middle</VerticalAlign>
                            <PaddingRight>5pt</PaddingRight>
                          </Style>
                        </Textbox>
                      </CellContents>
                    </TablixCell>
                    <TablixCell>
                      <CellContents>
                        <Textbox Name="Addr22">
                          <KeepTogether>true</KeepTogether>
                          <Paragraphs>
                            <Paragraph>
                              <TextRuns>
                                <TextRun>
                                  <Value>=Fields!Addr22.Value</Value>
                                  <Style>
                                    <FontSize>9pt</FontSize>
                                  </Style>
                                </TextRun>
                              </TextRuns>
                              <Style />
                            </Paragraph>
                          </Paragraphs>
                          <ZIndex>10</ZIndex>
                          <Style>
                            <VerticalAlign>Middle</VerticalAlign>
                            <PaddingLeft>5pt</PaddingLeft>
                            <PaddingRight>5pt</PaddingRight>
                          </Style>
                        </Textbox>
                      </CellContents>
                    </TablixCell>
                    <TablixCell>
                      <CellContents>
                        <Textbox Name="Addr32">
                          <KeepTogether>true</KeepTogether>
                          <Paragraphs>
                            <Paragraph>
                              <TextRuns>
                                <TextRun>
                                  <Value>=Fields!Addr32.Value</Value>
                                  <Style>
                                    <FontSize>9pt</FontSize>
                                  </Style>
                                </TextRun>
                              </TextRuns>
                              <Style />
                            </Paragraph>
                          </Paragraphs>
                          <ZIndex>9</ZIndex>
                          <Style>
                            <VerticalAlign>Middle</VerticalAlign>
                            <PaddingLeft>5pt</PaddingLeft>
                          </Style>
                        </Textbox>
                      </CellContents>
                    </TablixCell>
                  </TablixCells>
                </TablixRow>
                <TablixRow>
                  <Height>0.19291in</Height>
                  <TablixCells>
                    <TablixCell>
                      <CellContents>
                        <Textbox Name="Addr13">
                          <KeepTogether>true</KeepTogether>
                          <Paragraphs>
                            <Paragraph>
                              <TextRuns>
                                <TextRun>
                                  <Value>=Fields!Addr13.Value</Value>
                                  <Style>
                                    <FontSize>9pt</FontSize>
                                  </Style>
                                </TextRun>
                              </TextRuns>
                              <Style />
                            </Paragraph>
                          </Paragraphs>
                          <ZIndex>8</ZIndex>
                          <Style>
                            <VerticalAlign>Middle</VerticalAlign>
                            <PaddingRight>5pt</PaddingRight>
                          </Style>
                        </Textbox>
                      </CellContents>
                    </TablixCell>
                    <TablixCell>
                      <CellContents>
                        <Textbox Name="Addr23">
                          <KeepTogether>true</KeepTogether>
                          <Paragraphs>
                            <Paragraph>
                              <TextRuns>
                                <TextRun>
                                  <Value>=Fields!Addr23.Value</Value>
                                  <Style>
                                    <FontSize>9pt</FontSize>
                                  </Style>
                                </TextRun>
                              </TextRuns>
                              <Style />
                            </Paragraph>
                          </Paragraphs>
                          <ZIndex>7</ZIndex>
                          <Style>
                            <VerticalAlign>Middle</VerticalAlign>
                            <PaddingLeft>5pt</PaddingLeft>
                            <PaddingRight>5pt</PaddingRight>
                          </Style>
                        </Textbox>
                      </CellContents>
                    </TablixCell>
                    <TablixCell>
                      <CellContents>
                        <Textbox Name="Addr33">
                          <KeepTogether>true</KeepTogether>
                          <Paragraphs>
                            <Paragraph>
                              <TextRuns>
                                <TextRun>
                                  <Value>=Fields!Addr33.Value</Value>
                                  <Style>
                                    <FontSize>9pt</FontSize>
                                  </Style>
                                </TextRun>
                              </TextRuns>
                              <Style />
                            </Paragraph>
                          </Paragraphs>
                          <ZIndex>6</ZIndex>
                          <Style>
                            <VerticalAlign>Middle</VerticalAlign>
                            <PaddingLeft>5pt</PaddingLeft>
                          </Style>
                        </Textbox>
                      </CellContents>
                    </TablixCell>
                  </TablixCells>
                </TablixRow>
                <TablixRow>
                  <Height>0.19291in</Height>
                  <TablixCells>
                    <TablixCell>
                      <CellContents>
                        <Textbox Name="Addr14">
                          <KeepTogether>true</KeepTogether>
                          <Paragraphs>
                            <Paragraph>
                              <TextRuns>
                                <TextRun>
                                  <Value>=Fields!Addr14.Value</Value>
                                  <Style>
                                    <FontSize>9pt</FontSize>
                                  </Style>
                                </TextRun>
                              </TextRuns>
                              <Style />
                            </Paragraph>
                          </Paragraphs>
                          <ZIndex>5</ZIndex>
                          <Style>
                            <VerticalAlign>Middle</VerticalAlign>
                            <PaddingRight>5pt</PaddingRight>
                          </Style>
                        </Textbox>
                      </CellContents>
                    </TablixCell>
                    <TablixCell>
                      <CellContents>
                        <Textbox Name="Addr24">
                          <KeepTogether>true</KeepTogether>
                          <Paragraphs>
                            <Paragraph>
                              <TextRuns>
                                <TextRun>
                                  <Value>=Fields!Addr24.Value</Value>
                                  <Style>
                                    <FontSize>9pt</FontSize>
                                  </Style>
                                </TextRun>
                              </TextRuns>
                              <Style />
                            </Paragraph>
                          </Paragraphs>
                          <ZIndex>4</ZIndex>
                          <Style>
                            <VerticalAlign>Middle</VerticalAlign>
                            <PaddingLeft>5pt</PaddingLeft>
                            <PaddingRight>5pt</PaddingRight>
                          </Style>
                        </Textbox>
                      </CellContents>
                    </TablixCell>
                    <TablixCell>
                      <CellContents>
                        <Textbox Name="Addr34">
                          <KeepTogether>true</KeepTogether>
                          <Paragraphs>
                            <Paragraph>
                              <TextRuns>
                                <TextRun>
                                  <Value>=Fields!Addr34.Value</Value>
                                  <Style>
                                    <FontSize>9pt</FontSize>
                                  </Style>
                                </TextRun>
                              </TextRuns>
                              <Style />
                            </Paragraph>
                          </Paragraphs>
                          <ZIndex>3</ZIndex>
                          <Style>
                            <VerticalAlign>Middle</VerticalAlign>
                            <PaddingLeft>5pt</PaddingLeft>
                          </Style>
                        </Textbox>
                      </CellContents>
                    </TablixCell>
                  </TablixCells>
                </TablixRow>
                <TablixRow>
                  <Height>0.16654in</Height>
                  <TablixCells>
                    <TablixCell>
                      <CellContents>
                        <Textbox Name="TextBox1">
                          <KeepTogether>true</KeepTogether>
                          <Paragraphs>
                            <Paragraph>
                              <TextRuns>
                                <TextRun>
                                  <Value />
                                  <Style />
                                </TextRun>
                              </TextRuns>
                              <Style />
                            </Paragraph>
                          </Paragraphs>
                          <ZIndex>2</ZIndex>
                          <Style>
                            <VerticalAlign>Middle</VerticalAlign>
                            <PaddingRight>5pt</PaddingRight>
                          </Style>
                        </Textbox>
                      </CellContents>
                    </TablixCell>
                    <TablixCell>
                      <CellContents>
                        <Textbox Name="TextBox11">
                          <KeepTogether>true</KeepTogether>
                          <Paragraphs>
                            <Paragraph>
                              <TextRuns>
                                <TextRun>
                                  <Value />
                                  <Style />
                                </TextRun>
                              </TextRuns>
                              <Style />
                            </Paragraph>
                          </Paragraphs>
                          <ZIndex>1</ZIndex>
                          <Style>
                            <VerticalAlign>Middle</VerticalAlign>
                            <PaddingLeft>5pt</PaddingLeft>
                            <PaddingRight>5pt</PaddingRight>
                          </Style>
                        </Textbox>
                      </CellContents>
                    </TablixCell>
                    <TablixCell>
                      <CellContents>
                        <Textbox Name="textbox3">
                          <KeepTogether>true</KeepTogether>
                          <Paragraphs>
                            <Paragraph>
                              <TextRuns>
                                <TextRun>
                                  <Value />
                                  <Style />
                                </TextRun>
                              </TextRuns>
                              <Style />
                            </Paragraph>
                          </Paragraphs>
                          <rd:DefaultName>textbox3</rd:DefaultName>
                          <Style>
                            <PaddingLeft>5pt</PaddingLeft>
                          </Style>
                        </Textbox>
                      </CellContents>
                    </TablixCell>
                  </TablixCells>
                </TablixRow>
              </TablixRows>
            </TablixBody>
            <TablixColumnHierarchy>
              <TablixMembers>
                <TablixMember />
                <TablixMember />
                <TablixMember />
              </TablixMembers>
            </TablixColumnHierarchy>
            <TablixRowHierarchy>
              <TablixMembers>
                <TablixMember>
                  <Group Name="Table1_Details_Group">
                    <DataElementName>Detail</DataElementName>
                  </Group>
                  <TablixMembers>
                    <TablixMember>
                      <Visibility>
                        <Hidden>=iif(Fields!ShowSection.Value=false,true,false)</Hidden>
                      </Visibility>
                    </TablixMember>
                    <TablixMember>
                      <Visibility>
                        <Hidden>=iif(Fields!ShowSection.Value=false,true,false)</Hidden>
                      </Visibility>
                    </TablixMember>
                    <TablixMember>
                      <Visibility>
                        <Hidden>=iif(Fields!ShowSection.Value=false,true,false)</Hidden>
                      </Visibility>
                    </TablixMember>
                    <TablixMember>
                      <Visibility>
                        <Hidden>=iif(Fields!ShowSection.Value=false,true,false)</Hidden>
                      </Visibility>
                    </TablixMember>
                    <TablixMember>
                      <Visibility>
                        <Hidden>=iif(Fields!ShowSection.Value=false,true,false)</Hidden>
                      </Visibility>
                    </TablixMember>
                  </TablixMembers>
                  <DataElementName>Detail_Collection</DataElementName>
                  <DataElementOutput>Output</DataElementOutput>
                  <KeepTogether>true</KeepTogether>
                </TablixMember>
              </TablixMembers>
            </TablixRowHierarchy>
            <DataSetName>DataSet_Result</DataSetName>
            <Height>2.38298cm</Height>
            <Width>18.45cm</Width>
            <Style />
          </Tablix>
        </ReportItems>
        <Height>2.383cm</Height>
        <Style />
      </Body>
      <Width>18.5cm</Width>
      <Page>
        <PageHeader>
          <Height>0.63492cm</Height>
          <PrintOnFirstPage>true</PrintOnFirstPage>
          <PrintOnLastPage>true</PrintOnLastPage>
          <Style />
        </PageHeader>
        <PageFooter>
          <Height>1.5873cm</Height>
          <PrintOnFirstPage>true</PrintOnFirstPage>
          <PrintOnLastPage>true</PrintOnLastPage>
          <Style />
        </PageFooter>
        <PageHeight>29.7cm</PageHeight>
        <PageWidth>21cm</PageWidth>
        <InteractiveHeight>11in</InteractiveHeight>
        <InteractiveWidth>8.5in</InteractiveWidth>
        <LeftMargin>1.5cm</LeftMargin>
        <TopMargin>2cm</TopMargin>
        <BottomMargin>2cm</BottomMargin>
        <Style />
      </Page>
    </ReportSection>
  </ReportSections>
  <Code>Public Function BlankZero(ByVal Value As Decimal)
    if Value = 0 then
        Return ""
    end if
    Return Value
End Function

Public Function BlankPos(ByVal Value As Decimal)
    if Value &gt; 0 then
        Return ""
    end if
    Return Value
End Function

Public Function BlankZeroAndPos(ByVal Value As Decimal)
    if Value &gt;= 0 then
        Return ""
    end if
    Return Value
End Function

Public Function BlankNeg(ByVal Value As Decimal)
    if Value &lt; 0 then
        Return ""
    end if
    Return Value
End Function

Public Function BlankNegAndZero(ByVal Value As Decimal)
    if Value &lt;= 0 then
        Return ""
    end if
    Return Value
End Function
</Code>
  <Language>=User!Language</Language>
  <ConsumeContainerWhitespace>true</ConsumeContainerWhitespace>
  <rd:ReportUnitType>Cm</rd:ReportUnitType>
  <rd:ReportID>906c273f-683b-412b-a792-a57cd358c2f1</rd:ReportID>
</Report>
    END_OF_RDLDATA
  }
}

