OBJECT Report 5191 Delete Logged Segments
{
  OBJECT-PROPERTIES
  {
    Date=07/09/12;
    Time=12:00:00;
    Version List=NAVW17.00;
  }
  PROPERTIES
  {
    CaptionML=ENU=Delete Logged Segments;
    ProcessingOnly=Yes;
    OnPostReport=BEGIN
                   MESSAGE(Text000,NoOfSegments,"Logged Segment".TABLECAPTION);
                 END;

  }
  DATASET
  {
    { 2623;    ;DataItem;                    ;
               DataItemTable=Table5075;
               DataItemTableView=SORTING(Entry No.)
                                 WHERE(Canceled=CONST(Yes));
               OnAfterGetRecord=VAR
                                  InteractionLogEntry@1000 : Record 5065;
                                  CampaignEntry@1001 : Record 5072;
                                BEGIN
                                  InteractionLogEntry.SETCURRENTKEY("Logged Segment Entry No.");
                                  InteractionLogEntry.SETRANGE("Logged Segment Entry No.","Entry No.");
                                  InteractionLogEntry.MODIFYALL("Logged Segment Entry No.",0,TRUE);
                                  CampaignEntry.SETCURRENTKEY("Register No.");
                                  CampaignEntry.SETRANGE("Register No.","Entry No.");
                                  CampaignEntry.MODIFYALL("Register No.",0,TRUE);
                                  NoOfSegments := NoOfSegments + 1;
                                  DELETE(TRUE);
                                END;

               ReqFilterFields=Entry No.,Segment No. }

  }
  REQUESTPAGE
  {
    PROPERTIES
    {
    }
    CONTROLS
    {
    }
  }
  LABELS
  {
  }
  CODE
  {
    VAR
      NoOfSegments@1000 : Integer;
      Text000@1001 : TextConst 'ENU=%1 %2 has been deleted.';

    BEGIN
    END.
  }
  RDLDATA
  {
  }
}

