OBJECT Report 6529 Item Tracking Navigate
{
  OBJECT-PROPERTIES
  {
    Date=23/09/13;
    Time=12:00:00;
    Version List=NAVW17.10;
  }
  PROPERTIES
  {
    CaptionML=ENU=Item Tracking Navigate;
  }
  DATASET
  {
    { 5444;    ;DataItem;                    ;
               DataItemTable=Table2000000026;
               DataItemTableView=SORTING(Number)
                                 WHERE(Number=FILTER(1..));
               OnPreDataItem=BEGIN
                               CurrReport.NEWPAGEPERRECORD := PrintOnlyOnePerPage;
                               RecordCounter := 0;
                             END;

               OnAfterGetRecord=BEGIN
                                  IF Number = 1 THEN BEGIN
                                    IF NOT TempDocEntry.FIND('-') THEN
                                      CurrReport.BREAK;
                                  END ELSE
                                    IF TempDocEntry.NEXT = 0 THEN
                                      CurrReport.BREAK;
                                END;
                                 }

    { 8   ;1   ;Column  ;TodayFormatted      ;
               SourceExpr=FORMAT(TODAY,0,4) }

    { 11  ;1   ;Column  ;CompanyName         ;
               SourceExpr=COMPANYNAME }

    { 23  ;1   ;Column  ;Head2View           ;
               SourceExpr=CurrReport.PAGENO = 1 }

    { 22  ;1   ;Column  ;Head3View           ;
               SourceExpr=(CurrReport.PAGENO = 1) AND (SerialNoFilter <> '') }

    { 16  ;1   ;Column  ;Head4View           ;
               SourceExpr=(CurrReport.PAGENO = 1) AND (LotNoFilter <> '') }

    { 14  ;1   ;Column  ;Head5View           ;
               SourceExpr=(CurrReport.PAGENO = 1) AND (ItemNoFilter <> '') }

    { 12  ;1   ;Column  ;Head6View           ;
               SourceExpr=(CurrReport.PAGENO = 1) AND (VariantFilter <> '') }

    { 2   ;1   ;Column  ;FormatedSerialNoFilter;
               SourceExpr=Text001 + FORMAT(SerialNoFilter) }

    { 15  ;1   ;Column  ;FormatedLotNoFilter ;
               SourceExpr=Text002 + FORMAT(LotNoFilter) }

    { 3   ;1   ;Column  ;FormatedtemNoFilter ;
               SourceExpr=Text003 + FORMAT(ItemNoFilter) }

    { 4   ;1   ;Column  ;FormatedVariantFilter;
               SourceExpr=Text004 + FORMAT(VariantFilter) }

    { 1   ;1   ;Column  ;ItemTrackingNavigateCaption;
               SourceExpr=ItemTrackingNavigateCaptionLbl }

    { 13  ;1   ;Column  ;CurrReportPageNoCaption;
               SourceExpr=CurrReportPageNoCaptionLbl }

    { 17  ;1   ;Column  ;NavigateFiltersCaption;
               SourceExpr=NavigateFiltersCaptionLbl }

    { 8805;1   ;DataItem;RecordBuffer        ;
               DataItemTable=Table2000000026;
               DataItemTableView=SORTING(Number)
                                 WHERE(Number=FILTER(1..));
               OnPreDataItem=BEGIN
                               TempRecordBuffer.SETCURRENTKEY("Table No.","Search Record ID");
                               TempRecordBuffer.SETRANGE("Table No.",TempDocEntry."Table ID");
                               RecordCounter := RecordCounter + 1;
                             END;

               OnAfterGetRecord=BEGIN
                                  IF Number = 1 THEN BEGIN
                                    IF NOT TempRecordBuffer.FIND('-') THEN
                                      CurrReport.BREAK;
                                  END ELSE
                                    IF TempRecordBuffer.NEXT = 0 THEN
                                      CurrReport.BREAK;
                                END;
                                 }

    { 18  ;2   ;Column  ;TempDocEntryNoOfRecords;
               SourceExpr=TempDocEntry."No. of Records" }

    { 19  ;2   ;Column  ;TempDocEntryTableName;
               SourceExpr=TempDocEntry."Table Name" }

    { 25  ;2   ;Column  ;PrintOnlyOnePerPage ;
               SourceExpr=PrintOnlyOnePerPage }

    { 24  ;2   ;Column  ;RecordCounter       ;
               SourceExpr=RecordCounter }

    { 5   ;2   ;Column  ;TempRecordBufferPrimaryKey;
               SourceExpr=TempRecordBuffer."Primary Key" }

    { 6   ;2   ;Column  ;TempRecordBufferSerialNo;
               SourceExpr=TempRecordBuffer."Serial No." }

    { 7   ;2   ;Column  ;TempRecordBufferLotNo;
               SourceExpr=TempRecordBuffer."Lot No." }

    { 20  ;2   ;Column  ;TempDocEntryNoofRecordsCaption;
               SourceExpr=TempDocEntryNoofRecordsCaptionLbl }

    { 21  ;2   ;Column  ;TempDocEntryTableNameCaption;
               SourceExpr=TempDocEntryTableNameCaptionLbl }

    { 9   ;2   ;Column  ;TempRecordBufferSerialNoCaption;
               SourceExpr=TempRecordBufferSerialNoCaptionLbl }

    { 10  ;2   ;Column  ;TempRecordBufferLotNoCaption;
               SourceExpr=TempRecordBufferLotNoCaptionLbl }

  }
  REQUESTPAGE
  {
    PROPERTIES
    {
    }
    CONTROLS
    {
      { 3   ;0   ;Container ;
                  ContainerType=ContentArea }

      { 2   ;1   ;Group     ;
                  CaptionML=ENU=Options }

      { 1   ;2   ;Field     ;
                  CaptionML=ENU=New Page per Table;
                  SourceExpr=PrintOnlyOnePerPage }

    }
  }
  LABELS
  {
  }
  CODE
  {
    VAR
      Text001@1001 : TextConst 'ENU="Serial No. : "';
      Text002@1000 : TextConst 'ENU="Lot No. : "';
      TempDocEntry@1002 : TEMPORARY Record 265;
      TempRecordBuffer@1003 : TEMPORARY Record 6529;
      SerialNoFilter@1007 : Code[1000];
      LotNoFilter@1006 : Code[1000];
      ItemNoFilter@1005 : Code[1000];
      VariantFilter@1004 : Code[1000];
      Text003@1008 : TextConst 'ENU="Item No. : "';
      Text004@1009 : TextConst 'ENU="Variant Code. : "';
      PrintOnlyOnePerPage@1010 : Boolean;
      RecordCounter@1000000000 : Integer;
      ItemTrackingNavigateCaptionLbl@4974 : TextConst 'ENU=Item Tracking Navigate';
      CurrReportPageNoCaptionLbl@2595 : TextConst 'ENU=Page';
      NavigateFiltersCaptionLbl@8134 : TextConst 'ENU=Navigate Filters';
      TempDocEntryNoofRecordsCaptionLbl@4375 : TextConst 'ENU=No. of Records';
      TempDocEntryTableNameCaptionLbl@1179 : TextConst 'ENU=Table Name';
      TempRecordBufferSerialNoCaptionLbl@2111 : TextConst 'ENU=Serial No.';
      TempRecordBufferLotNoCaptionLbl@4455 : TextConst 'ENU=Lot No.';

    PROCEDURE TransferDocEntries@1(VAR NewDocEntry@1000 : Record 265);
    VAR
      TempDocumentEntry@1001 : Record 265;
    BEGIN
      TempDocumentEntry := NewDocEntry;
      NewDocEntry.RESET;
      IF NewDocEntry.FIND('-') THEN
        REPEAT
          TempDocEntry := NewDocEntry;
          TempDocEntry.INSERT;
        UNTIL NewDocEntry.NEXT = 0;
      NewDocEntry := TempDocumentEntry;
    END;

    PROCEDURE TransferRecordBuffer@2(VAR NewRecordBuffer@1000 : Record 6529);
    BEGIN
      NewRecordBuffer.RESET;
      IF NewRecordBuffer.FIND('-') THEN
        REPEAT
          TempRecordBuffer := NewRecordBuffer;
          TempRecordBuffer.INSERT;
        UNTIL NewRecordBuffer.NEXT = 0;
    END;

    PROCEDURE TransferFilters@4(NewSerialNoFilter@1005 : Code[1000];NewLotNoFilter@1004 : Code[1000];NewItemNoFilter@1003 : Code[1000];NewVariantFilter@1002 : Code[1000]);
    BEGIN
      SerialNoFilter := NewSerialNoFilter;
      LotNoFilter := NewLotNoFilter;
      ItemNoFilter := NewItemNoFilter;
      VariantFilter := NewVariantFilter;
    END;

    BEGIN
    END.
  }
  RDLDATA
  {
    <?xml version="1.0" encoding="utf-8"?>
<Report xmlns:rd="http://schemas.microsoft.com/SQLServer/reporting/reportdesigner" xmlns="http://schemas.microsoft.com/sqlserver/reporting/2010/01/reportdefinition">
  <AutoRefresh>0</AutoRefresh>
  <DataSources>
    <DataSource Name="DataSource">
      <ConnectionProperties>
        <DataProvider>SQL</DataProvider>
        <ConnectString />
      </ConnectionProperties>
      <rd:SecurityType>None</rd:SecurityType>
      <rd:DataSourceID>b1b34be3-96c8-4052-806c-39b2529abf8a</rd:DataSourceID>
    </DataSource>
  </DataSources>
  <DataSets>
    <DataSet Name="DataSet_Result">
      <Query>
        <DataSourceName>DataSource</DataSourceName>
        <CommandText />
      </Query>
      <Fields>
        <Field Name="TodayFormatted">
          <DataField>TodayFormatted</DataField>
        </Field>
        <Field Name="CompanyName">
          <DataField>CompanyName</DataField>
        </Field>
        <Field Name="Head2View">
          <DataField>Head2View</DataField>
        </Field>
        <Field Name="Head3View">
          <DataField>Head3View</DataField>
        </Field>
        <Field Name="Head4View">
          <DataField>Head4View</DataField>
        </Field>
        <Field Name="Head5View">
          <DataField>Head5View</DataField>
        </Field>
        <Field Name="Head6View">
          <DataField>Head6View</DataField>
        </Field>
        <Field Name="FormatedSerialNoFilter">
          <DataField>FormatedSerialNoFilter</DataField>
        </Field>
        <Field Name="FormatedLotNoFilter">
          <DataField>FormatedLotNoFilter</DataField>
        </Field>
        <Field Name="FormatedtemNoFilter">
          <DataField>FormatedtemNoFilter</DataField>
        </Field>
        <Field Name="FormatedVariantFilter">
          <DataField>FormatedVariantFilter</DataField>
        </Field>
        <Field Name="ItemTrackingNavigateCaption">
          <DataField>ItemTrackingNavigateCaption</DataField>
        </Field>
        <Field Name="CurrReportPageNoCaption">
          <DataField>CurrReportPageNoCaption</DataField>
        </Field>
        <Field Name="NavigateFiltersCaption">
          <DataField>NavigateFiltersCaption</DataField>
        </Field>
        <Field Name="TempDocEntryNoOfRecords">
          <DataField>TempDocEntryNoOfRecords</DataField>
        </Field>
        <Field Name="TempDocEntryTableName">
          <DataField>TempDocEntryTableName</DataField>
        </Field>
        <Field Name="PrintOnlyOnePerPage">
          <DataField>PrintOnlyOnePerPage</DataField>
        </Field>
        <Field Name="RecordCounter">
          <DataField>RecordCounter</DataField>
        </Field>
        <Field Name="TempRecordBufferPrimaryKey">
          <DataField>TempRecordBufferPrimaryKey</DataField>
        </Field>
        <Field Name="TempRecordBufferSerialNo">
          <DataField>TempRecordBufferSerialNo</DataField>
        </Field>
        <Field Name="TempRecordBufferLotNo">
          <DataField>TempRecordBufferLotNo</DataField>
        </Field>
        <Field Name="TempDocEntryNoofRecordsCaption">
          <DataField>TempDocEntryNoofRecordsCaption</DataField>
        </Field>
        <Field Name="TempDocEntryTableNameCaption">
          <DataField>TempDocEntryTableNameCaption</DataField>
        </Field>
        <Field Name="TempRecordBufferSerialNoCaption">
          <DataField>TempRecordBufferSerialNoCaption</DataField>
        </Field>
        <Field Name="TempRecordBufferLotNoCaption">
          <DataField>TempRecordBufferLotNoCaption</DataField>
        </Field>
      </Fields>
      <rd:DataSetInfo>
        <rd:DataSetName>DataSet</rd:DataSetName>
        <rd:SchemaPath>Report.xsd</rd:SchemaPath>
        <rd:TableName>Result</rd:TableName>
      </rd:DataSetInfo>
    </DataSet>
  </DataSets>
  <ReportSections>
    <ReportSection>
      <Body>
        <ReportItems>
          <Tablix Name="TableItemTracking">
            <TablixBody>
              <TablixColumns>
                <TablixColumn>
                  <Width>1.23032in</Width>
                </TablixColumn>
                <TablixColumn>
                  <Width>1.42716in</Width>
                </TablixColumn>
                <TablixColumn>
                  <Width>0.79691in</Width>
                </TablixColumn>
                <TablixColumn>
                  <Width>1.04897in</Width>
                </TablixColumn>
                <TablixColumn>
                  <Width>1.19095in</Width>
                </TablixColumn>
                <TablixColumn>
                  <Width>1.19094in</Width>
                </TablixColumn>
              </TablixColumns>
              <TablixRows>
                <TablixRow>
                  <Height>0.13889in</Height>
                  <TablixCells>
                    <TablixCell>
                      <CellContents>
                        <Textbox Name="TempDocEntryTableNameCaption">
                          <CanGrow>true</CanGrow>
                          <KeepTogether>true</KeepTogether>
                          <Paragraphs>
                            <Paragraph>
                              <TextRuns>
                                <TextRun>
                                  <Value>=Fields!TempDocEntryTableNameCaption.Value</Value>
                                  <Style>
                                    <FontStyle>Normal</FontStyle>
                                    <FontFamily>Segoe UI</FontFamily>
                                    <FontSize>8pt</FontSize>
                                    <FontWeight>Bold</FontWeight>
                                  </Style>
                                </TextRun>
                              </TextRuns>
                              <Style>
                                <TextAlign>Left</TextAlign>
                              </Style>
                            </Paragraph>
                          </Paragraphs>
                          <ZIndex>25</ZIndex>
                          <Style>
                            <Border />
                            <VerticalAlign>Bottom</VerticalAlign>
                            <PaddingRight>5pt</PaddingRight>
                          </Style>
                        </Textbox>
                        <ColSpan>2</ColSpan>
                      </CellContents>
                    </TablixCell>
                    <TablixCell />
                    <TablixCell>
                      <CellContents>
                        <Textbox Name="TempDocEntryNoofRecordsCaption">
                          <CanGrow>true</CanGrow>
                          <KeepTogether>true</KeepTogether>
                          <Paragraphs>
                            <Paragraph>
                              <TextRuns>
                                <TextRun>
                                  <Value>=Fields!TempDocEntryNoofRecordsCaption.Value</Value>
                                  <Style>
                                    <FontStyle>Normal</FontStyle>
                                    <FontFamily>Segoe UI</FontFamily>
                                    <FontSize>8pt</FontSize>
                                    <FontWeight>Bold</FontWeight>
                                  </Style>
                                </TextRun>
                              </TextRuns>
                              <Style>
                                <TextAlign>Left</TextAlign>
                              </Style>
                            </Paragraph>
                          </Paragraphs>
                          <ZIndex>24</ZIndex>
                          <Style>
                            <Border />
                            <VerticalAlign>Bottom</VerticalAlign>
                            <PaddingLeft>5pt</PaddingLeft>
                            <PaddingRight>5pt</PaddingRight>
                          </Style>
                        </Textbox>
                      </CellContents>
                    </TablixCell>
                    <TablixCell>
                      <CellContents>
                        <Textbox Name="textbox60">
                          <KeepTogether>true</KeepTogether>
                          <Paragraphs>
                            <Paragraph>
                              <TextRuns>
                                <TextRun>
                                  <Value />
                                  <Style>
                                    <FontStyle>Normal</FontStyle>
                                    <FontFamily>Segoe UI</FontFamily>
                                    <FontSize>8pt</FontSize>
                                    <FontWeight>Bold</FontWeight>
                                  </Style>
                                </TextRun>
                              </TextRuns>
                              <Style />
                            </Paragraph>
                          </Paragraphs>
                          <ZIndex>23</ZIndex>
                          <Style>
                            <VerticalAlign>Bottom</VerticalAlign>
                            <PaddingLeft>5pt</PaddingLeft>
                            <PaddingRight>5pt</PaddingRight>
                          </Style>
                        </Textbox>
                      </CellContents>
                    </TablixCell>
                    <TablixCell>
                      <CellContents>
                        <Textbox Name="TempRecordBufferSerialNoCaption">
                          <CanGrow>true</CanGrow>
                          <KeepTogether>true</KeepTogether>
                          <Paragraphs>
                            <Paragraph>
                              <TextRuns>
                                <TextRun>
                                  <Value>=Fields!TempRecordBufferSerialNoCaption.Value</Value>
                                  <Style>
                                    <FontStyle>Normal</FontStyle>
                                    <FontFamily>Segoe UI</FontFamily>
                                    <FontSize>8pt</FontSize>
                                    <FontWeight>Bold</FontWeight>
                                  </Style>
                                </TextRun>
                              </TextRuns>
                              <Style>
                                <TextAlign>Left</TextAlign>
                              </Style>
                            </Paragraph>
                          </Paragraphs>
                          <ZIndex>22</ZIndex>
                          <Style>
                            <Border />
                            <VerticalAlign>Bottom</VerticalAlign>
                            <PaddingLeft>5pt</PaddingLeft>
                            <PaddingRight>5pt</PaddingRight>
                          </Style>
                        </Textbox>
                      </CellContents>
                    </TablixCell>
                    <TablixCell>
                      <CellContents>
                        <Textbox Name="TempRecordBufferLotNoCaption">
                          <CanGrow>true</CanGrow>
                          <KeepTogether>true</KeepTogether>
                          <Paragraphs>
                            <Paragraph>
                              <TextRuns>
                                <TextRun>
                                  <Value>=Fields!TempRecordBufferLotNoCaption.Value</Value>
                                  <Style>
                                    <FontStyle>Normal</FontStyle>
                                    <FontFamily>Segoe UI</FontFamily>
                                    <FontSize>8pt</FontSize>
                                    <FontWeight>Bold</FontWeight>
                                  </Style>
                                </TextRun>
                              </TextRuns>
                              <Style>
                                <TextAlign>Left</TextAlign>
                              </Style>
                            </Paragraph>
                          </Paragraphs>
                          <ZIndex>21</ZIndex>
                          <Style>
                            <Border />
                            <VerticalAlign>Bottom</VerticalAlign>
                            <PaddingLeft>5pt</PaddingLeft>
                          </Style>
                        </Textbox>
                      </CellContents>
                    </TablixCell>
                  </TablixCells>
                </TablixRow>
                <TablixRow>
                  <Height>0.06944in</Height>
                  <TablixCells>
                    <TablixCell>
                      <CellContents>
                        <Textbox Name="Textbox11">
                          <CanGrow>true</CanGrow>
                          <KeepTogether>true</KeepTogether>
                          <Paragraphs>
                            <Paragraph>
                              <TextRuns>
                                <TextRun>
                                  <Value />
                                  <Style>
                                    <FontStyle>Normal</FontStyle>
                                    <FontFamily>Segoe UI</FontFamily>
                                    <FontSize>8pt</FontSize>
                                    <FontWeight>Bold</FontWeight>
                                  </Style>
                                </TextRun>
                              </TextRuns>
                              <Style />
                            </Paragraph>
                          </Paragraphs>
                          <rd:DefaultName>Textbox11</rd:DefaultName>
                          <Style>
                            <Border>
                              <Style>None</Style>
                            </Border>
                            <BottomBorder>
                              <Style>Solid</Style>
                            </BottomBorder>
                            <VerticalAlign>Bottom</VerticalAlign>
                            <PaddingRight>5pt</PaddingRight>
                          </Style>
                        </Textbox>
                      </CellContents>
                    </TablixCell>
                    <TablixCell>
                      <CellContents>
                        <Textbox Name="Textbox12">
                          <CanGrow>true</CanGrow>
                          <KeepTogether>true</KeepTogether>
                          <Paragraphs>
                            <Paragraph>
                              <TextRuns>
                                <TextRun>
                                  <Value />
                                  <Style>
                                    <FontStyle>Normal</FontStyle>
                                    <FontFamily>Segoe UI</FontFamily>
                                    <FontSize>8pt</FontSize>
                                    <FontWeight>Bold</FontWeight>
                                  </Style>
                                </TextRun>
                              </TextRuns>
                              <Style />
                            </Paragraph>
                          </Paragraphs>
                          <rd:DefaultName>Textbox12</rd:DefaultName>
                          <Style>
                            <Border>
                              <Style>None</Style>
                            </Border>
                            <BottomBorder>
                              <Style>Solid</Style>
                            </BottomBorder>
                            <VerticalAlign>Bottom</VerticalAlign>
                          </Style>
                        </Textbox>
                      </CellContents>
                    </TablixCell>
                    <TablixCell>
                      <CellContents>
                        <Textbox Name="Textbox13">
                          <CanGrow>true</CanGrow>
                          <KeepTogether>true</KeepTogether>
                          <Paragraphs>
                            <Paragraph>
                              <TextRuns>
                                <TextRun>
                                  <Value />
                                  <Style>
                                    <FontStyle>Normal</FontStyle>
                                    <FontFamily>Segoe UI</FontFamily>
                                    <FontSize>8pt</FontSize>
                                    <FontWeight>Bold</FontWeight>
                                  </Style>
                                </TextRun>
                              </TextRuns>
                              <Style />
                            </Paragraph>
                          </Paragraphs>
                          <rd:DefaultName>Textbox13</rd:DefaultName>
                          <Style>
                            <Border>
                              <Style>None</Style>
                            </Border>
                            <BottomBorder>
                              <Style>Solid</Style>
                            </BottomBorder>
                            <VerticalAlign>Bottom</VerticalAlign>
                          </Style>
                        </Textbox>
                      </CellContents>
                    </TablixCell>
                    <TablixCell>
                      <CellContents>
                        <Textbox Name="Textbox14">
                          <CanGrow>true</CanGrow>
                          <KeepTogether>true</KeepTogether>
                          <Paragraphs>
                            <Paragraph>
                              <TextRuns>
                                <TextRun>
                                  <Value />
                                  <Style>
                                    <FontStyle>Normal</FontStyle>
                                    <FontFamily>Segoe UI</FontFamily>
                                    <FontSize>8pt</FontSize>
                                    <FontWeight>Bold</FontWeight>
                                  </Style>
                                </TextRun>
                              </TextRuns>
                              <Style />
                            </Paragraph>
                          </Paragraphs>
                          <rd:DefaultName>Textbox14</rd:DefaultName>
                          <Style>
                            <Border>
                              <Style>None</Style>
                            </Border>
                            <BottomBorder>
                              <Style>Solid</Style>
                            </BottomBorder>
                            <VerticalAlign>Bottom</VerticalAlign>
                            <PaddingRight>0.0625in</PaddingRight>
                          </Style>
                        </Textbox>
                      </CellContents>
                    </TablixCell>
                    <TablixCell>
                      <CellContents>
                        <Textbox Name="Textbox15">
                          <CanGrow>true</CanGrow>
                          <KeepTogether>true</KeepTogether>
                          <Paragraphs>
                            <Paragraph>
                              <TextRuns>
                                <TextRun>
                                  <Value />
                                  <Style>
                                    <FontStyle>Normal</FontStyle>
                                    <FontFamily>Segoe UI</FontFamily>
                                    <FontSize>8pt</FontSize>
                                    <FontWeight>Bold</FontWeight>
                                  </Style>
                                </TextRun>
                              </TextRuns>
                              <Style />
                            </Paragraph>
                          </Paragraphs>
                          <rd:DefaultName>Textbox15</rd:DefaultName>
                          <Style>
                            <Border>
                              <Style>None</Style>
                            </Border>
                            <BottomBorder>
                              <Style>Solid</Style>
                            </BottomBorder>
                            <VerticalAlign>Bottom</VerticalAlign>
                          </Style>
                        </Textbox>
                      </CellContents>
                    </TablixCell>
                    <TablixCell>
                      <CellContents>
                        <Textbox Name="Textbox16">
                          <CanGrow>true</CanGrow>
                          <KeepTogether>true</KeepTogether>
                          <Paragraphs>
                            <Paragraph>
                              <TextRuns>
                                <TextRun>
                                  <Value />
                                  <Style>
                                    <FontStyle>Normal</FontStyle>
                                    <FontFamily>Segoe UI</FontFamily>
                                    <FontSize>8pt</FontSize>
                                    <FontWeight>Bold</FontWeight>
                                  </Style>
                                </TextRun>
                              </TextRuns>
                              <Style />
                            </Paragraph>
                          </Paragraphs>
                          <rd:DefaultName>Textbox16</rd:DefaultName>
                          <Style>
                            <Border>
                              <Style>None</Style>
                            </Border>
                            <BottomBorder>
                              <Style>Solid</Style>
                            </BottomBorder>
                            <VerticalAlign>Bottom</VerticalAlign>
                            <PaddingLeft>5pt</PaddingLeft>
                          </Style>
                        </Textbox>
                      </CellContents>
                    </TablixCell>
                  </TablixCells>
                </TablixRow>
                <TablixRow>
                  <Height>0.06944in</Height>
                  <TablixCells>
                    <TablixCell>
                      <CellContents>
                        <Textbox Name="Textbox1">
                          <CanGrow>true</CanGrow>
                          <KeepTogether>true</KeepTogether>
                          <Paragraphs>
                            <Paragraph>
                              <TextRuns>
                                <TextRun>
                                  <Value />
                                  <Style>
                                    <FontStyle>Normal</FontStyle>
                                    <FontFamily>Segoe UI</FontFamily>
                                    <FontSize>8pt</FontSize>
                                    <FontWeight>Bold</FontWeight>
                                  </Style>
                                </TextRun>
                              </TextRuns>
                              <Style />
                            </Paragraph>
                          </Paragraphs>
                          <rd:DefaultName>Textbox1</rd:DefaultName>
                          <Style>
                            <Border />
                            <VerticalAlign>Bottom</VerticalAlign>
                            <PaddingRight>5pt</PaddingRight>
                          </Style>
                        </Textbox>
                      </CellContents>
                    </TablixCell>
                    <TablixCell>
                      <CellContents>
                        <Textbox Name="Textbox2">
                          <CanGrow>true</CanGrow>
                          <KeepTogether>true</KeepTogether>
                          <Paragraphs>
                            <Paragraph>
                              <TextRuns>
                                <TextRun>
                                  <Value />
                                  <Style>
                                    <FontStyle>Normal</FontStyle>
                                    <FontFamily>Segoe UI</FontFamily>
                                    <FontSize>8pt</FontSize>
                                    <FontWeight>Bold</FontWeight>
                                  </Style>
                                </TextRun>
                              </TextRuns>
                              <Style />
                            </Paragraph>
                          </Paragraphs>
                          <rd:DefaultName>Textbox2</rd:DefaultName>
                          <Style>
                            <Border />
                            <VerticalAlign>Bottom</VerticalAlign>
                          </Style>
                        </Textbox>
                      </CellContents>
                    </TablixCell>
                    <TablixCell>
                      <CellContents>
                        <Textbox Name="Textbox7">
                          <CanGrow>true</CanGrow>
                          <KeepTogether>true</KeepTogether>
                          <Paragraphs>
                            <Paragraph>
                              <TextRuns>
                                <TextRun>
                                  <Value />
                                  <Style>
                                    <FontStyle>Normal</FontStyle>
                                    <FontFamily>Segoe UI</FontFamily>
                                    <FontSize>8pt</FontSize>
                                    <FontWeight>Bold</FontWeight>
                                  </Style>
                                </TextRun>
                              </TextRuns>
                              <Style />
                            </Paragraph>
                          </Paragraphs>
                          <rd:DefaultName>Textbox7</rd:DefaultName>
                          <Style>
                            <Border />
                            <VerticalAlign>Bottom</VerticalAlign>
                          </Style>
                        </Textbox>
                      </CellContents>
                    </TablixCell>
                    <TablixCell>
                      <CellContents>
                        <Textbox Name="Textbox8">
                          <CanGrow>true</CanGrow>
                          <KeepTogether>true</KeepTogether>
                          <Paragraphs>
                            <Paragraph>
                              <TextRuns>
                                <TextRun>
                                  <Value />
                                  <Style>
                                    <FontStyle>Normal</FontStyle>
                                    <FontFamily>Segoe UI</FontFamily>
                                    <FontSize>8pt</FontSize>
                                    <FontWeight>Bold</FontWeight>
                                  </Style>
                                </TextRun>
                              </TextRuns>
                              <Style />
                            </Paragraph>
                          </Paragraphs>
                          <rd:DefaultName>Textbox8</rd:DefaultName>
                          <Style>
                            <VerticalAlign>Bottom</VerticalAlign>
                            <PaddingRight>0.0625in</PaddingRight>
                          </Style>
                        </Textbox>
                      </CellContents>
                    </TablixCell>
                    <TablixCell>
                      <CellContents>
                        <Textbox Name="Textbox9">
                          <CanGrow>true</CanGrow>
                          <KeepTogether>true</KeepTogether>
                          <Paragraphs>
                            <Paragraph>
                              <TextRuns>
                                <TextRun>
                                  <Value />
                                  <Style>
                                    <FontStyle>Normal</FontStyle>
                                    <FontFamily>Segoe UI</FontFamily>
                                    <FontSize>8pt</FontSize>
                                    <FontWeight>Bold</FontWeight>
                                  </Style>
                                </TextRun>
                              </TextRuns>
                              <Style />
                            </Paragraph>
                          </Paragraphs>
                          <rd:DefaultName>Textbox9</rd:DefaultName>
                          <Style>
                            <Border />
                            <VerticalAlign>Bottom</VerticalAlign>
                          </Style>
                        </Textbox>
                      </CellContents>
                    </TablixCell>
                    <TablixCell>
                      <CellContents>
                        <Textbox Name="Textbox10">
                          <CanGrow>true</CanGrow>
                          <KeepTogether>true</KeepTogether>
                          <Paragraphs>
                            <Paragraph>
                              <TextRuns>
                                <TextRun>
                                  <Value />
                                  <Style>
                                    <FontStyle>Normal</FontStyle>
                                    <FontFamily>Segoe UI</FontFamily>
                                    <FontSize>8pt</FontSize>
                                    <FontWeight>Bold</FontWeight>
                                  </Style>
                                </TextRun>
                              </TextRuns>
                              <Style />
                            </Paragraph>
                          </Paragraphs>
                          <rd:DefaultName>Textbox10</rd:DefaultName>
                          <Style>
                            <Border />
                            <VerticalAlign>Bottom</VerticalAlign>
                            <PaddingLeft>5pt</PaddingLeft>
                          </Style>
                        </Textbox>
                      </CellContents>
                    </TablixCell>
                  </TablixCells>
                </TablixRow>
                <TablixRow>
                  <Height>0.16in</Height>
                  <TablixCells>
                    <TablixCell>
                      <CellContents>
                        <Textbox Name="TempDocEntryTableName">
                          <KeepTogether>true</KeepTogether>
                          <Paragraphs>
                            <Paragraph>
                              <TextRuns>
                                <TextRun>
                                  <Value>=Fields!TempDocEntryTableName.Value</Value>
                                  <Style>
                                    <FontStyle>Normal</FontStyle>
                                    <FontFamily>Segoe UI</FontFamily>
                                    <FontSize>8pt</FontSize>
                                  </Style>
                                </TextRun>
                              </TextRuns>
                              <Style>
                                <TextAlign>Left</TextAlign>
                              </Style>
                            </Paragraph>
                          </Paragraphs>
                          <ZIndex>16</ZIndex>
                          <Style>
                            <Border />
                            <VerticalAlign>Middle</VerticalAlign>
                            <PaddingRight>5pt</PaddingRight>
                          </Style>
                        </Textbox>
                        <ColSpan>2</ColSpan>
                      </CellContents>
                    </TablixCell>
                    <TablixCell />
                    <TablixCell>
                      <CellContents>
                        <Textbox Name="TempDocEntryNoofRecords">
                          <KeepTogether>true</KeepTogether>
                          <Paragraphs>
                            <Paragraph>
                              <TextRuns>
                                <TextRun>
                                  <Value>=Fields!TempDocEntryNoOfRecords.Value</Value>
                                  <Style>
                                    <FontStyle>Normal</FontStyle>
                                    <FontFamily>Segoe UI</FontFamily>
                                    <FontSize>8pt</FontSize>
                                  </Style>
                                </TextRun>
                              </TextRuns>
                              <Style>
                                <TextAlign>Left</TextAlign>
                              </Style>
                            </Paragraph>
                          </Paragraphs>
                          <ZIndex>15</ZIndex>
                          <Style>
                            <Border />
                            <VerticalAlign>Middle</VerticalAlign>
                            <PaddingLeft>5pt</PaddingLeft>
                            <PaddingRight>5pt</PaddingRight>
                          </Style>
                        </Textbox>
                      </CellContents>
                    </TablixCell>
                    <TablixCell>
                      <CellContents>
                        <Textbox Name="textbox3">
                          <KeepTogether>true</KeepTogether>
                          <Paragraphs>
                            <Paragraph>
                              <TextRuns>
                                <TextRun>
                                  <Value />
                                  <Style>
                                    <FontStyle>Normal</FontStyle>
                                    <FontFamily>Segoe UI</FontFamily>
                                    <FontSize>8pt</FontSize>
                                  </Style>
                                </TextRun>
                              </TextRuns>
                              <Style>
                                <TextAlign>Left</TextAlign>
                              </Style>
                            </Paragraph>
                          </Paragraphs>
                          <ZIndex>14</ZIndex>
                          <Style>
                            <VerticalAlign>Middle</VerticalAlign>
                            <PaddingLeft>5pt</PaddingLeft>
                            <PaddingRight>5pt</PaddingRight>
                          </Style>
                        </Textbox>
                      </CellContents>
                    </TablixCell>
                    <TablixCell>
                      <CellContents>
                        <Textbox Name="textbox4">
                          <KeepTogether>true</KeepTogether>
                          <Paragraphs>
                            <Paragraph>
                              <TextRuns>
                                <TextRun>
                                  <Value />
                                  <Style />
                                </TextRun>
                              </TextRuns>
                              <Style />
                            </Paragraph>
                          </Paragraphs>
                          <ZIndex>13</ZIndex>
                          <Style>
                            <VerticalAlign>Middle</VerticalAlign>
                            <PaddingLeft>5pt</PaddingLeft>
                            <PaddingRight>5pt</PaddingRight>
                          </Style>
                        </Textbox>
                      </CellContents>
                    </TablixCell>
                    <TablixCell>
                      <CellContents>
                        <Textbox Name="textbox5">
                          <KeepTogether>true</KeepTogether>
                          <Paragraphs>
                            <Paragraph>
                              <TextRuns>
                                <TextRun>
                                  <Value />
                                  <Style />
                                </TextRun>
                              </TextRuns>
                              <Style />
                            </Paragraph>
                          </Paragraphs>
                          <ZIndex>12</ZIndex>
                          <Style>
                            <VerticalAlign>Middle</VerticalAlign>
                            <PaddingLeft>5pt</PaddingLeft>
                          </Style>
                        </Textbox>
                      </CellContents>
                    </TablixCell>
                  </TablixCells>
                </TablixRow>
                <TablixRow>
                  <Height>0.16in</Height>
                  <TablixCells>
                    <TablixCell>
                      <CellContents>
                        <Textbox Name="textbox6">
                          <KeepTogether>true</KeepTogether>
                          <Paragraphs>
                            <Paragraph>
                              <TextRuns>
                                <TextRun>
                                  <Value />
                                  <Style>
                                    <FontStyle>Normal</FontStyle>
                                    <FontFamily>Segoe UI</FontFamily>
                                    <FontSize>8pt</FontSize>
                                  </Style>
                                </TextRun>
                              </TextRuns>
                              <Style>
                                <TextAlign>Left</TextAlign>
                              </Style>
                            </Paragraph>
                          </Paragraphs>
                          <rd:DefaultName>textbox6</rd:DefaultName>
                          <ZIndex>7</ZIndex>
                          <Style>
                            <VerticalAlign>Middle</VerticalAlign>
                            <PaddingRight>5pt</PaddingRight>
                          </Style>
                        </Textbox>
                      </CellContents>
                    </TablixCell>
                    <TablixCell>
                      <CellContents>
                        <Textbox Name="TempRecordBufferPrimaryKey">
                          <KeepTogether>true</KeepTogether>
                          <Paragraphs>
                            <Paragraph>
                              <TextRuns>
                                <TextRun>
                                  <Value>=Fields!TempRecordBufferPrimaryKey.Value</Value>
                                  <Style>
                                    <FontStyle>Normal</FontStyle>
                                    <FontFamily>Segoe UI</FontFamily>
                                    <FontSize>8pt</FontSize>
                                  </Style>
                                </TextRun>
                              </TextRuns>
                              <Style>
                                <TextAlign>Left</TextAlign>
                              </Style>
                            </Paragraph>
                          </Paragraphs>
                          <ZIndex>6</ZIndex>
                          <Style>
                            <VerticalAlign>Middle</VerticalAlign>
                            <PaddingLeft>5pt</PaddingLeft>
                            <PaddingRight>5pt</PaddingRight>
                          </Style>
                        </Textbox>
                        <ColSpan>3</ColSpan>
                      </CellContents>
                    </TablixCell>
                    <TablixCell />
                    <TablixCell />
                    <TablixCell>
                      <CellContents>
                        <Textbox Name="TempRecordBufferSerialNo">
                          <KeepTogether>true</KeepTogether>
                          <Paragraphs>
                            <Paragraph>
                              <TextRuns>
                                <TextRun>
                                  <Value>=Fields!TempRecordBufferSerialNo.Value</Value>
                                  <Style>
                                    <FontStyle>Normal</FontStyle>
                                    <FontFamily>Segoe UI</FontFamily>
                                    <FontSize>8pt</FontSize>
                                  </Style>
                                </TextRun>
                              </TextRuns>
                              <Style>
                                <TextAlign>Left</TextAlign>
                              </Style>
                            </Paragraph>
                          </Paragraphs>
                          <ZIndex>5</ZIndex>
                          <Style>
                            <VerticalAlign>Middle</VerticalAlign>
                            <PaddingLeft>5pt</PaddingLeft>
                            <PaddingRight>5pt</PaddingRight>
                          </Style>
                        </Textbox>
                      </CellContents>
                    </TablixCell>
                    <TablixCell>
                      <CellContents>
                        <Textbox Name="TempRecordBufferLotNo">
                          <KeepTogether>true</KeepTogether>
                          <Paragraphs>
                            <Paragraph>
                              <TextRuns>
                                <TextRun>
                                  <Value>=Fields!TempRecordBufferLotNo.Value</Value>
                                  <Style>
                                    <FontStyle>Normal</FontStyle>
                                    <FontFamily>Segoe UI</FontFamily>
                                    <FontSize>8pt</FontSize>
                                  </Style>
                                </TextRun>
                              </TextRuns>
                              <Style>
                                <TextAlign>Left</TextAlign>
                              </Style>
                            </Paragraph>
                          </Paragraphs>
                          <ZIndex>4</ZIndex>
                          <Style>
                            <VerticalAlign>Middle</VerticalAlign>
                            <PaddingLeft>5pt</PaddingLeft>
                          </Style>
                        </Textbox>
                      </CellContents>
                    </TablixCell>
                  </TablixCells>
                </TablixRow>
              </TablixRows>
            </TablixBody>
            <TablixColumnHierarchy>
              <TablixMembers>
                <TablixMember />
                <TablixMember />
                <TablixMember />
                <TablixMember />
                <TablixMember />
                <TablixMember />
              </TablixMembers>
            </TablixColumnHierarchy>
            <TablixRowHierarchy>
              <TablixMembers>
                <TablixMember>
                  <Group Name="Table1_Group1">
                    <GroupExpressions>
                      <GroupExpression>=code.SetPageBreak(Fields!PrintOnlyOnePerPage.Value,Fields!RecordCounter.Value)</GroupExpression>
                    </GroupExpressions>
                    <PageBreak>
                      <BreakLocation>End</BreakLocation>
                    </PageBreak>
                  </Group>
                  <TablixMembers>
                    <TablixMember>
                      <Group Name="Table1_Group2">
                        <GroupExpressions>
                          <GroupExpression>=Fields!TempDocEntryTableName.Value</GroupExpression>
                        </GroupExpressions>
                      </Group>
                      <TablixMembers>
                        <TablixMember>
                          <KeepWithGroup>After</KeepWithGroup>
                          <KeepTogether>true</KeepTogether>
                        </TablixMember>
                        <TablixMember>
                          <KeepWithGroup>After</KeepWithGroup>
                        </TablixMember>
                        <TablixMember>
                          <KeepWithGroup>After</KeepWithGroup>
                        </TablixMember>
                        <TablixMember>
                          <KeepWithGroup>After</KeepWithGroup>
                          <KeepTogether>true</KeepTogether>
                        </TablixMember>
                        <TablixMember>
                          <Group Name="Table1_Details_Group">
                            <DataElementName>Detail</DataElementName>
                          </Group>
                          <TablixMembers>
                            <TablixMember />
                          </TablixMembers>
                          <DataElementName>Detail_Collection</DataElementName>
                          <DataElementOutput>Output</DataElementOutput>
                          <KeepTogether>true</KeepTogether>
                        </TablixMember>
                      </TablixMembers>
                    </TablixMember>
                  </TablixMembers>
                </TablixMember>
              </TablixMembers>
            </TablixRowHierarchy>
            <DataSetName>DataSet_Result</DataSetName>
            <Top>3.28975cm</Top>
            <Height>1.51834cm</Height>
            <Width>17.48854cm</Width>
            <Style />
          </Tablix>
          <Textbox Name="Text004FORMATVariantFilter">
            <KeepTogether>true</KeepTogether>
            <Paragraphs>
              <Paragraph>
                <TextRuns>
                  <TextRun>
                    <Value>=Fields!FormatedVariantFilter.Value</Value>
                    <Style>
                      <FontStyle>Normal</FontStyle>
                      <FontFamily>Segoe UI</FontFamily>
                      <FontSize>8pt</FontSize>
                    </Style>
                  </TextRun>
                </TextRuns>
                <Style>
                  <TextAlign>Left</TextAlign>
                </Style>
              </Paragraph>
            </Paragraphs>
            <Top>2.073cm</Top>
            <Height>0.16in</Height>
            <Width>17.48854cm</Width>
            <ZIndex>1</ZIndex>
            <Visibility>
              <Hidden>=IIF(Fields!Head6View.Value,False,True)</Hidden>
            </Visibility>
            <DataElementOutput>NoOutput</DataElementOutput>
            <Style>
              <VerticalAlign>Middle</VerticalAlign>
            </Style>
          </Textbox>
          <Textbox Name="Text003FORMATItemNoFilter">
            <KeepTogether>true</KeepTogether>
            <Paragraphs>
              <Paragraph>
                <TextRuns>
                  <TextRun>
                    <Value>=Fields!FormatedtemNoFilter.Value</Value>
                    <Style>
                      <FontStyle>Normal</FontStyle>
                      <FontFamily>Segoe UI</FontFamily>
                      <FontSize>8pt</FontSize>
                    </Style>
                  </TextRun>
                </TextRuns>
                <Style>
                  <TextAlign>Left</TextAlign>
                </Style>
              </Paragraph>
            </Paragraphs>
            <Top>1.65cm</Top>
            <Height>0.16in</Height>
            <Width>17.48854cm</Width>
            <ZIndex>2</ZIndex>
            <Visibility>
              <Hidden>=IIF(Fields!Head5View.Value,False,True)</Hidden>
            </Visibility>
            <DataElementOutput>NoOutput</DataElementOutput>
            <Style>
              <VerticalAlign>Middle</VerticalAlign>
            </Style>
          </Textbox>
          <Textbox Name="Text002FORMATLotNoFilter">
            <KeepTogether>true</KeepTogether>
            <Paragraphs>
              <Paragraph>
                <TextRuns>
                  <TextRun>
                    <Value>=Fields!FormatedLotNoFilter.Value</Value>
                    <Style>
                      <FontStyle>Normal</FontStyle>
                      <FontFamily>Segoe UI</FontFamily>
                      <FontSize>8pt</FontSize>
                    </Style>
                  </TextRun>
                </TextRuns>
                <Style>
                  <TextAlign>Left</TextAlign>
                </Style>
              </Paragraph>
            </Paragraphs>
            <Top>1.227cm</Top>
            <Height>0.16in</Height>
            <Width>17.48854cm</Width>
            <ZIndex>3</ZIndex>
            <Visibility>
              <Hidden>=IIF(Fields!Head4View.Value,False,True)</Hidden>
            </Visibility>
            <DataElementOutput>NoOutput</DataElementOutput>
            <Style>
              <VerticalAlign>Middle</VerticalAlign>
            </Style>
          </Textbox>
          <Textbox Name="Text001FORMATSerialNoFilter">
            <KeepTogether>true</KeepTogether>
            <Paragraphs>
              <Paragraph>
                <TextRuns>
                  <TextRun>
                    <Value>=Fields!FormatedSerialNoFilter.Value</Value>
                    <Style>
                      <FontStyle>Normal</FontStyle>
                      <FontFamily>Segoe UI</FontFamily>
                      <FontSize>8pt</FontSize>
                    </Style>
                  </TextRun>
                </TextRuns>
                <Style>
                  <TextAlign>Left</TextAlign>
                </Style>
              </Paragraph>
            </Paragraphs>
            <Top>0.804cm</Top>
            <Height>0.16in</Height>
            <Width>17.48854cm</Width>
            <ZIndex>4</ZIndex>
            <Visibility>
              <Hidden>=IIF(Fields!Head3View.Value,False,True)</Hidden>
            </Visibility>
            <DataElementOutput>NoOutput</DataElementOutput>
            <Style>
              <VerticalAlign>Middle</VerticalAlign>
            </Style>
          </Textbox>
          <Textbox Name="NavigateFiltersCaption">
            <KeepTogether>true</KeepTogether>
            <Paragraphs>
              <Paragraph>
                <TextRuns>
                  <TextRun>
                    <Value>=Fields!NavigateFiltersCaption.Value</Value>
                    <Style>
                      <FontStyle>Normal</FontStyle>
                      <FontFamily>Segoe UI</FontFamily>
                      <FontSize>8pt</FontSize>
                    </Style>
                  </TextRun>
                </TextRuns>
                <Style>
                  <TextAlign>Left</TextAlign>
                </Style>
              </Paragraph>
            </Paragraphs>
            <Top>0.381cm</Top>
            <Height>11pt</Height>
            <Width>17.48854cm</Width>
            <ZIndex>5</ZIndex>
            <Visibility>
              <Hidden>=IIF(Fields!Head2View.Value,False,True)</Hidden>
            </Visibility>
            <DataElementOutput>NoOutput</DataElementOutput>
            <Style>
              <VerticalAlign>Middle</VerticalAlign>
            </Style>
          </Textbox>
        </ReportItems>
        <Height>4.8247cm</Height>
        <Style />
      </Body>
      <Width>17.73725cm</Width>
      <Page>
        <PageHeader>
          <Height>1.1667cm</Height>
          <PrintOnFirstPage>true</PrintOnFirstPage>
          <PrintOnLastPage>true</PrintOnLastPage>
          <ReportItems>
            <Textbox Name="CurrReportPAGENOCaption">
              <KeepTogether>true</KeepTogether>
              <Paragraphs>
                <Paragraph>
                  <TextRuns>
                    <TextRun>
                      <Value>=Fields!CurrReportPageNoCaption.Value &amp; " " &amp; Globals.PageNumber</Value>
                      <Style>
                        <FontStyle>Normal</FontStyle>
                        <FontFamily>Segoe UI</FontFamily>
                        <FontSize>8pt</FontSize>
                      </Style>
                    </TextRun>
                  </TextRuns>
                  <Style>
                    <TextAlign>Right</TextAlign>
                  </Style>
                </Paragraph>
              </Paragraphs>
              <Top>0.39125cm</Top>
              <Left>13.69836cm</Left>
              <Height>11pt</Height>
              <Width>4.03889cm</Width>
              <Style>
                <VerticalAlign>Middle</VerticalAlign>
              </Style>
            </Textbox>
            <Textbox Name="ItemTrackingNavigateCaption">
              <KeepTogether>true</KeepTogether>
              <Paragraphs>
                <Paragraph>
                  <TextRuns>
                    <TextRun>
                      <Value>=Fields!ItemTrackingNavigateCaption.Value</Value>
                      <Style>
                        <FontFamily>Segoe UI</FontFamily>
                        <FontSize>14pt</FontSize>
                        <FontWeight>Bold</FontWeight>
                      </Style>
                    </TextRun>
                  </TextRuns>
                  <Style>
                    <TextAlign>Left</TextAlign>
                  </Style>
                </Paragraph>
              </Paragraphs>
              <Height>20pt</Height>
              <Width>386.5pt</Width>
              <ZIndex>1</ZIndex>
              <Style>
                <VerticalAlign>Middle</VerticalAlign>
              </Style>
            </Textbox>
            <Textbox Name="COMPANYNAME">
              <KeepTogether>true</KeepTogether>
              <Paragraphs>
                <Paragraph>
                  <TextRuns>
                    <TextRun>
                      <Value>=Fields!CompanyName.Value</Value>
                      <Style>
                        <FontFamily>Segoe UI</FontFamily>
                        <FontSize>8pt</FontSize>
                        <FontWeight>Normal</FontWeight>
                      </Style>
                    </TextRun>
                  </TextRuns>
                  <Style>
                    <TextAlign>Left</TextAlign>
                  </Style>
                </Paragraph>
              </Paragraphs>
              <Top>0.75cm</Top>
              <Height>11pt</Height>
              <Width>386.5pt</Width>
              <ZIndex>2</ZIndex>
              <Style>
                <VerticalAlign>Middle</VerticalAlign>
              </Style>
            </Textbox>
            <Textbox Name="ExecutionTimeTextBox">
              <KeepTogether>true</KeepTogether>
              <Paragraphs>
                <Paragraph>
                  <TextRuns>
                    <TextRun>
                      <Value>=Fields!TodayFormatted.Value</Value>
                      <Style>
                        <FontStyle>Normal</FontStyle>
                        <FontFamily>Segoe UI</FontFamily>
                        <FontSize>8pt</FontSize>
                        <Format>g</Format>
                      </Style>
                    </TextRun>
                  </TextRuns>
                  <Style>
                    <TextAlign>Right</TextAlign>
                  </Style>
                </Paragraph>
              </Paragraphs>
              <Left>13.69836cm</Left>
              <Height>11pt</Height>
              <Width>4.03889cm</Width>
              <ZIndex>3</ZIndex>
              <Style>
                <VerticalAlign>Middle</VerticalAlign>
              </Style>
            </Textbox>
            <Textbox Name="UserIdTextBox">
              <KeepTogether>true</KeepTogether>
              <Paragraphs>
                <Paragraph>
                  <TextRuns>
                    <TextRun>
                      <Value>=User!UserID</Value>
                      <Style>
                        <FontStyle>Normal</FontStyle>
                        <FontFamily>Segoe UI</FontFamily>
                        <FontSize>8pt</FontSize>
                      </Style>
                    </TextRun>
                  </TextRuns>
                  <Style>
                    <TextAlign>Right</TextAlign>
                  </Style>
                </Paragraph>
              </Paragraphs>
              <Top>0.75075cm</Top>
              <Left>13.69836cm</Left>
              <Height>11pt</Height>
              <Width>4.03889cm</Width>
              <ZIndex>4</ZIndex>
              <Visibility>
                <Hidden>=IIF(ReportItems!CurrReportPAGENOCaption.Value = "",TRUE,FALSE)</Hidden>
              </Visibility>
              <DataElementOutput>NoOutput</DataElementOutput>
              <Style>
                <VerticalAlign>Middle</VerticalAlign>
              </Style>
            </Textbox>
          </ReportItems>
          <Style />
        </PageHeader>
        <PageHeight>29.7cm</PageHeight>
        <PageWidth>21cm</PageWidth>
        <InteractiveHeight>11in</InteractiveHeight>
        <InteractiveWidth>8.5in</InteractiveWidth>
        <LeftMargin>1.76388cm</LeftMargin>
        <RightMargin>1.05834cm</RightMargin>
        <TopMargin>1.05834cm</TopMargin>
        <BottomMargin>1.48166cm</BottomMargin>
        <ColumnSpacing>1.27cm</ColumnSpacing>
        <Style />
      </Page>
    </ReportSection>
  </ReportSections>
  <Code>Public Function BlankZero(ByVal Value As Decimal)
    if Value = 0 then
        Return ""
    end if
    Return Value
End Function

Public Function BlankPos(ByVal Value As Decimal)
    if Value &gt; 0 then
        Return ""
    end if
    Return Value
End Function

Public Function BlankZeroAndPos(ByVal Value As Decimal)
    if Value &gt;= 0 then
        Return ""
    end if
    Return Value
End Function

Public Function BlankNeg(ByVal Value As Decimal)
    if Value &lt; 0 then
        Return ""
    end if
    Return Value
End Function

Public Function BlankNegAndZero(ByVal Value As Decimal)
    if Value &lt;= 0 then
        Return ""
    end if
    Return Value
End Function

Public Function SetPageBreak(PrintOnPerPage as Boolean,ByVal Value As Integer)
    if PrintOnPerPage=false then
       Value=1  
       Return Value
    end if
    Return Value
End Function
</Code>
  <Language>=User!Language</Language>
  <ConsumeContainerWhitespace>true</ConsumeContainerWhitespace>
  <rd:ReportUnitType>Cm</rd:ReportUnitType>
  <rd:ReportID>52890dd2-6361-4b44-9125-ff8d2cb19b06</rd:ReportID>
</Report>
    END_OF_RDLDATA
  }
}

