OBJECT Report 7380 Calculate Phys. Invt. Counting
{
  OBJECT-PROPERTIES
  {
    Date=07/09/12;
    Time=12:00:00;
    Version List=NAVW17.00;
  }
  PROPERTIES
  {
    CaptionML=ENU=Calculate Phys. Invt. Counting;
    ProcessingOnly=Yes;
    OnPreReport=BEGIN
                  OKPressed := TRUE;
                END;

  }
  DATASET
  {
  }
  REQUESTPAGE
  {
    PROPERTIES
    {
      OnInit=BEGIN
               PrintPerItemVisible := TRUE;
               SortMethodVisible := TRUE;
               PrintPerItemEnable := TRUE;
               ShowQtyCalcEnable := TRUE;
             END;

      OnOpenPage=BEGIN
                   IF PostingDate = 0D THEN
                     PostingDate := WORKDATE;
                   ValidatePostingDate;

                   ShowQtyCalcEnable := PrintDoc;
                   PrintPerItemEnable := PrintDoc;
                   SortMethodVisible := SourceJnl = SourceJnl::WhseJnl;
                   PrintPerItemVisible := SourceJnl = SourceJnl::WhseJnl;
                 END;

    }
    CONTROLS
    {
      { 1900000001;0;Container;
                  ContainerType=ContentArea }

      { 1900000002;1;Group  ;
                  CaptionML=ENU=Options }

      { 7   ;2   ;Field     ;
                  CaptionML=ENU=Posting Date;
                  SourceExpr=PostingDate;
                  OnValidate=BEGIN
                               ValidatePostingDate;
                             END;
                              }

      { 5   ;2   ;Field     ;
                  CaptionML=ENU=Document No.;
                  SourceExpr=NextDocNo }

      { 3   ;2   ;Field     ;
                  CaptionML=ENU=Items Not on Inventory;
                  SourceExpr=ZeroQty }

      { 9   ;2   ;Group     ;
                  CaptionML=ENU=Print }

      { 1   ;3   ;Field     ;
                  CaptionML=ENU=Print List;
                  SourceExpr=PrintDoc;
                  OnValidate=BEGIN
                               IF NOT PrintDoc THEN BEGIN
                                 PrintDocPerItem := FALSE;
                                 ShowQtyCalculated := FALSE;
                               END;
                               ShowQtyCalcEnable := PrintDoc;
                               PrintPerItemEnable := PrintDoc;
                             END;
                              }

      { 10  ;3   ;Field     ;
                  Name=ShowQtyCalc;
                  CaptionML=ENU=Show Qty. Calculated;
                  SourceExpr=ShowQtyCalculated;
                  Enabled=ShowQtyCalcEnable }

      { 14  ;3   ;Field     ;
                  Name=PrintPerItem;
                  CaptionML=ENU=Per Item;
                  SourceExpr=PrintDocPerItem;
                  Visible=PrintPerItemVisible;
                  Enabled=PrintPerItemEnable }

      { 12  ;2   ;Field     ;
                  Name=SortMethod;
                  CaptionML=ENU=Sorting Method;
                  OptionCaptionML=ENU=" ,Item,Bin";
                  SourceExpr=SortingMethod;
                  Visible=SortMethodVisible }

    }
  }
  LABELS
  {
  }
  CODE
  {
    VAR
      ItemJnlBatch@1002 : Record 233;
      ItemJnlLine@1000 : Record 83;
      WhseJnlBatch@1010 : Record 7310;
      WhseJnlLine@1009 : Record 7311;
      NoSeriesMgt@1003 : Codeunit 396;
      PostingDate@1005 : Date;
      SourceJnl@1008 : 'ItemJnl,WhseJnl';
      SortingMethod@1012 : ' ,Item,Bin';
      NextDocNo@1004 : Code[20];
      PrintDoc@1013 : Boolean;
      PrintDocPerItem@1007 : Boolean;
      ShowQtyCalculated@1011 : Boolean;
      ZeroQty@1001 : Boolean;
      OKPressed@1006 : Boolean;
      ShowQtyCalcEnable@19024297 : Boolean INDATASET;
      PrintPerItemEnable@19030051 : Boolean INDATASET;
      SortMethodVisible@19065902 : Boolean INDATASET;
      PrintPerItemVisible@19031923 : Boolean INDATASET;

    PROCEDURE GetRequest@1(VAR PostingDate2@1002 : Date;VAR NextDocNo2@1001 : Code[20];VAR SortingMethod2@1006 : ' ,Item,Bin';VAR PrintDoc2@1003 : Boolean;VAR PrintDocPerItem2@1005 : Boolean;VAR ZeroQty2@1000 : Boolean;VAR ShowQtyCalculated2@1004 : Boolean) : Boolean;
    BEGIN
      PostingDate2 := PostingDate;
      NextDocNo2 := NextDocNo;
      SortingMethod2 := SortingMethod;
      PrintDoc2 := PrintDoc;
      PrintDocPerItem2 := PrintDocPerItem;
      ZeroQty2 := ZeroQty;
      ShowQtyCalculated2 := ShowQtyCalculated;
      EXIT(OKPressed);
    END;

    LOCAL PROCEDURE ValidatePostingDate@4();
    BEGIN
      IF SourceJnl = SourceJnl::ItemJnl THEN BEGIN
        IF ItemJnlBatch."No. Series" = '' THEN
          NextDocNo := ''
        ELSE BEGIN
          NextDocNo := NoSeriesMgt.GetNextNo(ItemJnlBatch."No. Series",PostingDate,FALSE);
          CLEAR(NoSeriesMgt);
        END;
      END ELSE
        IF WhseJnlBatch."No. Series" = '' THEN
          NextDocNo := ''
        ELSE BEGIN
          NextDocNo := NoSeriesMgt.GetNextNo(WhseJnlBatch."No. Series",PostingDate,FALSE);
          CLEAR(NoSeriesMgt);
        END;
    END;

    PROCEDURE SetItemJnlLine@2(NewItemJnlLine@1000 : Record 83;NewItemJnlBatch@1001 : Record 233);
    BEGIN
      ItemJnlLine := NewItemJnlLine;
      ItemJnlBatch := NewItemJnlBatch;
      SourceJnl := SourceJnl::ItemJnl;
    END;

    PROCEDURE SetWhseJnlLine@5(NewWhseJnlLine@1000 : Record 7311;NewWhseJnlBatch@1001 : Record 7310);
    BEGIN
      WhseJnlLine := NewWhseJnlLine;
      WhseJnlBatch := NewWhseJnlBatch;
      SourceJnl := SourceJnl::WhseJnl;
    END;

    BEGIN
    END.
  }
  RDLDATA
  {
  }
}

