OBJECT Report 7314 Whse. Change Unit of Measure
{
  OBJECT-PROPERTIES
  {
    Date=07/09/12;
    Time=12:00:00;
    Version List=NAVW17.00;
  }
  PROPERTIES
  {
    CaptionML=ENU=Whse. Change Unit of Measure;
    ProcessingOnly=Yes;
  }
  DATASET
  {
  }
  REQUESTPAGE
  {
    PROPERTIES
    {
      InsertAllowed=No;
      SourceTable=Table5767;
      OnOpenPage=BEGIN
                   COPY(TempWhseActLine);
                   GET("Activity Type","No.","Line No.");
                   SETRECFILTER;
                   TESTFIELD("Bin Code");
                 END;

      OnAfterGetRecord=BEGIN
                         UOMCode := "Unit of Measure Code";
                         TempWhseActLine.Quantity := "Qty. to Handle";
                         TempWhseActLine."Qty. (Base)" := "Qty. to Handle (Base)";
                       END;

      OnQueryClosePage=BEGIN
                         IF CloseAction = ACTION::OK THEN
                           IF UOMCode <> "Unit of Measure Code" THEN
                             ChangeUOM2 := TRUE;
                       END;

    }
    CONTROLS
    {
      { 1900000001;0;Container;
                  ContainerType=ContentArea }

      { 1900000002;1;Group  ;
                  CaptionML=ENU=Options }

      { 1   ;2   ;Field     ;
                  SourceExpr="Action Type" }

      { 5   ;2   ;Field     ;
                  SourceExpr="Qty. to Handle";
                  Editable=FALSE }

      { 7   ;2   ;Group     ;
                  CaptionML=ENU=From }

      { 3   ;3   ;Field     ;
                  SourceExpr="Unit of Measure Code" }

      { 8   ;2   ;Group     ;
                  CaptionML=ENU=To }

      { 9   ;3   ;Field     ;
                  Name=UnitOfMeasureCode;
                  CaptionML=ENU=Unit of Measure Code;
                  SourceExpr=UOMCode;
                  TableRelation="Item Unit of Measure".Code;
                  OnValidate=BEGIN
                               ItemUOM.GET("Item No.",UOMCode);
                               TempWhseActLine."Qty. per Unit of Measure" := ItemUOM."Qty. per Unit of Measure";
                               TempWhseActLine."Unit of Measure Code" := ItemUOM.Code;
                               CheckUOM;
                               UOMCode := ItemUOM.Code;
                             END;

                  OnLookup=BEGIN
                             ItemUOM.RESET;
                             ItemUOM.FILTERGROUP(2);
                             ItemUOM.SETRANGE("Item No.","Item No.");
                             ItemUOM.FILTERGROUP(0);
                             ItemUOM.Code := TempWhseActLine."Unit of Measure Code";
                             IF PAGE.RUNMODAL(0,ItemUOM) = ACTION::LookupOK THEN BEGIN
                               Text := ItemUOM.Code;
                               EXIT(TRUE);
                             END;
                           END;
                            }

      { 11  ;2   ;Field     ;
                  CaptionML=ENU=Quantity;
                  DecimalPlaces=0:5;
                  SourceExpr=TempWhseActLine.Quantity;
                  Editable=FALSE }

    }
  }
  LABELS
  {
  }
  CODE
  {
    VAR
      TempWhseActLine@1002 : TEMPORARY Record 5767;
      BinContent@1005 : Record 7302;
      ItemUOM@1003 : Record 5404;
      UOMCode@1000 : Code[10];
      QtyAvailBase@1006 : Decimal;
      QtyChangeBase@1008 : Decimal;
      ChangeUOM2@1001 : Boolean;
      Text001@1007 : TextConst 'ENU=The %1 %2 exceeds the Quantity available to pick %3 of the %4.';

    PROCEDURE DefWhseActLine@1(WhseActLine2@1000 : Record 5767);
    BEGIN
      TempWhseActLine.COPY(WhseActLine2);
    END;

    LOCAL PROCEDURE CheckUOM@2();
    BEGIN
      CLEAR(BinContent);
      QtyChangeBase := 0;
      QtyAvailBase := 0;
      IF "Serial No." <> '' THEN
        TempWhseActLine.TESTFIELD("Qty. per Unit of Measure",1);
      BinContent."Qty. per Unit of Measure" := TempWhseActLine."Qty. per Unit of Measure";

      QtyChangeBase := "Qty. to Handle (Base)";
      IF "Action Type" = "Action Type"::Take THEN BEGIN
        IF BinContent.GET(
             "Location Code","Bin Code","Item No.",
             "Variant Code",TempWhseActLine."Unit of Measure Code")
        THEN BEGIN
          QtyChangeBase := "Qty. to Handle (Base)";
          IF "Activity Type" IN ["Activity Type"::Pick,"Activity Type"::"Invt. Pick","Activity Type"::"Invt. Movement"] THEN
            QtyAvailBase := BinContent.CalcQtyAvailToPick(0)
          ELSE
            QtyAvailBase := BinContent.CalcQtyAvailToTake(0);
          IF QtyAvailBase < QtyChangeBase THEN
            ERROR(STRSUBSTNO(Text001,FIELDCAPTION("Qty. (Base)"),QtyChangeBase,BinContent.TABLECAPTION,FIELDCAPTION("Bin Code")))
        END ELSE
          ERROR(STRSUBSTNO(Text001,FIELDCAPTION("Qty. (Base)"),QtyChangeBase,BinContent.TABLECAPTION,FIELDCAPTION("Bin Code")));
      END;

      IF BinContent."Qty. per Unit of Measure" = TempWhseActLine."Qty. per Unit of Measure" THEN BEGIN
        TempWhseActLine.VALIDATE(Quantity,"Qty. to Handle (Base)" / TempWhseActLine."Qty. per Unit of Measure");
        TempWhseActLine.VALIDATE("Unit of Measure Code");
      END ELSE BEGIN
        TempWhseActLine.VALIDATE("Unit of Measure Code");
        TempWhseActLine."Qty. per Unit of Measure" := BinContent."Qty. per Unit of Measure";
        TempWhseActLine.VALIDATE(Quantity,"Qty. to Handle (Base)" / BinContent."Qty. per Unit of Measure");
        TempWhseActLine.VALIDATE("Qty. Outstanding");
        TempWhseActLine.VALIDATE("Qty. to Handle");
      END;
    END;

    PROCEDURE ChangeUOMCode@3(VAR WhseActLine@1000 : Record 5767) ChangeUOM@1001 : Boolean;
    BEGIN
      WhseActLine := TempWhseActLine;
      ChangeUOM := ChangeUOM2;
    END;

    BEGIN
    END.
  }
  RDLDATA
  {
  }
}

