OBJECT Report 85 Copy - VAT Posting Setup
{
  OBJECT-PROPERTIES
  {
    Date=07/01/15;
    Time=12:00:00;
    Version List=NAVW18.00.00.39368;
  }
  PROPERTIES
  {
    CaptionML=ENU=Copy - VAT Posting Setup;
    ProcessingOnly=Yes;
  }
  DATASET
  {
    { 1756;    ;DataItem;                    ;
               DataItemTable=Table325;
               DataItemTableView=SORTING(VAT Bus. Posting Group,VAT Prod. Posting Group);
               OnPreDataItem=BEGIN
                               SETRANGE("VAT Bus. Posting Group",UseVATPostingSetup."VAT Bus. Posting Group");
                               SETRANGE("VAT Prod. Posting Group",UseVATPostingSetup."VAT Prod. Posting Group");
                             END;

               OnAfterGetRecord=BEGIN
                                  VATPostingSetup.FIND;
                                  IF VATSetup THEN BEGIN
                                    "VAT Calculation Type" := VATPostingSetup."VAT Calculation Type";
                                    "VAT %" := VATPostingSetup."VAT %";
                                    "Unrealized VAT Type" := VATPostingSetup."Unrealized VAT Type";
                                    "Adjust for Payment Discount" := VATPostingSetup."Adjust for Payment Discount";
                                    "VAT Identifier" := VATPostingSetup."VAT Identifier";
                                  END;

                                  IF Sales THEN BEGIN
                                    "Sales VAT Account" := VATPostingSetup."Sales VAT Account";
                                    "Sales VAT Unreal. Account" := VATPostingSetup."Sales VAT Unreal. Account";
                                  END;

                                  IF Purch THEN BEGIN
                                    "Purchase VAT Account" := VATPostingSetup."Purchase VAT Account";
                                    "Purch. VAT Unreal. Account" := VATPostingSetup."Purch. VAT Unreal. Account";
                                    "Reverse Chrg. VAT Acc." := VATPostingSetup."Reverse Chrg. VAT Acc.";
                                    "Reverse Chrg. VAT Unreal. Acc." := VATPostingSetup."Reverse Chrg. VAT Unreal. Acc.";
                                  END;

                                  IF CONFIRM(Text000,FALSE) THEN
                                    MODIFY;
                                END;
                                 }

  }
  REQUESTPAGE
  {
    PROPERTIES
    {
      SaveValues=Yes;
      OnOpenPage=BEGIN
                   IF Selection = Selection::"All fields" THEN BEGIN
                     VATSetup := TRUE;
                     Sales := TRUE;
                     Purch := TRUE;
                   END;
                 END;

    }
    CONTROLS
    {
      { 1900000001;0;Container;
                  ContainerType=ContentArea }

      { 1900000002;1;Group  ;
                  CaptionML=ENU=Options }

      { 2   ;2   ;Field     ;
                  Name=VATBusPostingGroup;
                  CaptionML=ENU=VAT Bus. Posting Group;
                  SourceExpr=VATPostingSetup."VAT Bus. Posting Group";
                  TableRelation="VAT Business Posting Group" }

      { 4   ;2   ;Field     ;
                  Name=VATProdPostingGroup;
                  CaptionML=ENU=VAT Prod. Posting Group;
                  SourceExpr=VATPostingSetup."VAT Prod. Posting Group";
                  TableRelation="VAT Product Posting Group" }

      { 7   ;2   ;Field     ;
                  Name=Copy;
                  CaptionML=ENU=Copy;
                  OptionCaptionML=ENU=All fields,Selected fields;
                  SourceExpr=Selection;
                  OnValidate=BEGIN
                               IF Selection = Selection::"All fields" THEN
                                 AllfieldsSelectionOnValidate;
                             END;
                              }

      { 10  ;2   ;Field     ;
                  Name=VATetc;
                  CaptionML=ENU=VAT % etc.;
                  SourceExpr=VATSetup;
                  OnValidate=BEGIN
                               Selection := Selection::"Selected fields";
                             END;
                              }

      { 1   ;2   ;Field     ;
                  Name=SalesAccounts;
                  CaptionML=ENU=Sales Accounts;
                  SourceExpr=Sales;
                  OnValidate=BEGIN
                               Selection := Selection::"Selected fields";
                             END;
                              }

      { 17  ;2   ;Field     ;
                  Name=PurchaseAccounts;
                  CaptionML=ENU=Purchase Accounts;
                  SourceExpr=Purch;
                  OnValidate=BEGIN
                               Selection := Selection::"Selected fields";
                             END;
                              }

    }
  }
  LABELS
  {
  }
  CODE
  {
    VAR
      Text000@1000 : TextConst 'ENU=Copy VAT Posting Setup?';
      UseVATPostingSetup@1001 : Record 325;
      VATPostingSetup@1002 : Record 325;
      VATSetup@1003 : Boolean;
      Sales@1004 : Boolean;
      Purch@1005 : Boolean;
      Selection@1006 : 'All fields,Selected fields';

    PROCEDURE SetVATSetup@1(VATPostingSetup2@1000 : Record 325);
    BEGIN
      UseVATPostingSetup := VATPostingSetup2;
    END;

    LOCAL PROCEDURE AllfieldsSelectionOnPush@19052427();
    BEGIN
      VATSetup := TRUE;
      Sales := TRUE;
      Purch := TRUE;
    END;

    LOCAL PROCEDURE AllfieldsSelectionOnValidate@19034152();
    BEGIN
      AllfieldsSelectionOnPush;
    END;

    BEGIN
    END.
  }
  RDLDATA
  {
  }
}

