OBJECT Report 8610 Create G/L Acc. Journal Lines
{
  OBJECT-PROPERTIES
  {
    Date=07/09/12;
    Time=12:00:00;
    Version List=NAVW17.00;
  }
  PROPERTIES
  {
    CaptionML=ENU=Create G/L Acc. Journal Lines;
    ProcessingOnly=Yes;
    OnPostReport=BEGIN
                   MESSAGE(Text004);
                 END;

  }
  DATASET
  {
    { 1   ;    ;DataItem;                    ;
               DataItemTable=Table15;
               DataItemTableView=SORTING(No.);
               OnPreDataItem=BEGIN
                               CheckJournalTemplate;
                               CheckBatchName;
                               CheckPostingDate;

                               GenJnlLine.SETRANGE("Journal Template Name",JournalTemplate);
                               GenJnlLine.SETRANGE("Journal Batch Name",BatchName);
                               IF GenJnlLine.FINDLAST THEN
                                 LineNo := GenJnlLine."Line No." + 10000
                               ELSE
                                 LineNo := 10000;

                               GenJnlBatch.GET(JournalTemplate,BatchName);
                               IF TemplateCode <> '' THEN
                                 StdGenJournal.GET(JournalTemplate,TemplateCode);
                             END;

               OnAfterGetRecord=VAR
                                  StdGenJournalLine@1000 : Record 751;
                                BEGIN
                                  GenJnlLine.INIT;
                                  IF GetStandardJournalLine THEN BEGIN
                                    Initialize(StdGenJournal,GenJnlBatch.Name);

                                    StdGenJournalLine.SETRANGE("Journal Template Name",StdGenJournal."Journal Template Name");
                                    StdGenJournalLine.SETRANGE("Standard Journal Code",StdGenJournal.Code);
                                    IF StdGenJournalLine.FINDSET THEN
                                      REPEAT
                                        CopyGenJnlFromStdJnl(StdGenJournalLine,GenJnlLine);
                                        GenJnlLine.VALIDATE("Document Type",DocumentTypes);
                                        GenJnlLine.VALIDATE("Account Type",GenJnlLine."Account Type"::"G/L Account");
                                        GenJnlLine.VALIDATE("Account No.","No.");
                                        GenJnlLine.VALIDATE("Bal. Account No.",GenJnlBatch."Bal. Account No.");
                                        IF PostingDate <> 0D THEN
                                          GenJnlLine.VALIDATE("Posting Date",PostingDate);
                                        GenJnlLine.MODIFY(TRUE);
                                      UNTIL StdGenJournalLine.NEXT = 0;
                                  END ELSE BEGIN
                                    GenJnlLine.VALIDATE("Journal Template Name",JournalTemplate);
                                    GenJnlLine.VALIDATE("Journal Batch Name",BatchName);
                                    GenJnlLine."Line No." := LineNo;
                                    LineNo := LineNo + 10000;

                                    GenJnlLine.VALIDATE("Document Type",DocumentTypes);
                                    GenJnlLine.VALIDATE("Account Type",GenJnlLine."Account Type"::"G/L Account");
                                    GenJnlLine.VALIDATE("Account No.","No.");
                                    GenJnlLine.VALIDATE("Bal. Account No.",GenJnlBatch."Bal. Account No.");

                                    IF PostingDate <> 0D THEN
                                      GenJnlLine.VALIDATE("Posting Date",PostingDate);

                                    IF NOT GenJnlLine.INSERT(TRUE) THEN
                                      GenJnlLine.MODIFY(TRUE);
                                  END;
                                END;

               ReqFilterFields=No.,Account Type,Blocked,Direct Posting,No. 2 }

  }
  REQUESTPAGE
  {
    PROPERTIES
    {
      SaveValues=Yes;
      OnOpenPage=BEGIN
                   IF PostingDate = 0D THEN
                     PostingDate := WORKDATE;
                 END;

    }
    CONTROLS
    {
      { 1900000001;0;Container;
                  ContainerType=ContentArea }

      { 1900000002;1;Group  ;
                  CaptionML=ENU=Options }

      { 2   ;2   ;Field     ;
                  CaptionML=ENU=Document Type;
                  OptionCaptionML=ENU=" ,Payment,Invoice,Credit Memo,Finance Charge Memo,Reminder,Refund";
                  SourceExpr=DocumentTypes }

      { 4   ;2   ;Field     ;
                  CaptionML=ENU=Posting Date;
                  SourceExpr=PostingDate;
                  OnValidate=BEGIN
                               CheckPostingDate;
                             END;
                              }

      { 6   ;2   ;Field     ;
                  CaptionML=ENU=Journal Template;
                  SourceExpr=JournalTemplate;
                  TableRelation="Gen. Journal Batch".Name;
                  OnValidate=BEGIN
                               CheckJournalTemplate;
                             END;

                  OnLookup=VAR
                             GenJnlTemplate@1001 : Record 80;
                             GenJnlTemplates@1000 : Page 101;
                           BEGIN
                             GenJnlTemplate.SETRANGE(Type,GenJnlTemplate.Type::General);
                             GenJnlTemplate.SETRANGE(Recurring,FALSE);
                             GenJnlTemplates.SETTABLEVIEW(GenJnlTemplate);

                             GenJnlTemplates.LOOKUPMODE := TRUE;
                             GenJnlTemplates.EDITABLE := FALSE;
                             IF GenJnlTemplates.RUNMODAL = ACTION::LookupOK THEN BEGIN
                               GenJnlTemplates.GETRECORD(GenJnlTemplate);
                               JournalTemplate := GenJnlTemplate.Name;
                             END;
                           END;
                            }

      { 8   ;2   ;Field     ;
                  CaptionML=ENU=Batch Name;
                  SourceExpr=BatchName;
                  TableRelation="Gen. Journal Batch".Name;
                  OnValidate=BEGIN
                               CheckBatchName;
                             END;

                  OnLookup=VAR
                             GenJnlBatches@1001 : Page 251;
                           BEGIN
                             IF JournalTemplate <> '' THEN BEGIN
                               GenJnlBatch.SETRANGE("Journal Template Name",JournalTemplate);
                               GenJnlBatches.SETTABLEVIEW(GenJnlBatch);
                             END;

                             GenJnlBatches.LOOKUPMODE := TRUE;
                             GenJnlBatches.EDITABLE := FALSE;
                             IF GenJnlBatches.RUNMODAL = ACTION::LookupOK THEN BEGIN
                               GenJnlBatches.GETRECORD(GenJnlBatch);
                               BatchName := GenJnlBatch.Name;
                             END;
                           END;
                            }

      { 10  ;2   ;Field     ;
                  CaptionML=ENU=Standard General Journal;
                  SourceExpr=TemplateCode;
                  TableRelation="Standard General Journal".Code;
                  OnLookup=VAR
                             StdGenJournal1@1005 : Record 750;
                             StdGenJnls@1000 : Page 750;
                           BEGIN
                             IF JournalTemplate <> '' THEN BEGIN
                               StdGenJournal1.SETRANGE("Journal Template Name",JournalTemplate);
                               StdGenJnls.SETTABLEVIEW(StdGenJournal1);
                             END;

                             StdGenJnls.LOOKUPMODE := TRUE;
                             StdGenJnls.EDITABLE := FALSE;
                             IF StdGenJnls.RUNMODAL = ACTION::LookupOK THEN BEGIN
                               StdGenJnls.GETRECORD(StdGenJournal1);
                               TemplateCode := StdGenJournal1.Code;
                             END;
                           END;
                            }

    }
  }
  LABELS
  {
  }
  CODE
  {
    VAR
      StdGenJournal@1007 : Record 750;
      GenJnlBatch@1006 : Record 232;
      GenJnlLine@1005 : Record 81;
      LastGenJnlLine@1002 : Record 81;
      DocumentTypes@1000 : ' ,Payment,Invoice,Credit Memo,Finance Charge Memo,Reminder,Refund';
      PostingDate@1001 : Date;
      BatchName@1003 : Code[10];
      TemplateCode@1004 : Code[20];
      LineNo@1008 : Integer;
      Text001@1014 : TextConst 'ENU=Gen. Journal Template name is blank.';
      Text002@1009 : TextConst 'ENU=Gen. Journal Batch name is blank.';
      JournalTemplate@1012 : Text[10];
      Text004@1016 : TextConst 'ENU=General journal lines are successfully created.';
      PostingDateIsEmptyErr@1010 : TextConst 'ENU=The posting date is empty.';

    PROCEDURE GetStandardJournalLine@3() : Boolean;
    VAR
      StdGenJounalLine@1000 : Record 751;
    BEGIN
      IF TemplateCode = '' THEN
        EXIT;
      StdGenJounalLine.SETRANGE("Journal Template Name",StdGenJournal."Journal Template Name");
      StdGenJounalLine.SETRANGE("Standard Journal Code",StdGenJournal.Code);
      EXIT(StdGenJounalLine.FINDFIRST);
    END;

    PROCEDURE Initialize@15(VAR StdGenJnl@1001 : Record 750;JnlBatchName@1000 : Code[10]);
    BEGIN
      GenJnlLine."Journal Template Name" := StdGenJnl."Journal Template Name";
      GenJnlLine."Journal Batch Name" := JnlBatchName;
      GenJnlLine.SETRANGE("Journal Template Name",StdGenJnl."Journal Template Name");
      GenJnlLine.SETRANGE("Journal Batch Name",JnlBatchName);

      LastGenJnlLine.SETRANGE("Journal Template Name",StdGenJnl."Journal Template Name");
      LastGenJnlLine.SETRANGE("Journal Batch Name",JnlBatchName);

      IF LastGenJnlLine.FINDLAST THEN;

      GenJnlBatch.SETRANGE("Journal Template Name",StdGenJnl."Journal Template Name");
      GenJnlBatch.SETRANGE(Name,JnlBatchName);

      IF GenJnlBatch.FINDFIRST THEN;
    END;

    PROCEDURE CopyGenJnlFromStdJnl@1(StdGenJnlLine@1001 : Record 751;VAR GenJnlLine@1002 : Record 81);
    VAR
      GenJnlManagement@1000 : Codeunit 230;
      Balance@1007 : Decimal;
      TotalBalance@1006 : Decimal;
      ShowBalance@1005 : Boolean;
      ShowTotalBalance@1004 : Boolean;
    BEGIN
      GenJnlLine.INIT;
      GenJnlLine."Line No." := 0;
      GenJnlManagement.CalcBalance(GenJnlLine,LastGenJnlLine,Balance,TotalBalance,ShowBalance,ShowTotalBalance);
      GenJnlLine.SetUpNewLine(LastGenJnlLine,Balance,TRUE);
      IF LastGenJnlLine."Line No." <> 0 THEN
        GenJnlLine."Line No." := LastGenJnlLine."Line No." + 10000
      ELSE
        GenJnlLine."Line No." := 10000;

      GenJnlLine.TRANSFERFIELDS(StdGenJnlLine,FALSE);
      GenJnlLine.UpdateLineBalance;
      GenJnlLine.VALIDATE("Currency Code");

      IF GenJnlLine."VAT Prod. Posting Group" <> '' THEN
        GenJnlLine.VALIDATE("VAT Prod. Posting Group");
      IF (GenJnlLine."VAT %" <> 0) AND GenJnlBatch."Allow VAT Difference" THEN
        GenJnlLine.VALIDATE("VAT Amount",StdGenJnlLine."VAT Amount");
      GenJnlLine.VALIDATE("Bal. VAT Prod. Posting Group");

      IF GenJnlBatch."Allow VAT Difference" THEN
        GenJnlLine.VALIDATE("Bal. VAT Amount",StdGenJnlLine."Bal. VAT Amount");
      GenJnlLine.INSERT(TRUE);

      LastGenJnlLine := GenJnlLine;
    END;

    PROCEDURE InitializeRequest@2(DocumentTypesFrom@1000 : Option;PostingDateFrom@1001 : Date;JournalTemplateFrom@1002 : Text[10];BatchNameFrom@1003 : Code[10];StandardTemplateCodeFrom@1004 : Code[20]);
    BEGIN
      DocumentTypes := DocumentTypesFrom;
      PostingDate := PostingDateFrom;
      JournalTemplate := JournalTemplateFrom;
      BatchName := BatchNameFrom;
      TemplateCode := StandardTemplateCodeFrom;
    END;

    LOCAL PROCEDURE CheckPostingDate@24();
    BEGIN
      IF PostingDate = 0D THEN
        ERROR(PostingDateIsEmptyErr);
    END;

    LOCAL PROCEDURE CheckBatchName@32();
    BEGIN
      IF BatchName = '' THEN
        ERROR(Text002);
    END;

    LOCAL PROCEDURE CheckJournalTemplate@33();
    BEGIN
      IF JournalTemplate = '' THEN
        ERROR(Text001);
    END;

    BEGIN
    END.
  }
  RDLDATA
  {
  }
}

