OBJECT Report 99000755 Single-level Cost Shares
{
  OBJECT-PROPERTIES
  {
    Date=23/09/13;
    Time=12:00:00;
    Version List=NAVW17.10;
  }
  PROPERTIES
  {
    CaptionML=ENU=Single-level Cost Shares;
  }
  DATASET
  {
    { 8129;    ;DataItem;                    ;
               DataItemTable=Table27;
               DataItemTableView=SORTING(No.);
               OnPreDataItem=BEGIN
                               ItemFilter := GETFILTERS;
                             END;

               ReqFilterFields=No. }

    { 2   ;1   ;Column  ;TodayFormatted      ;
               SourceExpr=FORMAT(TODAY) }

    { 3   ;1   ;Column  ;CompanyName         ;
               SourceExpr=COMPANYNAME }

    { 7   ;1   ;Column  ;TableCaptionItemFilt_Item;
               SourceExpr=TABLECAPTION + ': ' + ItemFilter }

    { 1000000000;1;Column;ItemFilter         ;
               SourceExpr=ItemFilter }

    { 1000000001;1;Column;Show1              ;
               SourceExpr=CostOption = CostOption::"Single-Level" }

    { 1000000003;1;Column;Show2              ;
               SourceExpr=CostOption = CostOption::"Rolled-Up" }

    { 11  ;1   ;Column  ;No_Item             ;
               IncludeCaption=Yes;
               SourceExpr="No." }

    { 14  ;1   ;Column  ;Description_Item    ;
               IncludeCaption=Yes;
               SourceExpr=Description }

    { 20  ;1   ;Column  ;LastUnitCostCalcDate_Item;
               SourceExpr=FORMAT("Last Unit Cost Calc. Date") }

    { 8   ;1   ;Column  ;SingleLevelMaterCost_Item;
               IncludeCaption=Yes;
               SourceExpr="Single-Level Material Cost" }

    { 10  ;1   ;Column  ;SingleLevelCpctyCost_Item;
               IncludeCaption=Yes;
               SourceExpr="Single-Level Capacity Cost" }

    { 16  ;1   ;Column  ;SinglLvlSbcontrdCost_Item;
               IncludeCaption=Yes;
               SourceExpr="Single-Level Subcontrd. Cost" }

    { 22  ;1   ;Column  ;SinglLvlCapOvhdCost_Item;
               IncludeCaption=Yes;
               SourceExpr="Single-Level Cap. Ovhd Cost" }

    { 32  ;1   ;Column  ;UnitCost_Item       ;
               IncludeCaption=Yes;
               SourceExpr="Unit Cost";
               AutoFormatType=2 }

    { 48  ;1   ;Column  ;SinglLvlMfgOvhdCost_Item;
               IncludeCaption=Yes;
               SourceExpr="Single-Level Mfg. Ovhd Cost" }

    { 34  ;1   ;Column  ;RolledupMaterialCost_Item;
               IncludeCaption=Yes;
               SourceExpr="Rolled-up Material Cost" }

    { 36  ;1   ;Column  ;RolledupCapacityCost_Item;
               IncludeCaption=Yes;
               SourceExpr="Rolled-up Capacity Cost" }

    { 38  ;1   ;Column  ;RolldupSubcntrctCost_Item;
               IncludeCaption=Yes;
               SourceExpr="Rolled-up Subcontracted Cost" }

    { 40  ;1   ;Column  ;RolledupMfgOvhdCost_Item;
               IncludeCaption=Yes;
               SourceExpr="Rolled-up Mfg. Ovhd Cost" }

    { 42  ;1   ;Column  ;RolldupCapOverhdCost_Item;
               IncludeCaption=Yes;
               SourceExpr="Rolled-up Cap. Overhead Cost" }

    { 1   ;1   ;Column  ;SinglelevelCostSharesCapt;
               SourceExpr=SinglelevelCostSharesCaptLbl }

    { 5   ;1   ;Column  ;CurrReportPageNoCaption;
               SourceExpr=CurrReportPageNoCaptionLbl }

    { 21  ;1   ;Column  ;ItemLastUnitCostCalcDateCapt;
               SourceExpr=ItemLastUnitCostCalcDateCaptLbl }

  }
  REQUESTPAGE
  {
    PROPERTIES
    {
    }
    CONTROLS
    {
      { 1900000001;0;Container;
                  ContainerType=ContentArea }

      { 1900000002;1;Group  ;
                  CaptionML=ENU=Options }

      { 1   ;2   ;Field     ;
                  CaptionML=ENU=Cost;
                  OptionCaptionML=ENU=Single-Level,Rolled-Up;
                  SourceExpr=CostOption }

    }
  }
  LABELS
  {
  }
  CODE
  {
    VAR
      ItemFilter@1000 : Text;
      CostOption@1002 : 'Single-Level,Rolled-Up';
      SinglelevelCostSharesCaptLbl@5307 : TextConst 'ENU=Single-level Cost Shares';
      CurrReportPageNoCaptionLbl@2595 : TextConst 'ENU=Page';
      ItemLastUnitCostCalcDateCaptLbl@4921 : TextConst 'ENU=Last Unit Cost Calc. Date';

    BEGIN
    END.
  }
  RDLDATA
  {
    <?xml version="1.0" encoding="utf-8"?>
<Report xmlns:rd="http://schemas.microsoft.com/SQLServer/reporting/reportdesigner" xmlns="http://schemas.microsoft.com/sqlserver/reporting/2010/01/reportdefinition">
  <AutoRefresh>0</AutoRefresh>
  <DataSources>
    <DataSource Name="DataSource">
      <ConnectionProperties>
        <DataProvider>SQL</DataProvider>
        <ConnectString />
      </ConnectionProperties>
      <rd:SecurityType>None</rd:SecurityType>
      <rd:DataSourceID>473217f0-cb28-4be1-8746-bc93bfe29570</rd:DataSourceID>
    </DataSource>
  </DataSources>
  <DataSets>
    <DataSet Name="DataSet_Result">
      <Query>
        <DataSourceName>DataSource</DataSourceName>
        <CommandText />
      </Query>
      <Fields>
        <Field Name="TodayFormatted">
          <DataField>TodayFormatted</DataField>
        </Field>
        <Field Name="CompanyName">
          <DataField>CompanyName</DataField>
        </Field>
        <Field Name="TableCaptionItemFilt_Item">
          <DataField>TableCaptionItemFilt_Item</DataField>
        </Field>
        <Field Name="ItemFilter">
          <DataField>ItemFilter</DataField>
        </Field>
        <Field Name="Show1">
          <DataField>Show1</DataField>
        </Field>
        <Field Name="Show2">
          <DataField>Show2</DataField>
        </Field>
        <Field Name="No_Item">
          <DataField>No_Item</DataField>
        </Field>
        <Field Name="Description_Item">
          <DataField>Description_Item</DataField>
        </Field>
        <Field Name="LastUnitCostCalcDate_Item">
          <DataField>LastUnitCostCalcDate_Item</DataField>
        </Field>
        <Field Name="SingleLevelMaterCost_Item">
          <DataField>SingleLevelMaterCost_Item</DataField>
        </Field>
        <Field Name="SingleLevelMaterCost_ItemFormat">
          <DataField>SingleLevelMaterCost_ItemFormat</DataField>
        </Field>
        <Field Name="SingleLevelCpctyCost_Item">
          <DataField>SingleLevelCpctyCost_Item</DataField>
        </Field>
        <Field Name="SingleLevelCpctyCost_ItemFormat">
          <DataField>SingleLevelCpctyCost_ItemFormat</DataField>
        </Field>
        <Field Name="SinglLvlSbcontrdCost_Item">
          <DataField>SinglLvlSbcontrdCost_Item</DataField>
        </Field>
        <Field Name="SinglLvlSbcontrdCost_ItemFormat">
          <DataField>SinglLvlSbcontrdCost_ItemFormat</DataField>
        </Field>
        <Field Name="SinglLvlCapOvhdCost_Item">
          <DataField>SinglLvlCapOvhdCost_Item</DataField>
        </Field>
        <Field Name="SinglLvlCapOvhdCost_ItemFormat">
          <DataField>SinglLvlCapOvhdCost_ItemFormat</DataField>
        </Field>
        <Field Name="UnitCost_Item">
          <DataField>UnitCost_Item</DataField>
        </Field>
        <Field Name="UnitCost_ItemFormat">
          <DataField>UnitCost_ItemFormat</DataField>
        </Field>
        <Field Name="SinglLvlMfgOvhdCost_Item">
          <DataField>SinglLvlMfgOvhdCost_Item</DataField>
        </Field>
        <Field Name="SinglLvlMfgOvhdCost_ItemFormat">
          <DataField>SinglLvlMfgOvhdCost_ItemFormat</DataField>
        </Field>
        <Field Name="RolledupMaterialCost_Item">
          <DataField>RolledupMaterialCost_Item</DataField>
        </Field>
        <Field Name="RolledupMaterialCost_ItemFormat">
          <DataField>RolledupMaterialCost_ItemFormat</DataField>
        </Field>
        <Field Name="RolledupCapacityCost_Item">
          <DataField>RolledupCapacityCost_Item</DataField>
        </Field>
        <Field Name="RolledupCapacityCost_ItemFormat">
          <DataField>RolledupCapacityCost_ItemFormat</DataField>
        </Field>
        <Field Name="RolldupSubcntrctCost_Item">
          <DataField>RolldupSubcntrctCost_Item</DataField>
        </Field>
        <Field Name="RolldupSubcntrctCost_ItemFormat">
          <DataField>RolldupSubcntrctCost_ItemFormat</DataField>
        </Field>
        <Field Name="RolledupMfgOvhdCost_Item">
          <DataField>RolledupMfgOvhdCost_Item</DataField>
        </Field>
        <Field Name="RolledupMfgOvhdCost_ItemFormat">
          <DataField>RolledupMfgOvhdCost_ItemFormat</DataField>
        </Field>
        <Field Name="RolldupCapOverhdCost_Item">
          <DataField>RolldupCapOverhdCost_Item</DataField>
        </Field>
        <Field Name="RolldupCapOverhdCost_ItemFormat">
          <DataField>RolldupCapOverhdCost_ItemFormat</DataField>
        </Field>
        <Field Name="SinglelevelCostSharesCapt">
          <DataField>SinglelevelCostSharesCapt</DataField>
        </Field>
        <Field Name="CurrReportPageNoCaption">
          <DataField>CurrReportPageNoCaption</DataField>
        </Field>
        <Field Name="ItemLastUnitCostCalcDateCapt">
          <DataField>ItemLastUnitCostCalcDateCapt</DataField>
        </Field>
      </Fields>
      <rd:DataSetInfo>
        <rd:DataSetName>DataSet</rd:DataSetName>
        <rd:SchemaPath>Report.xsd</rd:SchemaPath>
        <rd:TableName>Result</rd:TableName>
      </rd:DataSetInfo>
    </DataSet>
  </DataSets>
  <ReportSections>
    <ReportSection>
      <Body>
        <ReportItems>
          <Tablix Name="Item">
            <TablixBody>
              <TablixColumns>
                <TablixColumn>
                  <Width>0.70495in</Width>
                </TablixColumn>
                <TablixColumn>
                  <Width>1.83002in</Width>
                </TablixColumn>
                <TablixColumn>
                  <Width>1in</Width>
                </TablixColumn>
                <TablixColumn>
                  <Width>1.07825in</Width>
                </TablixColumn>
                <TablixColumn>
                  <Width>0.89323in</Width>
                </TablixColumn>
                <TablixColumn>
                  <Width>1.2in</Width>
                </TablixColumn>
                <TablixColumn>
                  <Width>1.12189in</Width>
                </TablixColumn>
                <TablixColumn>
                  <Width>0.97605in</Width>
                </TablixColumn>
                <TablixColumn>
                  <Width>1.1in</Width>
                </TablixColumn>
              </TablixColumns>
              <TablixRows>
                <TablixRow>
                  <Height>0.13889in</Height>
                  <TablixCells>
                    <TablixCell>
                      <CellContents>
                        <Textbox Name="ItemNoCaption">
                          <CanGrow>true</CanGrow>
                          <KeepTogether>true</KeepTogether>
                          <Paragraphs>
                            <Paragraph>
                              <TextRuns>
                                <TextRun>
                                  <Value>=Parameters!No_ItemCaption.Value</Value>
                                  <Style>
                                    <FontFamily>Segoe UI</FontFamily>
                                    <FontSize>8pt</FontSize>
                                    <FontWeight>Bold</FontWeight>
                                  </Style>
                                </TextRun>
                              </TextRuns>
                              <Style>
                                <TextAlign>Left</TextAlign>
                              </Style>
                            </Paragraph>
                          </Paragraphs>
                          <ZIndex>51</ZIndex>
                          <Style>
                            <VerticalAlign>Bottom</VerticalAlign>
                            <PaddingRight>5pt</PaddingRight>
                          </Style>
                        </Textbox>
                      </CellContents>
                    </TablixCell>
                    <TablixCell>
                      <CellContents>
                        <Textbox Name="ItemDescriptionCapt">
                          <CanGrow>true</CanGrow>
                          <KeepTogether>true</KeepTogether>
                          <Paragraphs>
                            <Paragraph>
                              <TextRuns>
                                <TextRun>
                                  <Value>=Parameters!Description_ItemCaption.Value</Value>
                                  <Style>
                                    <FontFamily>Segoe UI</FontFamily>
                                    <FontSize>8pt</FontSize>
                                    <FontWeight>Bold</FontWeight>
                                  </Style>
                                </TextRun>
                              </TextRuns>
                              <Style>
                                <TextAlign>Left</TextAlign>
                              </Style>
                            </Paragraph>
                          </Paragraphs>
                          <ZIndex>50</ZIndex>
                          <Style>
                            <VerticalAlign>Bottom</VerticalAlign>
                            <PaddingLeft>5pt</PaddingLeft>
                            <PaddingRight>5pt</PaddingRight>
                          </Style>
                        </Textbox>
                      </CellContents>
                    </TablixCell>
                    <TablixCell>
                      <CellContents>
                        <Textbox Name="ItemLastUnitCostCalcDateCapt">
                          <CanGrow>true</CanGrow>
                          <KeepTogether>true</KeepTogether>
                          <Paragraphs>
                            <Paragraph>
                              <TextRuns>
                                <TextRun>
                                  <Value>=First(Fields!ItemLastUnitCostCalcDateCapt.Value)</Value>
                                  <Style>
                                    <FontFamily>Segoe UI</FontFamily>
                                    <FontSize>8pt</FontSize>
                                    <FontWeight>Bold</FontWeight>
                                  </Style>
                                </TextRun>
                              </TextRuns>
                              <Style>
                                <TextAlign>Left</TextAlign>
                              </Style>
                            </Paragraph>
                          </Paragraphs>
                          <ZIndex>49</ZIndex>
                          <Style>
                            <Border />
                            <VerticalAlign>Bottom</VerticalAlign>
                            <PaddingLeft>5pt</PaddingLeft>
                            <PaddingRight>5pt</PaddingRight>
                          </Style>
                        </Textbox>
                      </CellContents>
                    </TablixCell>
                    <TablixCell>
                      <CellContents>
                        <Textbox Name="ItemSingleLevelMaterialCostCapt">
                          <CanGrow>true</CanGrow>
                          <KeepTogether>true</KeepTogether>
                          <Paragraphs>
                            <Paragraph>
                              <TextRuns>
                                <TextRun>
                                  <Value>=iif(Fields!Show1.Value,Parameters!SingleLevelMaterCost_ItemCaption.Value,Parameters!RolledupMaterialCost_ItemCaption.Value)</Value>
                                  <Style>
                                    <FontFamily>Segoe UI</FontFamily>
                                    <FontSize>8pt</FontSize>
                                    <FontWeight>Bold</FontWeight>
                                  </Style>
                                </TextRun>
                              </TextRuns>
                              <Style>
                                <TextAlign>Right</TextAlign>
                              </Style>
                            </Paragraph>
                          </Paragraphs>
                          <ZIndex>48</ZIndex>
                          <Style>
                            <Border />
                            <VerticalAlign>Bottom</VerticalAlign>
                            <PaddingLeft>5pt</PaddingLeft>
                            <PaddingRight>5pt</PaddingRight>
                          </Style>
                        </Textbox>
                      </CellContents>
                    </TablixCell>
                    <TablixCell>
                      <CellContents>
                        <Textbox Name="ItemSingleLevelCapacityCostCapt">
                          <CanGrow>true</CanGrow>
                          <KeepTogether>true</KeepTogether>
                          <Paragraphs>
                            <Paragraph>
                              <TextRuns>
                                <TextRun>
                                  <Value>=iif(Fields!Show1.Value,Parameters!SingleLevelCpctyCost_ItemCaption.Value,Parameters!RolledupCapacityCost_ItemCaption.Value)</Value>
                                  <Style>
                                    <FontFamily>Segoe UI</FontFamily>
                                    <FontSize>8pt</FontSize>
                                    <FontWeight>Bold</FontWeight>
                                  </Style>
                                </TextRun>
                              </TextRuns>
                              <Style>
                                <TextAlign>Right</TextAlign>
                              </Style>
                            </Paragraph>
                          </Paragraphs>
                          <ZIndex>47</ZIndex>
                          <Style>
                            <Border />
                            <VerticalAlign>Bottom</VerticalAlign>
                            <PaddingLeft>5pt</PaddingLeft>
                            <PaddingRight>5pt</PaddingRight>
                          </Style>
                        </Textbox>
                      </CellContents>
                    </TablixCell>
                    <TablixCell>
                      <CellContents>
                        <Textbox Name="ItemSingleLevelSubcontrdCostCapt">
                          <CanGrow>true</CanGrow>
                          <KeepTogether>true</KeepTogether>
                          <Paragraphs>
                            <Paragraph>
                              <TextRuns>
                                <TextRun>
                                  <Value>=iif(Fields!Show1.Value,Parameters!SinglLvlSbcontrdCost_ItemCaption.Value,Parameters!RolldupSubcntrctCost_ItemCaption.Value)</Value>
                                  <Style>
                                    <FontFamily>Segoe UI</FontFamily>
                                    <FontSize>8pt</FontSize>
                                    <FontWeight>Bold</FontWeight>
                                  </Style>
                                </TextRun>
                              </TextRuns>
                              <Style>
                                <TextAlign>Right</TextAlign>
                              </Style>
                            </Paragraph>
                          </Paragraphs>
                          <ZIndex>46</ZIndex>
                          <Style>
                            <Border />
                            <VerticalAlign>Bottom</VerticalAlign>
                            <PaddingLeft>5pt</PaddingLeft>
                            <PaddingRight>5pt</PaddingRight>
                          </Style>
                        </Textbox>
                      </CellContents>
                    </TablixCell>
                    <TablixCell>
                      <CellContents>
                        <Textbox Name="ItemSingleLevelMfgOvhdCostCapt">
                          <CanGrow>true</CanGrow>
                          <KeepTogether>true</KeepTogether>
                          <Paragraphs>
                            <Paragraph>
                              <TextRuns>
                                <TextRun>
                                  <Value>=iif(Fields!Show1.Value,Parameters!SinglLvlMfgOvhdCost_ItemCaption.Value,Parameters!RolledupMfgOvhdCost_ItemCaption.Value)</Value>
                                  <Style>
                                    <FontFamily>Segoe UI</FontFamily>
                                    <FontSize>8pt</FontSize>
                                    <FontWeight>Bold</FontWeight>
                                  </Style>
                                </TextRun>
                              </TextRuns>
                              <Style>
                                <TextAlign>Right</TextAlign>
                              </Style>
                            </Paragraph>
                          </Paragraphs>
                          <ZIndex>45</ZIndex>
                          <Style>
                            <Border />
                            <VerticalAlign>Bottom</VerticalAlign>
                            <PaddingLeft>5pt</PaddingLeft>
                            <PaddingRight>5pt</PaddingRight>
                          </Style>
                        </Textbox>
                      </CellContents>
                    </TablixCell>
                    <TablixCell>
                      <CellContents>
                        <Textbox Name="ItemSingleLevelCapOvhdCostCapt">
                          <CanGrow>true</CanGrow>
                          <KeepTogether>true</KeepTogether>
                          <Paragraphs>
                            <Paragraph>
                              <TextRuns>
                                <TextRun>
                                  <Value>=iif(Fields!Show1.Value,Parameters!SinglLvlCapOvhdCost_ItemCaption.Value,Parameters!RolldupCapOverhdCost_ItemCaption.Value)</Value>
                                  <Style>
                                    <FontFamily>Segoe UI</FontFamily>
                                    <FontSize>8pt</FontSize>
                                    <FontWeight>Bold</FontWeight>
                                  </Style>
                                </TextRun>
                              </TextRuns>
                              <Style>
                                <TextAlign>Right</TextAlign>
                              </Style>
                            </Paragraph>
                          </Paragraphs>
                          <ZIndex>44</ZIndex>
                          <Style>
                            <Border />
                            <VerticalAlign>Bottom</VerticalAlign>
                            <PaddingLeft>5pt</PaddingLeft>
                            <PaddingRight>5pt</PaddingRight>
                          </Style>
                        </Textbox>
                      </CellContents>
                    </TablixCell>
                    <TablixCell>
                      <CellContents>
                        <Textbox Name="ItemUnitCostCapt">
                          <CanGrow>true</CanGrow>
                          <KeepTogether>true</KeepTogether>
                          <Paragraphs>
                            <Paragraph>
                              <TextRuns>
                                <TextRun>
                                  <Value>=Parameters!UnitCost_ItemCaption.Value</Value>
                                  <Style>
                                    <FontFamily>Segoe UI</FontFamily>
                                    <FontSize>8pt</FontSize>
                                    <FontWeight>Bold</FontWeight>
                                  </Style>
                                </TextRun>
                              </TextRuns>
                              <Style>
                                <TextAlign>Right</TextAlign>
                              </Style>
                            </Paragraph>
                          </Paragraphs>
                          <ZIndex>43</ZIndex>
                          <Style>
                            <Border />
                            <VerticalAlign>Bottom</VerticalAlign>
                            <PaddingLeft>5pt</PaddingLeft>
                          </Style>
                        </Textbox>
                      </CellContents>
                    </TablixCell>
                  </TablixCells>
                </TablixRow>
                <TablixRow>
                  <Height>0.06944in</Height>
                  <TablixCells>
                    <TablixCell>
                      <CellContents>
                        <Textbox Name="Textbox19">
                          <CanGrow>true</CanGrow>
                          <KeepTogether>true</KeepTogether>
                          <Paragraphs>
                            <Paragraph>
                              <TextRuns>
                                <TextRun>
                                  <Value />
                                  <Style>
                                    <FontFamily>Segoe UI</FontFamily>
                                    <FontSize>8pt</FontSize>
                                    <FontWeight>Bold</FontWeight>
                                  </Style>
                                </TextRun>
                              </TextRuns>
                              <Style>
                                <TextAlign>Left</TextAlign>
                              </Style>
                            </Paragraph>
                          </Paragraphs>
                          <rd:DefaultName>Textbox19</rd:DefaultName>
                          <Style>
                            <Border>
                              <Style>None</Style>
                            </Border>
                            <BottomBorder>
                              <Style>Solid</Style>
                            </BottomBorder>
                            <PaddingRight>5pt</PaddingRight>
                          </Style>
                        </Textbox>
                      </CellContents>
                    </TablixCell>
                    <TablixCell>
                      <CellContents>
                        <Textbox Name="Textbox20">
                          <CanGrow>true</CanGrow>
                          <KeepTogether>true</KeepTogether>
                          <Paragraphs>
                            <Paragraph>
                              <TextRuns>
                                <TextRun>
                                  <Value />
                                  <Style>
                                    <FontFamily>Segoe UI</FontFamily>
                                    <FontSize>8pt</FontSize>
                                    <FontWeight>Bold</FontWeight>
                                  </Style>
                                </TextRun>
                              </TextRuns>
                              <Style>
                                <TextAlign>Left</TextAlign>
                              </Style>
                            </Paragraph>
                          </Paragraphs>
                          <rd:DefaultName>Textbox20</rd:DefaultName>
                          <Style>
                            <Border>
                              <Style>None</Style>
                            </Border>
                            <BottomBorder>
                              <Style>Solid</Style>
                            </BottomBorder>
                            <PaddingLeft>5pt</PaddingLeft>
                            <PaddingRight>5pt</PaddingRight>
                          </Style>
                        </Textbox>
                      </CellContents>
                    </TablixCell>
                    <TablixCell>
                      <CellContents>
                        <Textbox Name="Textbox21">
                          <CanGrow>true</CanGrow>
                          <KeepTogether>true</KeepTogether>
                          <Paragraphs>
                            <Paragraph>
                              <TextRuns>
                                <TextRun>
                                  <Value />
                                  <Style>
                                    <FontFamily>Segoe UI</FontFamily>
                                    <FontSize>8pt</FontSize>
                                    <FontWeight>Bold</FontWeight>
                                  </Style>
                                </TextRun>
                              </TextRuns>
                              <Style>
                                <TextAlign>Left</TextAlign>
                              </Style>
                            </Paragraph>
                          </Paragraphs>
                          <rd:DefaultName>Textbox21</rd:DefaultName>
                          <Style>
                            <Border>
                              <Style>None</Style>
                            </Border>
                            <BottomBorder>
                              <Style>Solid</Style>
                            </BottomBorder>
                            <PaddingLeft>5pt</PaddingLeft>
                            <PaddingRight>5pt</PaddingRight>
                          </Style>
                        </Textbox>
                      </CellContents>
                    </TablixCell>
                    <TablixCell>
                      <CellContents>
                        <Textbox Name="Textbox22">
                          <CanGrow>true</CanGrow>
                          <KeepTogether>true</KeepTogether>
                          <Paragraphs>
                            <Paragraph>
                              <TextRuns>
                                <TextRun>
                                  <Value />
                                  <Style>
                                    <FontFamily>Segoe UI</FontFamily>
                                    <FontSize>8pt</FontSize>
                                    <FontWeight>Bold</FontWeight>
                                  </Style>
                                </TextRun>
                              </TextRuns>
                              <Style>
                                <TextAlign>Right</TextAlign>
                              </Style>
                            </Paragraph>
                          </Paragraphs>
                          <rd:DefaultName>Textbox22</rd:DefaultName>
                          <Style>
                            <Border>
                              <Style>None</Style>
                            </Border>
                            <BottomBorder>
                              <Style>Solid</Style>
                            </BottomBorder>
                            <PaddingLeft>5pt</PaddingLeft>
                            <PaddingRight>5pt</PaddingRight>
                          </Style>
                        </Textbox>
                      </CellContents>
                    </TablixCell>
                    <TablixCell>
                      <CellContents>
                        <Textbox Name="Textbox23">
                          <CanGrow>true</CanGrow>
                          <KeepTogether>true</KeepTogether>
                          <Paragraphs>
                            <Paragraph>
                              <TextRuns>
                                <TextRun>
                                  <Value />
                                  <Style>
                                    <FontFamily>Segoe UI</FontFamily>
                                    <FontSize>8pt</FontSize>
                                    <FontWeight>Bold</FontWeight>
                                  </Style>
                                </TextRun>
                              </TextRuns>
                              <Style>
                                <TextAlign>Right</TextAlign>
                              </Style>
                            </Paragraph>
                          </Paragraphs>
                          <rd:DefaultName>Textbox23</rd:DefaultName>
                          <Style>
                            <Border>
                              <Style>None</Style>
                            </Border>
                            <BottomBorder>
                              <Style>Solid</Style>
                            </BottomBorder>
                            <PaddingLeft>5pt</PaddingLeft>
                            <PaddingRight>5pt</PaddingRight>
                          </Style>
                        </Textbox>
                      </CellContents>
                    </TablixCell>
                    <TablixCell>
                      <CellContents>
                        <Textbox Name="Textbox24">
                          <CanGrow>true</CanGrow>
                          <KeepTogether>true</KeepTogether>
                          <Paragraphs>
                            <Paragraph>
                              <TextRuns>
                                <TextRun>
                                  <Value />
                                  <Style>
                                    <FontFamily>Segoe UI</FontFamily>
                                    <FontSize>8pt</FontSize>
                                    <FontWeight>Bold</FontWeight>
                                  </Style>
                                </TextRun>
                              </TextRuns>
                              <Style>
                                <TextAlign>Right</TextAlign>
                              </Style>
                            </Paragraph>
                          </Paragraphs>
                          <rd:DefaultName>Textbox24</rd:DefaultName>
                          <Style>
                            <Border>
                              <Style>None</Style>
                            </Border>
                            <BottomBorder>
                              <Style>Solid</Style>
                            </BottomBorder>
                            <PaddingLeft>5pt</PaddingLeft>
                            <PaddingRight>5pt</PaddingRight>
                          </Style>
                        </Textbox>
                      </CellContents>
                    </TablixCell>
                    <TablixCell>
                      <CellContents>
                        <Textbox Name="Textbox25">
                          <CanGrow>true</CanGrow>
                          <KeepTogether>true</KeepTogether>
                          <Paragraphs>
                            <Paragraph>
                              <TextRuns>
                                <TextRun>
                                  <Value />
                                  <Style>
                                    <FontFamily>Segoe UI</FontFamily>
                                    <FontSize>8pt</FontSize>
                                    <FontWeight>Bold</FontWeight>
                                  </Style>
                                </TextRun>
                              </TextRuns>
                              <Style>
                                <TextAlign>Right</TextAlign>
                              </Style>
                            </Paragraph>
                          </Paragraphs>
                          <rd:DefaultName>Textbox25</rd:DefaultName>
                          <Style>
                            <Border>
                              <Style>None</Style>
                            </Border>
                            <BottomBorder>
                              <Style>Solid</Style>
                            </BottomBorder>
                            <PaddingLeft>5pt</PaddingLeft>
                            <PaddingRight>5pt</PaddingRight>
                          </Style>
                        </Textbox>
                      </CellContents>
                    </TablixCell>
                    <TablixCell>
                      <CellContents>
                        <Textbox Name="Textbox26">
                          <CanGrow>true</CanGrow>
                          <KeepTogether>true</KeepTogether>
                          <Paragraphs>
                            <Paragraph>
                              <TextRuns>
                                <TextRun>
                                  <Value />
                                  <Style>
                                    <FontFamily>Segoe UI</FontFamily>
                                    <FontSize>8pt</FontSize>
                                    <FontWeight>Bold</FontWeight>
                                  </Style>
                                </TextRun>
                              </TextRuns>
                              <Style>
                                <TextAlign>Right</TextAlign>
                              </Style>
                            </Paragraph>
                          </Paragraphs>
                          <rd:DefaultName>Textbox26</rd:DefaultName>
                          <Style>
                            <Border>
                              <Style>None</Style>
                            </Border>
                            <BottomBorder>
                              <Style>Solid</Style>
                            </BottomBorder>
                            <PaddingLeft>5pt</PaddingLeft>
                            <PaddingRight>5pt</PaddingRight>
                          </Style>
                        </Textbox>
                      </CellContents>
                    </TablixCell>
                    <TablixCell>
                      <CellContents>
                        <Textbox Name="Textbox27">
                          <CanGrow>true</CanGrow>
                          <KeepTogether>true</KeepTogether>
                          <Paragraphs>
                            <Paragraph>
                              <TextRuns>
                                <TextRun>
                                  <Value />
                                  <Style>
                                    <FontFamily>Segoe UI</FontFamily>
                                    <FontSize>8pt</FontSize>
                                    <FontWeight>Bold</FontWeight>
                                  </Style>
                                </TextRun>
                              </TextRuns>
                              <Style>
                                <TextAlign>Right</TextAlign>
                              </Style>
                            </Paragraph>
                          </Paragraphs>
                          <rd:DefaultName>Textbox27</rd:DefaultName>
                          <Style>
                            <Border>
                              <Style>None</Style>
                            </Border>
                            <BottomBorder>
                              <Style>Solid</Style>
                            </BottomBorder>
                            <PaddingLeft>5pt</PaddingLeft>
                          </Style>
                        </Textbox>
                      </CellContents>
                    </TablixCell>
                  </TablixCells>
                </TablixRow>
                <TablixRow>
                  <Height>0.06944in</Height>
                  <TablixCells>
                    <TablixCell>
                      <CellContents>
                        <Textbox Name="Textbox28">
                          <CanGrow>true</CanGrow>
                          <KeepTogether>true</KeepTogether>
                          <Paragraphs>
                            <Paragraph>
                              <TextRuns>
                                <TextRun>
                                  <Value />
                                  <Style>
                                    <FontFamily>Segoe UI</FontFamily>
                                    <FontSize>8pt</FontSize>
                                    <FontWeight>Bold</FontWeight>
                                  </Style>
                                </TextRun>
                              </TextRuns>
                              <Style>
                                <TextAlign>Left</TextAlign>
                              </Style>
                            </Paragraph>
                          </Paragraphs>
                          <rd:DefaultName>Textbox28</rd:DefaultName>
                          <Style>
                            <PaddingRight>5pt</PaddingRight>
                          </Style>
                        </Textbox>
                      </CellContents>
                    </TablixCell>
                    <TablixCell>
                      <CellContents>
                        <Textbox Name="Textbox29">
                          <CanGrow>true</CanGrow>
                          <KeepTogether>true</KeepTogether>
                          <Paragraphs>
                            <Paragraph>
                              <TextRuns>
                                <TextRun>
                                  <Value />
                                  <Style>
                                    <FontFamily>Segoe UI</FontFamily>
                                    <FontSize>8pt</FontSize>
                                    <FontWeight>Bold</FontWeight>
                                  </Style>
                                </TextRun>
                              </TextRuns>
                              <Style>
                                <TextAlign>Left</TextAlign>
                              </Style>
                            </Paragraph>
                          </Paragraphs>
                          <rd:DefaultName>Textbox29</rd:DefaultName>
                          <Style>
                            <PaddingLeft>5pt</PaddingLeft>
                            <PaddingRight>5pt</PaddingRight>
                          </Style>
                        </Textbox>
                      </CellContents>
                    </TablixCell>
                    <TablixCell>
                      <CellContents>
                        <Textbox Name="Textbox30">
                          <CanGrow>true</CanGrow>
                          <KeepTogether>true</KeepTogether>
                          <Paragraphs>
                            <Paragraph>
                              <TextRuns>
                                <TextRun>
                                  <Value />
                                  <Style>
                                    <FontFamily>Segoe UI</FontFamily>
                                    <FontSize>8pt</FontSize>
                                    <FontWeight>Bold</FontWeight>
                                  </Style>
                                </TextRun>
                              </TextRuns>
                              <Style>
                                <TextAlign>Left</TextAlign>
                              </Style>
                            </Paragraph>
                          </Paragraphs>
                          <rd:DefaultName>Textbox30</rd:DefaultName>
                          <Style>
                            <PaddingLeft>5pt</PaddingLeft>
                            <PaddingRight>5pt</PaddingRight>
                          </Style>
                        </Textbox>
                      </CellContents>
                    </TablixCell>
                    <TablixCell>
                      <CellContents>
                        <Textbox Name="Textbox31">
                          <CanGrow>true</CanGrow>
                          <KeepTogether>true</KeepTogether>
                          <Paragraphs>
                            <Paragraph>
                              <TextRuns>
                                <TextRun>
                                  <Value />
                                  <Style>
                                    <FontFamily>Segoe UI</FontFamily>
                                    <FontSize>8pt</FontSize>
                                    <FontWeight>Bold</FontWeight>
                                  </Style>
                                </TextRun>
                              </TextRuns>
                              <Style>
                                <TextAlign>Right</TextAlign>
                              </Style>
                            </Paragraph>
                          </Paragraphs>
                          <rd:DefaultName>Textbox31</rd:DefaultName>
                          <Style>
                            <PaddingLeft>5pt</PaddingLeft>
                            <PaddingRight>5pt</PaddingRight>
                          </Style>
                        </Textbox>
                      </CellContents>
                    </TablixCell>
                    <TablixCell>
                      <CellContents>
                        <Textbox Name="Textbox32">
                          <CanGrow>true</CanGrow>
                          <KeepTogether>true</KeepTogether>
                          <Paragraphs>
                            <Paragraph>
                              <TextRuns>
                                <TextRun>
                                  <Value />
                                  <Style>
                                    <FontFamily>Segoe UI</FontFamily>
                                    <FontSize>8pt</FontSize>
                                    <FontWeight>Bold</FontWeight>
                                  </Style>
                                </TextRun>
                              </TextRuns>
                              <Style>
                                <TextAlign>Right</TextAlign>
                              </Style>
                            </Paragraph>
                          </Paragraphs>
                          <rd:DefaultName>Textbox32</rd:DefaultName>
                          <Style>
                            <PaddingLeft>5pt</PaddingLeft>
                            <PaddingRight>5pt</PaddingRight>
                          </Style>
                        </Textbox>
                      </CellContents>
                    </TablixCell>
                    <TablixCell>
                      <CellContents>
                        <Textbox Name="Textbox33">
                          <CanGrow>true</CanGrow>
                          <KeepTogether>true</KeepTogether>
                          <Paragraphs>
                            <Paragraph>
                              <TextRuns>
                                <TextRun>
                                  <Value />
                                  <Style>
                                    <FontFamily>Segoe UI</FontFamily>
                                    <FontSize>8pt</FontSize>
                                    <FontWeight>Bold</FontWeight>
                                  </Style>
                                </TextRun>
                              </TextRuns>
                              <Style>
                                <TextAlign>Right</TextAlign>
                              </Style>
                            </Paragraph>
                          </Paragraphs>
                          <rd:DefaultName>Textbox33</rd:DefaultName>
                          <Style>
                            <PaddingLeft>5pt</PaddingLeft>
                            <PaddingRight>5pt</PaddingRight>
                          </Style>
                        </Textbox>
                      </CellContents>
                    </TablixCell>
                    <TablixCell>
                      <CellContents>
                        <Textbox Name="Textbox34">
                          <CanGrow>true</CanGrow>
                          <KeepTogether>true</KeepTogether>
                          <Paragraphs>
                            <Paragraph>
                              <TextRuns>
                                <TextRun>
                                  <Value />
                                  <Style>
                                    <FontFamily>Segoe UI</FontFamily>
                                    <FontSize>8pt</FontSize>
                                    <FontWeight>Bold</FontWeight>
                                  </Style>
                                </TextRun>
                              </TextRuns>
                              <Style>
                                <TextAlign>Right</TextAlign>
                              </Style>
                            </Paragraph>
                          </Paragraphs>
                          <rd:DefaultName>Textbox34</rd:DefaultName>
                          <Style>
                            <PaddingLeft>5pt</PaddingLeft>
                            <PaddingRight>5pt</PaddingRight>
                          </Style>
                        </Textbox>
                      </CellContents>
                    </TablixCell>
                    <TablixCell>
                      <CellContents>
                        <Textbox Name="Textbox35">
                          <CanGrow>true</CanGrow>
                          <KeepTogether>true</KeepTogether>
                          <Paragraphs>
                            <Paragraph>
                              <TextRuns>
                                <TextRun>
                                  <Value />
                                  <Style>
                                    <FontFamily>Segoe UI</FontFamily>
                                    <FontSize>8pt</FontSize>
                                    <FontWeight>Bold</FontWeight>
                                  </Style>
                                </TextRun>
                              </TextRuns>
                              <Style>
                                <TextAlign>Right</TextAlign>
                              </Style>
                            </Paragraph>
                          </Paragraphs>
                          <rd:DefaultName>Textbox35</rd:DefaultName>
                          <Style>
                            <PaddingLeft>5pt</PaddingLeft>
                            <PaddingRight>5pt</PaddingRight>
                          </Style>
                        </Textbox>
                      </CellContents>
                    </TablixCell>
                    <TablixCell>
                      <CellContents>
                        <Textbox Name="Textbox36">
                          <CanGrow>true</CanGrow>
                          <KeepTogether>true</KeepTogether>
                          <Paragraphs>
                            <Paragraph>
                              <TextRuns>
                                <TextRun>
                                  <Value />
                                  <Style>
                                    <FontFamily>Segoe UI</FontFamily>
                                    <FontSize>8pt</FontSize>
                                    <FontWeight>Bold</FontWeight>
                                  </Style>
                                </TextRun>
                              </TextRuns>
                              <Style>
                                <TextAlign>Right</TextAlign>
                              </Style>
                            </Paragraph>
                          </Paragraphs>
                          <rd:DefaultName>Textbox36</rd:DefaultName>
                          <Style>
                            <PaddingLeft>5pt</PaddingLeft>
                          </Style>
                        </Textbox>
                      </CellContents>
                    </TablixCell>
                  </TablixCells>
                </TablixRow>
                <TablixRow>
                  <Height>0.13889in</Height>
                  <TablixCells>
                    <TablixCell>
                      <CellContents>
                        <Textbox Name="ItemNo">
                          <KeepTogether>true</KeepTogether>
                          <Paragraphs>
                            <Paragraph>
                              <TextRuns>
                                <TextRun>
                                  <Value>=Fields!No_Item.Value</Value>
                                  <Style>
                                    <FontFamily>Segoe UI</FontFamily>
                                    <FontSize>8pt</FontSize>
                                  </Style>
                                </TextRun>
                              </TextRuns>
                              <Style>
                                <TextAlign>Left</TextAlign>
                              </Style>
                            </Paragraph>
                          </Paragraphs>
                          <ZIndex>25</ZIndex>
                          <Style>
                            <BackgroundColor>=IIF(RowNumber(Nothing) Mod 2 , "#EFEFEF","#FFFFFF")</BackgroundColor>
                            <VerticalAlign>Top</VerticalAlign>
                            <PaddingRight>5pt</PaddingRight>
                          </Style>
                        </Textbox>
                      </CellContents>
                    </TablixCell>
                    <TablixCell>
                      <CellContents>
                        <Textbox Name="ItemDescription">
                          <CanGrow>true</CanGrow>
                          <CanShrink>true</CanShrink>
                          <KeepTogether>true</KeepTogether>
                          <Paragraphs>
                            <Paragraph>
                              <TextRuns>
                                <TextRun>
                                  <Value>=Fields!Description_Item.Value</Value>
                                  <Style>
                                    <FontFamily>Segoe UI</FontFamily>
                                    <FontSize>8pt</FontSize>
                                  </Style>
                                </TextRun>
                              </TextRuns>
                              <Style>
                                <TextAlign>Left</TextAlign>
                              </Style>
                            </Paragraph>
                          </Paragraphs>
                          <ZIndex>24</ZIndex>
                          <Style>
                            <Border />
                            <BackgroundColor>=IIF(RowNumber(Nothing) Mod 2 , "#EFEFEF","#FFFFFF")</BackgroundColor>
                            <VerticalAlign>Top</VerticalAlign>
                            <PaddingLeft>5pt</PaddingLeft>
                            <PaddingRight>5pt</PaddingRight>
                          </Style>
                        </Textbox>
                      </CellContents>
                    </TablixCell>
                    <TablixCell>
                      <CellContents>
                        <Textbox Name="ItemLastUnitCostCalcDate">
                          <CanGrow>true</CanGrow>
                          <KeepTogether>true</KeepTogether>
                          <Paragraphs>
                            <Paragraph>
                              <TextRuns>
                                <TextRun>
                                  <Value>=Fields!LastUnitCostCalcDate_Item.Value</Value>
                                  <Style>
                                    <FontFamily>Segoe UI</FontFamily>
                                    <FontSize>8pt</FontSize>
                                    <Format>d</Format>
                                  </Style>
                                </TextRun>
                              </TextRuns>
                              <Style>
                                <TextAlign>Left</TextAlign>
                              </Style>
                            </Paragraph>
                          </Paragraphs>
                          <ZIndex>23</ZIndex>
                          <Style>
                            <BackgroundColor>=IIF(RowNumber(Nothing) Mod 2 , "#EFEFEF","#FFFFFF")</BackgroundColor>
                            <VerticalAlign>Top</VerticalAlign>
                            <PaddingLeft>5pt</PaddingLeft>
                            <PaddingRight>5pt</PaddingRight>
                          </Style>
                        </Textbox>
                      </CellContents>
                    </TablixCell>
                    <TablixCell>
                      <CellContents>
                        <Textbox Name="ItemSingleLevelMaterialCost">
                          <CanGrow>true</CanGrow>
                          <KeepTogether>true</KeepTogether>
                          <Paragraphs>
                            <Paragraph>
                              <TextRuns>
                                <TextRun>
                                  <Value>=Fields!SingleLevelMaterCost_Item.Value</Value>
                                  <Style>
                                    <FontFamily>Segoe UI</FontFamily>
                                    <FontSize>8pt</FontSize>
                                    <Format>=iif((Fields!SingleLevelMaterCost_Item.Value*100 - Int(Fields!SingleLevelMaterCost_Item.Value*100)) &lt;&gt; 0,"",Fields!SingleLevelMaterCost_ItemFormat.Value)</Format>
                                  </Style>
                                </TextRun>
                              </TextRuns>
                              <Style />
                            </Paragraph>
                          </Paragraphs>
                          <ZIndex>22</ZIndex>
                          <Style>
                            <BackgroundColor>=IIF(RowNumber(Nothing) Mod 2 , "#EFEFEF","#FFFFFF")</BackgroundColor>
                            <VerticalAlign>Top</VerticalAlign>
                            <PaddingLeft>5pt</PaddingLeft>
                            <PaddingRight>5pt</PaddingRight>
                          </Style>
                        </Textbox>
                      </CellContents>
                    </TablixCell>
                    <TablixCell>
                      <CellContents>
                        <Textbox Name="ItemSingleLevelCapacityCost">
                          <CanGrow>true</CanGrow>
                          <KeepTogether>true</KeepTogether>
                          <Paragraphs>
                            <Paragraph>
                              <TextRuns>
                                <TextRun>
                                  <Value>=Fields!SingleLevelCpctyCost_Item.Value</Value>
                                  <Style>
                                    <FontFamily>Segoe UI</FontFamily>
                                    <FontSize>8pt</FontSize>
                                    <Format>=iif((Fields!SingleLevelCpctyCost_Item.Value*100 - Int(Fields!SingleLevelCpctyCost_Item.Value*100)) &lt;&gt; 0,"",Fields!SingleLevelCpctyCost_ItemFormat.Value)</Format>
                                  </Style>
                                </TextRun>
                              </TextRuns>
                              <Style />
                            </Paragraph>
                          </Paragraphs>
                          <ZIndex>21</ZIndex>
                          <Style>
                            <BackgroundColor>=IIF(RowNumber(Nothing) Mod 2 , "#EFEFEF","#FFFFFF")</BackgroundColor>
                            <VerticalAlign>Top</VerticalAlign>
                            <PaddingLeft>5pt</PaddingLeft>
                            <PaddingRight>5pt</PaddingRight>
                          </Style>
                        </Textbox>
                      </CellContents>
                    </TablixCell>
                    <TablixCell>
                      <CellContents>
                        <Textbox Name="ItemSingleLevelSubcontrdCost">
                          <CanGrow>true</CanGrow>
                          <KeepTogether>true</KeepTogether>
                          <Paragraphs>
                            <Paragraph>
                              <TextRuns>
                                <TextRun>
                                  <Value>=Fields!SinglLvlSbcontrdCost_Item.Value</Value>
                                  <Style>
                                    <FontFamily>Segoe UI</FontFamily>
                                    <FontSize>8pt</FontSize>
                                    <Format>=iif((Fields!SinglLvlSbcontrdCost_Item.Value*100 - Int(Fields!SinglLvlSbcontrdCost_Item.Value*100)) &lt;&gt; 0,"",Fields!SinglLvlSbcontrdCost_ItemFormat.Value)</Format>
                                  </Style>
                                </TextRun>
                              </TextRuns>
                              <Style />
                            </Paragraph>
                          </Paragraphs>
                          <ZIndex>20</ZIndex>
                          <Style>
                            <BackgroundColor>=IIF(RowNumber(Nothing) Mod 2 , "#EFEFEF","#FFFFFF")</BackgroundColor>
                            <VerticalAlign>Top</VerticalAlign>
                            <PaddingLeft>5pt</PaddingLeft>
                            <PaddingRight>5pt</PaddingRight>
                          </Style>
                        </Textbox>
                      </CellContents>
                    </TablixCell>
                    <TablixCell>
                      <CellContents>
                        <Textbox Name="ItemSingleLevelMfgOvhdCost">
                          <CanGrow>true</CanGrow>
                          <KeepTogether>true</KeepTogether>
                          <Paragraphs>
                            <Paragraph>
                              <TextRuns>
                                <TextRun>
                                  <Value>=Fields!SinglLvlMfgOvhdCost_Item.Value</Value>
                                  <Style>
                                    <FontFamily>Segoe UI</FontFamily>
                                    <FontSize>8pt</FontSize>
                                    <Format>=iif((Fields!SinglLvlMfgOvhdCost_Item.Value*100 - Int(Fields!SinglLvlMfgOvhdCost_Item.Value*100)) &lt;&gt; 0,"",Fields!SinglLvlMfgOvhdCost_ItemFormat.Value)</Format>
                                  </Style>
                                </TextRun>
                              </TextRuns>
                              <Style />
                            </Paragraph>
                          </Paragraphs>
                          <ZIndex>19</ZIndex>
                          <Style>
                            <BackgroundColor>=IIF(RowNumber(Nothing) Mod 2 , "#EFEFEF","#FFFFFF")</BackgroundColor>
                            <VerticalAlign>Top</VerticalAlign>
                            <PaddingLeft>5pt</PaddingLeft>
                            <PaddingRight>5pt</PaddingRight>
                          </Style>
                        </Textbox>
                      </CellContents>
                    </TablixCell>
                    <TablixCell>
                      <CellContents>
                        <Textbox Name="ItemSingleLevelCapOvhdCost">
                          <CanGrow>true</CanGrow>
                          <KeepTogether>true</KeepTogether>
                          <Paragraphs>
                            <Paragraph>
                              <TextRuns>
                                <TextRun>
                                  <Value>=Fields!SinglLvlCapOvhdCost_Item.Value</Value>
                                  <Style>
                                    <FontFamily>Segoe UI</FontFamily>
                                    <FontSize>8pt</FontSize>
                                    <Format>=iif((Fields!SinglLvlCapOvhdCost_Item.Value*100 - Int(Fields!SinglLvlCapOvhdCost_Item.Value*100)) &lt;&gt; 0,"",Fields!SinglLvlCapOvhdCost_ItemFormat.Value)</Format>
                                  </Style>
                                </TextRun>
                              </TextRuns>
                              <Style />
                            </Paragraph>
                          </Paragraphs>
                          <ZIndex>18</ZIndex>
                          <Style>
                            <BackgroundColor>=IIF(RowNumber(Nothing) Mod 2 , "#EFEFEF","#FFFFFF")</BackgroundColor>
                            <VerticalAlign>Top</VerticalAlign>
                            <PaddingLeft>5pt</PaddingLeft>
                            <PaddingRight>5pt</PaddingRight>
                          </Style>
                        </Textbox>
                      </CellContents>
                    </TablixCell>
                    <TablixCell>
                      <CellContents>
                        <Textbox Name="ItemUnitCost">
                          <CanGrow>true</CanGrow>
                          <KeepTogether>true</KeepTogether>
                          <Paragraphs>
                            <Paragraph>
                              <TextRuns>
                                <TextRun>
                                  <Value>=Fields!UnitCost_Item.Value</Value>
                                  <Style>
                                    <FontFamily>Segoe UI</FontFamily>
                                    <FontSize>8pt</FontSize>
                                    <Format>=iif((Fields!UnitCost_Item.Value*100 - Int(Fields!UnitCost_Item.Value*100)) &lt;&gt; 0,"",Fields!UnitCost_ItemFormat.Value)</Format>
                                  </Style>
                                </TextRun>
                              </TextRuns>
                              <Style>
                                <TextAlign>Right</TextAlign>
                              </Style>
                            </Paragraph>
                          </Paragraphs>
                          <ZIndex>17</ZIndex>
                          <Style>
                            <BackgroundColor>=IIF(RowNumber(Nothing) Mod 2 , "#EFEFEF","#FFFFFF")</BackgroundColor>
                            <VerticalAlign>Top</VerticalAlign>
                            <PaddingLeft>5pt</PaddingLeft>
                          </Style>
                        </Textbox>
                      </CellContents>
                    </TablixCell>
                  </TablixCells>
                </TablixRow>
                <TablixRow>
                  <Height>0.13889in</Height>
                  <TablixCells>
                    <TablixCell>
                      <CellContents>
                        <Textbox Name="ItemNo1">
                          <KeepTogether>true</KeepTogether>
                          <Paragraphs>
                            <Paragraph>
                              <TextRuns>
                                <TextRun>
                                  <Value>=Fields!No_Item.Value</Value>
                                  <Style>
                                    <FontFamily>Segoe UI</FontFamily>
                                    <FontSize>8pt</FontSize>
                                  </Style>
                                </TextRun>
                              </TextRuns>
                              <Style>
                                <TextAlign>Left</TextAlign>
                              </Style>
                            </Paragraph>
                          </Paragraphs>
                          <ZIndex>12</ZIndex>
                          <Style>
                            <BackgroundColor>=IIF(RowNumber(Nothing) Mod 2 , "#EFEFEF","#FFFFFF")</BackgroundColor>
                            <VerticalAlign>Top</VerticalAlign>
                            <PaddingRight>5pt</PaddingRight>
                          </Style>
                        </Textbox>
                      </CellContents>
                    </TablixCell>
                    <TablixCell>
                      <CellContents>
                        <Textbox Name="ItemDescription1">
                          <KeepTogether>true</KeepTogether>
                          <Paragraphs>
                            <Paragraph>
                              <TextRuns>
                                <TextRun>
                                  <Value>=Fields!Description_Item.Value</Value>
                                  <Style>
                                    <FontFamily>Segoe UI</FontFamily>
                                    <FontSize>8pt</FontSize>
                                  </Style>
                                </TextRun>
                              </TextRuns>
                              <Style>
                                <TextAlign>Left</TextAlign>
                              </Style>
                            </Paragraph>
                          </Paragraphs>
                          <ZIndex>11</ZIndex>
                          <Style>
                            <BackgroundColor>=IIF(RowNumber(Nothing) Mod 2 , "#EFEFEF","#FFFFFF")</BackgroundColor>
                            <VerticalAlign>Top</VerticalAlign>
                            <PaddingLeft>5pt</PaddingLeft>
                            <PaddingRight>5pt</PaddingRight>
                          </Style>
                        </Textbox>
                      </CellContents>
                    </TablixCell>
                    <TablixCell>
                      <CellContents>
                        <Textbox Name="ItemLastUnitCostCalcDate1">
                          <CanGrow>true</CanGrow>
                          <KeepTogether>true</KeepTogether>
                          <Paragraphs>
                            <Paragraph>
                              <TextRuns>
                                <TextRun>
                                  <Value>=Fields!LastUnitCostCalcDate_Item.Value</Value>
                                  <Style>
                                    <FontFamily>Segoe UI</FontFamily>
                                    <FontSize>8pt</FontSize>
                                    <Format>d</Format>
                                  </Style>
                                </TextRun>
                              </TextRuns>
                              <Style>
                                <TextAlign>Left</TextAlign>
                              </Style>
                            </Paragraph>
                          </Paragraphs>
                          <ZIndex>10</ZIndex>
                          <Style>
                            <BackgroundColor>=IIF(RowNumber(Nothing) Mod 2 , "#EFEFEF","#FFFFFF")</BackgroundColor>
                            <VerticalAlign>Top</VerticalAlign>
                            <PaddingLeft>5pt</PaddingLeft>
                            <PaddingRight>5pt</PaddingRight>
                          </Style>
                        </Textbox>
                      </CellContents>
                    </TablixCell>
                    <TablixCell>
                      <CellContents>
                        <Textbox Name="ItemRolledupMaterialCost">
                          <CanGrow>true</CanGrow>
                          <KeepTogether>true</KeepTogether>
                          <Paragraphs>
                            <Paragraph>
                              <TextRuns>
                                <TextRun>
                                  <Value>=Fields!RolledupMaterialCost_Item.Value</Value>
                                  <Style>
                                    <FontFamily>Segoe UI</FontFamily>
                                    <FontSize>8pt</FontSize>
                                    <Format>=iif((Fields!RolledupMaterialCost_Item.Value*100 - Int(Fields!RolledupMaterialCost_Item.Value*100)) &lt;&gt; 0,"",Fields!RolledupMaterialCost_ItemFormat.Value)</Format>
                                  </Style>
                                </TextRun>
                              </TextRuns>
                              <Style />
                            </Paragraph>
                          </Paragraphs>
                          <ZIndex>9</ZIndex>
                          <Style>
                            <BackgroundColor>=IIF(RowNumber(Nothing) Mod 2 , "#EFEFEF","#FFFFFF")</BackgroundColor>
                            <VerticalAlign>Top</VerticalAlign>
                            <PaddingLeft>5pt</PaddingLeft>
                            <PaddingRight>5pt</PaddingRight>
                          </Style>
                        </Textbox>
                      </CellContents>
                    </TablixCell>
                    <TablixCell>
                      <CellContents>
                        <Textbox Name="ItemRolledupCapacityCost">
                          <CanGrow>true</CanGrow>
                          <KeepTogether>true</KeepTogether>
                          <Paragraphs>
                            <Paragraph>
                              <TextRuns>
                                <TextRun>
                                  <Value>=Fields!RolledupCapacityCost_Item.Value</Value>
                                  <Style>
                                    <FontFamily>Segoe UI</FontFamily>
                                    <FontSize>8pt</FontSize>
                                    <Format>=iif((Fields!RolledupCapacityCost_Item.Value*100 - Int(Fields!RolledupCapacityCost_Item.Value*100)) &lt;&gt; 0,"",Fields!RolledupCapacityCost_ItemFormat.Value)</Format>
                                  </Style>
                                </TextRun>
                              </TextRuns>
                              <Style />
                            </Paragraph>
                          </Paragraphs>
                          <ZIndex>8</ZIndex>
                          <Style>
                            <BackgroundColor>=IIF(RowNumber(Nothing) Mod 2 , "#EFEFEF","#FFFFFF")</BackgroundColor>
                            <VerticalAlign>Top</VerticalAlign>
                            <PaddingLeft>5pt</PaddingLeft>
                            <PaddingRight>5pt</PaddingRight>
                          </Style>
                        </Textbox>
                      </CellContents>
                    </TablixCell>
                    <TablixCell>
                      <CellContents>
                        <Textbox Name="ItemRolledupSubcontractCost">
                          <CanGrow>true</CanGrow>
                          <KeepTogether>true</KeepTogether>
                          <Paragraphs>
                            <Paragraph>
                              <TextRuns>
                                <TextRun>
                                  <Value>=Fields!RolldupSubcntrctCost_Item.Value</Value>
                                  <Style>
                                    <FontFamily>Segoe UI</FontFamily>
                                    <FontSize>8pt</FontSize>
                                    <Format>=iif((Fields!RolldupSubcntrctCost_Item.Value*100 - Int(Fields!RolldupSubcntrctCost_Item.Value*100)) &lt;&gt; 0,"",Fields!RolldupSubcntrctCost_ItemFormat.Value)</Format>
                                  </Style>
                                </TextRun>
                              </TextRuns>
                              <Style />
                            </Paragraph>
                          </Paragraphs>
                          <ZIndex>7</ZIndex>
                          <Style>
                            <BackgroundColor>=IIF(RowNumber(Nothing) Mod 2 , "#EFEFEF","#FFFFFF")</BackgroundColor>
                            <VerticalAlign>Top</VerticalAlign>
                            <PaddingLeft>5pt</PaddingLeft>
                            <PaddingRight>5pt</PaddingRight>
                          </Style>
                        </Textbox>
                      </CellContents>
                    </TablixCell>
                    <TablixCell>
                      <CellContents>
                        <Textbox Name="ItemRolledupMfgOvhdCost">
                          <CanGrow>true</CanGrow>
                          <KeepTogether>true</KeepTogether>
                          <Paragraphs>
                            <Paragraph>
                              <TextRuns>
                                <TextRun>
                                  <Value>=Fields!RolledupMfgOvhdCost_Item.Value</Value>
                                  <Style>
                                    <FontFamily>Segoe UI</FontFamily>
                                    <FontSize>8pt</FontSize>
                                    <Format>=iif((Fields!RolledupMfgOvhdCost_Item.Value*100 - Int(Fields!RolledupMfgOvhdCost_Item.Value*100)) &lt;&gt; 0,"",Fields!RolledupMfgOvhdCost_ItemFormat.Value)</Format>
                                  </Style>
                                </TextRun>
                              </TextRuns>
                              <Style />
                            </Paragraph>
                          </Paragraphs>
                          <ZIndex>6</ZIndex>
                          <Style>
                            <BackgroundColor>=IIF(RowNumber(Nothing) Mod 2 , "#EFEFEF","#FFFFFF")</BackgroundColor>
                            <VerticalAlign>Top</VerticalAlign>
                            <PaddingLeft>5pt</PaddingLeft>
                            <PaddingRight>5pt</PaddingRight>
                          </Style>
                        </Textbox>
                      </CellContents>
                    </TablixCell>
                    <TablixCell>
                      <CellContents>
                        <Textbox Name="ItemRolledupCapOverheadCost">
                          <CanGrow>true</CanGrow>
                          <KeepTogether>true</KeepTogether>
                          <Paragraphs>
                            <Paragraph>
                              <TextRuns>
                                <TextRun>
                                  <Value>=Fields!RolldupCapOverhdCost_Item.Value</Value>
                                  <Style>
                                    <FontFamily>Segoe UI</FontFamily>
                                    <FontSize>8pt</FontSize>
                                    <Format>=iif((Fields!RolldupCapOverhdCost_Item.Value*100 - Int(Fields!RolldupCapOverhdCost_Item.Value*100)) &lt;&gt; 0,"",Fields!RolldupCapOverhdCost_ItemFormat.Value)</Format>
                                  </Style>
                                </TextRun>
                              </TextRuns>
                              <Style />
                            </Paragraph>
                          </Paragraphs>
                          <ZIndex>5</ZIndex>
                          <Style>
                            <BackgroundColor>=IIF(RowNumber(Nothing) Mod 2 , "#EFEFEF","#FFFFFF")</BackgroundColor>
                            <VerticalAlign>Top</VerticalAlign>
                            <PaddingLeft>5pt</PaddingLeft>
                            <PaddingRight>5pt</PaddingRight>
                          </Style>
                        </Textbox>
                      </CellContents>
                    </TablixCell>
                    <TablixCell>
                      <CellContents>
                        <Textbox Name="ItemUnitCost1">
                          <CanGrow>true</CanGrow>
                          <KeepTogether>true</KeepTogether>
                          <Paragraphs>
                            <Paragraph>
                              <TextRuns>
                                <TextRun>
                                  <Value>=Fields!UnitCost_Item.Value</Value>
                                  <Style>
                                    <FontFamily>Segoe UI</FontFamily>
                                    <FontSize>8pt</FontSize>
                                    <Format>=iif((Fields!UnitCost_Item.Value*100 - Int(Fields!UnitCost_Item.Value*100)) &lt;&gt; 0,"",Fields!UnitCost_ItemFormat.Value)</Format>
                                  </Style>
                                </TextRun>
                              </TextRuns>
                              <Style />
                            </Paragraph>
                          </Paragraphs>
                          <ZIndex>4</ZIndex>
                          <Style>
                            <BackgroundColor>=IIF(RowNumber(Nothing) Mod 2 , "#EFEFEF","#FFFFFF")</BackgroundColor>
                            <VerticalAlign>Top</VerticalAlign>
                            <PaddingLeft>5pt</PaddingLeft>
                          </Style>
                        </Textbox>
                      </CellContents>
                    </TablixCell>
                  </TablixCells>
                </TablixRow>
              </TablixRows>
            </TablixBody>
            <TablixColumnHierarchy>
              <TablixMembers>
                <TablixMember />
                <TablixMember />
                <TablixMember />
                <TablixMember />
                <TablixMember />
                <TablixMember />
                <TablixMember />
                <TablixMember />
                <TablixMember />
              </TablixMembers>
            </TablixColumnHierarchy>
            <TablixRowHierarchy>
              <TablixMembers>
                <TablixMember>
                  <Group Name="Table1_Group1">
                    <GroupExpressions>
                      <GroupExpression>true</GroupExpression>
                    </GroupExpressions>
                  </Group>
                  <TablixMembers>
                    <TablixMember>
                      <KeepWithGroup>After</KeepWithGroup>
                      <RepeatOnNewPage>true</RepeatOnNewPage>
                      <KeepTogether>true</KeepTogether>
                    </TablixMember>
                    <TablixMember>
                      <KeepWithGroup>After</KeepWithGroup>
                      <RepeatOnNewPage>true</RepeatOnNewPage>
                    </TablixMember>
                    <TablixMember>
                      <KeepWithGroup>After</KeepWithGroup>
                      <RepeatOnNewPage>true</RepeatOnNewPage>
                    </TablixMember>
                    <TablixMember>
                      <Group Name="Table1_Details_Group">
                        <DataElementName>Detail</DataElementName>
                      </Group>
                      <TablixMembers>
                        <TablixMember>
                          <Visibility>
                            <Hidden>=iif(Fields!Show1.Value,false,true)</Hidden>
                          </Visibility>
                        </TablixMember>
                        <TablixMember>
                          <Visibility>
                            <Hidden>=iif(Fields!Show2.Value,false,true)</Hidden>
                          </Visibility>
                        </TablixMember>
                      </TablixMembers>
                      <DataElementName>Detail_Collection</DataElementName>
                      <DataElementOutput>Output</DataElementOutput>
                      <KeepTogether>true</KeepTogether>
                    </TablixMember>
                  </TablixMembers>
                </TablixMember>
              </TablixMembers>
            </TablixRowHierarchy>
            <RepeatRowHeaders>true</RepeatRowHeaders>
            <DataSetName>DataSet_Result</DataSetName>
            <Top>10pt</Top>
            <Height>1.4111cm</Height>
            <Width>25.15715cm</Width>
            <Style />
          </Tablix>
          <Textbox Name="ItemTABLECAPTIONItemFilter">
            <KeepTogether>true</KeepTogether>
            <Paragraphs>
              <Paragraph>
                <TextRuns>
                  <TextRun>
                    <Value>=First(Fields!TableCaptionItemFilt_Item.Value)</Value>
                    <Style>
                      <FontFamily>Segoe UI</FontFamily>
                      <FontSize>8pt</FontSize>
                    </Style>
                  </TextRun>
                </TextRuns>
                <Style>
                  <TextAlign>Left</TextAlign>
                </Style>
              </Paragraph>
            </Paragraphs>
            <Height>11pt</Height>
            <Width>25.15715cm</Width>
            <ZIndex>1</ZIndex>
            <Visibility>
              <Hidden>=iif(Fields!ItemFilter.Value = "",true,false)</Hidden>
            </Visibility>
            <DataElementOutput>NoOutput</DataElementOutput>
            <Style>
              <VerticalAlign>Middle</VerticalAlign>
              <PaddingRight>0.0625in</PaddingRight>
            </Style>
          </Textbox>
        </ReportItems>
        <Height>1.77061cm</Height>
        <Style />
      </Body>
      <Width>25.15715cm</Width>
      <Page>
        <PageHeader>
          <Height>1.81715cm</Height>
          <PrintOnFirstPage>true</PrintOnFirstPage>
          <PrintOnLastPage>true</PrintOnLastPage>
          <ReportItems>
            <Textbox Name="SinglelevelCostSharesCapt">
              <KeepTogether>true</KeepTogether>
              <Paragraphs>
                <Paragraph>
                  <TextRuns>
                    <TextRun>
                      <Value>=First(Fields!SinglelevelCostSharesCapt.Value, "DataSet_Result")</Value>
                      <Style>
                        <FontFamily>Segoe UI</FontFamily>
                        <FontSize>14pt</FontSize>
                        <FontWeight>Bold</FontWeight>
                      </Style>
                    </TextRun>
                  </TextRuns>
                  <Style />
                </Paragraph>
              </Paragraphs>
              <Height>20pt</Height>
              <Width>19.21074cm</Width>
              <Style>
                <VerticalAlign>Middle</VerticalAlign>
              </Style>
            </Textbox>
            <Textbox Name="COMPANYNAME">
              <KeepTogether>true</KeepTogether>
              <Paragraphs>
                <Paragraph>
                  <TextRuns>
                    <TextRun>
                      <Value>=First(Fields!CompanyName.Value, "DataSet_Result")</Value>
                      <Style>
                        <FontFamily>Segoe UI</FontFamily>
                        <FontSize>8pt</FontSize>
                      </Style>
                    </TextRun>
                  </TextRuns>
                  <Style />
                </Paragraph>
              </Paragraphs>
              <Top>20pt</Top>
              <Height>11pt</Height>
              <Width>19.14018cm</Width>
              <ZIndex>1</ZIndex>
              <Style>
                <VerticalAlign>Middle</VerticalAlign>
              </Style>
            </Textbox>
            <Textbox Name="ExecutionTimeTextBox">
              <KeepTogether>true</KeepTogether>
              <Paragraphs>
                <Paragraph>
                  <TextRuns>
                    <TextRun>
                      <Value>=First(Fields!TodayFormatted.Value, "DataSet_Result")</Value>
                      <Style>
                        <FontFamily>Segoe UI</FontFamily>
                        <FontSize>8pt</FontSize>
                        <Format>MM-dd-yyyy</Format>
                      </Style>
                    </TextRun>
                  </TextRuns>
                  <Style>
                    <TextAlign>Right</TextAlign>
                  </Style>
                </Paragraph>
              </Paragraphs>
              <Left>19.21074cm</Left>
              <Height>11pt</Height>
              <Width>5.94641cm</Width>
              <ZIndex>2</ZIndex>
              <Style>
                <Border />
                <VerticalAlign>Middle</VerticalAlign>
              </Style>
            </Textbox>
            <Textbox Name="UserIdTextBox">
              <KeepTogether>true</KeepTogether>
              <Paragraphs>
                <Paragraph>
                  <TextRuns>
                    <TextRun>
                      <Value>=User!UserID</Value>
                      <Style>
                        <FontFamily>Segoe UI</FontFamily>
                        <FontSize>8pt</FontSize>
                      </Style>
                    </TextRun>
                  </TextRuns>
                  <Style>
                    <TextAlign>Right</TextAlign>
                  </Style>
                </Paragraph>
              </Paragraphs>
              <Top>20pt</Top>
              <Left>19.21074cm</Left>
              <Height>11pt</Height>
              <Width>5.94641cm</Width>
              <ZIndex>3</ZIndex>
              <Visibility>
                <Hidden>=iif(First(Fields!SinglelevelCostSharesCapt.Value, "DataSet_Result") = "",true,false)</Hidden>
              </Visibility>
              <DataElementOutput>NoOutput</DataElementOutput>
              <Style>
                <VerticalAlign>Middle</VerticalAlign>
              </Style>
            </Textbox>
            <Textbox Name="PageNumberTextBox">
              <KeepTogether>true</KeepTogether>
              <Paragraphs>
                <Paragraph>
                  <TextRuns>
                    <TextRun>
                      <Value>=First(Fields!CurrReportPageNoCaption.Value, "DataSet_Result") &amp; " " &amp; Globals!PageNumber</Value>
                      <Style>
                        <FontFamily>Segoe UI</FontFamily>
                        <FontSize>8pt</FontSize>
                      </Style>
                    </TextRun>
                  </TextRuns>
                  <Style>
                    <TextAlign>Right</TextAlign>
                  </Style>
                </Paragraph>
              </Paragraphs>
              <Top>10pt</Top>
              <Left>19.21074cm</Left>
              <Height>11pt</Height>
              <Width>5.94641cm</Width>
              <ZIndex>4</ZIndex>
              <Visibility>
                <Hidden>=iif(First(Fields!SinglelevelCostSharesCapt.Value, "DataSet_Result") = "",true,false)</Hidden>
              </Visibility>
              <DataElementOutput>NoOutput</DataElementOutput>
              <Style>
                <VerticalAlign>Middle</VerticalAlign>
              </Style>
            </Textbox>
          </ReportItems>
          <Style />
        </PageHeader>
        <PageHeight>21cm</PageHeight>
        <PageWidth>29.7cm</PageWidth>
        <InteractiveHeight>11in</InteractiveHeight>
        <InteractiveWidth>8.5in</InteractiveWidth>
        <LeftMargin>1.05833cm</LeftMargin>
        <RightMargin>1.05833cm</RightMargin>
        <TopMargin>1.05833cm</TopMargin>
        <BottomMargin>1.48167cm</BottomMargin>
        <Style />
      </Page>
    </ReportSection>
  </ReportSections>
  <ReportParameters>
    <ReportParameter Name="No_ItemCaption">
      <DataType>String</DataType>
      <DefaultValue>
        <Values>
          <Value>No_ItemCaption</Value>
        </Values>
      </DefaultValue>
      <Prompt>No_ItemCaption</Prompt>
    </ReportParameter>
    <ReportParameter Name="Description_ItemCaption">
      <DataType>String</DataType>
      <DefaultValue>
        <Values>
          <Value>Description_ItemCaption</Value>
        </Values>
      </DefaultValue>
      <Prompt>Description_ItemCaption</Prompt>
    </ReportParameter>
    <ReportParameter Name="SingleLevelMaterCost_ItemCaption">
      <DataType>String</DataType>
      <DefaultValue>
        <Values>
          <Value>SingleLevelMaterCost_ItemCaption</Value>
        </Values>
      </DefaultValue>
      <Prompt>SingleLevelMaterCost_ItemCaption</Prompt>
    </ReportParameter>
    <ReportParameter Name="SingleLevelCpctyCost_ItemCaption">
      <DataType>String</DataType>
      <DefaultValue>
        <Values>
          <Value>SingleLevelCpctyCost_ItemCaption</Value>
        </Values>
      </DefaultValue>
      <Prompt>SingleLevelCpctyCost_ItemCaption</Prompt>
    </ReportParameter>
    <ReportParameter Name="SinglLvlSbcontrdCost_ItemCaption">
      <DataType>String</DataType>
      <DefaultValue>
        <Values>
          <Value>SinglLvlSbcontrdCost_ItemCaption</Value>
        </Values>
      </DefaultValue>
      <Prompt>SinglLvlSbcontrdCost_ItemCaption</Prompt>
    </ReportParameter>
    <ReportParameter Name="SinglLvlCapOvhdCost_ItemCaption">
      <DataType>String</DataType>
      <DefaultValue>
        <Values>
          <Value>SinglLvlCapOvhdCost_ItemCaption</Value>
        </Values>
      </DefaultValue>
      <Prompt>SinglLvlCapOvhdCost_ItemCaption</Prompt>
    </ReportParameter>
    <ReportParameter Name="UnitCost_ItemCaption">
      <DataType>String</DataType>
      <DefaultValue>
        <Values>
          <Value>UnitCost_ItemCaption</Value>
        </Values>
      </DefaultValue>
      <Prompt>UnitCost_ItemCaption</Prompt>
    </ReportParameter>
    <ReportParameter Name="SinglLvlMfgOvhdCost_ItemCaption">
      <DataType>String</DataType>
      <DefaultValue>
        <Values>
          <Value>SinglLvlMfgOvhdCost_ItemCaption</Value>
        </Values>
      </DefaultValue>
      <Prompt>SinglLvlMfgOvhdCost_ItemCaption</Prompt>
    </ReportParameter>
    <ReportParameter Name="RolledupMaterialCost_ItemCaption">
      <DataType>String</DataType>
      <DefaultValue>
        <Values>
          <Value>RolledupMaterialCost_ItemCaption</Value>
        </Values>
      </DefaultValue>
      <Prompt>RolledupMaterialCost_ItemCaption</Prompt>
    </ReportParameter>
    <ReportParameter Name="RolledupCapacityCost_ItemCaption">
      <DataType>String</DataType>
      <DefaultValue>
        <Values>
          <Value>RolledupCapacityCost_ItemCaption</Value>
        </Values>
      </DefaultValue>
      <Prompt>RolledupCapacityCost_ItemCaption</Prompt>
    </ReportParameter>
    <ReportParameter Name="RolldupSubcntrctCost_ItemCaption">
      <DataType>String</DataType>
      <DefaultValue>
        <Values>
          <Value>RolldupSubcntrctCost_ItemCaption</Value>
        </Values>
      </DefaultValue>
      <Prompt>RolldupSubcntrctCost_ItemCaption</Prompt>
    </ReportParameter>
    <ReportParameter Name="RolledupMfgOvhdCost_ItemCaption">
      <DataType>String</DataType>
      <DefaultValue>
        <Values>
          <Value>RolledupMfgOvhdCost_ItemCaption</Value>
        </Values>
      </DefaultValue>
      <Prompt>RolledupMfgOvhdCost_ItemCaption</Prompt>
    </ReportParameter>
    <ReportParameter Name="RolldupCapOverhdCost_ItemCaption">
      <DataType>String</DataType>
      <DefaultValue>
        <Values>
          <Value>RolldupCapOverhdCost_ItemCaption</Value>
        </Values>
      </DefaultValue>
      <Prompt>RolldupCapOverhdCost_ItemCaption</Prompt>
    </ReportParameter>
  </ReportParameters>
  <Code>Public Function BlankZero(ByVal Value As Decimal)
    if Value = 0 then
        Return ""
    end if
    Return Value
End Function

Public Function BlankPos(ByVal Value As Decimal)
    if Value &gt; 0 then
        Return ""
    end if
    Return Value
End Function

Public Function BlankZeroAndPos(ByVal Value As Decimal)
    if Value &gt;= 0 then
        Return ""
    end if
    Return Value
End Function

Public Function BlankNeg(ByVal Value As Decimal)
    if Value &lt; 0 then
        Return ""
    end if
    Return Value
End Function

Public Function BlankNegAndZero(ByVal Value As Decimal)
    if Value &lt;= 0 then
        Return ""
    end if
    Return Value
End Function
</Code>
  <Language>=User!Language</Language>
  <ConsumeContainerWhitespace>true</ConsumeContainerWhitespace>
  <rd:ReportUnitType>Cm</rd:ReportUnitType>
  <rd:ReportID>4e740087-e2c1-49e0-adab-623513e9a7fc</rd:ReportID>
</Report>
    END_OF_RDLDATA
  }
}

