OBJECT Report 99000753 Quantity Explosion of BOM
{
  OBJECT-PROPERTIES
  {
    Date=09/09/14;
    Time=12:00:00;
    Version List=NAVW18.00;
  }
  PROPERTIES
  {
    CaptionML=ENU=Quantity Explosion of BOM;
  }
  DATASET
  {
    { 8129;    ;DataItem;                    ;
               DataItemTable=Table27;
               DataItemTableView=SORTING(No.);
               OnPreDataItem=BEGIN
                               ItemFilter := GETFILTERS;

                               SETFILTER("Production BOM No.",'<>%1','');
                             END;

               ReqFilterFields=No.,Search Description,Inventory Posting Group }

    { 8   ;1   ;Column  ;AsOfCalcDate        ;
               SourceExpr=Text000 + FORMAT(CalculateDate) }

    { 14  ;1   ;Column  ;CompanyName         ;
               SourceExpr=COMPANYNAME }

    { 7   ;1   ;Column  ;TodayFormatted      ;
               SourceExpr=FORMAT(TODAY,0,4) }

    { 22  ;1   ;Column  ;ItemTableCaptionFilter;
               SourceExpr=TABLECAPTION + ': ' + ItemFilter }

    { 1000000000;1;Column;ItemFilter         ;
               SourceExpr=ItemFilter }

    { 1   ;1   ;Column  ;No_Item             ;
               SourceExpr="No." }

    { 3   ;1   ;Column  ;Desc_Item           ;
               SourceExpr=Description }

    { 6   ;1   ;Column  ;QtyExplosionofBOMCapt;
               SourceExpr=QtyExplosionofBOMCaptLbl }

    { 12  ;1   ;Column  ;CurrReportPageNoCapt;
               SourceExpr=CurrReportPageNoCaptLbl }

    { 23  ;1   ;Column  ;BOMQtyCaption       ;
               SourceExpr=BOMQtyCaptionLbl }

    { 19  ;1   ;Column  ;BomCompLevelQtyCapt ;
               SourceExpr=BomCompLevelQtyCaptLbl }

    { 18  ;1   ;Column  ;BomCompLevelDescCapt;
               SourceExpr=BomCompLevelDescCaptLbl }

    { 17  ;1   ;Column  ;BomCompLevelNoCapt  ;
               SourceExpr=BomCompLevelNoCaptLbl }

    { 16  ;1   ;Column  ;LevelCapt           ;
               SourceExpr=LevelCaptLbl }

    { 4   ;1   ;Column  ;BomCompLevelUOMCodeCapt;
               SourceExpr=BomCompLevelUOMCodeCaptLbl }

    { 8778;1   ;DataItem;BOMLoop             ;
               DataItemTable=Table2000000026;
               DataItemTableView=SORTING(Number);
               OnPreDataItem=BEGIN
                               Level := 1;

                               ProdBOM.GET(Item."Production BOM No.");

                               VersionCode[Level] := VersionMgt.GetBOMVersion(Item."Production BOM No.",CalculateDate,TRUE);
                               CLEAR(BomComponent);
                               BomComponent[Level]."Production BOM No." := Item."Production BOM No.";
                               BomComponent[Level].SETRANGE("Production BOM No.",Item."Production BOM No.");
                               BomComponent[Level].SETRANGE("Version Code",VersionCode[Level]);
                               BomComponent[Level].SETFILTER("Starting Date",'%1|..%2',0D,CalculateDate);
                               BomComponent[Level].SETFILTER("Ending Date",'%1|%2..',0D,CalculateDate);
                               NoListType[Level] := NoListType[Level]::Item;
                               NoList[Level] := Item."No.";
                               Quantity[Level] :=
                                 UOMMgt.GetQtyPerUnitOfMeasure(Item,Item."Base Unit of Measure") /
                                 UOMMgt.GetQtyPerUnitOfMeasure(
                                   Item,
                                   VersionMgt.GetBOMUnitOfMeasure(
                                     Item."Production BOM No.",VersionCode[Level]));
                             END;

               OnAfterGetRecord=VAR
                                  BomItem@1000 : Record 27;
                                BEGIN
                                  WHILE BomComponent[Level].NEXT = 0 DO BEGIN
                                    Level := Level - 1;
                                    IF Level < 1 THEN
                                      CurrReport.BREAK;
                                  END;

                                  NextLevel := Level;
                                  CLEAR(CompItem);
                                  QtyPerUnitOfMeasure := 1;
                                  CASE BomComponent[Level].Type OF
                                    BomComponent[Level].Type::Item:
                                      BEGIN
                                        CompItem.GET(BomComponent[Level]."No.");
                                        IF CompItem."Production BOM No." <> '' THEN BEGIN
                                          ProdBOM.GET(CompItem."Production BOM No.");
                                          IF ProdBOM.Status = ProdBOM.Status::Closed THEN
                                            CurrReport.SKIP;
                                          NextLevel := Level + 1;
                                          IF Level > 1 THEN
                                            IF (NextLevel > 50) OR (BomComponent[Level]."No." = NoList[Level - 1]) THEN
                                              ERROR(ProdBomErr,50,Item."No.",NoList[Level],Level);
                                          CLEAR(BomComponent[NextLevel]);
                                          NoListType[NextLevel] := NoListType[NextLevel]::Item;
                                          NoList[NextLevel] := CompItem."No.";
                                          VersionCode[NextLevel] :=
                                            VersionMgt.GetBOMVersion(CompItem."Production BOM No.",CalculateDate,TRUE);
                                          BomComponent[NextLevel].SETRANGE("Production BOM No.",CompItem."Production BOM No.");
                                          BomComponent[NextLevel].SETRANGE("Version Code",VersionCode[NextLevel]);
                                          BomComponent[NextLevel].SETFILTER("Starting Date",'%1|..%2',0D,CalculateDate);
                                          BomComponent[NextLevel].SETFILTER("Ending Date",'%1|%2..',0D,CalculateDate);
                                        END;
                                        IF Level > 1 THEN
                                          IF BomComponent[Level - 1].Type = BomComponent[Level - 1].Type::Item THEN
                                            IF BomItem.GET(BomComponent[Level - 1]."No.") THEN
                                              QtyPerUnitOfMeasure :=
                                                UOMMgt.GetQtyPerUnitOfMeasure(BomItem,BomComponent[Level - 1]."Unit of Measure Code") /
                                                UOMMgt.GetQtyPerUnitOfMeasure(
                                                  BomItem,VersionMgt.GetBOMUnitOfMeasure(BomItem."Production BOM No.",VersionCode[Level]));
                                      END;
                                    BomComponent[Level].Type::"Production BOM":
                                      BEGIN
                                        ProdBOM.GET(BomComponent[Level]."No.");
                                        IF ProdBOM.Status = ProdBOM.Status::Closed THEN
                                          CurrReport.SKIP;
                                        NextLevel := Level + 1;
                                        IF Level > 1 THEN
                                          IF (NextLevel > 50) OR (BomComponent[Level]."No." = NoList[Level - 1]) THEN
                                            ERROR(ProdBomErr,50,Item."No.",NoList[Level],Level);
                                        CLEAR(BomComponent[NextLevel]);
                                        NoListType[NextLevel] := NoListType[NextLevel]::"Production BOM";
                                        NoList[NextLevel] := ProdBOM."No.";
                                        VersionCode[NextLevel] := VersionMgt.GetBOMVersion(ProdBOM."No.",CalculateDate,TRUE);
                                        BomComponent[NextLevel].SETRANGE("Production BOM No.",NoList[NextLevel]);
                                        BomComponent[NextLevel].SETRANGE("Version Code",VersionCode[NextLevel]);
                                        BomComponent[NextLevel].SETFILTER("Starting Date",'%1|..%2',0D,CalculateDate);
                                        BomComponent[NextLevel].SETFILTER("Ending Date",'%1|%2..',0D,CalculateDate);
                                      END;
                                  END;

                                  IF NextLevel <> Level THEN
                                    Quantity[NextLevel] := BomComponent[NextLevel - 1].Quantity * QtyPerUnitOfMeasure * Quantity[Level];
                                END;
                                 }

    { 5444;2   ;DataItem;                    ;
               DataItemTable=Table2000000026;
               DataItemTableView=SORTING(Number);
               MaxIteration=1;
               OnAfterGetRecord=BEGIN
                                  BOMQty := Quantity[Level] * QtyPerUnitOfMeasure * BomComponent[Level].Quantity;
                                END;

               OnPostDataItem=BEGIN
                                Level := NextLevel;
                              END;
                               }

    { 9   ;3   ;Column  ;BomCompLevelNo      ;
               SourceExpr=BomComponent[Level]."No." }

    { 10  ;3   ;Column  ;BomCompLevelDesc    ;
               SourceExpr=BomComponent[Level].Description }

    { 11  ;3   ;Column  ;BOMQty              ;
               DecimalPlaces=0:5;
               SourceExpr=BOMQty }

    { 5   ;3   ;Column  ;FormatLevel         ;
               SourceExpr=PADSTR('',Level,' ') + FORMAT(Level) }

    { 21  ;3   ;Column  ;BomCompLevelQty     ;
               DecimalPlaces=0:5;
               SourceExpr=BomComponent[Level].Quantity }

    { 2   ;3   ;Column  ;BomCompLevelUOMCode ;
               DecimalPlaces=0:5;
               SourceExpr=BomComponent[Level]."Unit of Measure Code" }

  }
  REQUESTPAGE
  {
    PROPERTIES
    {
      OnInit=BEGIN
               CalculateDate := WORKDATE;
             END;

    }
    CONTROLS
    {
      { 1900000001;0;Container;
                  ContainerType=ContentArea }

      { 1900000002;1;Group  ;
                  CaptionML=ENU=Options }

      { 6   ;2   ;Field     ;
                  CaptionML=ENU=Calculation Date;
                  SourceExpr=CalculateDate }

    }
  }
  LABELS
  {
  }
  CODE
  {
    VAR
      Text000@1000 : TextConst 'ENU="As of "';
      ProdBOM@1001 : Record 99000771;
      BomComponent@1002 : ARRAY [99] OF Record 99000772;
      CompItem@1004 : Record 27;
      UOMMgt@1005 : Codeunit 5402;
      VersionMgt@1006 : Codeunit 99000756;
      ItemFilter@1008 : Text;
      CalculateDate@1009 : Date;
      NoList@1011 : ARRAY [99] OF Code[20];
      VersionCode@1012 : ARRAY [99] OF Code[10];
      Quantity@1013 : ARRAY [99] OF Decimal;
      QtyPerUnitOfMeasure@1014 : Decimal;
      Level@1015 : Integer;
      NextLevel@1016 : Integer;
      BOMQty@1017 : Decimal;
      QtyExplosionofBOMCaptLbl@1489 : TextConst 'ENU=Quantity Explosion of BOM';
      CurrReportPageNoCaptLbl@6079 : TextConst 'ENU=Page';
      BOMQtyCaptionLbl@2328 : TextConst 'ENU=Total Quantity';
      BomCompLevelQtyCaptLbl@7637 : TextConst 'ENU=BOM Quantity';
      BomCompLevelDescCaptLbl@7474 : TextConst 'ENU=Description';
      BomCompLevelNoCaptLbl@1517 : TextConst 'ENU=No.';
      LevelCaptLbl@1856 : TextConst 'ENU=Level';
      BomCompLevelUOMCodeCaptLbl@6893 : TextConst 'ENU=Unit of Measure Code';
      NoListType@1018 : ARRAY [99] OF ' ,Item,Production BOM';
      ProdBomErr@1003 : TextConst 'ENU=The maximum number of BOM levels, %1, was exceeded. The process stopped at item number %2, BOM header number %3, BOM level %4.';

    BEGIN
    END.
  }
  RDLDATA
  {
    <?xml version="1.0" encoding="utf-8"?>
<Report xmlns:rd="http://schemas.microsoft.com/SQLServer/reporting/reportdesigner" xmlns="http://schemas.microsoft.com/sqlserver/reporting/2010/01/reportdefinition">
  <AutoRefresh>0</AutoRefresh>
  <DataSources>
    <DataSource Name="DataSource">
      <ConnectionProperties>
        <DataProvider>SQL</DataProvider>
        <ConnectString />
      </ConnectionProperties>
      <rd:SecurityType>None</rd:SecurityType>
      <rd:DataSourceID>70235c96-30a8-43ab-ae4e-89934cc5eac0</rd:DataSourceID>
    </DataSource>
  </DataSources>
  <DataSets>
    <DataSet Name="DataSet_Result">
      <Query>
        <DataSourceName>DataSource</DataSourceName>
        <CommandText />
      </Query>
      <Fields>
        <Field Name="AsOfCalcDate">
          <DataField>AsOfCalcDate</DataField>
        </Field>
        <Field Name="CompanyName">
          <DataField>CompanyName</DataField>
        </Field>
        <Field Name="TodayFormatted">
          <DataField>TodayFormatted</DataField>
        </Field>
        <Field Name="ItemTableCaptionFilter">
          <DataField>ItemTableCaptionFilter</DataField>
        </Field>
        <Field Name="ItemFilter">
          <DataField>ItemFilter</DataField>
        </Field>
        <Field Name="No_Item">
          <DataField>No_Item</DataField>
        </Field>
        <Field Name="Desc_Item">
          <DataField>Desc_Item</DataField>
        </Field>
        <Field Name="QtyExplosionofBOMCapt">
          <DataField>QtyExplosionofBOMCapt</DataField>
        </Field>
        <Field Name="CurrReportPageNoCapt">
          <DataField>CurrReportPageNoCapt</DataField>
        </Field>
        <Field Name="BOMQtyCaption">
          <DataField>BOMQtyCaption</DataField>
        </Field>
        <Field Name="BomCompLevelQtyCapt">
          <DataField>BomCompLevelQtyCapt</DataField>
        </Field>
        <Field Name="BomCompLevelDescCapt">
          <DataField>BomCompLevelDescCapt</DataField>
        </Field>
        <Field Name="BomCompLevelNoCapt">
          <DataField>BomCompLevelNoCapt</DataField>
        </Field>
        <Field Name="LevelCapt">
          <DataField>LevelCapt</DataField>
        </Field>
        <Field Name="BomCompLevelUOMCodeCapt">
          <DataField>BomCompLevelUOMCodeCapt</DataField>
        </Field>
        <Field Name="BomCompLevelNo">
          <DataField>BomCompLevelNo</DataField>
        </Field>
        <Field Name="BomCompLevelDesc">
          <DataField>BomCompLevelDesc</DataField>
        </Field>
        <Field Name="BOMQty">
          <DataField>BOMQty</DataField>
        </Field>
        <Field Name="BOMQtyFormat">
          <DataField>BOMQtyFormat</DataField>
        </Field>
        <Field Name="FormatLevel">
          <DataField>FormatLevel</DataField>
        </Field>
        <Field Name="BomCompLevelQty">
          <DataField>BomCompLevelQty</DataField>
        </Field>
        <Field Name="BomCompLevelQtyFormat">
          <DataField>BomCompLevelQtyFormat</DataField>
        </Field>
        <Field Name="BomCompLevelUOMCode">
          <DataField>BomCompLevelUOMCode</DataField>
        </Field>
      </Fields>
      <rd:DataSetInfo>
        <rd:DataSetName>DataSet</rd:DataSetName>
        <rd:SchemaPath>Report.xsd</rd:SchemaPath>
        <rd:TableName>Result</rd:TableName>
      </rd:DataSetInfo>
    </DataSet>
  </DataSets>
  <ReportSections>
    <ReportSection>
      <Body>
        <ReportItems>
          <Tablix Name="BOMComponent">
            <TablixBody>
              <TablixColumns>
                <TablixColumn>
                  <Width>0.74213in</Width>
                </TablixColumn>
                <TablixColumn>
                  <Width>1.02362in</Width>
                </TablixColumn>
                <TablixColumn>
                  <Width>2.16535in</Width>
                </TablixColumn>
                <TablixColumn>
                  <Width>0.98429in</Width>
                </TablixColumn>
                <TablixColumn>
                  <Width>1.25984in</Width>
                </TablixColumn>
                <TablixColumn>
                  <Width>0.86614in</Width>
                </TablixColumn>
              </TablixColumns>
              <TablixRows>
                <TablixRow>
                  <Height>0.13889in</Height>
                  <TablixCells>
                    <TablixCell>
                      <CellContents>
                        <Textbox Name="LevelCapt">
                          <CanGrow>true</CanGrow>
                          <KeepTogether>true</KeepTogether>
                          <Paragraphs>
                            <Paragraph>
                              <TextRuns>
                                <TextRun>
                                  <Value>=First(Fields!LevelCapt.Value, "DataSet_Result")</Value>
                                  <Style>
                                    <FontFamily>Segoe UI</FontFamily>
                                    <FontSize>8pt</FontSize>
                                    <FontWeight>Bold</FontWeight>
                                  </Style>
                                </TextRun>
                              </TextRuns>
                              <Style />
                            </Paragraph>
                          </Paragraphs>
                          <Style>
                            <Border />
                            <VerticalAlign>Bottom</VerticalAlign>
                            <PaddingRight>5pt</PaddingRight>
                          </Style>
                        </Textbox>
                      </CellContents>
                    </TablixCell>
                    <TablixCell>
                      <CellContents>
                        <Textbox Name="BomCompLevelNoCapt">
                          <CanGrow>true</CanGrow>
                          <KeepTogether>true</KeepTogether>
                          <Paragraphs>
                            <Paragraph>
                              <TextRuns>
                                <TextRun>
                                  <Value>=First(Fields!BomCompLevelNoCapt.Value, "DataSet_Result")</Value>
                                  <Style>
                                    <FontFamily>Segoe UI</FontFamily>
                                    <FontSize>8pt</FontSize>
                                    <FontWeight>Bold</FontWeight>
                                  </Style>
                                </TextRun>
                              </TextRuns>
                              <Style />
                            </Paragraph>
                          </Paragraphs>
                          <Style>
                            <Border />
                            <VerticalAlign>Bottom</VerticalAlign>
                            <PaddingLeft>5pt</PaddingLeft>
                            <PaddingRight>5pt</PaddingRight>
                          </Style>
                        </Textbox>
                      </CellContents>
                    </TablixCell>
                    <TablixCell>
                      <CellContents>
                        <Textbox Name="BomCompLevelDescCapt">
                          <CanGrow>true</CanGrow>
                          <KeepTogether>true</KeepTogether>
                          <Paragraphs>
                            <Paragraph>
                              <TextRuns>
                                <TextRun>
                                  <Value>=First(Fields!BomCompLevelDescCapt.Value, "DataSet_Result")</Value>
                                  <Style>
                                    <FontFamily>Segoe UI</FontFamily>
                                    <FontSize>8pt</FontSize>
                                    <FontWeight>Bold</FontWeight>
                                  </Style>
                                </TextRun>
                              </TextRuns>
                              <Style />
                            </Paragraph>
                          </Paragraphs>
                          <Style>
                            <Border />
                            <VerticalAlign>Bottom</VerticalAlign>
                            <PaddingLeft>5pt</PaddingLeft>
                            <PaddingRight>5pt</PaddingRight>
                          </Style>
                        </Textbox>
                      </CellContents>
                    </TablixCell>
                    <TablixCell>
                      <CellContents>
                        <Textbox Name="BomCompLevelQtyCapt">
                          <CanGrow>true</CanGrow>
                          <KeepTogether>true</KeepTogether>
                          <Paragraphs>
                            <Paragraph>
                              <TextRuns>
                                <TextRun>
                                  <Value>=First(Fields!BomCompLevelQtyCapt.Value, "DataSet_Result")</Value>
                                  <Style>
                                    <FontFamily>Segoe UI</FontFamily>
                                    <FontSize>8pt</FontSize>
                                    <FontWeight>Bold</FontWeight>
                                  </Style>
                                </TextRun>
                              </TextRuns>
                              <Style>
                                <TextAlign>Right</TextAlign>
                              </Style>
                            </Paragraph>
                          </Paragraphs>
                          <Style>
                            <Border />
                            <VerticalAlign>Bottom</VerticalAlign>
                            <PaddingLeft>5pt</PaddingLeft>
                            <PaddingRight>5pt</PaddingRight>
                          </Style>
                        </Textbox>
                      </CellContents>
                    </TablixCell>
                    <TablixCell>
                      <CellContents>
                        <Textbox Name="BomCompLevelUOMCodeCapt">
                          <CanGrow>true</CanGrow>
                          <KeepTogether>true</KeepTogether>
                          <Paragraphs>
                            <Paragraph>
                              <TextRuns>
                                <TextRun>
                                  <Value>=First(Fields!BomCompLevelUOMCodeCapt.Value, "DataSet_Result")</Value>
                                  <Style>
                                    <FontFamily>Segoe UI</FontFamily>
                                    <FontSize>8pt</FontSize>
                                    <FontWeight>Bold</FontWeight>
                                  </Style>
                                </TextRun>
                              </TextRuns>
                              <Style>
                                <TextAlign>Left</TextAlign>
                              </Style>
                            </Paragraph>
                          </Paragraphs>
                          <Style>
                            <Border />
                            <VerticalAlign>Bottom</VerticalAlign>
                            <PaddingLeft>5pt</PaddingLeft>
                            <PaddingRight>5pt</PaddingRight>
                          </Style>
                        </Textbox>
                      </CellContents>
                    </TablixCell>
                    <TablixCell>
                      <CellContents>
                        <Textbox Name="BOMQtyCaption">
                          <CanGrow>true</CanGrow>
                          <KeepTogether>true</KeepTogether>
                          <Paragraphs>
                            <Paragraph>
                              <TextRuns>
                                <TextRun>
                                  <Value>=First(Fields!BOMQtyCaption.Value, "DataSet_Result")</Value>
                                  <Style>
                                    <FontFamily>Segoe UI</FontFamily>
                                    <FontSize>8pt</FontSize>
                                    <FontWeight>Bold</FontWeight>
                                  </Style>
                                </TextRun>
                              </TextRuns>
                              <Style>
                                <TextAlign>Right</TextAlign>
                              </Style>
                            </Paragraph>
                          </Paragraphs>
                          <Style>
                            <Border />
                            <VerticalAlign>Bottom</VerticalAlign>
                            <PaddingLeft>5pt</PaddingLeft>
                          </Style>
                        </Textbox>
                      </CellContents>
                    </TablixCell>
                  </TablixCells>
                </TablixRow>
                <TablixRow>
                  <Height>0.06944in</Height>
                  <TablixCells>
                    <TablixCell>
                      <CellContents>
                        <Textbox Name="Textbox11">
                          <CanGrow>true</CanGrow>
                          <KeepTogether>true</KeepTogether>
                          <Paragraphs>
                            <Paragraph>
                              <TextRuns>
                                <TextRun>
                                  <Value />
                                  <Style>
                                    <FontFamily>Segoe UI</FontFamily>
                                    <FontSize>8pt</FontSize>
                                    <FontWeight>Bold</FontWeight>
                                  </Style>
                                </TextRun>
                              </TextRuns>
                              <Style />
                            </Paragraph>
                          </Paragraphs>
                          <rd:DefaultName>Textbox11</rd:DefaultName>
                          <Style>
                            <Border>
                              <Style>None</Style>
                            </Border>
                            <BottomBorder>
                              <Style>Solid</Style>
                            </BottomBorder>
                            <VerticalAlign>Middle</VerticalAlign>
                            <PaddingLeft>5pt</PaddingLeft>
                            <PaddingRight>5pt</PaddingRight>
                          </Style>
                        </Textbox>
                      </CellContents>
                    </TablixCell>
                    <TablixCell>
                      <CellContents>
                        <Textbox Name="Textbox12">
                          <CanGrow>true</CanGrow>
                          <KeepTogether>true</KeepTogether>
                          <Paragraphs>
                            <Paragraph>
                              <TextRuns>
                                <TextRun>
                                  <Value />
                                  <Style>
                                    <FontFamily>Segoe UI</FontFamily>
                                    <FontSize>8pt</FontSize>
                                    <FontWeight>Bold</FontWeight>
                                  </Style>
                                </TextRun>
                              </TextRuns>
                              <Style />
                            </Paragraph>
                          </Paragraphs>
                          <rd:DefaultName>Textbox12</rd:DefaultName>
                          <Style>
                            <Border>
                              <Style>None</Style>
                            </Border>
                            <BottomBorder>
                              <Style>Solid</Style>
                            </BottomBorder>
                            <VerticalAlign>Middle</VerticalAlign>
                            <PaddingLeft>5pt</PaddingLeft>
                            <PaddingRight>5pt</PaddingRight>
                          </Style>
                        </Textbox>
                      </CellContents>
                    </TablixCell>
                    <TablixCell>
                      <CellContents>
                        <Textbox Name="Textbox13">
                          <CanGrow>true</CanGrow>
                          <KeepTogether>true</KeepTogether>
                          <Paragraphs>
                            <Paragraph>
                              <TextRuns>
                                <TextRun>
                                  <Value />
                                  <Style>
                                    <FontFamily>Segoe UI</FontFamily>
                                    <FontSize>8pt</FontSize>
                                    <FontWeight>Bold</FontWeight>
                                  </Style>
                                </TextRun>
                              </TextRuns>
                              <Style />
                            </Paragraph>
                          </Paragraphs>
                          <rd:DefaultName>Textbox13</rd:DefaultName>
                          <Style>
                            <Border>
                              <Style>None</Style>
                            </Border>
                            <BottomBorder>
                              <Style>Solid</Style>
                            </BottomBorder>
                            <VerticalAlign>Middle</VerticalAlign>
                            <PaddingLeft>5pt</PaddingLeft>
                            <PaddingRight>5pt</PaddingRight>
                          </Style>
                        </Textbox>
                      </CellContents>
                    </TablixCell>
                    <TablixCell>
                      <CellContents>
                        <Textbox Name="Textbox14">
                          <CanGrow>true</CanGrow>
                          <KeepTogether>true</KeepTogether>
                          <Paragraphs>
                            <Paragraph>
                              <TextRuns>
                                <TextRun>
                                  <Value />
                                  <Style>
                                    <FontFamily>Segoe UI</FontFamily>
                                    <FontSize>8pt</FontSize>
                                    <FontWeight>Bold</FontWeight>
                                  </Style>
                                </TextRun>
                              </TextRuns>
                              <Style />
                            </Paragraph>
                          </Paragraphs>
                          <rd:DefaultName>Textbox14</rd:DefaultName>
                          <Style>
                            <Border>
                              <Style>None</Style>
                            </Border>
                            <BottomBorder>
                              <Style>Solid</Style>
                            </BottomBorder>
                            <VerticalAlign>Middle</VerticalAlign>
                            <PaddingLeft>5pt</PaddingLeft>
                            <PaddingRight>5pt</PaddingRight>
                          </Style>
                        </Textbox>
                      </CellContents>
                    </TablixCell>
                    <TablixCell>
                      <CellContents>
                        <Textbox Name="Textbox15">
                          <CanGrow>true</CanGrow>
                          <KeepTogether>true</KeepTogether>
                          <Paragraphs>
                            <Paragraph>
                              <TextRuns>
                                <TextRun>
                                  <Value />
                                  <Style>
                                    <FontFamily>Segoe UI</FontFamily>
                                    <FontSize>8pt</FontSize>
                                    <FontWeight>Bold</FontWeight>
                                  </Style>
                                </TextRun>
                              </TextRuns>
                              <Style />
                            </Paragraph>
                          </Paragraphs>
                          <rd:DefaultName>Textbox15</rd:DefaultName>
                          <Style>
                            <Border>
                              <Style>None</Style>
                            </Border>
                            <BottomBorder>
                              <Style>Solid</Style>
                            </BottomBorder>
                            <VerticalAlign>Middle</VerticalAlign>
                            <PaddingLeft>5pt</PaddingLeft>
                            <PaddingRight>5pt</PaddingRight>
                          </Style>
                        </Textbox>
                      </CellContents>
                    </TablixCell>
                    <TablixCell>
                      <CellContents>
                        <Textbox Name="Textbox16">
                          <CanGrow>true</CanGrow>
                          <KeepTogether>true</KeepTogether>
                          <Paragraphs>
                            <Paragraph>
                              <TextRuns>
                                <TextRun>
                                  <Value />
                                  <Style>
                                    <FontFamily>Segoe UI</FontFamily>
                                    <FontSize>8pt</FontSize>
                                    <FontWeight>Bold</FontWeight>
                                  </Style>
                                </TextRun>
                              </TextRuns>
                              <Style />
                            </Paragraph>
                          </Paragraphs>
                          <rd:DefaultName>Textbox16</rd:DefaultName>
                          <Style>
                            <Border>
                              <Style>None</Style>
                            </Border>
                            <BottomBorder>
                              <Style>Solid</Style>
                            </BottomBorder>
                            <VerticalAlign>Middle</VerticalAlign>
                            <PaddingLeft>5pt</PaddingLeft>
                            <PaddingRight>5pt</PaddingRight>
                          </Style>
                        </Textbox>
                      </CellContents>
                    </TablixCell>
                  </TablixCells>
                </TablixRow>
                <TablixRow>
                  <Height>0.06944in</Height>
                  <TablixCells>
                    <TablixCell>
                      <CellContents>
                        <Textbox Name="Textbox25">
                          <CanGrow>true</CanGrow>
                          <KeepTogether>true</KeepTogether>
                          <Paragraphs>
                            <Paragraph>
                              <TextRuns>
                                <TextRun>
                                  <Value />
                                  <Style>
                                    <FontFamily>Segoe UI</FontFamily>
                                    <FontSize>8pt</FontSize>
                                    <FontWeight>Bold</FontWeight>
                                  </Style>
                                </TextRun>
                              </TextRuns>
                              <Style />
                            </Paragraph>
                          </Paragraphs>
                          <rd:DefaultName>Textbox25</rd:DefaultName>
                          <Style>
                            <Border />
                            <VerticalAlign>Middle</VerticalAlign>
                            <PaddingLeft>5pt</PaddingLeft>
                            <PaddingRight>5pt</PaddingRight>
                          </Style>
                        </Textbox>
                      </CellContents>
                    </TablixCell>
                    <TablixCell>
                      <CellContents>
                        <Textbox Name="Textbox26">
                          <CanGrow>true</CanGrow>
                          <KeepTogether>true</KeepTogether>
                          <Paragraphs>
                            <Paragraph>
                              <TextRuns>
                                <TextRun>
                                  <Value />
                                  <Style>
                                    <FontFamily>Segoe UI</FontFamily>
                                    <FontSize>8pt</FontSize>
                                    <FontWeight>Bold</FontWeight>
                                  </Style>
                                </TextRun>
                              </TextRuns>
                              <Style />
                            </Paragraph>
                          </Paragraphs>
                          <rd:DefaultName>Textbox26</rd:DefaultName>
                          <Style>
                            <Border />
                            <VerticalAlign>Middle</VerticalAlign>
                            <PaddingLeft>5pt</PaddingLeft>
                            <PaddingRight>5pt</PaddingRight>
                          </Style>
                        </Textbox>
                      </CellContents>
                    </TablixCell>
                    <TablixCell>
                      <CellContents>
                        <Textbox Name="Textbox27">
                          <CanGrow>true</CanGrow>
                          <KeepTogether>true</KeepTogether>
                          <Paragraphs>
                            <Paragraph>
                              <TextRuns>
                                <TextRun>
                                  <Value />
                                  <Style>
                                    <FontFamily>Segoe UI</FontFamily>
                                    <FontSize>8pt</FontSize>
                                    <FontWeight>Bold</FontWeight>
                                  </Style>
                                </TextRun>
                              </TextRuns>
                              <Style />
                            </Paragraph>
                          </Paragraphs>
                          <rd:DefaultName>Textbox27</rd:DefaultName>
                          <Style>
                            <Border />
                            <VerticalAlign>Middle</VerticalAlign>
                            <PaddingLeft>5pt</PaddingLeft>
                            <PaddingRight>5pt</PaddingRight>
                          </Style>
                        </Textbox>
                      </CellContents>
                    </TablixCell>
                    <TablixCell>
                      <CellContents>
                        <Textbox Name="Textbox28">
                          <CanGrow>true</CanGrow>
                          <KeepTogether>true</KeepTogether>
                          <Paragraphs>
                            <Paragraph>
                              <TextRuns>
                                <TextRun>
                                  <Value />
                                  <Style>
                                    <FontFamily>Segoe UI</FontFamily>
                                    <FontSize>8pt</FontSize>
                                    <FontWeight>Bold</FontWeight>
                                  </Style>
                                </TextRun>
                              </TextRuns>
                              <Style />
                            </Paragraph>
                          </Paragraphs>
                          <rd:DefaultName>Textbox28</rd:DefaultName>
                          <Style>
                            <Border />
                            <VerticalAlign>Middle</VerticalAlign>
                            <PaddingLeft>5pt</PaddingLeft>
                            <PaddingRight>5pt</PaddingRight>
                          </Style>
                        </Textbox>
                      </CellContents>
                    </TablixCell>
                    <TablixCell>
                      <CellContents>
                        <Textbox Name="Textbox29">
                          <CanGrow>true</CanGrow>
                          <KeepTogether>true</KeepTogether>
                          <Paragraphs>
                            <Paragraph>
                              <TextRuns>
                                <TextRun>
                                  <Value />
                                  <Style>
                                    <FontFamily>Segoe UI</FontFamily>
                                    <FontSize>8pt</FontSize>
                                    <FontWeight>Bold</FontWeight>
                                  </Style>
                                </TextRun>
                              </TextRuns>
                              <Style />
                            </Paragraph>
                          </Paragraphs>
                          <rd:DefaultName>Textbox29</rd:DefaultName>
                          <Style>
                            <Border />
                            <VerticalAlign>Middle</VerticalAlign>
                            <PaddingLeft>5pt</PaddingLeft>
                            <PaddingRight>5pt</PaddingRight>
                          </Style>
                        </Textbox>
                      </CellContents>
                    </TablixCell>
                    <TablixCell>
                      <CellContents>
                        <Textbox Name="Textbox30">
                          <CanGrow>true</CanGrow>
                          <KeepTogether>true</KeepTogether>
                          <Paragraphs>
                            <Paragraph>
                              <TextRuns>
                                <TextRun>
                                  <Value />
                                  <Style>
                                    <FontFamily>Segoe UI</FontFamily>
                                    <FontSize>8pt</FontSize>
                                    <FontWeight>Bold</FontWeight>
                                  </Style>
                                </TextRun>
                              </TextRuns>
                              <Style />
                            </Paragraph>
                          </Paragraphs>
                          <rd:DefaultName>Textbox30</rd:DefaultName>
                          <Style>
                            <Border />
                            <VerticalAlign>Middle</VerticalAlign>
                            <PaddingLeft>5pt</PaddingLeft>
                            <PaddingRight>5pt</PaddingRight>
                          </Style>
                        </Textbox>
                      </CellContents>
                    </TablixCell>
                  </TablixCells>
                </TablixRow>
                <TablixRow>
                  <Height>0.13889in</Height>
                  <TablixCells>
                    <TablixCell>
                      <CellContents>
                        <Textbox Name="ItemNoCapt">
                          <KeepTogether>true</KeepTogether>
                          <Paragraphs>
                            <Paragraph>
                              <TextRuns>
                                <TextRun>
                                  <Value>=Fields!No_Item.Value</Value>
                                  <Style>
                                    <FontFamily>Segoe UI</FontFamily>
                                    <FontSize>8pt</FontSize>
                                    <FontWeight>Bold</FontWeight>
                                  </Style>
                                </TextRun>
                              </TextRuns>
                              <Style />
                            </Paragraph>
                          </Paragraphs>
                          <ZIndex>80</ZIndex>
                          <Style>
                            <Border />
                            <VerticalAlign>Top</VerticalAlign>
                            <PaddingRight>5pt</PaddingRight>
                          </Style>
                        </Textbox>
                      </CellContents>
                    </TablixCell>
                    <TablixCell>
                      <CellContents>
                        <Textbox Name="ItemDescCapt">
                          <KeepTogether>true</KeepTogether>
                          <Paragraphs>
                            <Paragraph>
                              <TextRuns>
                                <TextRun>
                                  <Value>=Fields!Desc_Item.Value</Value>
                                  <Style>
                                    <FontFamily>Segoe UI</FontFamily>
                                    <FontSize>8pt</FontSize>
                                    <FontWeight>Bold</FontWeight>
                                  </Style>
                                </TextRun>
                              </TextRuns>
                              <Style />
                            </Paragraph>
                          </Paragraphs>
                          <ZIndex>79</ZIndex>
                          <Style>
                            <Border />
                            <VerticalAlign>Top</VerticalAlign>
                            <PaddingLeft>5pt</PaddingLeft>
                            <PaddingRight>5pt</PaddingRight>
                          </Style>
                        </Textbox>
                        <ColSpan>5</ColSpan>
                      </CellContents>
                    </TablixCell>
                    <TablixCell />
                    <TablixCell />
                    <TablixCell />
                    <TablixCell />
                  </TablixCells>
                </TablixRow>
                <TablixRow>
                  <Height>0.13889in</Height>
                  <TablixCells>
                    <TablixCell>
                      <CellContents>
                        <Textbox Name="FORMATLevel">
                          <KeepTogether>true</KeepTogether>
                          <Paragraphs>
                            <Paragraph>
                              <TextRuns>
                                <TextRun>
                                  <Value>=Fields!FormatLevel.Value</Value>
                                  <Style>
                                    <FontFamily>Segoe UI</FontFamily>
                                    <FontSize>8pt</FontSize>
                                  </Style>
                                </TextRun>
                              </TextRuns>
                              <Style />
                            </Paragraph>
                          </Paragraphs>
                          <ZIndex>16</ZIndex>
                          <Style>
                            <Border />
                            <BackgroundColor>#f0f0f0</BackgroundColor>
                            <VerticalAlign>Top</VerticalAlign>
                            <PaddingRight>5pt</PaddingRight>
                          </Style>
                        </Textbox>
                      </CellContents>
                    </TablixCell>
                    <TablixCell>
                      <CellContents>
                        <Textbox Name="BomCompLevelNo">
                          <KeepTogether>true</KeepTogether>
                          <Paragraphs>
                            <Paragraph>
                              <TextRuns>
                                <TextRun>
                                  <Value>=Fields!BomCompLevelNo.Value</Value>
                                  <Style>
                                    <FontFamily>Segoe UI</FontFamily>
                                    <FontSize>8pt</FontSize>
                                  </Style>
                                </TextRun>
                              </TextRuns>
                              <Style>
                                <TextAlign>Left</TextAlign>
                              </Style>
                            </Paragraph>
                          </Paragraphs>
                          <ZIndex>15</ZIndex>
                          <Style>
                            <BackgroundColor>#f0f0f0</BackgroundColor>
                            <VerticalAlign>Top</VerticalAlign>
                            <PaddingLeft>5pt</PaddingLeft>
                            <PaddingRight>5pt</PaddingRight>
                          </Style>
                        </Textbox>
                      </CellContents>
                    </TablixCell>
                    <TablixCell>
                      <CellContents>
                        <Textbox Name="BomCompLevelDescription">
                          <KeepTogether>true</KeepTogether>
                          <Paragraphs>
                            <Paragraph>
                              <TextRuns>
                                <TextRun>
                                  <Value>=Fields!BomCompLevelDesc.Value</Value>
                                  <Style>
                                    <FontFamily>Segoe UI</FontFamily>
                                    <FontSize>8pt</FontSize>
                                  </Style>
                                </TextRun>
                              </TextRuns>
                              <Style />
                            </Paragraph>
                          </Paragraphs>
                          <ZIndex>14</ZIndex>
                          <Style>
                            <BackgroundColor>#efefef</BackgroundColor>
                            <VerticalAlign>Top</VerticalAlign>
                            <PaddingLeft>5pt</PaddingLeft>
                            <PaddingRight>5pt</PaddingRight>
                          </Style>
                        </Textbox>
                      </CellContents>
                    </TablixCell>
                    <TablixCell>
                      <CellContents>
                        <Textbox Name="BomCompLevelQty">
                          <CanGrow>true</CanGrow>
                          <KeepTogether>true</KeepTogether>
                          <Paragraphs>
                            <Paragraph>
                              <TextRuns>
                                <TextRun>
                                  <Value>=Fields!BomCompLevelQty.Value</Value>
                                  <Style>
                                    <FontFamily>Segoe UI</FontFamily>
                                    <FontSize>8pt</FontSize>
                                    <Format>=Fields!BomCompLevelQtyFormat.Value</Format>
                                  </Style>
                                </TextRun>
                              </TextRuns>
                              <Style>
                                <TextAlign>Right</TextAlign>
                              </Style>
                            </Paragraph>
                          </Paragraphs>
                          <ZIndex>13</ZIndex>
                          <Style>
                            <Border />
                            <BackgroundColor>#f0f0f0</BackgroundColor>
                            <VerticalAlign>Top</VerticalAlign>
                            <PaddingLeft>5pt</PaddingLeft>
                            <PaddingRight>5pt</PaddingRight>
                          </Style>
                        </Textbox>
                      </CellContents>
                    </TablixCell>
                    <TablixCell>
                      <CellContents>
                        <Textbox Name="BomCompLevelUOMCode">
                          <KeepTogether>true</KeepTogether>
                          <Paragraphs>
                            <Paragraph>
                              <TextRuns>
                                <TextRun>
                                  <Value>=Fields!BomCompLevelUOMCode.Value</Value>
                                  <Style>
                                    <FontFamily>Segoe UI</FontFamily>
                                    <FontSize>8pt</FontSize>
                                  </Style>
                                </TextRun>
                              </TextRuns>
                              <Style>
                                <TextAlign>Left</TextAlign>
                              </Style>
                            </Paragraph>
                          </Paragraphs>
                          <ZIndex>12</ZIndex>
                          <Style>
                            <Border />
                            <BackgroundColor>#f0f0f0</BackgroundColor>
                            <VerticalAlign>Top</VerticalAlign>
                            <PaddingLeft>5pt</PaddingLeft>
                            <PaddingRight>5pt</PaddingRight>
                          </Style>
                        </Textbox>
                      </CellContents>
                    </TablixCell>
                    <TablixCell>
                      <CellContents>
                        <Textbox Name="BOMQty">
                          <CanGrow>true</CanGrow>
                          <KeepTogether>true</KeepTogether>
                          <Paragraphs>
                            <Paragraph>
                              <TextRuns>
                                <TextRun>
                                  <Value>=Fields!BOMQty.Value</Value>
                                  <Style>
                                    <FontFamily>Segoe UI</FontFamily>
                                    <FontSize>8pt</FontSize>
                                    <Format>=Fields!BOMQtyFormat.Value</Format>
                                  </Style>
                                </TextRun>
                              </TextRuns>
                              <Style>
                                <TextAlign>Right</TextAlign>
                              </Style>
                            </Paragraph>
                          </Paragraphs>
                          <ZIndex>11</ZIndex>
                          <Style>
                            <BackgroundColor>#f0f0f0</BackgroundColor>
                            <VerticalAlign>Top</VerticalAlign>
                            <PaddingLeft>5pt</PaddingLeft>
                          </Style>
                        </Textbox>
                      </CellContents>
                    </TablixCell>
                  </TablixCells>
                </TablixRow>
                <TablixRow>
                  <Height>0.13889in</Height>
                  <TablixCells>
                    <TablixCell>
                      <CellContents>
                        <Textbox Name="Textbox1">
                          <CanGrow>true</CanGrow>
                          <KeepTogether>true</KeepTogether>
                          <Paragraphs>
                            <Paragraph>
                              <TextRuns>
                                <TextRun>
                                  <Value />
                                  <Style>
                                    <FontFamily>Segoe UI</FontFamily>
                                    <FontSize>8pt</FontSize>
                                  </Style>
                                </TextRun>
                              </TextRuns>
                              <Style />
                            </Paragraph>
                          </Paragraphs>
                          <rd:DefaultName>Textbox1</rd:DefaultName>
                          <Style>
                            <Border />
                            <BackgroundColor>White</BackgroundColor>
                            <VerticalAlign>Top</VerticalAlign>
                            <PaddingLeft>5pt</PaddingLeft>
                            <PaddingRight>5pt</PaddingRight>
                          </Style>
                        </Textbox>
                      </CellContents>
                    </TablixCell>
                    <TablixCell>
                      <CellContents>
                        <Textbox Name="Textbox2">
                          <CanGrow>true</CanGrow>
                          <KeepTogether>true</KeepTogether>
                          <Paragraphs>
                            <Paragraph>
                              <TextRuns>
                                <TextRun>
                                  <Value />
                                  <Style>
                                    <FontFamily>Segoe UI</FontFamily>
                                    <FontSize>8pt</FontSize>
                                  </Style>
                                </TextRun>
                              </TextRuns>
                              <Style>
                                <TextAlign>Left</TextAlign>
                              </Style>
                            </Paragraph>
                          </Paragraphs>
                          <rd:DefaultName>Textbox2</rd:DefaultName>
                          <Style>
                            <BackgroundColor>White</BackgroundColor>
                            <VerticalAlign>Top</VerticalAlign>
                            <PaddingLeft>5pt</PaddingLeft>
                            <PaddingRight>5pt</PaddingRight>
                          </Style>
                        </Textbox>
                      </CellContents>
                    </TablixCell>
                    <TablixCell>
                      <CellContents>
                        <Textbox Name="Textbox3">
                          <CanGrow>true</CanGrow>
                          <KeepTogether>true</KeepTogether>
                          <Paragraphs>
                            <Paragraph>
                              <TextRuns>
                                <TextRun>
                                  <Value />
                                  <Style>
                                    <FontFamily>Segoe UI</FontFamily>
                                    <FontSize>8pt</FontSize>
                                  </Style>
                                </TextRun>
                              </TextRuns>
                              <Style />
                            </Paragraph>
                          </Paragraphs>
                          <rd:DefaultName>Textbox3</rd:DefaultName>
                          <Style>
                            <BackgroundColor>White</BackgroundColor>
                            <VerticalAlign>Top</VerticalAlign>
                            <PaddingLeft>5pt</PaddingLeft>
                            <PaddingRight>5pt</PaddingRight>
                          </Style>
                        </Textbox>
                      </CellContents>
                    </TablixCell>
                    <TablixCell>
                      <CellContents>
                        <Textbox Name="Textbox4">
                          <CanGrow>true</CanGrow>
                          <KeepTogether>true</KeepTogether>
                          <Paragraphs>
                            <Paragraph>
                              <TextRuns>
                                <TextRun>
                                  <Value />
                                  <Style>
                                    <FontFamily>Segoe UI</FontFamily>
                                    <FontSize>8pt</FontSize>
                                  </Style>
                                </TextRun>
                              </TextRuns>
                              <Style>
                                <TextAlign>Right</TextAlign>
                              </Style>
                            </Paragraph>
                          </Paragraphs>
                          <rd:DefaultName>Textbox4</rd:DefaultName>
                          <Style>
                            <Border />
                            <BackgroundColor>White</BackgroundColor>
                            <VerticalAlign>Top</VerticalAlign>
                            <PaddingLeft>5pt</PaddingLeft>
                            <PaddingRight>5pt</PaddingRight>
                          </Style>
                        </Textbox>
                      </CellContents>
                    </TablixCell>
                    <TablixCell>
                      <CellContents>
                        <Textbox Name="Textbox5">
                          <CanGrow>true</CanGrow>
                          <KeepTogether>true</KeepTogether>
                          <Paragraphs>
                            <Paragraph>
                              <TextRuns>
                                <TextRun>
                                  <Value />
                                  <Style>
                                    <FontFamily>Segoe UI</FontFamily>
                                    <FontSize>8pt</FontSize>
                                  </Style>
                                </TextRun>
                              </TextRuns>
                              <Style>
                                <TextAlign>Right</TextAlign>
                              </Style>
                            </Paragraph>
                          </Paragraphs>
                          <rd:DefaultName>Textbox5</rd:DefaultName>
                          <Style>
                            <Border />
                            <BackgroundColor>White</BackgroundColor>
                            <VerticalAlign>Top</VerticalAlign>
                            <PaddingLeft>5pt</PaddingLeft>
                            <PaddingRight>5pt</PaddingRight>
                          </Style>
                        </Textbox>
                      </CellContents>
                    </TablixCell>
                    <TablixCell>
                      <CellContents>
                        <Textbox Name="Textbox6">
                          <CanGrow>true</CanGrow>
                          <KeepTogether>true</KeepTogether>
                          <Paragraphs>
                            <Paragraph>
                              <TextRuns>
                                <TextRun>
                                  <Value />
                                  <Style>
                                    <FontFamily>Segoe UI</FontFamily>
                                    <FontSize>8pt</FontSize>
                                  </Style>
                                </TextRun>
                              </TextRuns>
                              <Style>
                                <TextAlign>Right</TextAlign>
                              </Style>
                            </Paragraph>
                          </Paragraphs>
                          <rd:DefaultName>Textbox6</rd:DefaultName>
                          <Style>
                            <BackgroundColor>White</BackgroundColor>
                            <VerticalAlign>Top</VerticalAlign>
                            <PaddingLeft>5pt</PaddingLeft>
                            <PaddingRight>5pt</PaddingRight>
                          </Style>
                        </Textbox>
                      </CellContents>
                    </TablixCell>
                  </TablixCells>
                </TablixRow>
              </TablixRows>
            </TablixBody>
            <TablixColumnHierarchy>
              <TablixMembers>
                <TablixMember />
                <TablixMember />
                <TablixMember />
                <TablixMember />
                <TablixMember />
                <TablixMember />
              </TablixMembers>
            </TablixColumnHierarchy>
            <TablixRowHierarchy>
              <TablixMembers>
                <TablixMember>
                  <KeepWithGroup>After</KeepWithGroup>
                  <RepeatOnNewPage>true</RepeatOnNewPage>
                </TablixMember>
                <TablixMember>
                  <KeepWithGroup>After</KeepWithGroup>
                  <RepeatOnNewPage>true</RepeatOnNewPage>
                </TablixMember>
                <TablixMember>
                  <KeepWithGroup>After</KeepWithGroup>
                  <RepeatOnNewPage>true</RepeatOnNewPage>
                </TablixMember>
                <TablixMember>
                  <Group Name="Table1_Group1">
                    <GroupExpressions>
                      <GroupExpression>=Fields!No_Item.Value</GroupExpression>
                    </GroupExpressions>
                  </Group>
                  <TablixMembers>
                    <TablixMember>
                      <KeepWithGroup>After</KeepWithGroup>
                      <KeepTogether>true</KeepTogether>
                    </TablixMember>
                    <TablixMember>
                      <Group Name="Table1_Details_Group">
                        <DataElementName>Detail</DataElementName>
                      </Group>
                      <TablixMembers>
                        <TablixMember />
                      </TablixMembers>
                      <DataElementName>Detail_Collection</DataElementName>
                      <DataElementOutput>Output</DataElementOutput>
                      <KeepTogether>true</KeepTogether>
                    </TablixMember>
                    <TablixMember>
                      <KeepWithGroup>Before</KeepWithGroup>
                    </TablixMember>
                  </TablixMembers>
                </TablixMember>
              </TablixMembers>
            </TablixRowHierarchy>
            <DataSetName>DataSet_Result</DataSetName>
            <Top>0.45508cm</Top>
            <Height>1.76388cm</Height>
            <Width>17.88508cm</Width>
            <Style />
          </Tablix>
          <Textbox Name="ItemTABLECAPTIONFilter">
            <KeepTogether>true</KeepTogether>
            <Paragraphs>
              <Paragraph>
                <TextRuns>
                  <TextRun>
                    <Value>=First(Fields!ItemTableCaptionFilter.Value)</Value>
                    <Style>
                      <FontFamily>Segoe UI</FontFamily>
                      <FontSize>8pt</FontSize>
                    </Style>
                  </TextRun>
                </TextRuns>
                <Style>
                  <TextAlign>Left</TextAlign>
                </Style>
              </Paragraph>
            </Paragraphs>
            <Top>0.03175cm</Top>
            <Height>11pt</Height>
            <Width>15.102cm</Width>
            <ZIndex>1</ZIndex>
            <Visibility>
              <Hidden>=iif(Fields!ItemFilter.Value = "",true,false)</Hidden>
            </Visibility>
            <DataElementOutput>NoOutput</DataElementOutput>
            <Style>
              <VerticalAlign>Middle</VerticalAlign>
              <PaddingRight>0.0625in</PaddingRight>
            </Style>
          </Textbox>
        </ReportItems>
        <Height>2.21896cm</Height>
        <Style />
      </Body>
      <Width>17.91154cm</Width>
      <Page>
        <PageHeader>
          <Height>2.13465cm</Height>
          <PrintOnFirstPage>true</PrintOnFirstPage>
          <PrintOnLastPage>true</PrintOnLastPage>
          <ReportItems>
            <Textbox Name="CurrReportPAGENOCapt">
              <KeepTogether>true</KeepTogether>
              <Paragraphs>
                <Paragraph>
                  <TextRuns>
                    <TextRun>
                      <Value>=Fields!CurrReportPageNoCapt.Value &amp; " " &amp; Globals!PageNumber</Value>
                      <Style>
                        <FontFamily>Segoe UI</FontFamily>
                        <FontSize>8pt</FontSize>
                      </Style>
                    </TextRun>
                  </TextRuns>
                  <Style>
                    <TextAlign>Right</TextAlign>
                  </Style>
                </Paragraph>
              </Paragraphs>
              <Top>0.423cm</Top>
              <Left>14.61425cm</Left>
              <Height>11pt</Height>
              <Width>3.25cm</Width>
              <Style>
                <VerticalAlign>Middle</VerticalAlign>
              </Style>
            </Textbox>
            <Textbox Name="QuantityExplosionofBOMCapt">
              <KeepTogether>true</KeepTogether>
              <Paragraphs>
                <Paragraph>
                  <TextRuns>
                    <TextRun>
                      <Value>=First(Fields!QtyExplosionofBOMCapt.Value, "DataSet_Result")</Value>
                      <Style>
                        <FontFamily>Segoe UI</FontFamily>
                        <FontSize>14pt</FontSize>
                        <FontWeight>Bold</FontWeight>
                      </Style>
                    </TextRun>
                  </TextRuns>
                  <Style />
                </Paragraph>
              </Paragraphs>
              <Height>0.63467cm</Height>
              <Width>7.5cm</Width>
              <ZIndex>1</ZIndex>
              <Style>
                <VerticalAlign>Middle</VerticalAlign>
              </Style>
            </Textbox>
            <Textbox Name="COMPANYNAME">
              <KeepTogether>true</KeepTogether>
              <Paragraphs>
                <Paragraph>
                  <TextRuns>
                    <TextRun>
                      <Value>=First(Fields!CompanyName.Value, "DataSet_Result")</Value>
                      <Style>
                        <FontFamily>Segoe UI</FontFamily>
                        <FontSize>8pt</FontSize>
                      </Style>
                    </TextRun>
                  </TextRuns>
                  <Style />
                </Paragraph>
              </Paragraphs>
              <Top>0.63467cm</Top>
              <Height>11pt</Height>
              <Width>14.14104cm</Width>
              <ZIndex>2</ZIndex>
              <Style>
                <VerticalAlign>Middle</VerticalAlign>
              </Style>
            </Textbox>
            <Textbox Name="Text000CalcDate">
              <KeepTogether>true</KeepTogether>
              <Paragraphs>
                <Paragraph>
                  <TextRuns>
                    <TextRun>
                      <Value>=First(Fields!AsOfCalcDate.Value, "DataSet_Result")</Value>
                      <Style>
                        <FontFamily>Segoe UI</FontFamily>
                        <FontSize>8pt</FontSize>
                      </Style>
                    </TextRun>
                  </TextRuns>
                  <Style />
                </Paragraph>
              </Paragraphs>
              <Top>1.05549cm</Top>
              <Height>11pt</Height>
              <Width>14.14104cm</Width>
              <ZIndex>3</ZIndex>
              <Style>
                <VerticalAlign>Middle</VerticalAlign>
              </Style>
            </Textbox>
            <Textbox Name="ExecutionTimeTextBox">
              <KeepTogether>true</KeepTogether>
              <Paragraphs>
                <Paragraph>
                  <TextRuns>
                    <TextRun>
                      <Value>=First(Fields!TodayFormatted.Value, "DataSet_Result")</Value>
                      <Style>
                        <FontFamily>Segoe UI</FontFamily>
                        <FontSize>8pt</FontSize>
                        <Format>g</Format>
                      </Style>
                    </TextRun>
                  </TextRuns>
                  <Style>
                    <TextAlign>Right</TextAlign>
                  </Style>
                </Paragraph>
              </Paragraphs>
              <Left>14.61425cm</Left>
              <Height>11pt</Height>
              <Width>3.25cm</Width>
              <ZIndex>4</ZIndex>
              <Style>
                <VerticalAlign>Middle</VerticalAlign>
              </Style>
            </Textbox>
            <Textbox Name="UserIdTextBox">
              <KeepTogether>true</KeepTogether>
              <Paragraphs>
                <Paragraph>
                  <TextRuns>
                    <TextRun>
                      <Value>=User!UserID</Value>
                      <Style>
                        <FontFamily>Segoe UI</FontFamily>
                        <FontSize>8pt</FontSize>
                      </Style>
                    </TextRun>
                  </TextRuns>
                  <Style>
                    <TextAlign>Right</TextAlign>
                  </Style>
                </Paragraph>
              </Paragraphs>
              <Top>0.846cm</Top>
              <Left>14.61425cm</Left>
              <Height>11pt</Height>
              <Width>3.25cm</Width>
              <ZIndex>5</ZIndex>
              <Visibility>
                <Hidden>=iif(First(Fields!QtyExplosionofBOMCapt.Value, "DataSet_Result") = "",true,false)</Hidden>
              </Visibility>
              <DataElementOutput>NoOutput</DataElementOutput>
              <Style>
                <VerticalAlign>Middle</VerticalAlign>
              </Style>
            </Textbox>
          </ReportItems>
          <Style />
        </PageHeader>
        <PageHeight>29.7cm</PageHeight>
        <PageWidth>21cm</PageWidth>
        <InteractiveHeight>11in</InteractiveHeight>
        <InteractiveWidth>8.5in</InteractiveWidth>
        <LeftMargin>50pt</LeftMargin>
        <RightMargin>30pt</RightMargin>
        <TopMargin>30pt</TopMargin>
        <BottomMargin>42pt</BottomMargin>
        <Style />
      </Page>
    </ReportSection>
  </ReportSections>
  <Code>Public Function BlankZero(ByVal Value As Decimal)
    if Value = 0 then
        Return ""
    end if
    Return Value
End Function

Public Function BlankPos(ByVal Value As Decimal)
    if Value &gt; 0 then
        Return ""
    end if
    Return Value
End Function

Public Function BlankZeroAndPos(ByVal Value As Decimal)
    if Value &gt;= 0 then
        Return ""
    end if
    Return Value
End Function

Public Function BlankNeg(ByVal Value As Decimal)
    if Value &lt; 0 then
        Return ""
    end if
    Return Value
End Function

Public Function BlankNegAndZero(ByVal Value As Decimal)
    if Value &lt;= 0 then
        Return ""
    end if
    Return Value
End Function
</Code>
  <Language>=User!Language</Language>
  <ConsumeContainerWhitespace>true</ConsumeContainerWhitespace>
  <rd:ReportUnitType>Cm</rd:ReportUnitType>
  <rd:ReportID>fbe45648-cddc-4e31-8159-7d5727d0b869</rd:ReportID>
</Report>
    END_OF_RDLDATA
  }
}

