OBJECT Table 1259 Bank Data Conv. Bank
{
  OBJECT-PROPERTIES
  {
    Date=09/09/14;
    Time=12:00:00;
    Version List=NAVW18.00;
  }
  PROPERTIES
  {
    CaptionML=ENU=Bank Data Conv. Bank;
    LookupPageID=Page1259;
  }
  FIELDS
  {
    { 1   ;   ;Bank                ;Text50        ;CaptionML=ENU=Bank;
                                                   Editable=No }
    { 2   ;   ;Bank Name           ;Text50        ;CaptionML=ENU=Bank Name;
                                                   Editable=No }
    { 3   ;   ;Country/Region Code ;Code10        ;CaptionML=ENU=Country/Region Code;
                                                   Editable=No }
    { 4   ;   ;Last Update Date    ;Date          ;CaptionML=ENU=Last Update Date;
                                                   Editable=No }
    { 5   ;   ;Index               ;Integer       ;AutoIncrement=Yes;
                                                   CaptionML=ENU=Index }
  }
  KEYS
  {
    {    ;Bank,Index                              ;Clustered=Yes }
  }
  FIELDGROUPS
  {
    { 1   ;DropDown            ;Bank                                     }
  }
  CODE
  {

    BEGIN
    END.
  }
}

