OBJECT Table 136 Acc. Sched. KPI Web Srv. Line
{
  OBJECT-PROPERTIES
  {
    Date=23/09/13;
    Time=12:00:00;
    Version List=NAVW17.10;
  }
  PROPERTIES
  {
    CaptionML=ENU=Acc. Sched. KPI Web Srv. Line;
  }
  FIELDS
  {
    { 1   ;   ;Acc. Schedule Name  ;Code10        ;TableRelation="Acc. Schedule Name";
                                                   CaptionML=ENU=Acc. Schedule Name;
                                                   NotBlank=Yes }
    { 2   ;   ;Acc. Schedule Description;Text80   ;FieldClass=FlowField;
                                                   CalcFormula=Lookup("Acc. Schedule Name".Description WHERE (Name=FIELD(Acc. Schedule Name)));
                                                   CaptionML=ENU=Acc. Schedule Description;
                                                   Editable=No }
  }
  KEYS
  {
    {    ;Acc. Schedule Name                      ;Clustered=Yes }
  }
  FIELDGROUPS
  {
  }
  CODE
  {

    BEGIN
    END.
  }
}

