OBJECT Table 1319 Sales by Cust. Grp.Chart Setup
{
  OBJECT-PROPERTIES
  {
    Date=23/09/13;
    Time=12:00:00;
    Version List=NAVW17.10;
  }
  PROPERTIES
  {
    CaptionML=ENU=Sales by Cust. Grp.Chart Setup;
    LookupPageID=Page767;
  }
  FIELDS
  {
    { 1   ;   ;User ID             ;Text132       ;CaptionML=ENU=User ID;
                                                   Editable=No }
    { 31  ;   ;Start Date          ;Date          ;OnValidate=BEGIN
                                                                TESTFIELD("Start Date");
                                                              END;

                                                   CaptionML=ENU=Start Date }
    { 41  ;   ;Period Length       ;Option        ;CaptionML=ENU=Period Length;
                                                   OptionCaptionML=ENU=Day,Week,Month,Quarter,Year;
                                                   OptionString=Day,Week,Month,Quarter,Year }
  }
  KEYS
  {
    {    ;User ID                                 ;Clustered=Yes }
  }
  FIELDGROUPS
  {
  }
  CODE
  {

    PROCEDURE SetPeriod@1(Which@1000 : ' ,Next,Previous');
    VAR
      BusinessChartBuffer@1001 : Record 485;
    BEGIN
      IF Which = Which::" " THEN
        EXIT;

      GET(USERID);
      BusinessChartBuffer."Period Length" := "Period Length";
      CASE Which OF
        Which::Previous:
          "Start Date" := CALCDATE('<-1D>',BusinessChartBuffer.CalcFromDate("Start Date"));
        Which::Next:
          "Start Date" := CALCDATE('<1D>',BusinessChartBuffer.CalcToDate("Start Date"));
      END;
      MODIFY;
    END;

    PROCEDURE SetPeriodLength@7(PeriodLength@1000 : Option);
    BEGIN
      GET(USERID);
      "Period Length" := PeriodLength;
      MODIFY(TRUE);
    END;

    BEGIN
    END.
  }
}

