OBJECT Table 5320 Exchange Folder
{
  OBJECT-PROPERTIES
  {
    Date=07/09/12;
    Time=12:00:00;
    Version List=NAVW17.00;
  }
  PROPERTIES
  {
    CaptionML=ENU=Exchange Folder;
  }
  FIELDS
  {
    { 1   ;   ;Unique ID           ;BLOB          ;CaptionML=ENU=UniqueID }
    { 2   ;   ;Name                ;Text250       ;CaptionML=ENU=Name }
    { 3   ;   ;FullPath            ;Text250       ;CaptionML=ENU=FullPath }
    { 4   ;   ;Depth               ;Integer       ;CaptionML=ENU=Depth }
    { 5   ;   ;Cached              ;Boolean       ;CaptionML=ENU=Cached }
  }
  KEYS
  {
    {    ;FullPath                                ;Clustered=Yes }
  }
  FIELDGROUPS
  {
  }
  CODE
  {

    PROCEDURE ReadUniqueID@1() Return : Text;
    VAR
      Stream@1000 : InStream;
    BEGIN
      "Unique ID".CREATEINSTREAM(Stream);
      Stream.READTEXT(Return);
    END;

    PROCEDURE GetUniqueID@3() Return : Text;
    BEGIN
      CALCFIELDS("Unique ID");
      Return := ReadUniqueID;
    END;

    PROCEDURE SetUniqueID@4(UniqueID@1001 : Text);
    VAR
      Stream@1000 : OutStream;
    BEGIN
      "Unique ID".CREATEOUTSTREAM(Stream);
      Stream.WRITETEXT(UniqueID);
    END;

    BEGIN
    END.
  }
}

