OBJECT Table 561 VAT Clause Translation
{
  OBJECT-PROPERTIES
  {
    Date=23/09/13;
    Time=12:00:00;
    Version List=NAVW17.10;
  }
  PROPERTIES
  {
    CaptionML=ENU=VAT Clause Translation;
    LookupPageID=Page748;
    DrillDownPageID=Page748;
  }
  FIELDS
  {
    { 1   ;   ;VAT Clause Code     ;Code10        ;TableRelation="VAT Clause";
                                                   CaptionML=ENU=VAT Clause Code }
    { 2   ;   ;Language Code       ;Code10        ;TableRelation=Language;
                                                   CaptionML=ENU=Language Code }
    { 3   ;   ;Description         ;Text250       ;CaptionML=ENU=Description }
    { 4   ;   ;Description 2       ;Text250       ;CaptionML=ENU=Description 2 }
  }
  KEYS
  {
    {    ;VAT Clause Code,Language Code           ;Clustered=Yes }
  }
  FIELDGROUPS
  {
  }
  CODE
  {

    BEGIN
    END.
  }
}

