OBJECT Table 59999 TablesToFix
{
  OBJECT-PROPERTIES
  {
    Date=18/04/16;
    Time=11:46:03;
    Modified=Yes;
    Version List=;
  }
  PROPERTIES
  {
  }
  FIELDS
  {
    { 1   ;   ;Table No.           ;Integer        }
  }
  KEYS
  {
    {    ;Table No.                               ;Clustered=Yes }
  }
  FIELDGROUPS
  {
  }
  CODE
  {

    BEGIN
    END.
  }
}

