OBJECT Table 550 VAT Rate Change Setup
{
  OBJECT-PROPERTIES
  {
    Date=09/09/14;
    Time=12:00:00;
    Version List=NAVW18.00;
  }
  PROPERTIES
  {
    CaptionML=ENU=VAT Rate Change Setup;
  }
  FIELDS
  {
    { 1   ;   ;Primary Key         ;Code10        ;CaptionML=ENU=Primary Key }
    { 10  ;   ;Update Gen. Prod. Post. Groups;Option;
                                                   InitValue=VAT Prod. Posting Group;
                                                   CaptionML=ENU=Update Gen. Prod. Post. Groups;
                                                   OptionCaptionML=ENU=VAT Prod. Posting Group,,,No;
                                                   OptionString=VAT Prod. Posting Group,,,No }
    { 15  ;   ;Update G/L Accounts ;Option        ;InitValue=Both;
                                                   CaptionML=ENU=Update G/L Accounts;
                                                   OptionCaptionML=ENU=VAT Prod. Posting Group,Gen. Prod. Posting Group,Both,No;
                                                   OptionString=VAT Prod. Posting Group,Gen. Prod. Posting Group,Both,No }
    { 17  ;   ;Update Items        ;Option        ;InitValue=Both;
                                                   AccessByPermission=TableData 27=R;
                                                   CaptionML=ENU=Update Items;
                                                   OptionCaptionML=ENU=VAT Prod. Posting Group,Gen. Prod. Posting Group,Both,No;
                                                   OptionString=VAT Prod. Posting Group,Gen. Prod. Posting Group,Both,No }
    { 18  ;   ;Update Item Categories;Option      ;InitValue=Both;
                                                   AccessByPermission=TableData 27=R;
                                                   CaptionML=ENU=Update Item Categories;
                                                   OptionCaptionML=ENU=VAT Prod. Posting Group,Gen. Prod. Posting Group,Both,No;
                                                   OptionString=VAT Prod. Posting Group,Gen. Prod. Posting Group,Both,No }
    { 19  ;   ;Update Item Charges ;Option        ;InitValue=Both;
                                                   AccessByPermission=TableData 5800=R;
                                                   CaptionML=ENU=Update Item Charges;
                                                   OptionCaptionML=ENU=VAT Prod. Posting Group,Gen. Prod. Posting Group,Both,No;
                                                   OptionString=VAT Prod. Posting Group,Gen. Prod. Posting Group,Both,No }
    { 21  ;   ;Update Resources    ;Option        ;InitValue=Both;
                                                   AccessByPermission=TableData 156=R;
                                                   CaptionML=ENU=Update Resources;
                                                   OptionCaptionML=ENU=VAT Prod. Posting Group,Gen. Prod. Posting Group,Both,No;
                                                   OptionString=VAT Prod. Posting Group,Gen. Prod. Posting Group,Both,No }
    { 30  ;   ;Update Gen. Journal Lines;Option   ;InitValue=Both;
                                                   CaptionML=ENU=Update Gen. Journal Lines;
                                                   OptionCaptionML=ENU=VAT Prod. Posting Group,Gen. Prod. Posting Group,Both,No;
                                                   OptionString=VAT Prod. Posting Group,Gen. Prod. Posting Group,Both,No }
    { 31  ;   ;Update Gen. Journal Allocation;Option;
                                                   InitValue=Both;
                                                   AccessByPermission=TableData 221=R;
                                                   CaptionML=ENU=Update Gen. Journal Allocation;
                                                   OptionCaptionML=ENU=VAT Prod. Posting Group,Gen. Prod. Posting Group,Both,No;
                                                   OptionString=VAT Prod. Posting Group,Gen. Prod. Posting Group,Both,No }
    { 32  ;   ;Update Std. Gen. Jnl. Lines;Option ;InitValue=Both;
                                                   CaptionML=ENU=Update Std. Gen. Jnl. Lines;
                                                   OptionCaptionML=ENU=VAT Prod. Posting Group,Gen. Prod. Posting Group,Both,No;
                                                   OptionString=VAT Prod. Posting Group,Gen. Prod. Posting Group,Both,No }
    { 33  ;   ;Update Res. Journal Lines;Option   ;InitValue=Gen. Prod. Posting Group;
                                                   AccessByPermission=TableData 156=R;
                                                   CaptionML=ENU=Update Res. Journal Lines;
                                                   OptionCaptionML=ENU=,Gen. Prod. Posting Group,,No;
                                                   OptionString=,Gen. Prod. Posting Group,,No }
    { 35  ;   ;Update Job Journal Lines;Option    ;InitValue=Gen. Prod. Posting Group;
                                                   AccessByPermission=TableData 167=R;
                                                   CaptionML=ENU=Update Job Journal Lines;
                                                   OptionCaptionML=ENU=,Gen. Prod. Posting Group,,No;
                                                   OptionString=,Gen. Prod. Posting Group,,No }
    { 37  ;   ;Update Requisition Lines;Option    ;InitValue=Gen. Prod. Posting Group;
                                                   AccessByPermission=TableData 244=R;
                                                   CaptionML=ENU=Update Requisition Lines;
                                                   OptionCaptionML=ENU=,Gen. Prod. Posting Group,,No;
                                                   OptionString=,Gen. Prod. Posting Group,,No }
    { 39  ;   ;Update Std. Item Jnl. Lines;Option ;InitValue=Gen. Prod. Posting Group;
                                                   AccessByPermission=TableData 27=R;
                                                   CaptionML=ENU=Update Std. Item Jnl. Lines;
                                                   OptionCaptionML=ENU=,Gen. Prod. Posting Group,,No;
                                                   OptionString=,Gen. Prod. Posting Group,,No }
    { 41  ;   ;Update Service Docs.;Option        ;InitValue=Both;
                                                   AccessByPermission=TableData 5900=R;
                                                   CaptionML=ENU=Update Service Docs.;
                                                   OptionCaptionML=ENU=VAT Prod. Posting Group,Gen. Prod. Posting Group,Both,No;
                                                   OptionString=VAT Prod. Posting Group,Gen. Prod. Posting Group,Both,No }
    { 43  ;   ;Update Serv. Price Adj. Detail;Option;
                                                   InitValue=Gen. Prod. Posting Group;
                                                   AccessByPermission=TableData 5900=R;
                                                   CaptionML=ENU=Update Serv. Price Adj. Detail;
                                                   OptionCaptionML=ENU=,Gen. Prod. Posting Group,,No;
                                                   OptionString=,Gen. Prod. Posting Group,,No }
    { 50  ;   ;Update Sales Documents;Option      ;InitValue=Both;
                                                   AccessByPermission=TableData 36=R;
                                                   CaptionML=ENU=Update Sales Documents;
                                                   OptionCaptionML=ENU=VAT Prod. Posting Group,Gen. Prod. Posting Group,Both,No;
                                                   OptionString=VAT Prod. Posting Group,Gen. Prod. Posting Group,Both,No }
    { 55  ;   ;Update Purchase Documents;Option   ;InitValue=Both;
                                                   AccessByPermission=TableData 38=R;
                                                   CaptionML=ENU=Update Purchase Documents;
                                                   OptionCaptionML=ENU=VAT Prod. Posting Group,Gen. Prod. Posting Group,Both,No;
                                                   OptionString=VAT Prod. Posting Group,Gen. Prod. Posting Group,Both,No }
    { 60  ;   ;Update Production Orders;Option    ;InitValue=Gen. Prod. Posting Group;
                                                   AccessByPermission=TableData 5405=R;
                                                   CaptionML=ENU=Update Production Orders;
                                                   OptionCaptionML=ENU=,Gen. Prod. Posting Group,,No;
                                                   OptionString=,Gen. Prod. Posting Group,,No }
    { 62  ;   ;Update Work Centers ;Option        ;InitValue=Gen. Prod. Posting Group;
                                                   AccessByPermission=TableData 99000758=R;
                                                   CaptionML=ENU=Update Work Centers;
                                                   OptionCaptionML=ENU=,Gen. Prod. Posting Group,,No;
                                                   OptionString=,Gen. Prod. Posting Group,,No }
    { 64  ;   ;Update Machine Centers;Option      ;InitValue=Gen. Prod. Posting Group;
                                                   AccessByPermission=TableData 99000758=R;
                                                   CaptionML=ENU=Update Machine Centers;
                                                   OptionCaptionML=ENU=,Gen. Prod. Posting Group,,No;
                                                   OptionString=,Gen. Prod. Posting Group,,No }
    { 70  ;   ;Update Reminders    ;Option        ;InitValue=VAT Prod. Posting Group;
                                                   AccessByPermission=TableData 36=R;
                                                   CaptionML=ENU=Update Reminders;
                                                   OptionCaptionML=ENU=VAT Prod. Posting Group,,,No;
                                                   OptionString=VAT Prod. Posting Group,,,No }
    { 75  ;   ;Update Finance Charge Memos;Option ;InitValue=VAT Prod. Posting Group;
                                                   CaptionML=ENU=Update Finance Charge Memos;
                                                   OptionCaptionML=ENU=VAT Prod. Posting Group,,,No;
                                                   OptionString=VAT Prod. Posting Group,,,No }
    { 90  ;   ;VAT Rate Change Tool Completed;Boolean;
                                                   InitValue=No;
                                                   CaptionML=ENU=VAT Rate Change Tool Completed }
    { 91  ;   ;Ignore Status on Sales Docs.;Boolean;
                                                   InitValue=Yes;
                                                   CaptionML=ENU=Ignore Status on Sales Docs. }
    { 92  ;   ;Ignore Status on Purch. Docs.;Boolean;
                                                   InitValue=Yes;
                                                   CaptionML=ENU=Ignore Status on Purch. Docs. }
    { 93  ;   ;Perform Conversion  ;Boolean       ;CaptionML=ENU=Perform Conversion }
    { 100 ;   ;Item Filter         ;Text250       ;ValidateTableRelation=No;
                                                   TestTableRelation=No;
                                                   CaptionML=ENU=Item Filter }
    { 101 ;   ;Account Filter      ;Text250       ;ValidateTableRelation=No;
                                                   TestTableRelation=No;
                                                   CaptionML=ENU=Account Filter }
    { 102 ;   ;Resource Filter     ;Text250       ;ValidateTableRelation=No;
                                                   TestTableRelation=No;
                                                   CaptionML=ENU=Resource Filter }
  }
  KEYS
  {
    {    ;Primary Key                             ;Clustered=Yes }
  }
  FIELDGROUPS
  {
  }
  CODE
  {

    PROCEDURE LookUpItemFilter@57(VAR Text@1001 : Text[250]) : Boolean;
    VAR
      Item@1000 : Record 27;
      ItemList@1003 : Page 31;
    BEGIN
      ItemList.LOOKUPMODE(TRUE);
      ItemList.SETTABLEVIEW(Item);
      IF ItemList.RUNMODAL = ACTION::LookupOK THEN BEGIN
        ItemList.GETRECORD(Item);
        Text := ItemList.GetSelectionFilter;
        EXIT(TRUE);
      END;
      EXIT(FALSE)
    END;

    PROCEDURE LookUpResourceFilter@1(VAR Text@1001 : Text[250]) : Boolean;
    VAR
      Resource@1000 : Record 156;
      ResourceList@1003 : Page 77;
    BEGIN
      ResourceList.LOOKUPMODE(TRUE);
      ResourceList.SETTABLEVIEW(Resource);
      IF ResourceList.RUNMODAL = ACTION::LookupOK THEN BEGIN
        ResourceList.GETRECORD(Resource);
        Text := Resource."No.";
        EXIT(TRUE);
      END;
      EXIT(FALSE)
    END;

    PROCEDURE LookUpGLAccountFilter@2(VAR Text@1001 : Text[250]) : Boolean;
    VAR
      GLAccount@1000 : Record 15;
      GLAccountList@1003 : Page 18;
    BEGIN
      GLAccountList.LOOKUPMODE(TRUE);
      GLAccountList.SETTABLEVIEW(GLAccount);
      IF GLAccountList.RUNMODAL = ACTION::LookupOK THEN BEGIN
        GLAccountList.GETRECORD(GLAccount);
        Text := GLAccountList.GetSelectionFilter;
        EXIT(TRUE);
      END;
      EXIT(FALSE)
    END;

    BEGIN
    END.
  }
}

