OBJECT Table 5921 Fault Area/Symptom Code
{
  OBJECT-PROPERTIES
  {
    Date=07/09/12;
    Time=12:00:00;
    Version List=NAVW17.00;
  }
  PROPERTIES
  {
    CaptionML=ENU=Fault Area/Symptom Code;
  }
  FIELDS
  {
    { 1   ;   ;Type                ;Option        ;CaptionML=ENU=Type;
                                                   OptionCaptionML=ENU=,Fault Area,Symptom Code;
                                                   OptionString=,Fault Area,Symptom Code }
    { 2   ;   ;Code                ;Code10        ;CaptionML=ENU=Code }
    { 3   ;   ;Description         ;Text50        ;CaptionML=ENU=Description }
  }
  KEYS
  {
    {    ;Type,Code                               ;Clustered=Yes }
  }
  FIELDGROUPS
  {
  }
  CODE
  {

    BEGIN
    END.
  }
}

