OBJECT Table 60005 tempfile
{
  OBJECT-PROPERTIES
  {
    Date=17/10/12;
    Time=15:32:13;
    Modified=Yes;
    Version List=;
  }
  PROPERTIES
  {
  }
  FIELDS
  {
    { 1   ;   ;myno                ;Code10         }
  }
  KEYS
  {
    {    ;myno                                    ;Clustered=Yes }
  }
  FIELDGROUPS
  {
  }
  CODE
  {

    BEGIN
    END.
  }
}

