OBJECT Table 740 VAT Report Header
{
  OBJECT-PROPERTIES
  {
    Date=07/09/12;
    Time=12:00:00;
    Version List=NAVW17.00;
  }
  PROPERTIES
  {
    OnInsert=BEGIN
               IF "No." = '' THEN
                 NoSeriesMgt.InitSeries(GetNoSeriesCode,xRec."No. Series",WORKDATE,"No.","No. Series");

               InitRecord;
             END;

    OnModify=BEGIN
               CheckDates;
             END;

    OnDelete=VAR
               VATReportLine@1000 : Record 741;
               VATReportLineRelation@1001 : Record 744;
             BEGIN
               TESTFIELD(Status,Status::Open);
               VATReportLine.SETRANGE("VAT Report No.","No.");
               VATReportLine.DELETEALL;
               VATReportLineRelation.SETRANGE("VAT Report No.","No.");
               VATReportLineRelation.DELETEALL;
             END;

    OnRename=BEGIN
               ERROR(Text004);
             END;

    CaptionML=ENU=VAT Report Header;
    LookupPageID=Page744;
  }
  FIELDS
  {
    { 1   ;   ;No.                 ;Code20        ;OnValidate=BEGIN
                                                                IF "No." <> xRec."No." THEN BEGIN
                                                                  NoSeriesMgt.TestManual(GetNoSeriesCode);
                                                                  "No. Series" := '';
                                                                END;
                                                              END;

                                                   CaptionML=ENU=No. }
    { 2   ;   ;VAT Report Config. Code;Option     ;OnValidate=BEGIN
                                                                CheckEditingAllowed;
                                                              END;

                                                   CaptionML=ENU=VAT Report Config. Code;
                                                   OptionCaptionML=ENU=" ,Option1";
                                                   OptionString=[ ,Option1];
                                                   Editable=Yes }
    { 3   ;   ;VAT Report Type     ;Option        ;OnValidate=BEGIN
                                                                CheckEditingAllowed;

                                                                CASE "VAT Report Type" OF
                                                                  "VAT Report Type"::Standard:
                                                                    "Original Report No." := '';
                                                                  "VAT Report Type"::Corrective,"VAT Report Type"::Supplementary:
                                                                    BEGIN
                                                                      VATReportSetup.GET;
                                                                      IF VATReportSetup."Modify Submitted Reports" THEN
                                                                        ERROR(Text001,VATReportSetup.FIELDCAPTION("Modify Submitted Reports"),VATReportSetup.TABLECAPTION);
                                                                    END;
                                                                END;
                                                              END;

                                                   CaptionML=ENU=VAT Report Type;
                                                   OptionCaptionML=ENU="Standard,Corrective,Supplementary ";
                                                   OptionString=Standard,Corrective,Supplementary }
    { 4   ;   ;Start Date          ;Date          ;OnValidate=BEGIN
                                                                CheckEditingAllowed;
                                                                TESTFIELD("Start Date");
                                                              END;

                                                   CaptionML=ENU=Start Date }
    { 5   ;   ;End Date            ;Date          ;OnValidate=BEGIN
                                                                CheckEditingAllowed;
                                                                TESTFIELD("End Date");
                                                                CheckEndDate;
                                                              END;

                                                   CaptionML=ENU=End Date }
    { 6   ;   ;Status              ;Option        ;CaptionML=ENU=Status;
                                                   OptionCaptionML=ENU=Open,Released,Submitted;
                                                   OptionString=Open,Released,Submitted;
                                                   Editable=No }
    { 8   ;   ;No. Series          ;Code10        ;OnValidate=BEGIN
                                                                CheckEditingAllowed;
                                                              END;

                                                   CaptionML=ENU=No. Series }
    { 9   ;   ;Original Report No. ;Code20        ;OnValidate=VAR
                                                                VATReportHeader@1000 : Record 740;
                                                              BEGIN
                                                                CheckEditingAllowed;

                                                                CASE "VAT Report Type" OF
                                                                  "VAT Report Type"::Standard:
                                                                    BEGIN
                                                                      IF "Original Report No." <> '' THEN
                                                                        ERROR(Text006,"VAT Report Type");
                                                                    END;
                                                                  "VAT Report Type"::Corrective,"VAT Report Type"::Supplementary:
                                                                    BEGIN
                                                                      TESTFIELD("Original Report No.");
                                                                      IF "Original Report No." = "No." THEN
                                                                        ERROR(Text005);
                                                                      VATReportHeader.GET("Original Report No.");
                                                                      "Start Date" := VATReportHeader."Start Date";
                                                                      "End Date" := VATReportHeader."End Date";
                                                                    END;
                                                                END;
                                                              END;

                                                   OnLookup=VAR
                                                              LookupVATReportHeader@1001 : Record 740;
                                                              VATReportList@1000 : Page 744;
                                                              ShowLookup@1002 : Boolean;
                                                              TypeFilterText@1004 : Text[1024];
                                                            BEGIN
                                                              TypeFilterText := '';
                                                              ShowLookup := FALSE;

                                                              CASE "VAT Report Type" OF
                                                                "VAT Report Type"::Corrective,"VAT Report Type"::Supplementary:
                                                                  ShowLookup := TRUE;
                                                              END;

                                                              IF ShowLookup THEN BEGIN
                                                                LookupVATReportHeader.SETFILTER("No.",'<>' + "No.");
                                                                LookupVATReportHeader.SETRANGE(Status,Status::Submitted);
                                                                LookupVATReportHeader.SETFILTER("VAT Report Type",TypeFilterText);
                                                                VATReportList.SETTABLEVIEW(LookupVATReportHeader);
                                                                VATReportList.LOOKUPMODE(TRUE);
                                                                IF VATReportList.RUNMODAL = ACTION::LookupOK THEN BEGIN
                                                                  VATReportList.GETRECORD(LookupVATReportHeader);
                                                                  VALIDATE("Original Report No.",LookupVATReportHeader."No.");
                                                                END;
                                                              END;
                                                            END;

                                                   CaptionML=ENU=Original Report No. }
  }
  KEYS
  {
    {    ;No.                                     ;Clustered=Yes }
  }
  FIELDGROUPS
  {
  }
  CODE
  {
    VAR
      VATReportSetup@1000 : Record 743;
      Text001@1002 : TextConst 'ENU=The value of %1 field in the %2 window does not allow this option.';
      Text002@1001 : TextConst 'ENU=Editing is not allowed because the report is marked as %1.';
      Text003@1003 : TextConst 'ENU=The end date cannot be earlier than the start date.';
      NoSeriesMgt@1004 : Codeunit 396;
      Text004@1005 : TextConst 'ENU=You cannot rename the report because it has been assigned a report number.';
      Text005@1006 : TextConst 'ENU=You cannot specify the same report as the reference report.';
      Text006@1007 : TextConst 'ENU=You cannot specify an original report for a report of type %1.';
      Text007@1008 : TextConst 'ENU=This is not allowed because of the setup in the %1 window.';
      Text008@1010 : TextConst 'ENU=You must specify an original report for a report of type %1.';

    PROCEDURE GetNoSeriesCode@1() : Code[10];
    BEGIN
      VATReportSetup.GET;
      VATReportSetup.TESTFIELD("No. Series");
      EXIT(VATReportSetup."No. Series");
    END;

    PROCEDURE AssistEdit@2(OldVATReportHeader@1001 : Record 740) : Boolean;
    BEGIN
      IF NoSeriesMgt.SelectSeries(GetNoSeriesCode,OldVATReportHeader."No. Series","No. Series") THEN BEGIN
        NoSeriesMgt.SetSeries("No.");
        EXIT(TRUE);
      END;
    END;

    PROCEDURE InitRecord@3();
    BEGIN
      "VAT Report Config. Code" := "VAT Report Config. Code"::Option1;
      "Start Date" := WORKDATE;
      "End Date" := WORKDATE;
    END;

    PROCEDURE CheckEditingAllowed@4();
    BEGIN
      IF Status IN [Status::Released,Status::Submitted] THEN
        ERROR(Text002,FORMAT(Status));
    END;

    PROCEDURE CheckDates@5();
    BEGIN
      TESTFIELD("Start Date");
      TESTFIELD("End Date");
      CheckEndDate;
    END;

    PROCEDURE CheckEndDate@6();
    BEGIN
      IF "End Date" < "Start Date" THEN
        ERROR(Text003);
    END;

    PROCEDURE CheckIfCanBeSubmitted@7();
    BEGIN
      TESTFIELD(Status,Status::Released);
    END;

    PROCEDURE CheckIfCanBeReopened@8(VATReportHeader@1000 : Record 740);
    BEGIN
      CASE VATReportHeader.Status OF
        VATReportHeader.Status::Submitted:
          BEGIN
            VATReportSetup.GET;
            IF NOT VATReportSetup."Modify Submitted Reports" THEN
              ERROR(Text007,VATReportSetup.TABLECAPTION);
          END
      END;
    END;

    PROCEDURE CheckIfCanBeReleased@9(VATReportHeader@1000 : Record 740);
    BEGIN
      VATReportHeader.TESTFIELD(Status,VATReportHeader.Status::Open);

      IF VATReportHeader."VAT Report Type" IN ["VAT Report Type"::Corrective,"VAT Report Type"::Supplementary] THEN
        IF VATReportHeader."Original Report No." = '' THEN
          ERROR(Text008,FORMAT(VATReportHeader."VAT Report Type"));
    END;

    BEGIN
    END.
  }
}

