OBJECT Table 871 Social Listening Search Topic
{
  OBJECT-PROPERTIES
  {
    Date=07/01/15;
    Time=12:00:00;
    Version List=NAVW18.00.00.41370;
  }
  PROPERTIES
  {
    OnInsert=BEGIN
               TESTFIELD("Source No.");
             END;

    OnRename=BEGIN
               TESTFIELD("Source No.");
             END;

    CaptionML=ENU=Social Listening Search Topic;
  }
  FIELDS
  {
    { 1   ;   ;Source Type         ;Option        ;CaptionML=ENU=Source Type;
                                                   OptionCaptionML=ENU=" ,Item,Vendor,Customer";
                                                   OptionString=[ ,Item,Vendor,Customer] }
    { 2   ;   ;Source No.          ;Code20        ;TableRelation=IF (Source Type=CONST(Customer)) Customer
                                                                 ELSE IF (Source Type=CONST(Vendor)) Vendor
                                                                 ELSE IF (Source Type=CONST(Item)) Item;
                                                   CaptionML=ENU=Source No. }
    { 3   ;   ;Search Topic        ;Text250       ;OnValidate=BEGIN
                                                                SocialListeningMgt.CheckURLPath("Search Topic",'&nodeid=');
                                                                "Search Topic" := SocialListeningMgt.ConvertURLToID("Search Topic",'&nodeid=');
                                                              END;

                                                   CaptionML=ENU=Search Topic }
  }
  KEYS
  {
    {    ;Source Type,Source No.                  ;Clustered=Yes }
  }
  FIELDGROUPS
  {
  }
  CODE
  {
    VAR
      SocialListeningMgt@1001 : Codeunit 871;

    PROCEDURE FindSearchTopic@1(SourceType@1000 : Option;SourceNo@1001 : Code[20]) : Boolean;
    BEGIN
      SETRANGE("Source Type",SourceType);
      SETRANGE("Source No.",SourceNo);
      EXIT(FINDFIRST);
    END;

    PROCEDURE GetCaption@3() : Text;
    VAR
      Cust@1000 : Record 18;
      Item@1001 : Record 27;
      Vend@1002 : Record 23;
      Descr@1004 : Text[50];
    BEGIN
      IF "Source No." = '' THEN
        EXIT;

      CASE "Source Type" OF
        "Source Type"::Customer:
          IF Cust.GET("Source No.") THEN
            Descr := Cust.Name;
        "Source Type"::Vendor:
          IF Vend.GET("Source No.") THEN
            Descr := Vend.Name;
        "Source Type"::Item:
          IF Item.GET("Source No.") THEN
            Descr := Item.Description;
      END;
      EXIT(STRSUBSTNO('%1 %2 %3 %4',"Source Type","Source No.",Descr,"Search Topic"));
    END;

    BEGIN
    END.
  }
}

