OBJECT Table 824 DO Payment Connection Details
{
  OBJECT-PROPERTIES
  {
    Date=09/09/14;
    Time=12:00:00;
    Version List=NAVW18.00;
  }
  PROPERTIES
  {
    CaptionML=ENU=DO Payment Connection Details;
  }
  FIELDS
  {
    { 1   ;   ;Primary Key         ;Code10        ;CaptionML=ENU=Primary Key }
    { 2   ;   ;UserName            ;BLOB          ;CaptionML=ENU=UserName }
    { 3   ;   ;Password            ;BLOB          ;CaptionML=ENU=Password }
  }
  KEYS
  {
    {    ;Primary Key                             ;Clustered=Yes }
  }
  FIELDGROUPS
  {
  }
  CODE
  {
    VAR
      DOEncryptionMgt@1000 : Codeunit 824;

    PROCEDURE SetPasswordData@1(Value@1000 : Text[1024]);
    VAR
      DataStream@1001 : OutStream;
      DataText@1002 : BigText;
    BEGIN
      CLEAR(Password);
      DataText.ADDTEXT(DOEncryptionMgt.Encrypt(Value));
      Password.CREATEOUTSTREAM(DataStream);
      DataText.WRITE(DataStream);
    END;

    PROCEDURE GetPasswordData@2() Value : Text[1024];
    VAR
      DataStream@1000 : InStream;
      DataText@1001 : BigText;
    BEGIN
      Value := '';
      CALCFIELDS(Password);
      IF Password.HASVALUE THEN BEGIN
        Password.CREATEINSTREAM(DataStream);
        DataText.READ(DataStream);
        DataText.GETSUBTEXT(Value,1);
      END;
      EXIT(DOEncryptionMgt.Decrypt(Value));
    END;

    BEGIN
    END.
  }
}

