OBJECT Table 830 DO Payment Card Type
{
  OBJECT-PROPERTIES
  {
    Date=07/09/12;
    Time=12:00:00;
    Version List=NAVW17.00;
  }
  PROPERTIES
  {
    OnInsert=VAR
               DOPaymentCardType@1000 : Record 830;
             BEGIN
               IF "Sort Order" = 0 THEN BEGIN
                 DOPaymentCardType.SETCURRENTKEY("Sort Order");
                 IF DOPaymentCardType.FINDLAST THEN
                   "Sort Order" := DOPaymentCardType."Sort Order" + 1
                 ELSE
                   "Sort Order" := 1;
               END;
             END;

    CaptionML=ENU=Dynamics Online Payment Card Type;
    LookupPageID=Page830;
    DrillDownPageID=Page830;
  }
  FIELDS
  {
    { 1   ;   ;Sort Order          ;Integer       ;AutoIncrement=No;
                                                   CaptionML=ENU=Sort Order }
    { 2   ;   ;Name                ;Code20        ;CaptionML=ENU=Name;
                                                   NotBlank=Yes }
    { 3   ;   ;Validation Rule     ;Integer       ;CaptionML=ENU=Validation Rule;
                                                   NotBlank=Yes }
    { 4   ;   ;Numeric Only        ;Boolean       ;InitValue=Yes;
                                                   CaptionML=ENU=Numeric Only }
    { 5   ;   ;Allow Spaces        ;Boolean       ;InitValue=Yes;
                                                   CaptionML=ENU=Allow Spaces }
    { 6   ;   ;Min. Length         ;Integer       ;CaptionML=ENU=Min. Length }
    { 7   ;   ;Max. Length         ;Integer       ;CaptionML=ENU=Max. Length }
  }
  KEYS
  {
    {    ;Name                                    ;Clustered=Yes }
    {    ;Sort Order                               }
  }
  FIELDGROUPS
  {
  }
  CODE
  {

    PROCEDURE CreateDefaults@1();
    BEGIN
      IF NOT FINDFIRST THEN BEGIN
        INIT;
        "Sort Order" := 1;
        Name := 'VISA';
        "Validation Rule" := 1;
        "Numeric Only" := TRUE;
        "Allow Spaces" := FALSE;
        "Min. Length" := 16;
        "Max. Length" := 16;
        INSERT;

        INIT;
        "Sort Order" := 2;
        Name := 'MASTER CARD';
        "Validation Rule" := 1;
        "Numeric Only" := TRUE;
        "Allow Spaces" := FALSE;
        "Min. Length" := 16;
        "Max. Length" := 16;
        INSERT;

        INIT;
        "Sort Order" := 3;
        Name := 'AMERICAN EXPRESS';
        "Validation Rule" := 1;
        "Numeric Only" := TRUE;
        "Allow Spaces" := FALSE;
        "Min. Length" := 15;
        "Max. Length" := 15;
        INSERT;

        INIT;
        "Sort Order" := 4;
        Name := 'DISCOVER';
        "Validation Rule" := 1;
        "Numeric Only" := TRUE;
        "Allow Spaces" := FALSE;
        "Min. Length" := 16;
        "Max. Length" := 16;
        INSERT;
      END;
    END;

    BEGIN
    END.
  }
}

