OBJECT Table 981 Payment Registration Buffer
{
  OBJECT-PROPERTIES
  {
    Date=23/09/13;
    Time=12:00:00;
    Version List=NAVW17.10;
  }
  PROPERTIES
  {
    CaptionML=ENU=Payment Registration Buffer;
  }
  FIELDS
  {
    { 1   ;   ;Ledger Entry No.    ;Integer       ;CaptionML=ENU=Ledger Entry No. }
    { 2   ;   ;Source No.          ;Code20        ;CaptionML=ENU=Source No. }
    { 3   ;   ;Document Type       ;Option        ;CaptionML=ENU=Document Type;
                                                   OptionCaptionML=ENU=" ,Payment,Invoice,Credit Memo,Finance Charge Memo,Reminder,Refund";
                                                   OptionString=[ ,Payment,Invoice,Credit Memo,Finance Charge Memo,Reminder,Refund] }
    { 4   ;   ;Document No.        ;Code20        ;CaptionML=ENU=Document No. }
    { 5   ;   ;Description         ;Text50        ;CaptionML=ENU=Description }
    { 6   ;   ;Due Date            ;Date          ;CaptionML=ENU=Due Date }
    { 7   ;   ;Name                ;Text50        ;CaptionML=ENU=Name }
    { 8   ;   ;Remaining Amount    ;Decimal       ;CaptionML=ENU=Remaining Amount }
    { 9   ;   ;Payment Made        ;Boolean       ;OnValidate=BEGIN
                                                                IF NOT "Payment Made" THEN BEGIN
                                                                  "Amount Received" := 0;
                                                                  "Date Received" := 0D;
                                                                  "Remaining Amount" := "Original Remaining Amount";
                                                                  EXIT;
                                                                END;

                                                                AutoFillDate;

                                                                SuggestAmountReceivedBasedOnDate;
                                                                UpdateRemainingAmount;
                                                              END;

                                                   CaptionML=ENU=Payment Made }
    { 10  ;   ;Date Received       ;Date          ;OnValidate=BEGIN
                                                                IF "Date Received" <> 0D THEN
                                                                  VALIDATE("Payment Made",TRUE);
                                                              END;

                                                   CaptionML=ENU=Date Received }
    { 11  ;   ;Amount Received     ;Decimal       ;OnValidate=BEGIN
                                                                AutoFillDate;
                                                                "Payment Made" := TRUE;
                                                                UpdateRemainingAmount;
                                                              END;

                                                   CaptionML=ENU=Amount Received }
    { 12  ;   ;Original Remaining Amount;Decimal  ;CaptionML=ENU=Original Remaining Amount }
    { 13  ;   ;Rem. Amt. after Discount;Decimal   ;CaptionML=ENU=Rem. Amt. after Discount }
    { 14  ;   ;Pmt. Discount Date  ;Date          ;OnValidate=BEGIN
                                                                IF "Pmt. Discount Date" <> 0D THEN
                                                                  VALIDATE("Payment Made",TRUE);
                                                              END;

                                                   CaptionML=ENU=Pmt. Discount Date }
  }
  KEYS
  {
    {    ;Ledger Entry No.                        ;Clustered=Yes }
    {    ;Due Date                                 }
  }
  FIELDGROUPS
  {
  }
  CODE
  {
    VAR
      DueDateMsg@1000 : TextConst 'ENU=The payment is overdue. You can calculate interest for late payments from customers by choosing the Finance Charge Memo button.';
      PmtDiscMsg@1001 : TextConst 'ENU=Payment Discount Date is earlier than Date Received. Payment will be registered as partial payment.';

    PROCEDURE PopulateTable@1();
    VAR
      CustLedgerEntry@1000 : Record 21;
      Customer@1001 : Record 18;
    BEGIN
      RESET;
      DELETEALL;

      CustLedgerEntry.SETFILTER("Document Type",'<>%1',CustLedgerEntry."Document Type"::Payment);
      CustLedgerEntry.SETRANGE(Open,TRUE);
      IF CustLedgerEntry.FINDSET THEN BEGIN
        REPEAT
          CustLedgerEntry.CALCFIELDS("Remaining Amount");
          Customer.GET(CustLedgerEntry."Customer No.");

          INIT;
          "Ledger Entry No." := CustLedgerEntry."Entry No.";
          "Source No." := CustLedgerEntry."Customer No.";
          Name := Customer.Name;
          "Document No." := CustLedgerEntry."Document No.";
          "Document Type" := CustLedgerEntry."Document Type";
          Description := CustLedgerEntry.Description;
          "Due Date" := CustLedgerEntry."Due Date";
          "Remaining Amount" := CustLedgerEntry."Remaining Amount";
          "Original Remaining Amount" := CustLedgerEntry."Remaining Amount";
          "Pmt. Discount Date" := CustLedgerEntry."Pmt. Discount Date";
          "Rem. Amt. after Discount" := "Remaining Amount" - CustLedgerEntry."Remaining Pmt. Disc. Possible";
          INSERT;
        UNTIL CustLedgerEntry.NEXT = 0;
      END;

      IF FINDSET THEN;
    END;

    PROCEDURE Navigate@3();
    VAR
      CustLedgerEntry@1001 : Record 21;
      Navigate@1000 : Page 344;
    BEGIN
      CustLedgerEntry.GET("Ledger Entry No.");
      Navigate.SetDoc(CustLedgerEntry."Posting Date",CustLedgerEntry."Document No.");
      Navigate.RUN;
    END;

    PROCEDURE Reload@15();
    VAR
      TempDataSavePmtRegnBuf@1001 : TEMPORARY Record 981;
      TempRecSavePmtRegnBuf@1000 : TEMPORARY Record 981;
    BEGIN
      TempRecSavePmtRegnBuf.COPY(Rec,TRUE);

      SaveUserValues(TempDataSavePmtRegnBuf);

      PopulateTable;

      RestoreUserValues(TempDataSavePmtRegnBuf);

      COPY(TempRecSavePmtRegnBuf);
      IF GET("Ledger Entry No.") THEN;
    END;

    LOCAL PROCEDURE SaveUserValues@12(VAR TempSavePmtRegnBuf@1000 : TEMPORARY Record 981);
    VAR
      TempWorkPmtRegnBuf@1001 : TEMPORARY Record 981;
    BEGIN
      TempWorkPmtRegnBuf.COPY(Rec,TRUE);
      TempWorkPmtRegnBuf.RESET;
      TempWorkPmtRegnBuf.SETRANGE("Payment Made",TRUE);
      IF TempWorkPmtRegnBuf.FINDSET THEN
        REPEAT
          TempSavePmtRegnBuf := TempWorkPmtRegnBuf;
          TempSavePmtRegnBuf.INSERT;
        UNTIL TempWorkPmtRegnBuf.NEXT = 0;
    END;

    LOCAL PROCEDURE RestoreUserValues@13(VAR TempSavePmtRegnBuf@1001 : TEMPORARY Record 981);
    BEGIN
      IF TempSavePmtRegnBuf.FINDSET THEN
        REPEAT
          IF GET(TempSavePmtRegnBuf."Ledger Entry No.") THEN BEGIN
            "Payment Made" := TempSavePmtRegnBuf."Payment Made";
            "Date Received" := TempSavePmtRegnBuf."Date Received";
            "Pmt. Discount Date" := TempSavePmtRegnBuf."Pmt. Discount Date";
            "Amount Received" := TempSavePmtRegnBuf."Amount Received";
            "Remaining Amount" := TempSavePmtRegnBuf."Remaining Amount";
            MODIFY;
          END;
        UNTIL TempSavePmtRegnBuf.NEXT = 0;
    END;

    PROCEDURE GetPmtDiscStyle@5() : Text;
    BEGIN
      IF ("Pmt. Discount Date" < "Date Received") AND ("Remaining Amount" <> 0) AND ("Date Received" < "Due Date") THEN
        EXIT('Unfavorable');
      EXIT('');
    END;

    PROCEDURE GetDueDateStyle@8() : Text;
    BEGIN
      IF "Due Date" < "Date Received" THEN
        EXIT('Unfavorable');
      EXIT('');
    END;

    PROCEDURE GetWarning@6() : Text;
    BEGIN
      IF "Date Received" <= "Pmt. Discount Date" THEN
        EXIT('');

      IF "Date Received" > "Due Date" THEN
        EXIT(DueDateMsg);

      IF "Remaining Amount" <> 0 THEN
        EXIT(PmtDiscMsg);

      EXIT('');
    END;

    LOCAL PROCEDURE AutoFillDate@2();
    VAR
      PaymentRegistrationSetup@1000 : Record 980;
    BEGIN
      IF "Date Received" = 0D THEN BEGIN
        PaymentRegistrationSetup.GET(USERID);
        IF PaymentRegistrationSetup."Auto Fill Date Received" THEN
          "Date Received" := WORKDATE;
      END;
    END;

    LOCAL PROCEDURE SuggestAmountReceivedBasedOnDate@4();
    BEGIN
      IF "Amount Received" <> 0 THEN
        EXIT;

      IF "Date Received" = 0D THEN
        "Amount Received" := 0
      ELSE BEGIN
        IF "Date Received" <= "Pmt. Discount Date" THEN
          "Amount Received" := "Rem. Amt. after Discount"
        ELSE
          "Amount Received" := "Original Remaining Amount";
        "Remaining Amount" := 0;
      END;
    END;

    LOCAL PROCEDURE UpdateRemainingAmount@7();
    BEGIN
      IF "Date Received" = 0D THEN
        EXIT;
      IF ABS("Amount Received") >= ABS("Original Remaining Amount") THEN
        "Remaining Amount" := 0
      ELSE
        IF "Date Received" <= "Pmt. Discount Date" THEN BEGIN
          IF "Amount Received" >= "Rem. Amt. after Discount" THEN
            "Remaining Amount" := 0
          ELSE
            "Remaining Amount" := "Original Remaining Amount" - "Amount Received";
        END ELSE
          "Remaining Amount" := "Original Remaining Amount" - "Amount Received";
    END;

    BEGIN
    END.
  }
}

