OBJECT Table 9181 Generic Chart Filter
{
  OBJECT-PROPERTIES
  {
    Date=07/09/12;
    Time=12:00:00;
    Version List=NAVW17.00;
  }
  PROPERTIES
  {
    CaptionML=ENU=Generic Chart Filter;
  }
  FIELDS
  {
    { 2   ;   ;ID                  ;Code20        ;CaptionML=ENU=ID }
    { 3   ;   ;Line No.            ;Integer       ;CaptionML=ENU=Line No. }
    { 10  ;   ;Filter Field ID     ;Integer       ;CaptionML=ENU=Filter Field ID }
    { 11  ;   ;Filter Field Name   ;Text30        ;CaptionML=ENU=Filter Field Name }
    { 15  ;   ;Filter Value        ;Text250       ;CaptionML=ENU=Filter Value }
  }
  KEYS
  {
    {    ;ID,Line No.                             ;Clustered=Yes }
  }
  FIELDGROUPS
  {
  }
  CODE
  {

    BEGIN
    END.
  }
}

