OBJECT Table 98005 Mapping Log
{
  OBJECT-PROPERTIES
  {
    Date=10/05/16;
    Time=15:55:41;
    Modified=Yes;
    Version List=;
  }
  PROPERTIES
  {
  }
  FIELDS
  {
    { 1   ;   ;Entry No.           ;Integer        }
    { 21  ;   ;From Table ID       ;Integer        }
    { 31  ;   ;To Table ID         ;Integer        }
  }
  KEYS
  {
    {    ;Entry No.                               ;Clustered=Yes }
  }
  FIELDGROUPS
  {
  }
  CODE
  {

    BEGIN
    END.
  }
}

