OBJECT Table 9185 Generic Chart Captions Buffer
{
  OBJECT-PROPERTIES
  {
    Date=07/09/12;
    Time=12:00:00;
    Version List=NAVW17.00;
  }
  PROPERTIES
  {
    CaptionML=ENU=Generic Chart Captions Buffer;
  }
  FIELDS
  {
    { 1   ;   ;Code                ;Code10        ;CaptionML=ENU=Code;
                                                   NotBlank=Yes }
    { 2   ;   ;Language Code       ;Code10        ;TableRelation=Language.Code;
                                                   CaptionML=ENU=Language Code;
                                                   NotBlank=Yes }
    { 3   ;   ;Caption             ;Text250       ;CaptionML=ENU=Caption }
    { 4   ;   ;Language Name       ;Text50        ;FieldClass=FlowField;
                                                   CalcFormula=Lookup(Language.Name WHERE (Code=FIELD(Language Code)));
                                                   CaptionML=ENU=Language Name }
  }
  KEYS
  {
    {    ;Code,Language Code                      ;Clustered=Yes }
  }
  FIELDGROUPS
  {
  }
  CODE
  {

    PROCEDURE GetCaption@2(CodeIn@1002 : Code[10];LanguageCode@1000 : Code[10]) : Text[250];
    BEGIN
      IF GET(CodeIn,LanguageCode) THEN
        EXIT(Caption)
    END;

    PROCEDURE SetCaption@3(CodeIn@1003 : Code[10];LanguageCode@1000 : Code[10];CaptionIn@1001 : Text[250]);
    BEGIN
      IF GET(CodeIn,LanguageCode) THEN BEGIN
        Caption := CaptionIn;
        MODIFY
      END ELSE BEGIN
        Code := CodeIn;
        "Language Code" := LanguageCode;
        Caption := CaptionIn;
        INSERT
      END
    END;

    BEGIN
    END.
  }
}

