OBJECT XMLport 12 IC Outbox Imp/Exp
{
  OBJECT-PROPERTIES
  {
    Date=09/09/14;
    Time=12:00:00;
    Version List=NAVW18.00;
  }
  PROPERTIES
  {
    CaptionML=ENU=IC Outbox Imp/Exp;
    Format/Evaluate=XML Format/Evaluate;
    OnPreXMLport=BEGIN
                   CompanyInfo.GET;
                   CompanyInfo.TESTFIELD("IC Partner Code");
                 END;

  }
  ELEMENTS
  {
    { [{BD8C0E8A-F86E-4D0A-92B7-7B1446084A67}];  ;ICTransactions      ;Element ;Text     }

    { [{F190C44C-38CE-49F9-BF99-89D6812916CB}];1 ;ICOutboxTrans       ;Element ;Table   ;
                                                  VariableName=ICOutboxTrans;
                                                  SourceTable=Table414;
                                                  Temporary=Yes }

    { [{4E6DE18B-7D0F-48A0-93BA-A43603D04A6D}];2 ;TransNo             ;Attribute;Field  ;
                                                  DataType=Integer;
                                                  SourceField=ICOutboxTrans::Transaction No. }

    { [{3ECE0471-B99C-4614-9F1F-5EED4C2BBEBA}];2 ;ToICPartnerCode     ;Attribute;Field  ;
                                                  DataType=Code;
                                                  SourceField=ICOutboxTrans::IC Partner Code;
                                                  Import::OnAfterAssignField=BEGIN
                                                                               ToICPartnerCode2 := ICOutboxTrans."IC Partner Code";
                                                                             END;
                                                                              }

    { [{4B25B6B8-657B-40DF-BE64-8552E6C302AA}];2 ;FromICPartnerCode   ;Attribute;Text   ;
                                                  Export::OnBeforePassVariable=BEGIN
                                                                                 FromICPartnerCode := CompanyInfo."IC Partner Code";
                                                                               END;
                                                                                }

    { [{F7BAF0B3-4A0C-4A00-8381-55E01AB2EDE7}];2 ;SourceType          ;Attribute;Field  ;
                                                  DataType=Option;
                                                  SourceField=ICOutboxTrans::Source Type }

    { [{8A5D4DF7-41F7-455B-9604-59F8B16954F8}];2 ;DocType             ;Attribute;Field  ;
                                                  DataType=Option;
                                                  SourceField=ICOutboxTrans::Document Type }

    { [{CD977323-B4FD-4FAB-919B-295C7B5E03D0}];2 ;DocNo               ;Attribute;Field  ;
                                                  DataType=Code;
                                                  SourceField=ICOutboxTrans::Document No. }

    { [{8878758E-967B-4907-ACAB-FE76ED822574}];2 ;PostingDate         ;Attribute;Field  ;
                                                  DataType=Date;
                                                  SourceField=ICOutboxTrans::Posting Date }

    { [{FCBAE793-97F1-4D81-9B98-F50910C49237}];2 ;TransSource         ;Attribute;Field  ;
                                                  DataType=Option;
                                                  SourceField=ICOutboxTrans::Transaction Source }

    { [{82D32273-8561-44D9-95A4-CE39C45700AC}];2 ;DocDate             ;Attribute;Field  ;
                                                  DataType=Date;
                                                  SourceField=ICOutboxTrans::Document Date }

    { [{FC47FFE3-4B26-478E-BB8E-AE8C6443AF5E}];2 ;ICPartnerAccNo      ;Attribute;Field  ;
                                                  DataType=Code;
                                                  SourceField=ICOutboxTrans::IC Partner G/L Acc. No. }

    { [{45CCB7DC-177F-4B4A-8A0C-AB3D85962FDC}];2 ;SourceLineNo        ;Attribute;Field  ;
                                                  DataType=Code;
                                                  SourceField=ICOutboxTrans::IC Partner G/L Acc. No. }

    { [{5300356C-2F70-497F-BBDA-803E37D1435E}];2 ;ICOutBoxJnlLines    ;Element ;Text    ;
                                                  MinOccurs=Zero }

    { [{D0AA7F87-4600-426B-8B8A-2611CD745F08}];3 ;ICOutBoxJnlLine     ;Element ;Table   ;
                                                  VariableName=ICOutBoxJnlLine;
                                                  SourceTable=Table415;
                                                  LinkFields=Field1=FIELD(Field1);
                                                  LinkTable=ICOutboxTrans;
                                                  Temporary=Yes;
                                                  MinOccurs=Zero }

    { [{0FC4C817-4717-4B07-99FF-A6159D041FF7}];4 ;LineNo              ;Attribute;Field  ;
                                                  DataType=Integer;
                                                  SourceField=ICOutBoxJnlLine::Line No. }

    { [{EC2A5E3D-61D9-40D1-AA6C-D848823D6C97}];4 ;AccType             ;Attribute;Field  ;
                                                  DataType=Option;
                                                  SourceField=ICOutBoxJnlLine::Account Type }

    { [{DF400B48-6042-479A-8280-7EEF033A0A45}];4 ;AccNo               ;Attribute;Field  ;
                                                  DataType=Code;
                                                  SourceField=ICOutBoxJnlLine::Account No. }

    { [{9899F26B-F789-4168-A63A-6CF59541D3EB}];4 ;Amount              ;Attribute;Field  ;
                                                  DataType=Decimal;
                                                  SourceField=ICOutBoxJnlLine::Amount }

    { [{4FB06421-8ADB-4AAB-8194-BBBD19068150}];4 ;Description         ;Attribute;Field  ;
                                                  DataType=Text;
                                                  SourceField=ICOutBoxJnlLine::Description }

    { [{F9F4A908-E72C-4A95-A5C2-54F212E527F3}];4 ;VATAmount           ;Attribute;Field  ;
                                                  DataType=Decimal;
                                                  SourceField=ICOutBoxJnlLine::VAT Amount }

    { [{B15D5163-CEDE-47A1-82C2-5311FF18D829}];4 ;CurrencyCode        ;Attribute;Field  ;
                                                  DataType=Code;
                                                  SourceField=ICOutBoxJnlLine::Currency Code }

    { [{A6ABFED1-4D6D-4E83-B8C2-68DA01F4BC0F}];4 ;DueDate             ;Attribute;Field  ;
                                                  DataType=Date;
                                                  SourceField=ICOutBoxJnlLine::Due Date }

    { [{26115CC2-E116-4BEC-8C9D-DD1B3E4EA01B}];4 ;PmtDiscPct          ;Attribute;Field  ;
                                                  DataType=Decimal;
                                                  SourceField=ICOutBoxJnlLine::Payment Discount % }

    { [{7D8DE860-B9B3-4B6A-97C4-907979F9818B}];4 ;PmtDiscDate         ;Attribute;Field  ;
                                                  DataType=Date;
                                                  SourceField=ICOutBoxJnlLine::Payment Discount Date }

    { [{CB25D29C-9718-405C-BC45-C933266B7B7F}];4 ;Quantity            ;Attribute;Field  ;
                                                  DataType=Decimal;
                                                  SourceField=ICOutBoxJnlLine::Quantity }

    { [{AFD1C7D4-1A7F-4835-A0F8-CE0F60C6E4CB}];4 ;TransSource         ;Attribute;Field  ;
                                                  DataType=Option;
                                                  SourceField=ICOutBoxJnlLine::Transaction Source }

    { [{01295B18-160B-42BD-8C37-97DE800B5701}];4 ;ICPartnerCode       ;Attribute;Field  ;
                                                  DataType=Code;
                                                  SourceField=ICOutBoxJnlLine::IC Partner Code }

    { [{B41C0574-1FD9-47D0-B0CF-7567FF226740}];4 ;ICTransNo           ;Attribute;Field  ;
                                                  DataType=Integer;
                                                  SourceField=ICOutBoxJnlLine::Transaction No. }

    { [{582FEA5F-4AC7-4153-B1E3-C4EF32971512}];4 ;DocumentNo          ;Attribute;Field  ;
                                                  DataType=Code;
                                                  SourceField=ICOutBoxJnlLine::Document No. }

    { [{F9A8BE1E-052C-489A-9DF3-879D28447625}];4 ;ICIOBoxJnlDims      ;Element ;Text     }

    { [{7D5F47F7-9296-4DFA-8278-94DB2F69E6BF}];5 ;ICIOBoxJnlDim       ;Element ;Table   ;
                                                  VariableName=ICIOBoxJnlDim;
                                                  SourceTable=Table423;
                                                  SourceTableView=WHERE(Field1=CONST(415));
                                                  LinkFields=Field2=FIELD(Field2),
                                                             Field3=FIELD(Field1),
                                                             Field7=FIELD(Field15),
                                                             Field4=FIELD(Field3);
                                                  LinkTable=ICOutBoxJnlLine;
                                                  Temporary=Yes;
                                                  MinOccurs=Zero }

    { [{6D43DC54-9681-4A6D-A062-93F3A0E34647}];6 ;TableID             ;Attribute;Field  ;
                                                  DataType=Integer;
                                                  SourceField=ICIOBoxJnlDim::Table ID }

    { [{949A53E3-6544-4A5F-97A4-1FF0D79A98D9}];6 ;TransSource         ;Attribute;Field  ;
                                                  DataType=Option;
                                                  SourceField=ICIOBoxJnlDim::Transaction Source }

    { [{C8254B2B-FE59-4BBD-B64F-2832E5BBC2B9}];6 ;ICPartnerCode       ;Attribute;Field  ;
                                                  DataType=Code;
                                                  SourceField=ICIOBoxJnlDim::IC Partner Code }

    { [{44860575-8EAC-47FA-BA74-4B5B57A52546}];6 ;ICTransNo           ;Attribute;Field  ;
                                                  DataType=Integer;
                                                  SourceField=ICIOBoxJnlDim::Transaction No. }

    { [{BDF19A3F-46D9-46A9-8175-D204288D0585}];6 ;LineNo              ;Attribute;Field  ;
                                                  DataType=Integer;
                                                  SourceField=ICIOBoxJnlDim::Line No. }

    { [{C0D569CE-72E6-4068-95DE-72B7AD5C2D2C}];6 ;DimCode             ;Attribute;Field  ;
                                                  DataType=Code;
                                                  SourceField=ICIOBoxJnlDim::Dimension Code }

    { [{B4F6931D-B906-40FD-BF78-15925A17D233}];6 ;DimValCode          ;Attribute;Field  ;
                                                  DataType=Code;
                                                  SourceField=ICIOBoxJnlDim::Dimension Value Code }

    { [{481CD37A-64EF-43D2-8C96-131D70C186CC}];2 ;ICOutBoxSalesHeaders;Element ;Text    ;
                                                  MinOccurs=Zero }

    { [{15821EAD-9B0F-4420-BA3C-2CB33B7352FA}];3 ;ICOutBoxSalesHdr    ;Element ;Table   ;
                                                  VariableName=ICOutBoxSalesHdr;
                                                  SourceTable=Table426;
                                                  LinkFields=Field201=FIELD(Field1),
                                                             Field125=FIELD(Field2),
                                                             Field202=FIELD(Field8);
                                                  LinkTable=ICOutboxTrans;
                                                  Temporary=Yes;
                                                  MinOccurs=Zero }

    { [{D5021D53-B5FF-44C9-9744-7547D9DF1B75}];4 ;DocType             ;Attribute;Field  ;
                                                  DataType=Option;
                                                  SourceField=ICOutBoxSalesHdr::Document Type }

    { [{6A8C449C-5FF1-4D55-89CF-29DF4D6502B0}];4 ;SellToCustNo        ;Attribute;Field  ;
                                                  DataType=Code;
                                                  SourceField=ICOutBoxSalesHdr::Sell-to Customer No. }

    { [{38B53C63-92D4-4198-B123-F97239D161C7}];4 ;DocNo               ;Attribute;Field  ;
                                                  DataType=Code;
                                                  SourceField=ICOutBoxSalesHdr::No. }

    { [{79071363-6F00-4DCF-A251-9AA5B7F4C18B}];4 ;BillToCustNo        ;Attribute;Field  ;
                                                  DataType=Code;
                                                  SourceField=ICOutBoxSalesHdr::Bill-to Customer No. }

    { [{8A6C71ED-84A2-40AA-B851-C8F80910A394}];4 ;ShipToName          ;Attribute;Field  ;
                                                  DataType=Text;
                                                  SourceField=ICOutBoxSalesHdr::Ship-to Name }

    { [{0443BA33-4D4E-4198-A32F-FA1F7A98204D}];4 ;ShipToAddress       ;Attribute;Field  ;
                                                  DataType=Text;
                                                  SourceField=ICOutBoxSalesHdr::Ship-to Address }

    { [{8CB672B9-BCE2-4F39-B6A7-F6DB56E2E381}];4 ;ShipToCity          ;Attribute;Field  ;
                                                  DataType=Text;
                                                  SourceField=ICOutBoxSalesHdr::Ship-to City }

    { [{043EE018-400E-445F-83A6-4157CEDE4A61}];4 ;PostingDate         ;Attribute;Field  ;
                                                  DataType=Date;
                                                  SourceField=ICOutBoxSalesHdr::Posting Date }

    { [{D35893FB-8EBF-41AD-8CD6-02AB4FE8E5E9}];4 ;DueDate             ;Attribute;Field  ;
                                                  DataType=Date;
                                                  SourceField=ICOutBoxSalesHdr::Due Date }

    { [{71C94BAC-0E73-4F7D-BE47-2536EA60A2E8}];4 ;PmtDiscPct          ;Attribute;Field  ;
                                                  DataType=Decimal;
                                                  SourceField=ICOutBoxSalesHdr::Payment Discount % }

    { [{BA6F75F4-7247-43E6-9F51-4ABC91827120}];4 ;PmtDiscDate         ;Attribute;Field  ;
                                                  DataType=Date;
                                                  SourceField=ICOutBoxSalesHdr::Pmt. Discount Date }

    { [{F9C26C98-B05E-484C-8775-A6B1E2E0C676}];4 ;CurrencyCode        ;Attribute;Field  ;
                                                  DataType=Code;
                                                  SourceField=ICOutBoxSalesHdr::Currency Code }

    { [{FB0BD579-2E3E-4DC5-9AC0-85A68305A430}];4 ;PricesInclVAT       ;Attribute;Field  ;
                                                  DataType=Boolean;
                                                  SourceField=ICOutBoxSalesHdr::Prices Including VAT }

    { [{906BF9C4-A89F-4508-A099-2BCB76F180D1}];4 ;DocDate             ;Attribute;Field  ;
                                                  DataType=Date;
                                                  SourceField=ICOutBoxSalesHdr::Document Date }

    { [{AF01BE1D-DA4F-4F07-B1DA-51C4C2AFFFA0}];4 ;ExtDocNo            ;Attribute;Field  ;
                                                  DataType=Code;
                                                  SourceField=ICOutBoxSalesHdr::External Document No. }

    { [{79F7A303-126D-4193-B21A-25757F713212}];4 ;ICPartnerCode       ;Attribute;Field  ;
                                                  DataType=Code;
                                                  SourceField=ICOutBoxSalesHdr::IC Partner Code }

    { [{0E2ED96D-9CB1-4E78-9682-1D2BC81C222A}];4 ;ICTransNo           ;Attribute;Field  ;
                                                  DataType=Integer;
                                                  SourceField=ICOutBoxSalesHdr::IC Transaction No. }

    { [{466F6D9F-303F-4A57-AEB3-17D69450C108}];4 ;TransSource         ;Attribute;Field  ;
                                                  DataType=Option;
                                                  SourceField=ICOutBoxSalesHdr::Transaction Source }

    { [{AB2D96BB-FAEF-432B-ADCB-A458C354C53F}];4 ;ReqDelivDate        ;Attribute;Field  ;
                                                  DataType=Date;
                                                  SourceField=ICOutBoxSalesHdr::Requested Delivery Date }

    { [{7DA94AE4-E6B5-4D7C-97C6-387F883721CA}];4 ;PromDelivDate       ;Attribute;Field  ;
                                                  DataType=Date;
                                                  SourceField=ICOutBoxSalesHdr::Promised Delivery Date }

    { [{DB3F217A-A7ED-42DD-A444-3E02012F1DB0}];4 ;ICDocDimensions     ;Element ;Text     }

    { [{24BCB56A-7D41-45A7-B084-0115A27E0663}];5 ;ICSalesDocDim       ;Element ;Table   ;
                                                  VariableName=ICSalesDocDim;
                                                  SourceTable=Table442;
                                                  SourceTableView=WHERE(Field1=CONST(426),
                                                                        Field5=CONST(0));
                                                  LinkFields=Field2=FIELD(Field201),
                                                             Field3=FIELD(Field125),
                                                             Field4=FIELD(Field202);
                                                  LinkTable=ICOutBoxSalesHdr;
                                                  Temporary=Yes;
                                                  MinOccurs=Zero }

    { [{1C03CE03-02FF-4C3B-A0BB-6EE11444FEB7}];6 ;TableID             ;Attribute;Field  ;
                                                  DataType=Integer;
                                                  SourceField=ICSalesDocDim::Table ID }

    { [{83653A4D-AD93-417D-9069-C394431262DC}];6 ;TransNo             ;Attribute;Field  ;
                                                  DataType=Integer;
                                                  SourceField=ICSalesDocDim::Transaction No. }

    { [{A5F680F8-3A4D-4EA9-BF87-9F806FF7BE7A}];6 ;ICPartnerCode       ;Attribute;Field  ;
                                                  DataType=Code;
                                                  SourceField=ICSalesDocDim::IC Partner Code }

    { [{DF7E8454-82BE-44A5-A98E-924CD0D3BBB4}];6 ;TransSource         ;Attribute;Field  ;
                                                  DataType=Option;
                                                  SourceField=ICSalesDocDim::Transaction Source }

    { [{FBDB16F4-CF66-45DD-8616-F0E9D6C6300C}];6 ;LineNo              ;Attribute;Field  ;
                                                  DataType=Integer;
                                                  SourceField=ICSalesDocDim::Line No. }

    { [{8B7A8F06-0204-4460-8EBB-0E2A4FA6C1C5}];6 ;DimCode             ;Attribute;Field  ;
                                                  DataType=Code;
                                                  SourceField=ICSalesDocDim::Dimension Code }

    { [{60186536-DCF0-4973-B416-C1017D3C75EF}];6 ;DimValCode          ;Attribute;Field  ;
                                                  DataType=Code;
                                                  SourceField=ICSalesDocDim::Dimension Value Code }

    { [{AB113A5C-BE4E-4CED-87C1-B54016E53708}];4 ;ICOutBoxSalesLines  ;Element ;Text     }

    { [{577ABEA4-298B-4E88-86BD-165C66742CFF}];5 ;ICOutBoxSalesLine   ;Element ;Table   ;
                                                  VariableName=ICOutBoxSalesLine;
                                                  SourceTable=Table427;
                                                  LinkFields=Field3=FIELD(Field3),
                                                             Field126=FIELD(Field201),
                                                             Field125=FIELD(Field125),
                                                             Field127=FIELD(Field202);
                                                  LinkTable=ICOutBoxSalesHdr;
                                                  Temporary=Yes;
                                                  MinOccurs=Zero }

    { [{86631B92-A298-4A17-BE9B-4E34F6519719}];6 ;DocType             ;Attribute;Field  ;
                                                  DataType=Option;
                                                  SourceField=ICOutBoxSalesLine::Document Type }

    { [{12122D69-47D9-4D24-A53D-2B5F89B1ACD9}];6 ;DocNo               ;Attribute;Field  ;
                                                  DataType=Code;
                                                  SourceField=ICOutBoxSalesLine::Document No. }

    { [{722D59C1-71A0-4521-8196-4D612CC01D4B}];6 ;LineNo              ;Attribute;Field  ;
                                                  DataType=Integer;
                                                  SourceField=ICOutBoxSalesLine::Line No. }

    { [{FF964C17-871B-4928-890E-61F8B3EED7A5}];6 ;Description         ;Attribute;Field  ;
                                                  DataType=Text;
                                                  SourceField=ICOutBoxSalesLine::Description }

    { [{ABF076DA-27AF-45A4-A422-74343FE82B16}];6 ;Quantity            ;Attribute;Field  ;
                                                  DataType=Decimal;
                                                  SourceField=ICOutBoxSalesLine::Quantity }

    { [{BEAAB718-4E9D-44E7-B233-4F3FAD3EAB69}];6 ;UnitPrice           ;Attribute;Field  ;
                                                  DataType=Decimal;
                                                  SourceField=ICOutBoxSalesLine::Unit Price }

    { [{65763F9C-3E2F-452E-8D02-92C14CF76D8D}];6 ;LineDiscAmount      ;Attribute;Field  ;
                                                  DataType=Decimal;
                                                  SourceField=ICOutBoxSalesLine::Line Discount Amount }

    { [{09BC3DF2-B157-4277-8155-421A5E7F5426}];6 ;AmountInclVAT       ;Attribute;Field  ;
                                                  DataType=Decimal;
                                                  SourceField=ICOutBoxSalesLine::Amount Including VAT }

    { [{823571EB-9F0B-43EE-BB6B-DE08B0130384}];6 ;JobNo               ;Attribute;Field  ;
                                                  DataType=Code;
                                                  SourceField=ICOutBoxSalesLine::Job No. }

    { [{97DFAD8E-F266-4D4F-9B0B-1CE58A11B20D}];6 ;DropShipment        ;Attribute;Field  ;
                                                  DataType=Boolean;
                                                  SourceField=ICOutBoxSalesLine::Drop Shipment }

    { [{A6212F70-29F2-4711-9D70-C109AF6C8C9F}];6 ;CurrencyCode        ;Attribute;Field  ;
                                                  DataType=Code;
                                                  SourceField=ICOutBoxSalesLine::Currency Code }

    { [{64F640CC-1F33-48FC-903D-DB61A857EE6B}];6 ;VATBaseAmount       ;Attribute;Field  ;
                                                  DataType=Decimal;
                                                  SourceField=ICOutBoxSalesLine::VAT Base Amount }

    { [{F921633A-84C3-4EEC-958C-58EAD46AAC93}];6 ;LineAmount          ;Attribute;Field  ;
                                                  DataType=Decimal;
                                                  SourceField=ICOutBoxSalesLine::Line Amount }

    { [{37BC6669-BED5-45DB-8BC5-AB0ED7186D9B}];6 ;ICPartnerRefType    ;Attribute;Field  ;
                                                  DataType=Option;
                                                  SourceField=ICOutBoxSalesLine::IC Partner Ref. Type }

    { [{30CC0F34-4417-489E-8F1A-223A3ACF62D7}];6 ;ICPartnerRef        ;Attribute;Field  ;
                                                  DataType=Code;
                                                  SourceField=ICOutBoxSalesLine::IC Partner Reference }

    { [{BD184CF9-D045-415A-A28E-70D44614A17A}];6 ;TransSource         ;Attribute;Field  ;
                                                  DataType=Option;
                                                  SourceField=ICOutBoxSalesLine::Transaction Source }

    { [{B9E44C67-4511-4C72-B376-15AD87431E2D}];6 ;UnitOfMeasureCode   ;Attribute;Field  ;
                                                  DataType=Code;
                                                  SourceField=ICOutBoxSalesLine::Unit of Measure Code }

    { [{1E8DC859-BB58-4288-924B-6F43E314CADB}];6 ;TransNo             ;Attribute;Field  ;
                                                  DataType=Integer;
                                                  SourceField=ICOutBoxSalesLine::IC Transaction No. }

    { [{D7064A6E-12CC-4906-9092-C0A5BA8F6B48}];6 ;ReqDelivDate        ;Attribute;Field  ;
                                                  DataType=Date;
                                                  SourceField=ICOutBoxSalesLine::Requested Delivery Date }

    { [{929368C7-723B-4759-BAF2-D1E75E6CF2A9}];6 ;PromDelivDate       ;Attribute;Field  ;
                                                  DataType=Date;
                                                  SourceField=ICOutBoxSalesLine::Promised Delivery Date }

    { [{47A8A71A-FA5C-485B-91E2-10B1E3D7CE55}];6 ;LineDimensions      ;Element ;Text     }

    { [{F258EF0D-E81A-46A3-AC6A-758863F0F2CC}];7 ;ICSalesDocLineDim   ;Element ;Table   ;
                                                  VariableName=ICSalesDocLineDim;
                                                  SourceTable=Table442;
                                                  SourceTableView=WHERE(Field1=CONST(427));
                                                  LinkFields=Field2=FIELD(Field126),
                                                             Field3=FIELD(Field125),
                                                             Field4=FIELD(Field127),
                                                             Field5=FIELD(Field4);
                                                  LinkTable=ICOutBoxSalesLine;
                                                  Temporary=Yes;
                                                  MinOccurs=Zero }

    { [{0246DD35-A2B2-4F53-AD36-3613B61AC293}];8 ;TableID             ;Attribute;Field  ;
                                                  DataType=Integer;
                                                  SourceField=ICSalesDocLineDim::Table ID }

    { [{27409D3E-A0AA-4F64-B73B-B90AD55AB1FA}];8 ;TransNo             ;Attribute;Field  ;
                                                  DataType=Integer;
                                                  SourceField=ICSalesDocLineDim::Transaction No. }

    { [{53E507B6-FB94-43BA-B13D-3BB3FC3DF80E}];8 ;ICPartnerCode       ;Attribute;Field  ;
                                                  DataType=Code;
                                                  SourceField=ICSalesDocLineDim::IC Partner Code }

    { [{969314F8-67A9-44DC-B35B-9F9532C8A8CB}];8 ;TransSource         ;Attribute;Field  ;
                                                  DataType=Option;
                                                  SourceField=ICSalesDocLineDim::Transaction Source }

    { [{179EE994-6D20-4C94-B07E-C6ABF8B623E8}];8 ;LineNo              ;Attribute;Field  ;
                                                  DataType=Integer;
                                                  SourceField=ICSalesDocLineDim::Line No. }

    { [{F1204F9F-E8AA-4152-817F-2AC89178F76D}];8 ;DimCode             ;Attribute;Field  ;
                                                  DataType=Code;
                                                  SourceField=ICSalesDocLineDim::Dimension Code }

    { [{A171115D-6AEA-4C12-8C42-95A1E026C7B2}];8 ;DimValCode          ;Attribute;Field  ;
                                                  DataType=Code;
                                                  SourceField=ICSalesDocLineDim::Dimension Value Code }

    { [{CAF94C90-529C-4357-AB28-401FA718995F}];2 ;ICOutBoxPurchHeaders;Element ;Text    ;
                                                  MinOccurs=Zero }

    { [{5D5B78DD-BC1D-4B4C-8759-0DFA1761A45E}];3 ;ICOutBoxPurchHdr    ;Element ;Table   ;
                                                  VariableName=ICOutBoxPurchHdr;
                                                  SourceTable=Table428;
                                                  LinkFields=Field201=FIELD(Field1),
                                                             Field125=FIELD(Field2),
                                                             Field202=FIELD(Field8);
                                                  LinkTable=ICOutboxTrans;
                                                  Temporary=Yes;
                                                  MinOccurs=Zero }

    { [{DC0A9B9C-0D38-48D3-ADF9-23414CD3C8C2}];4 ;DocType             ;Attribute;Field  ;
                                                  DataType=Option;
                                                  SourceField=ICOutBoxPurchHdr::Document Type }

    { [{2C5EA019-06BE-473D-9E5C-492FDFF12ED5}];4 ;BuyFromVendNo       ;Attribute;Field  ;
                                                  DataType=Code;
                                                  SourceField=ICOutBoxPurchHdr::Buy-from Vendor No. }

    { [{C8F264B4-DA70-4311-9D73-E69EB6436403}];4 ;DocNo               ;Attribute;Field  ;
                                                  DataType=Code;
                                                  SourceField=ICOutBoxPurchHdr::No. }

    { [{B9566F97-EEAD-4AEB-822F-FC5F16696E15}];4 ;PayToVendNo         ;Attribute;Field  ;
                                                  DataType=Code;
                                                  SourceField=ICOutBoxPurchHdr::Pay-to Vendor No. }

    { [{E386F41F-9A55-44A4-B9A2-59F3A89B1910}];4 ;YourRef             ;Attribute;Field  ;
                                                  DataType=Text;
                                                  SourceField=ICOutBoxPurchHdr::Your Reference }

    { [{A700A6FE-2A74-4CBD-8ACB-0FD0F4ADD9C7}];4 ;ShipToName          ;Attribute;Field  ;
                                                  DataType=Text;
                                                  SourceField=ICOutBoxPurchHdr::Ship-to Name }

    { [{22ADECE7-F378-4068-8EBF-0BBEDD1753C9}];4 ;ShipToAddress       ;Attribute;Field  ;
                                                  DataType=Text;
                                                  SourceField=ICOutBoxPurchHdr::Ship-to Address }

    { [{DA5C5DC9-9FFE-4BBC-A519-4A6AF4572E4F}];4 ;ShipToCity          ;Attribute;Field  ;
                                                  DataType=Text;
                                                  SourceField=ICOutBoxPurchHdr::Ship-to City }

    { [{28AC86EA-DE15-43C0-B1B1-ED6A8C1D4D73}];4 ;PostingDate         ;Attribute;Field  ;
                                                  DataType=Date;
                                                  SourceField=ICOutBoxPurchHdr::Posting Date }

    { [{14FD3ADD-1E57-4242-BE6C-3C56DF693B35}];4 ;ExpRecDate          ;Attribute;Field  ;
                                                  DataType=Date;
                                                  SourceField=ICOutBoxPurchHdr::Expected Receipt Date }

    { [{586BC76C-2148-48BC-9884-20C2A3A9F301}];4 ;DueDate             ;Attribute;Field  ;
                                                  DataType=Date;
                                                  SourceField=ICOutBoxPurchHdr::Due Date }

    { [{796F2C3F-9340-473B-80BE-BEE9CAE40568}];4 ;PmtDiscPct          ;Attribute;Field  ;
                                                  DataType=Decimal;
                                                  SourceField=ICOutBoxPurchHdr::Payment Discount % }

    { [{1E7D7FBA-EBBF-41F2-B505-52C959C554B7}];4 ;PmtDiscDate         ;Attribute;Field  ;
                                                  DataType=Date;
                                                  SourceField=ICOutBoxPurchHdr::Pmt. Discount Date }

    { [{32C5E61A-975C-43EB-B974-E3BF2F761AF6}];4 ;CurrencyCode        ;Attribute;Field  ;
                                                  DataType=Code;
                                                  SourceField=ICOutBoxPurchHdr::Currency Code }

    { [{05FD1765-609E-41C4-8401-017B3763E926}];4 ;PricesInclVAT       ;Attribute;Field  ;
                                                  DataType=Boolean;
                                                  SourceField=ICOutBoxPurchHdr::Prices Including VAT }

    { [{7C3BD7AA-4E89-496B-9558-20A01135503D}];4 ;VendInvNo           ;Attribute;Field  ;
                                                  DataType=Code;
                                                  SourceField=ICOutBoxPurchHdr::Vendor Invoice No. }

    { [{A4943BB5-1D6E-4462-8AB6-215A3170532C}];4 ;VendCrMemoNo        ;Attribute;Field  ;
                                                  DataType=Code;
                                                  SourceField=ICOutBoxPurchHdr::Vendor Cr. Memo No. }

    { [{06D8D855-D12F-4628-867F-75298DF3C3AD}];4 ;SellToCustNo        ;Attribute;Field  ;
                                                  DataType=Code;
                                                  SourceField=ICOutBoxPurchHdr::Sell-to Customer No. }

    { [{5AE47CBC-85D3-4483-922C-D0AE56746B03}];4 ;DocDate             ;Attribute;Field  ;
                                                  DataType=Date;
                                                  SourceField=ICOutBoxPurchHdr::Document Date }

    { [{DC9CBF7A-060A-4EE5-91C4-47609EA38473}];4 ;ICPartnerCode       ;Attribute;Field  ;
                                                  DataType=Code;
                                                  SourceField=ICOutBoxPurchHdr::IC Partner Code }

    { [{6CEAAEB2-607F-45D2-815D-234770A906EC}];4 ;ICTransNo           ;Attribute;Field  ;
                                                  DataType=Integer;
                                                  SourceField=ICOutBoxPurchHdr::IC Transaction No. }

    { [{022755B3-436E-4004-8876-E947DE7A3FC6}];4 ;TransSource         ;Attribute;Field  ;
                                                  DataType=Option;
                                                  SourceField=ICOutBoxPurchHdr::Transaction Source }

    { [{B7D671D3-B139-4AA9-88AB-97963E48BE24}];4 ;ReqRecDate          ;Attribute;Field  ;
                                                  DataType=Date;
                                                  SourceField=ICOutBoxPurchHdr::Requested Receipt Date }

    { [{73F2553B-3905-4B7A-A60C-64211BE9CDFA}];4 ;PromRecDate         ;Attribute;Field  ;
                                                  DataType=Date;
                                                  SourceField=ICOutBoxPurchHdr::Promised Receipt Date }

    { [{D5A7116E-84F4-4213-B6DC-646943E2B790}];4 ;ICPurDocDimensions  ;Element ;Text     }

    { [{DCA70B0F-DDC0-48D4-ACB9-A53584712842}];5 ;ICPurDocDim         ;Element ;Table   ;
                                                  VariableName=ICPurDocDim;
                                                  SourceTable=Table442;
                                                  SourceTableView=WHERE(Field1=CONST(428),
                                                                        Field5=CONST(0));
                                                  LinkFields=Field2=FIELD(Field201),
                                                             Field3=FIELD(Field125),
                                                             Field4=FIELD(Field202);
                                                  LinkTable=ICOutBoxPurchHdr;
                                                  Temporary=Yes;
                                                  MinOccurs=Zero }

    { [{0530CD1C-5E10-408F-B88C-94E48FD010B1}];6 ;TableID             ;Attribute;Field  ;
                                                  DataType=Integer;
                                                  SourceField=ICPurDocDim::Table ID }

    { [{6F954259-3C52-46AD-A5F7-786A52484985}];6 ;TransNo             ;Attribute;Field  ;
                                                  DataType=Integer;
                                                  SourceField=ICPurDocDim::Transaction No. }

    { [{2B958738-38B9-4330-8004-6F2CF9D8B731}];6 ;ICPartnerCode       ;Attribute;Field  ;
                                                  DataType=Code;
                                                  SourceField=ICPurDocDim::IC Partner Code }

    { [{EF4607C9-CE40-499B-A905-EECEEA723EF4}];6 ;TransSource         ;Attribute;Field  ;
                                                  DataType=Option;
                                                  SourceField=ICPurDocDim::Transaction Source }

    { [{9F635D71-19A9-4055-A538-DF6CDF33BD7B}];6 ;LineNo              ;Attribute;Field  ;
                                                  DataType=Integer;
                                                  SourceField=ICPurDocDim::Line No. }

    { [{74FD99BC-DF11-4511-A5C0-CE796A2142AF}];6 ;DimCode             ;Attribute;Field  ;
                                                  DataType=Code;
                                                  SourceField=ICPurDocDim::Dimension Code }

    { [{972104E6-0DC9-40C0-84F6-CFAC307D44DE}];6 ;DimValCode          ;Attribute;Field  ;
                                                  DataType=Code;
                                                  SourceField=ICPurDocDim::Dimension Value Code }

    { [{D79A18D3-4AD0-42A9-B57C-A3273103B0D4}];4 ;ICOutBoxPurchLines  ;Element ;Text     }

    { [{9897B1C9-F86D-4335-8E55-DD4473687E20}];5 ;ICOutBoxPurchLine   ;Element ;Table   ;
                                                  VariableName=ICOutBoxPurchLine;
                                                  SourceTable=Table429;
                                                  LinkFields=Field3=FIELD(Field3),
                                                             Field126=FIELD(Field201),
                                                             Field125=FIELD(Field125),
                                                             Field127=FIELD(Field202);
                                                  LinkTable=ICOutBoxPurchHdr;
                                                  Temporary=Yes;
                                                  MinOccurs=Zero }

    { [{2734DB25-A92C-4B91-AFAE-3EE318E400CB}];6 ;DocType             ;Attribute;Field  ;
                                                  DataType=Option;
                                                  SourceField=ICOutBoxPurchLine::Document Type }

    { [{DD8C587A-3209-4C9F-BF09-B0B0F6AEB327}];6 ;DocNo               ;Attribute;Field  ;
                                                  DataType=Code;
                                                  SourceField=ICOutBoxPurchLine::Document No. }

    { [{152AF82C-84BE-41BD-B42A-B0FDDAA2F7E6}];6 ;LineNo              ;Attribute;Field  ;
                                                  DataType=Integer;
                                                  SourceField=ICOutBoxPurchLine::Line No. }

    { [{5F3F9C2A-739C-4EB0-B8FD-BE13DF919EE0}];6 ;Description         ;Attribute;Field  ;
                                                  DataType=Text;
                                                  SourceField=ICOutBoxPurchLine::Description }

    { [{355AAD3B-B333-4335-9E3F-5AFD775BFD9C}];6 ;Quantity            ;Attribute;Field  ;
                                                  DataType=Decimal;
                                                  SourceField=ICOutBoxPurchLine::Quantity }

    { [{DDD6BD7D-A9DE-4641-83DC-C36113FD92CC}];6 ;DirUnitCost         ;Attribute;Field  ;
                                                  DataType=Decimal;
                                                  SourceField=ICOutBoxPurchLine::Direct Unit Cost }

    { [{72DE3A1F-C521-4AC7-B597-C5448B407632}];6 ;LineDiscAmount      ;Attribute;Field  ;
                                                  DataType=Decimal;
                                                  SourceField=ICOutBoxPurchLine::Line Discount Amount }

    { [{49FC56BA-F575-4769-B664-88A175CE68C4}];6 ;AmountInclVAT       ;Attribute;Field  ;
                                                  DataType=Decimal;
                                                  SourceField=ICOutBoxPurchLine::Amount Including VAT }

    { [{864A66EF-952F-4C62-8F06-D73BCDF0D163}];6 ;JobNo               ;Attribute;Field  ;
                                                  DataType=Code;
                                                  SourceField=ICOutBoxPurchLine::Job No. }

    { [{45837098-E01F-4BA0-A293-6B7443E13E23}];6 ;IndCostPct          ;Attribute;Field  ;
                                                  DataType=Decimal;
                                                  SourceField=ICOutBoxPurchLine::Indirect Cost % }

    { [{4866CDBA-874B-44E7-B3E8-6BEC2AC6A64E}];6 ;DropShipment        ;Attribute;Field  ;
                                                  DataType=Boolean;
                                                  SourceField=ICOutBoxPurchLine::Drop Shipment }

    { [{3D2B2C45-063B-4C99-B589-57891D91E458}];6 ;CurrencyCode        ;Attribute;Field  ;
                                                  DataType=Code;
                                                  SourceField=ICOutBoxPurchLine::Currency Code }

    { [{5AB9783F-F34F-4165-82E7-173D259276ED}];6 ;VATBaseAmount       ;Attribute;Field  ;
                                                  DataType=Decimal;
                                                  SourceField=ICOutBoxPurchLine::VAT Base Amount }

    { [{78C1A082-032E-435C-8CB9-06231CCEFEF1}];6 ;UnitCost            ;Attribute;Field  ;
                                                  DataType=Decimal;
                                                  SourceField=ICOutBoxPurchLine::Unit Cost }

    { [{40BC7CDF-42CD-4553-B2DD-2BC90130E571}];6 ;LineAmount          ;Attribute;Field  ;
                                                  DataType=Decimal;
                                                  SourceField=ICOutBoxPurchLine::Line Amount }

    { [{67248F65-D4F6-4544-A682-D30B1E7E2098}];6 ;ICPartnerRefType    ;Attribute;Field  ;
                                                  DataType=Option;
                                                  SourceField=ICOutBoxPurchLine::IC Partner Ref. Type }

    { [{5A571F90-7246-4F76-87C8-920C150815B2}];6 ;ICPartnerRef        ;Attribute;Field  ;
                                                  DataType=Code;
                                                  SourceField=ICOutBoxPurchLine::IC Partner Reference }

    { [{BA86068D-603F-471E-AF46-7FE560D75F5B}];6 ;TransSource         ;Attribute;Field  ;
                                                  DataType=Option;
                                                  SourceField=ICOutBoxPurchLine::Transaction Source }

    { [{B305B73E-FE4D-47D5-89CE-43C3E0C0938C}];6 ;UnitOfMeasureCode   ;Attribute;Field  ;
                                                  DataType=Code;
                                                  SourceField=ICOutBoxPurchLine::Unit of Measure Code }

    { [{0749AAAC-E071-4E74-A5E2-720AE6078A26}];6 ;TransNo             ;Attribute;Field  ;
                                                  DataType=Integer;
                                                  SourceField=ICOutBoxPurchLine::IC Transaction No. }

    { [{B13147B5-98D2-4795-98EA-D98208AE0F27}];6 ;ReqRecDate          ;Attribute;Field  ;
                                                  DataType=Date;
                                                  SourceField=ICOutBoxPurchLine::Requested Receipt Date }

    { [{C2B14412-15D2-4933-8BAD-EBE73449532C}];6 ;PromRecDate         ;Attribute;Field  ;
                                                  DataType=Date;
                                                  SourceField=ICOutBoxPurchLine::Promised Receipt Date }

    { [{44457321-A418-4977-BD1B-3324ED0BFD03}];6 ;PurLineDimensions   ;Element ;Text     }

    { [{113EEB80-4B8D-4CC7-AC91-C0A1594D47CB}];7 ;ICPurDocLineDim     ;Element ;Table   ;
                                                  VariableName=ICPurDocLineDim;
                                                  SourceTable=Table442;
                                                  SourceTableView=WHERE(Field1=CONST(429));
                                                  LinkFields=Field2=FIELD(Field126),
                                                             Field3=FIELD(Field125),
                                                             Field4=FIELD(Field127),
                                                             Field5=FIELD(Field4);
                                                  LinkTable=ICOutBoxPurchLine;
                                                  Temporary=Yes;
                                                  MinOccurs=Zero }

    { [{FC6A0137-53B1-4A26-8953-70E8A9117A34}];8 ;TableID             ;Attribute;Field  ;
                                                  DataType=Integer;
                                                  SourceField=ICPurDocLineDim::Table ID }

    { [{ACC634A6-D6A9-47D5-BC0F-7C0E5A6882FE}];8 ;TransNo             ;Attribute;Field  ;
                                                  DataType=Integer;
                                                  SourceField=ICPurDocLineDim::Transaction No. }

    { [{D98B0BBA-D8C0-4385-AE0D-981C3F8F2490}];8 ;ICPartnerCode       ;Attribute;Field  ;
                                                  DataType=Code;
                                                  SourceField=ICPurDocLineDim::IC Partner Code }

    { [{D3F2756B-CAD4-4300-9252-A2A9FE6422BB}];8 ;TransSource         ;Attribute;Field  ;
                                                  DataType=Option;
                                                  SourceField=ICPurDocLineDim::Transaction Source }

    { [{CCF0A75D-9A62-4A48-B8EC-56BC0F828B38}];8 ;LineNo              ;Attribute;Field  ;
                                                  DataType=Integer;
                                                  SourceField=ICPurDocLineDim::Line No. }

    { [{72809ACD-99B8-48D1-8A02-A62E03719D9D}];8 ;DimCode             ;Attribute;Field  ;
                                                  DataType=Code;
                                                  SourceField=ICPurDocLineDim::Dimension Code }

    { [{7D9E5B6A-5D24-4BA7-941A-3B5740523A73}];8 ;DimValCode          ;Attribute;Field  ;
                                                  DataType=Code;
                                                  SourceField=ICPurDocLineDim::Dimension Value Code }

  }
  EVENTS
  {
  }
  REQUESTPAGE
  {
    PROPERTIES
    {
    }
    CONTROLS
    {
    }
  }
  CODE
  {
    VAR
      CompanyInfo@1000 : Record 79;
      ToICPartnerCode2@1001 : Code[20];

    PROCEDURE SetICOutboxTrans@1(VAR NewICOutboxTrans@1000 : Record 414);
    VAR
      NewICOutBoxJnlLine@1001 : Record 415;
      NewICIOBoxJnlDim@1002 : Record 423;
      NewICOutBoxSalesHdr@1003 : Record 426;
      NewICOutBoxSalesLine@1004 : Record 427;
      NewICOutBoxPurchHdr@1005 : Record 428;
      NewICOutBoxPurchLine@1006 : Record 429;
      NewICDocDim@1007 : Record 442;
    BEGIN
      ICOutboxTrans.DELETEALL;
      ICOutBoxJnlLine.DELETEALL;
      ICIOBoxJnlDim.DELETEALL;
      ICOutBoxSalesHdr.DELETEALL;
      ICOutBoxSalesLine.DELETEALL;
      ICOutBoxPurchHdr.DELETEALL;
      ICOutBoxPurchLine.DELETEALL;
      ICSalesDocDim.DELETEALL;
      ICSalesDocLineDim.DELETEALL;
      ICPurDocDim.DELETEALL;
      ICPurDocLineDim.DELETEALL;

      IF NewICOutboxTrans.FIND('-') THEN
        REPEAT
          ICOutboxTrans := NewICOutboxTrans;
          ICOutboxTrans.INSERT;

          NewICOutBoxJnlLine.SETRANGE("Transaction No.",NewICOutboxTrans."Transaction No.");
          NewICOutBoxJnlLine.SETRANGE("IC Partner Code",NewICOutboxTrans."IC Partner Code");
          NewICOutBoxJnlLine.SETRANGE("Transaction Source",NewICOutboxTrans."Transaction Source");
          IF NewICOutBoxJnlLine.FIND('-') THEN
            REPEAT
              ICOutBoxJnlLine := NewICOutBoxJnlLine;
              ICOutBoxJnlLine.INSERT;
            UNTIL NewICOutBoxJnlLine.NEXT = 0;

          NewICIOBoxJnlDim.SETRANGE("Table ID",DATABASE::"IC Outbox Jnl. Line");
          NewICIOBoxJnlDim.SETRANGE("Transaction No.",NewICOutboxTrans."Transaction No.");
          NewICIOBoxJnlDim.SETRANGE("IC Partner Code",NewICOutboxTrans."IC Partner Code");
          NewICIOBoxJnlDim.SETRANGE("Transaction Source",NewICOutboxTrans."Transaction Source");
          IF NewICIOBoxJnlDim.FIND('-') THEN
            REPEAT
              ICIOBoxJnlDim := NewICIOBoxJnlDim;
              ICIOBoxJnlDim.INSERT;
            UNTIL NewICIOBoxJnlDim.NEXT = 0;

          NewICOutBoxSalesHdr.SETRANGE("IC Transaction No.",NewICOutboxTrans."Transaction No.");
          NewICOutBoxSalesHdr.SETRANGE("IC Partner Code",NewICOutboxTrans."IC Partner Code");
          NewICOutBoxSalesHdr.SETRANGE("Transaction Source",NewICOutboxTrans."Transaction Source");
          IF NewICOutBoxSalesHdr.FIND('-') THEN
            REPEAT
              ICOutBoxSalesHdr := NewICOutBoxSalesHdr;
              ICOutBoxSalesHdr.INSERT;
            UNTIL NewICOutBoxSalesHdr.NEXT = 0;

          NewICOutBoxSalesLine.SETRANGE("IC Transaction No.",NewICOutboxTrans."Transaction No.");
          NewICOutBoxSalesLine.SETRANGE("IC Partner Code",NewICOutboxTrans."IC Partner Code");
          NewICOutBoxSalesLine.SETRANGE("Transaction Source",NewICOutboxTrans."Transaction Source");
          IF NewICOutBoxSalesLine.FIND('-') THEN
            REPEAT
              ICOutBoxSalesLine := NewICOutBoxSalesLine;
              ICOutBoxSalesLine.INSERT;
            UNTIL NewICOutBoxSalesLine.NEXT = 0;

          NewICOutBoxPurchHdr.SETRANGE("IC Transaction No.",NewICOutboxTrans."Transaction No.");
          NewICOutBoxPurchHdr.SETRANGE("IC Partner Code",NewICOutboxTrans."IC Partner Code");
          NewICOutBoxPurchHdr.SETRANGE("Transaction Source",NewICOutboxTrans."Transaction Source");
          IF NewICOutBoxPurchHdr.FIND('-') THEN
            REPEAT
              ICOutBoxPurchHdr := NewICOutBoxPurchHdr;
              ICOutBoxPurchHdr.INSERT;
            UNTIL NewICOutBoxPurchHdr.NEXT = 0;

          NewICOutBoxPurchLine.SETRANGE("IC Transaction No.",NewICOutboxTrans."Transaction No.");
          NewICOutBoxPurchLine.SETRANGE("IC Partner Code",NewICOutboxTrans."IC Partner Code");
          NewICOutBoxPurchLine.SETRANGE("Transaction Source",NewICOutboxTrans."Transaction Source");
          IF NewICOutBoxPurchLine.FIND('-') THEN
            REPEAT
              ICOutBoxPurchLine := NewICOutBoxPurchLine;
              ICOutBoxPurchLine.INSERT;
            UNTIL NewICOutBoxPurchLine.NEXT = 0;

          NewICDocDim.SETRANGE("Transaction No.",NewICOutboxTrans."Transaction No.");
          NewICDocDim.SETRANGE("IC Partner Code",NewICOutboxTrans."IC Partner Code");
          NewICDocDim.SETRANGE("Transaction Source",NewICOutboxTrans."Transaction Source");

          NewICDocDim.SETRANGE("Table ID",DATABASE::"IC Outbox Sales Header");
          NewICDocDim.SETRANGE("Line No.",0);
          SetICDocDim(NewICDocDim,ICSalesDocDim);

          NewICDocDim.SETRANGE("Table ID",DATABASE::"IC Outbox Sales Line");
          NewICDocDim.SETRANGE("Line No.");
          SetICDocDim(NewICDocDim,ICSalesDocLineDim);

          NewICDocDim.SETRANGE("Table ID",DATABASE::"IC Outbox Purchase Header");
          NewICDocDim.SETRANGE("Line No.",0);
          SetICDocDim(NewICDocDim,ICPurDocDim);

          NewICDocDim.SETRANGE("Table ID",DATABASE::"IC Outbox Purchase Line");
          NewICDocDim.SETRANGE("Line No.");
          SetICDocDim(NewICDocDim,ICPurDocLineDim);
        UNTIL NewICOutboxTrans.NEXT = 0;
    END;

    LOCAL PROCEDURE SetICDocDim@11(VAR NewICDocDim@1000 : Record 442;VAR DestDocDim@1001 : Record 442);
    BEGIN
      IF NewICDocDim.FIND('-') THEN
        REPEAT
          DestDocDim := NewICDocDim;
          DestDocDim.INSERT;
        UNTIL NewICDocDim.NEXT = 0;
    END;

    PROCEDURE GetICOutboxTrans@42(VAR NewICOutboxTrans@1000 : Record 414);
    BEGIN
      ICOutboxTrans.RESET;
      IF ICOutboxTrans.FIND('-') THEN
        REPEAT
          NewICOutboxTrans := ICOutboxTrans;
          NewICOutboxTrans.INSERT;
        UNTIL ICOutboxTrans.NEXT = 0;
    END;

    PROCEDURE GetICOutBoxJnlLine@41(VAR NewICOutBoxJnlLine@1000 : Record 415);
    BEGIN
      ICOutBoxJnlLine.RESET;
      IF ICOutBoxJnlLine.FIND('-') THEN
        REPEAT
          NewICOutBoxJnlLine := ICOutBoxJnlLine;
          NewICOutBoxJnlLine.INSERT;
        UNTIL ICOutBoxJnlLine.NEXT = 0;
    END;

    PROCEDURE GetICIOBoxJnlDim@40(VAR NewICIOBoxJnlDim@1000 : Record 423);
    BEGIN
      ICIOBoxJnlDim.RESET;
      IF ICIOBoxJnlDim.FIND('-') THEN
        REPEAT
          NewICIOBoxJnlDim := ICIOBoxJnlDim;
          NewICIOBoxJnlDim.INSERT;
        UNTIL ICIOBoxJnlDim.NEXT = 0;
    END;

    PROCEDURE GetICOutBoxSalesHdr@39(VAR NewICOutBoxSalesHdr@1000 : Record 426);
    BEGIN
      ICOutBoxSalesHdr.RESET;
      IF ICOutBoxSalesHdr.FIND('-') THEN
        REPEAT
          NewICOutBoxSalesHdr := ICOutBoxSalesHdr;
          NewICOutBoxSalesHdr.INSERT;
        UNTIL ICOutBoxSalesHdr.NEXT = 0;
    END;

    PROCEDURE GetICOutBoxSalesLine@38(VAR NewICOutBoxSalesLine@1000 : Record 427);
    BEGIN
      ICOutBoxSalesLine.RESET;
      IF ICOutBoxSalesLine.FIND('-') THEN
        REPEAT
          NewICOutBoxSalesLine := ICOutBoxSalesLine;
          NewICOutBoxSalesLine.INSERT;
        UNTIL ICOutBoxSalesLine.NEXT = 0;
    END;

    PROCEDURE GetICOutBoxPurchHdr@37(VAR NewICOutBoxPurchHdr@1000 : Record 428);
    BEGIN
      ICOutBoxPurchHdr.RESET;
      IF ICOutBoxPurchHdr.FIND('-') THEN
        REPEAT
          NewICOutBoxPurchHdr := ICOutBoxPurchHdr;
          NewICOutBoxPurchHdr.INSERT;
        UNTIL ICOutBoxPurchHdr.NEXT = 0;
    END;

    PROCEDURE GetICOutBoxPurchLine@36(VAR NewICOutBoxPurchLine@1000 : Record 429);
    BEGIN
      ICOutBoxPurchLine.RESET;
      IF ICOutBoxPurchLine.FIND('-') THEN
        REPEAT
          NewICOutBoxPurchLine := ICOutBoxPurchLine;
          NewICOutBoxPurchLine.INSERT;
        UNTIL ICOutBoxPurchLine.NEXT = 0;
    END;

    PROCEDURE GetICSalesDocDim@35(VAR NewICDocDim@1000 : Record 442);
    BEGIN
      ICSalesDocDim.RESET;
      SetICDocDim(ICSalesDocDim,NewICDocDim);
    END;

    PROCEDURE GetICSalesDocLineDim@34(VAR NewICDocDim@1000 : Record 442);
    BEGIN
      ICSalesDocLineDim.RESET;
      SetICDocDim(ICSalesDocLineDim,NewICDocDim);
    END;

    PROCEDURE GetICPurchDocDim@33(VAR NewICDocDim@1000 : Record 442);
    BEGIN
      ICPurDocDim.RESET;
      SetICDocDim(ICPurDocDim,NewICDocDim);
    END;

    PROCEDURE GetICPurchDocLineDim@32(VAR NewICDocDim@1000 : Record 442);
    BEGIN
      ICPurDocLineDim.RESET;
      SetICDocDim(ICPurDocLineDim,NewICDocDim);
    END;

    PROCEDURE GetFromICPartnerCode@2() : Code[20];
    BEGIN
      EXIT(FromICPartnerCode);
    END;

    PROCEDURE GetToICPartnerCode@3() : Code[20];
    BEGIN
      EXIT(ToICPartnerCode2);
    END;

    BEGIN
    END.
  }
}

