OBJECT XMLport 52112953 MANAD
{
  OBJECT-PROPERTIES
  {
    Date=30/04/13;
    Time=13:18:36;
    Version List=NAVBR7;
  }
  PROPERTIES
  {
  }
  ELEMENTS
  {
    { [{0D02BBD9-773B-41D8-9B80-8AF81229C63B}];  ;asd                 ;Element ;Text     }

  }
  EVENTS
  {
  }
  REQUESTPAGE
  {
    PROPERTIES
    {
    }
    CONTROLS
    {
    }
  }
  CODE
  {

    BEGIN
    END.
  }
}

