OBJECT XMLport 5151 Integration Records
{
  OBJECT-PROPERTIES
  {
    Date=07/09/12;
    Time=12:00:00;
    Version List=NAVW17.00;
  }
  PROPERTIES
  {
    CaptionML=ENU=Integration Records;
    Format/Evaluate=XML Format/Evaluate;
    DefaultNamespace=urn:microsoft-dynamics-nav/xmlports/IntegrationItems;
    UseDefaultNamespace=Yes;
  }
  ELEMENTS
  {
    { [{D30F562F-C6E2-49AE-A105-7E8BA31F98FB}];  ;IntegrationRecords  ;Element ;Text     }

    { [{F4F27845-321A-4885-8BEF-61AB075D23ED}];1 ;IntegrationRecord   ;Element ;Table   ;
                                                  VariableName=<Integration Record>;
                                                  SourceTable=Table5151;
                                                  MinOccurs=Zero;
                                                  Export::OnAfterGetRecord=BEGIN
                                                                             RecID := FORMAT("<Integration Record>"."Record ID");
                                                                             RecordCount := RecordCount + 1;
                                                                             IF (MaxRecords > 0) AND (RecordCount > MaxRecords) THEN
                                                                               currXMLport.QUIT;
                                                                           END;
                                                                            }

    { [{7188A796-65F7-4DE1-80E4-D886B9C41330}];2 ;TableID             ;Element ;Field   ;
                                                  DataType=Integer;
                                                  SourceField=<Integration Record>::Table ID }

    { [{32F1178D-7F62-45ED-BA94-B30DA1431C68}];2 ;PageID              ;Element ;Field   ;
                                                  DataType=Integer;
                                                  SourceField=<Integration Record>::Page ID }

    { [{4419CB4F-0673-423F-BF83-A9B7E7E49275}];2 ;IntegrationID       ;Element ;Field   ;
                                                  DataType=GUID;
                                                  SourceField=<Integration Record>::Integration ID }

    { [{9ADFD35B-1EA2-4D3D-89C4-786F5FC6F60E}];2 ;RecordID            ;Element ;Text    ;
                                                  VariableName=RecID;
                                                  MaxOccurs=Once }

    { [{060BDD5E-C677-4FCF-A362-564ADC9E6831}];2 ;ModifiedOn          ;Element ;Field   ;
                                                  DataType=DateTime;
                                                  SourceField=<Integration Record>::Modified On }

  }
  EVENTS
  {
  }
  REQUESTPAGE
  {
    PROPERTIES
    {
    }
    CONTROLS
    {
    }
  }
  CODE
  {
    VAR
      MaxRecords@1000 : Integer;
      RecordCount@1001 : Integer;

    PROCEDURE SetMaxRecords@1(Max@1000 : Integer);
    BEGIN
      MaxRecords := Max;
    END;

    BEGIN
    END.
  }
}

