OBJECT XMLport 5150 Integration Pages
{
  OBJECT-PROPERTIES
  {
    Date=07/09/12;
    Time=12:00:00;
    Version List=NAVW17.00;
  }
  PROPERTIES
  {
    CaptionML=ENU=Integration Pages;
    Format/Evaluate=XML Format/Evaluate;
    DefaultNamespace=urn:microsoft-dynamics-nav/xmlports/IntegrationPages;
    UseDefaultNamespace=Yes;
  }
  ELEMENTS
  {
    { [{03B8BF7C-1F05-47B6-B16A-136892677655}];  ;IntegrationPages    ;Element ;Text     }

    { [{2B2F0171-6A28-474A-B236-8247C2D914AA}];1 ;IntegrationPage     ;Element ;Table   ;
                                                  VariableName=<Integration Page>;
                                                  SourceTable=Table5150 }

    { [{ECC2B625-693E-429D-9D53-535E659ADD6C}];2 ;ServiceName         ;Element ;Field   ;
                                                  DataType=Text;
                                                  SourceField=<Integration Page>::Service Name }

    { [{D6F52A9A-8DC6-44E7-AAC8-E88585AFD80E}];2 ;PageID              ;Element ;Field   ;
                                                  DataType=Integer;
                                                  SourceField=<Integration Page>::Page ID }

    { [{2BE3155F-611B-4287-96E1-9DBA0B2FF32C}];2 ;SourceTableID       ;Element ;Field   ;
                                                  DataType=Integer;
                                                  SourceField=<Integration Page>::Source Table ID }

  }
  EVENTS
  {
  }
  REQUESTPAGE
  {
    PROPERTIES
    {
    }
    CONTROLS
    {
    }
  }
  CODE
  {

    BEGIN
    END.
  }
}

